<<< STPL Monitoring Tool >>>
DEBUG_MODE is activated.
VERBOSE_MODE is activated.
SHOW_EXE_STAT is activated.
SANITY_CHECK is activated.
BOOLEAN_ROB is activated.
OPTIMIZE_TRJ_BASED_ON_FORMULA is activated.
STPL_SIGNAL_DIM_SIZE = 11
MAX_STPL_FORMULA_SIZE = 1000
MAX_MAP_DATA_SIZE = 100
UX_START = 0
UY_START = 0
U_WIDTH = 1600
U_HEIGHT = 1200
Input Signal File Name: kitti.txt
Printing input signal:
0.000	0.000	1.000	1.000	0.880	58.000	151.000	220.000	287.000	139.000	219.000	
0.000	0.000	2.000	2.000	0.750	479.000	124.000	690.000	382.000	584.000	253.000	
0.000	0.000	3.000	3.000	0.630	522.000	130.000	632.000	377.000	577.000	253.000	
0.000	0.000	4.000	3.000	0.640	861.000	133.000	954.000	329.000	907.000	231.000	
1.000	0.040	1.000	1.000	0.880	61.000	152.000	217.000	283.000	139.000	217.000	
1.000	0.040	2.000	2.000	0.570	493.000	111.000	699.000	383.000	596.000	247.000	
1.000	0.040	3.000	3.000	0.640	877.000	136.000	972.000	330.000	924.000	233.000	
2.000	0.080	1.000	1.000	0.890	58.000	143.000	220.000	271.000	139.000	207.000	
2.000	0.080	2.000	3.000	0.650	511.000	107.000	724.000	367.000	617.000	237.000	
2.000	0.080	3.000	3.000	0.640	911.000	115.000	1001.000	340.000	956.000	227.000	
3.000	0.120	1.000	1.000	0.920	56.000	139.000	216.000	266.000	136.000	202.000	
3.000	0.120	2.000	2.000	0.590	493.000	111.000	705.000	380.000	599.000	245.000	
3.000	0.120	3.000	3.000	0.720	541.000	125.000	649.000	351.000	595.000	238.000	
3.000	0.120	4.000	1.000	0.580	926.000	107.000	1004.000	302.000	965.000	204.000	
3.000	0.120	5.000	3.000	0.760	938.000	118.000	998.000	332.000	968.000	225.000	
4.000	0.160	1.000	1.000	0.910	53.000	139.000	217.000	265.000	135.000	202.000	
4.000	0.160	2.000	3.000	0.800	551.000	126.000	658.000	356.000	604.000	241.000	
5.000	0.200	1.000	1.000	0.920	52.000	140.000	216.000	264.000	134.000	202.000	
5.000	0.200	2.000	2.000	0.620	506.000	104.000	695.000	368.000	600.000	236.000	
5.000	0.200	3.000	3.000	0.680	552.000	115.000	669.000	362.000	610.000	238.000	
str: eq_class, expr: C(Var_id_1) == C(Var_id_2)
str: apear_now, expr: LFEB(Var_id_1) > 1

Predicate expression:
eq_class ::= C(Var_id_1)==C(Var_id_2)
number of unique variables: 2

Predicate expression:
apear_now ::= LFEB(Var_id_1)>1
number of unique variables: 1

Added predicate expression:
1-ID-SYM ::= SUB(Var_id_1,Var_id_2)==0
number of unique variables: 2

[](0,1) @(1,2) OR(1,3) NOT(1,4) apear_now(1,5) X(1,6) @(1,7) AND(1,8) 1-ID-SYM(1,9) eq_class(1,10) 

[Note] OPTIMIZE_TRJ_BASED_ON_FORMULA is active.
Augmented STPL formua:
t:[0.000,0.200]_f:[0,5]_[](0,1) @(1,2) OR(1,3) NOT(1,4) apear_now(1,5) t:[0.000,0.200]_f:[0,5]_X(1,6) @(1,7) AND(1,8) 1-ID-SYM(1,9) eq_class(1,10) 
Monitoring process started...
>> Running Time: 0.001000 seconds

*** Robustness: False
*** Most Related Iteration: 4
*** Most Related Freeze Iteration: 3
*** Most Related Freeze Operator Index: 2

Freeze-time variable table with negative robust values:
1:	 time-variable[Var_x]	 at ts[0]	 with Robustness -inf
2:	 time-variable[Var_x]	 at ts[3]	 with Robustness -inf
Exiting monitoring algorithm.
