<<< STPL Monitoring Tool >>>
DEBUG_MODE is activated.
VERBOSE_MODE is activated.
SHOW_EXE_STAT is activated.
SANITY_CHECK is activated.
BOOLEAN_ROB is activated.
OPTIMIZE_TRJ_BASED_ON_FORMULA is activated.
STPL_SIGNAL_DIM_SIZE = 11
MAX_STPL_FORMULA_SIZE = 1000
MAX_MAP_DATA_SIZE = 100
UX_START = 0
UY_START = 0
U_WIDTH = 1600
U_HEIGHT = 1200
Input Signal File Name: spatial-input-test-su.txt
Printing input signal:
0.000	0.000	1.000	1.000	1.000	119.000	78.000	212.000	142.000	165.000	110.000	
0.000	0.000	2.000	1.000	1.000	250.000	60.000	392.000	130.000	321.000	95.000	
1.000	1.000	1.000	1.000	1.000	121.000	78.000	214.000	142.000	167.000	110.000	
1.000	1.000	2.000	1.000	1.000	20.000	107.000	143.000	212.000	81.000	159.000	
2.000	2.000	1.000	1.000	1.000	278.000	145.000	374.000	209.000	326.000	177.000	
2.000	2.000	2.000	1.000	1.000	184.000	60.000	344.000	199.000	264.000	129.000	
str: spatio_u, expr: SEXISTS({BB(Var_id_1) U BB(Var_id_2)}) > 0

Predicate expression:
SEXISTS(SPATIO-FORMULA-0)>0
number of unique variables: 2

Predicate expression:
spatio_u ::= SEXISTS(SPATIO-FORMULA-0)>0
number of unique variables: 2
tl_factor: EXISTS

Added predicate expression:
1-ID-SYM ::= SUB(Var_id_2,Var_id_1)==1
number of unique variables: 2

@(0,1) AND(0,2) spatio_u(0,3) 1-ID-SYM(0,4) 
SPATIO-FORMULA-0:={U(0,1) BB(0,2) BB(0,3) } 

[Note] OPTIMIZE_TRJ_BASED_ON_FORMULA is active.
[Note] Number of frames reduced from 3 to 1 for temporal formula:
@(0,1) AND(0,2) spatio_u(0,3) 1-ID-SYM(0,4) 

@(0,1) |Var_id|=2
id_0 id_1 
spatio_u(0,3) |Var_id|=2
1-ID-SYM(0,4) |Var_id|=2
Monitoring process started...
Atomic Symbol: 1-ID-SYM
Predicate expression: SUB(Var_id_2,Var_id_1)==1
num_vars: left= 2 , right= 0, num_unique_var= 2


SUB(Var_id_2,Var_id_1)==1
Var_id_2 --> rank = 1 group = 0
Var_id_1 --> rank = 0 group = 0
SUB: 1 - 1
SUB: 2 - 1
SUB: 1 - 2
SUB: 2 - 2

iteration = 	0
OP: 1-ID-SYM(0,4) 	<min> = -inf, <max> = inf
ft_idx = 0, et_idx = 0 ,	 ft = 0.000, et = 0.000
ID variables: {Var_id_1, Var_id_2}
ID(0)		[1	1] = 	-inf
ID(1)		[1	2] = 	inf
ID(2)		[2	1] = 	-inf
ID(3)		[2	2] = 	-inf
MonitorTable[4][0].ds = 0.000000
Atomic Symbol: spatio_u
Predicate expression: SEXISTS(SPATIO-FORMULA-0)>0
num_vars: left= 0 , right= 0, num_unique_var= 2


SEXISTS(SPATIO-FORMULA-0)>0
Atomic Spatial Function Symbol: BB(Var_id_2)
ID = [1 1 ], BB(Var_id_2=1)

spatio-iteration = 	0	ft_idx = 0, et_idx = 2 

Spatial OP: s_BB(0,3) 
Bounding Boxes: {
	BB={x = [278.000	374.000]	,	y = [145.000	209.000]}
}
Atomic Spatial Function Symbol: BB(Var_id_1)
ID = [1 1 ], BB(Var_id_1=1)

spatio-iteration = 	0	ft_idx = 0, et_idx = 2 

Spatial OP: s_BB(0,2) 
Bounding Boxes: {
	BB={x = [278.000	374.000]	,	y = [145.000	209.000]}
}

spatio-iteration = 	0	ft_idx = 0, et_idx = 2 

Spatial OP: s_U(0,1) 
Bounding Boxes: {
	BB={x = [278.000	374.000]	,	y = [145.000	209.000]}
}
Atomic Spatial Function Symbol: BB(Var_id_2)
ID = [1 1 ], BB(Var_id_2=1)

spatio-iteration = 	0	ft_idx = 0, et_idx = 1 

Spatial OP: s_BB(0,3) 
Bounding Boxes: {
	BB={x = [121.000	214.000]	,	y = [78.000	142.000]}
}
Atomic Spatial Function Symbol: BB(Var_id_1)
ID = [1 1 ], BB(Var_id_1=1)

spatio-iteration = 	0	ft_idx = 0, et_idx = 1 

Spatial OP: s_BB(0,2) 
Bounding Boxes: {
	BB={x = [121.000	214.000]	,	y = [78.000	142.000]}
}

spatio-iteration = 	0	ft_idx = 0, et_idx = 1 

Spatial OP: s_U(0,1) 
Bounding Boxes: {
	BB={x = [121.000	214.000]	,	y = [78.000	142.000]}
}
Atomic Spatial Function Symbol: BB(Var_id_2)
ID = [1 1 ], BB(Var_id_2=1)

spatio-iteration = 	0	ft_idx = 0, et_idx = 0 

Spatial OP: s_BB(0,3) 
Bounding Boxes: {
	BB={x = [119.000	212.000]	,	y = [78.000	142.000]}
}
Atomic Spatial Function Symbol: BB(Var_id_1)
ID = [1 1 ], BB(Var_id_1=1)

spatio-iteration = 	0	ft_idx = 0, et_idx = 0 

Spatial OP: s_BB(0,2) 
Bounding Boxes: {
	BB={x = [119.000	212.000]	,	y = [78.000	142.000]}
}

spatio-iteration = 	0	ft_idx = 0, et_idx = 0 

Spatial OP: s_U(0,1) 
Bounding Boxes: {
	BB={x = [119.000	212.000]	,	y = [78.000	142.000]}
}
Atomic Spatial Function Symbol: BB(Var_id_2)
ID = [1 2 ], BB(Var_id_2=2)

spatio-iteration = 	0	ft_idx = 0, et_idx = 2 

Spatial OP: s_BB(0,3) 
Bounding Boxes: {
	BB={x = [184.000	344.000]	,	y = [60.000	199.000]}
}
Atomic Spatial Function Symbol: BB(Var_id_1)
ID = [1 2 ], BB(Var_id_1=1)

spatio-iteration = 	0	ft_idx = 0, et_idx = 2 

Spatial OP: s_BB(0,2) 
Bounding Boxes: {
	BB={x = [278.000	374.000]	,	y = [145.000	209.000]}
}

spatio-iteration = 	0	ft_idx = 0, et_idx = 2 

Spatial OP: s_U(0,1) 
Bounding Boxes: {
	BB={x = [184.000	344.000]	,	y = [60.000	199.000]}
}
Atomic Spatial Function Symbol: BB(Var_id_2)
ID = [1 2 ], BB(Var_id_2=2)

spatio-iteration = 	0	ft_idx = 0, et_idx = 1 

Spatial OP: s_BB(0,3) 
Bounding Boxes: {
	BB={x = [20.000	143.000]	,	y = [107.000	212.000]}
}
Atomic Spatial Function Symbol: BB(Var_id_1)
ID = [1 2 ], BB(Var_id_1=1)

spatio-iteration = 	0	ft_idx = 0, et_idx = 1 

Spatial OP: s_BB(0,2) 
Bounding Boxes: {
	BB={x = [121.000	214.000]	,	y = [78.000	142.000]}
}

spatio-iteration = 	0	ft_idx = 0, et_idx = 1 

Spatial OP: s_U(0,1) 
Bounding Boxes: {
	BB={x = [20.000	143.000]	,	y = [107.000	212.000]}
	BB={x = [184.000	214.000]	,	y = [78.000	142.000]}
}
Atomic Spatial Function Symbol: BB(Var_id_2)
ID = [1 2 ], BB(Var_id_2=2)

spatio-iteration = 	0	ft_idx = 0, et_idx = 0 

Spatial OP: s_BB(0,3) 
Bounding Boxes: {
	BB={x = [250.000	392.000]	,	y = [60.000	130.000]}
}
Atomic Spatial Function Symbol: BB(Var_id_1)
ID = [1 2 ], BB(Var_id_1=1)

spatio-iteration = 	0	ft_idx = 0, et_idx = 0 

Spatial OP: s_BB(0,2) 
Bounding Boxes: {
	BB={x = [119.000	212.000]	,	y = [78.000	142.000]}
}

spatio-iteration = 	0	ft_idx = 0, et_idx = 0 

Spatial OP: s_U(0,1) 
Bounding Boxes: {
	BB={x = [250.000	392.000]	,	y = [60.000	130.000]}
	BB={x = [119.000	143.000]	,	y = [107.000	142.000]}
	BB={x = [184.000	212.000]	,	y = [78.000	142.000]}
}
Atomic Spatial Function Symbol: BB(Var_id_2)
ID = [2 1 ], BB(Var_id_2=1)

spatio-iteration = 	0	ft_idx = 0, et_idx = 2 

Spatial OP: s_BB(0,3) 
Bounding Boxes: {
	BB={x = [278.000	374.000]	,	y = [145.000	209.000]}
}
Atomic Spatial Function Symbol: BB(Var_id_1)
ID = [2 1 ], BB(Var_id_1=2)

spatio-iteration = 	0	ft_idx = 0, et_idx = 2 

Spatial OP: s_BB(0,2) 
Bounding Boxes: {
	BB={x = [184.000	344.000]	,	y = [60.000	199.000]}
}

spatio-iteration = 	0	ft_idx = 0, et_idx = 2 

Spatial OP: s_U(0,1) 
Bounding Boxes: {
	BB={x = [278.000	374.000]	,	y = [145.000	209.000]}
}
Atomic Spatial Function Symbol: BB(Var_id_2)
ID = [2 1 ], BB(Var_id_2=1)

spatio-iteration = 	0	ft_idx = 0, et_idx = 1 

Spatial OP: s_BB(0,3) 
Bounding Boxes: {
	BB={x = [121.000	214.000]	,	y = [78.000	142.000]}
}
Atomic Spatial Function Symbol: BB(Var_id_1)
ID = [2 1 ], BB(Var_id_1=2)

spatio-iteration = 	0	ft_idx = 0, et_idx = 1 

Spatial OP: s_BB(0,2) 
Bounding Boxes: {
	BB={x = [20.000	143.000]	,	y = [107.000	212.000]}
}

spatio-iteration = 	0	ft_idx = 0, et_idx = 1 

Spatial OP: s_U(0,1) 
Bounding Boxes: {
	BB={x = [121.000	214.000]	,	y = [78.000	142.000]}
}
Atomic Spatial Function Symbol: BB(Var_id_2)
ID = [2 1 ], BB(Var_id_2=1)

spatio-iteration = 	0	ft_idx = 0, et_idx = 0 

Spatial OP: s_BB(0,3) 
Bounding Boxes: {
	BB={x = [119.000	212.000]	,	y = [78.000	142.000]}
}
Atomic Spatial Function Symbol: BB(Var_id_1)
ID = [2 1 ], BB(Var_id_1=2)

spatio-iteration = 	0	ft_idx = 0, et_idx = 0 

Spatial OP: s_BB(0,2) 
Bounding Boxes: {
	BB={x = [250.000	392.000]	,	y = [60.000	130.000]}
}

spatio-iteration = 	0	ft_idx = 0, et_idx = 0 

Spatial OP: s_U(0,1) 
Bounding Boxes: {
	BB={x = [119.000	212.000]	,	y = [78.000	142.000]}
}
Atomic Spatial Function Symbol: BB(Var_id_2)
ID = [2 2 ], BB(Var_id_2=2)

spatio-iteration = 	0	ft_idx = 0, et_idx = 2 

Spatial OP: s_BB(0,3) 
Bounding Boxes: {
	BB={x = [184.000	344.000]	,	y = [60.000	199.000]}
}
Atomic Spatial Function Symbol: BB(Var_id_1)
ID = [2 2 ], BB(Var_id_1=2)

spatio-iteration = 	0	ft_idx = 0, et_idx = 2 

Spatial OP: s_BB(0,2) 
Bounding Boxes: {
	BB={x = [184.000	344.000]	,	y = [60.000	199.000]}
}

spatio-iteration = 	0	ft_idx = 0, et_idx = 2 

Spatial OP: s_U(0,1) 
Bounding Boxes: {
	BB={x = [184.000	344.000]	,	y = [60.000	199.000]}
}
Atomic Spatial Function Symbol: BB(Var_id_2)
ID = [2 2 ], BB(Var_id_2=2)

spatio-iteration = 	0	ft_idx = 0, et_idx = 1 

Spatial OP: s_BB(0,3) 
Bounding Boxes: {
	BB={x = [20.000	143.000]	,	y = [107.000	212.000]}
}
Atomic Spatial Function Symbol: BB(Var_id_1)
ID = [2 2 ], BB(Var_id_1=2)

spatio-iteration = 	0	ft_idx = 0, et_idx = 1 

Spatial OP: s_BB(0,2) 
Bounding Boxes: {
	BB={x = [20.000	143.000]	,	y = [107.000	212.000]}
}

spatio-iteration = 	0	ft_idx = 0, et_idx = 1 

Spatial OP: s_U(0,1) 
Bounding Boxes: {
	BB={x = [20.000	143.000]	,	y = [107.000	212.000]}
}
Atomic Spatial Function Symbol: BB(Var_id_2)
ID = [2 2 ], BB(Var_id_2=2)

spatio-iteration = 	0	ft_idx = 0, et_idx = 0 

Spatial OP: s_BB(0,3) 
Bounding Boxes: {
	BB={x = [250.000	392.000]	,	y = [60.000	130.000]}
}
Atomic Spatial Function Symbol: BB(Var_id_1)
ID = [2 2 ], BB(Var_id_1=2)

spatio-iteration = 	0	ft_idx = 0, et_idx = 0 

Spatial OP: s_BB(0,2) 
Bounding Boxes: {
	BB={x = [250.000	392.000]	,	y = [60.000	130.000]}
}

spatio-iteration = 	0	ft_idx = 0, et_idx = 0 

Spatial OP: s_U(0,1) 
Bounding Boxes: {
	BB={x = [250.000	392.000]	,	y = [60.000	130.000]}
}

iteration = 	0
OP: spatio_u(0,3) 	<min> = inf, <max> = inf
ft_idx = 0, et_idx = 0 ,	 ft = 0.000, et = 0.000
ID variables: {Var_id_1, Var_id_2}
ID(0)		[1	1] = 	inf
ID(1)		[1	2] = 	inf
ID(2)		[2	1] = 	inf
ID(3)		[2	2] = 	inf
MonitorTable[3][0].ds = 0.000000

iteration = 	0
OP: AND(0,2) 	<min> = -inf, <max> = inf
ft_idx = 0, et_idx = 0 ,	 ft = 0.000, et = 0.000
ID variables: {Var_id_1, Var_id_2}
ID(0)		[1	1] = 	-inf
ID(1)		[1	2] = 	inf
ID(2)		[2	1] = 	-inf
ID(3)		[2	2] = 	-inf
MonitorTable[2][0].ds = 0.000000

iteration = 	0
OP: @(0,1) 	<min> = inf, <max> = inf
ft_idx = 0, et_idx = 0 ,	 ft = 0.000, et = 0.000
ID variables: {Var_id_1, Var_id_2}
ID(0)		[1	1] = 	-inf
ID(1)		[1	2] = 	-nan(ind)
ID(2)		[2	1] = 	-nan(ind)
ID(3)		[2	2] = 	-nan(ind)
MonitorTable[1][0].ds = inf
>> Running Time: 0.000000 seconds

*** Robustness: True
*** Most Related Iteration: 0
*** Most Related Freeze Iteration: 0
*** Most Related Freeze Operator Index: 1
Exiting monitoring algorithm.
EXISTS deleted.
Var_id_1 deleted.
Var_id_2 deleted.
@ deleted.
