0	0	-1	10	1	477.02	168.88	516.3	182.33	496.66	175.605
0	0	0	1	1	602.400132	174.171576	684.834784	236.780777	643.617458	205.4761765
0	0	1	1	1	347.927326	180.888194	391.619077	208.229858	369.7732015	194.559026
0	0	2	1	1	423.522417	179.573337	463.232355	206.083055	443.377386	192.828196
0	0	25	4	1	0	83.933709	51.134395	265.730277	25.5671975	174.831993
1	0.05	-2	10	1	477.02	168.88	516.3	182.33	496.66	175.605
1	0.05	0	1	1	599.39323	174.33162	680.597763	236.68141	639.9954965	205.506515
1	0.05	1	1	1	336.81577	180.495593	384.00154	209.45985	360.408655	194.9777215
1	0.05	2	1	1	414.691266	180.229482	458.262694	208.696956	436.47698	194.463219
2	0.1	-3	10	1	477.02	168.88	516.3	182.33	496.66	175.605
2	0.1	0	1	1	596.423712	176.100394	676.410658	238.218447	636.417185	207.1594205
2	0.1	1	1	1	324.18599	181.242237	375.270969	212.055313	349.7284795	196.648775
2	0.1	2	1	1	404.454849	180.968975	452.581271	211.727159	428.51806	196.348067
3	0.15	-4	10	1	482.26	171.02	525.92	184.6	504.09	177.81
3	0.15	0	1	1	593.476577	177.855903	672.254217	239.74257	632.865397	208.7992365
3	0.15	1	1	1	310.648845	182.540906	366.099317	215.448398	338.374081	198.994652
3	0.15	2	1	1	391.413519	182.380314	444.897462	215.954465	418.1554905	199.1673895
4	0.2	-5	10	1	488.08	172.96	526.89	183.63	507.485	178.295
4	0.2	0	1	1	590.551566	179.59829	668.128116	241.253932	629.339841	210.426111
4	0.2	1	1	1	295.263024	184.001677	355.781785	219.305217	325.5224045	201.653447
4	0.2	2	1	1	375.930716	184.024332	435.946033	220.973666	405.9383745	202.498999
5	0.25	-6	10	1	488.08	172.96	526.89	183.63	507.485	178.295
5	0.25	0	1	1	588.586718	180.171999	665.265522	241.613994	626.92612	210.8929965
5	0.25	1	1	1	276.074329	184.24879	342.818514	222.252873	309.4464215	203.2508315
5	0.25	2	1	1	358.203194	184.02094	426.207884	224.78775	392.205539	204.404345
6	0.3	-7	10	1	493.9	172.96	529.81	182.66	511.855	177.81
6	0.3	0	1	1	586.634547	180.74195	662.421297	241.971416	624.527922	211.356683
6	0.3	1	1	1	253.746444	184.532341	327.942496	225.68311	290.84447	205.1077255
6	0.3	2	1	1	332.054283	185.254531	411.353682	231.079698	371.7039825	208.1671145
7	0.35	-8	10	1	493.9	172.96	529.81	182.66	511.855	177.81
7	0.35	0	1	1	584.694929	181.308177	659.59527	242.326225	622.1450995	211.817201
7	0.35	1	1	1	226.79248	186.080018	309.100849	231.148125	267.9466645	208.6140715
7	0.35	2	1	1	298.864598	186.767934	393.126808	239.06735	345.995703	212.917642
8	0.4	-9	10	1	500.7	175.87	538.54	184.6	519.62	180.235
8	0.4	0	1	1	582.767741	181.815429	656.787271	242.678448	619.777506	212.2469385
8	0.4	1	1	1	194.474571	187.896426	286.979901	237.702601	240.727236	212.7995135
8	0.4	2	1	1	255.347449	188.668539	370.231937	249.542948	312.789693	219.1057435
9	0.45	-10	10	1	500.7	175.87	538.54	184.6	519.62	180.235
9	0.45	0	1	1	580.651724	181.326702	653.767571	241.91291	617.2096475	211.619806
9	0.45	2	1	1	194.941947	189.233052	339.817305	261.202818	267.379626	225.217935
10	0.5	-11	10	1	506.52	171.99	544.36	184.6	525.44	178.295
10	0.5	0	1	1	578.549047	180.786186	650.766891	241.1527	614.657969	210.969443
10	0.5	2	1	1	108.118112	189.986466	299.216613	277.969024	203.6673625	233.977745
11	0.55	-12	10	1	506.52	171.99	544.36	184.6	525.44	178.295
11	0.55	0	1	1	576.084358	180.177092	647.425779	240.373652	611.7550685	210.275372
11	0.55	2	1	1	0	191.088978	238.438588	304.174329	119.219294	247.6316535
12	0.6	-13	10	1	507.49	170.05	547.27	183.63	527.38	176.84
12	0.6	0	1	1	573.631603	179.57094	644.100436	239.598747	608.8660195	209.5848435
12	0.6	1	1	1	0	188.518929	124.685976	271.41405	62.342988	229.9664895
12	0.6	2	1	1	0	192.751056	146.770647	323.247187	73.3853235	257.9991215
13	0.65	-14	10	1	509.43	171.99	552.12	187.51	530.775	179.75
13	0.65	0	1	1	571.190691	178.967708	640.790756	238.827952	605.9907235	208.89783
13	0.65	1	1	1	0	189.27562	52.164273	273.209781	26.0821365	231.2427005
14	0.7	-15	10	1	510.4	170.05	552.12	182.66	531.26	176.355
14	0.7	0	1	1	568.761533	178.367377	637.496635	238.061238	603.129084	208.2143075
15	0.75	-16	10	1	510.4	170.05	552.12	182.66	531.26	176.355
15	0.75	0	1	1	566.344042	177.769927	634.217968	237.298572	600.281005	207.5342495
16	0.8	-17	10	1	510.4	170.05	552.12	182.66	531.26	176.355
16	0.8	0	1	1	564.255701	176.76557	631.688857	236.168169	597.972279	206.4668695
17	0.85	-18	10	1	510.4	170.05	552.12	182.66	531.26	176.355
17	0.85	0	1	1	562.174294	175.765052	629.169419	235.042128	595.6718565	205.40359
18	0.9	-19	10	1	517.19	168.11	557.94	179.75	537.565	173.93
18	0.9	0	1	1	561.005954	176.210462	627.157466	235.371117	594.08171	205.7907895
19	0.95	-20	10	1	517.19	168.11	557.94	179.75	537.565	173.93
19	0.95	0	1	1	559.842677	176.654419	625.15123	235.698619	592.4969535	206.176519
20	1	-21	10	1	523.01	169.08	556.97	182.66	539.99	175.87
20	1	0	1	1	558.684425	177.09693	623.150699	236.02464	590.917562	206.560785
21	1.05	-22	10	1	523.01	169.08	556.97	182.66	539.99	175.87
21	1.05	0	1	1	559.279456	177.250631	623.045089	236.063759	591.1622725	206.657195
22	1.1	-23	10	1	527.86	171.99	565.71	184.6	546.785	178.295
22	1.1	0	1	1	559.873366	177.4039	622.938425	236.102535	591.4058955	206.7532175
23	1.15	-24	10	1	527.86	171.99	565.71	184.6	546.785	178.295
23	1.15	0	1	1	560.466155	177.556738	622.830723	236.140972	591.648439	206.848855
24	1.2	-25	10	1	530.78	171.99	579.29	186.54	555.035	179.265
24	1.2	0	1	1	561.057822	177.709145	622.722003	236.179071	591.8899125	206.944108
25	1.25	-26	10	1	530.78	171.99	579.29	186.54	555.035	179.265
25	1.25	0	1	1	562.043502	176.844247	623.340599	235.178527	592.6920505	206.011387
26	1.3	-27	10	1	535.63	166.17	578.32	181.69	556.975	173.93
26	1.3	0	1	1	563.025648	175.982685	623.956385	234.182378	593.4910165	205.0825315
27	1.35	-28	10	1	535.63	166.17	578.32	181.69	556.975	173.93
27	1.35	0	1	1	564.004281	175.124442	624.569378	233.190598	594.2868295	204.15752
28	1.4	-29	10	1	540.48	164.23	581.23	178.78	560.855	171.505
28	1.4	0	1	1	564.979421	174.269501	625.179594	232.203159	595.0795075	203.23633
29	1.45	-30	10	1	540.48	164.23	581.23	178.78	560.855	171.505
29	1.45	0	1	1	566.628622	173.874267	626.292183	231.662313	596.4604025	202.76829
30	1.5	-31	10	1	549.21	168.11	588.02	180.72	568.615	174.415
30	1.5	0	1	1	567.968444	173.48067	627.399073	231.124044	597.6837585	202.302357
31	1.55	-32	10	1	550.18	168.11	576.38	181.69	563.28	174.9
31	1.55	0	1	1	570.08227	173.097448	629.383254	230.597149	599.732762	201.8472985
32	1.6	-33	10	1	550.18	168.11	576.38	181.69	563.28	174.9
32	1.6	0	1	1	570.1446	174.690987	629.275954	232.001327	599.710277	203.346157
33	1.65	-34	10	1	550.18	168.11	576.38	181.69	563.28	174.9
33	1.65	0	1	1	571.088444	176.284497	630.044685	233.404093	600.5665645	204.844295
34	1.7	-35	10	1	554.06	169.08	579.29	185.57	566.675	177.325
34	1.7	0	1	1	572.011307	176.190514	630.788307	233.112237	601.399807	204.6513755
35	1.75	-36	10	1	554.06	169.08	579.29	185.57	566.675	177.325
35	1.75	0	1	1	572.930176	176.097104	631.525233	232.822073	602.2277045	204.4595885
36	1.8	-37	10	1	554.06	169.08	579.29	185.57	566.675	177.325
36	1.8	0	1	1	574.194574	175.665107	632.584489	232.208351	603.3895315	203.936729
37	1.85	-38	10	1	560.86	170.05	589.96	185.57	575.41	177.81
37	1.85	-39	10	1	680.2	167.14	722.9	189.46	701.55	178.3
37	1.85	0	1	1	575.452807	175.236366	633.634036	231.598224	604.5434215	203.417295
38	1.9	-40	10	1	680.2	167.14	722.9	189.46	701.55	178.3
38	1.9	-41	10	1	560.86	166.17	587.05	186.54	573.955	176.355
38	1.9	0	1	1	576.704894	174.81085	634.673945	230.991665	605.6894195	202.9012575
39	1.95	-42	10	1	680.2	167.14	722.9	189.46	701.55	178.3
39	1.95	-43	10	1	561.83	165.2	588.02	184.6	574.925	174.9
39	1.95	0	1	1	577.154756	175.145566	634.881256	231.089503	606.018006	203.1175345
40	2	-44	10	1	680.2	167.14	722.9	189.46	701.55	178.3
40	2	-45	10	1	561.83	168.11	585.11	182.66	573.47	175.385
40	2	0	1	1	577.600843	175.477512	635.086822	231.186511	606.3438325	203.3320115
41	2.05	-46	10	1	680.2	167.14	722.9	189.46	701.55	178.3
41	2.05	-47	10	1	561.83	168.11	585.11	182.66	573.47	175.385
41	2.05	0	1	1	578.043203	175.806722	635.290663	231.282698	606.666933	203.54471
42	2.1	-48	10	1	561.83	168.11	585.11	182.66	573.47	175.385
42	2.1	-49	10	1	685.06	166.17	736.48	190.43	710.77	178.3
42	2.1	0	1	1	578.481883	176.133229	635.492801	231.378075	606.987342	203.755652
43	2.15	-50	10	1	685.06	166.17	736.48	190.43	710.77	178.3
43	2.15	-51	10	1	558.91	165.2	588.02	185.57	573.465	175.385
43	2.15	-52	10	1	887.85	176.84	926.66	198.19	907.255	187.515
43	2.15	0	1	1	578.916928	176.457068	635.693257	231.472651	607.3050925	203.9648595
44	2.2	-53	10	1	685.06	166.17	736.48	190.43	710.77	178.3
44	2.2	-54	10	1	558.91	165.2	588.02	185.57	573.465	175.385
44	2.2	-55	10	1	887.85	176.84	926.66	198.19	907.255	187.515
44	2.2	0	1	1	578.58481	176.876071	635.123124	231.658205	606.853967	204.267138
45	2.25	-56	10	1	685.06	166.17	736.48	190.43	710.77	178.3
45	2.25	-57	10	1	901.44	176.84	948.98	203.04	925.21	189.94
45	2.25	-58	10	1	557.94	171.99	584.14	189.46	571.04	180.725
45	2.25	0	1	1	578.25554	177.291581	634.557721	231.842175	606.4066305	204.566878
46	2.3	-59	10	1	685.06	166.17	736.48	190.43	710.77	178.3
46	2.3	-60	10	1	901.44	176.84	948.98	203.04	925.21	189.94
46	2.3	-61	10	1	557.94	171.99	584.14	189.46	571.04	180.725
46	2.3	0	1	1	577.929084	177.703641	633.99699	232.024583	605.963037	204.864112
47	2.35	-62	10	1	557.94	171.99	584.14	189.46	571.04	180.725
47	2.35	-63	10	1	908.23	179.75	951.89	207.89	930.06	193.82
47	2.35	-64	10	1	709.31	169.08	744.24	189.46	726.775	179.27
47	2.35	0	1	1	578.216626	178.116197	634.035797	232.194316	606.1262115	205.1552565
48	2.4	-65	10	1	916.96	177.81	974.21	204.01	945.585	190.91
48	2.4	-66	10	1	691.85	168.11	752.01	191.4	721.93	179.755
48	2.4	-67	10	1	556.97	163.26	586.08	187.51	571.525	175.385
48	2.4	0	1	1	577.381636	177.458501	633.002038	231.337993	605.191837	204.398247
49	2.45	-68	10	1	916.96	177.81	974.21	204.01	945.585	190.91
49	2.45	-69	10	1	691.85	168.11	752.01	191.4	721.93	179.755
49	2.45	-70	10	1	561.83	171.99	581.23	187.51	571.53	179.75
49	2.45	0	1	1	577.352462	178.213708	632.760979	231.886874	605.0567205	205.050291
50	2.5	-71	10	1	916.96	177.81	974.21	204.01	945.585	190.91
50	2.5	-72	10	1	691.85	168.11	752.01	191.4	721.93	179.755
50	2.5	-73	10	1	555.03	172.96	577.35	193.34	566.19	183.15
50	2.5	0	1	1	577.323538	178.963213	632.521714	232.431518	604.922626	205.6973655
51	2.55	-74	10	1	691.85	168.11	752.01	191.4	721.93	179.755
51	2.55	-75	10	1	555.03	172.96	577.35	193.34	566.19	183.15
51	2.55	-76	10	1	942.19	177.81	990.7	206.92	966.445	192.365
51	2.55	0	1	1	577.29486	179.707081	632.284224	232.971974	604.789542	206.3395275
52	2.6	-77	10	1	691.85	168.11	752.01	191.4	721.93	179.755
52	2.6	-78	10	1	555.03	172.96	577.35	193.34	566.19	183.15
52	2.6	-79	10	1	948.98	181.69	993.61	205.95	971.295	193.82
52	2.6	0	1	1	576.13752	178.927305	630.958074	232.022834	603.547797	205.4750695
53	2.65	-80	10	1	691.85	168.11	752.01	191.4	721.93	179.755
53	2.65	-81	10	1	553.09	173.93	583.17	190.43	568.13	182.18
53	2.65	-82	10	1	950.92	177.81	1012.1	203.04	981.51	190.425
53	2.65	0	1	1	574.987456	178.152297	629.640013	231.079641	602.3137345	204.615969
54	2.7	-83	10	1	691.85	168.11	752.01	191.4	721.93	179.755
54	2.7	-84	10	1	553.09	173.93	583.17	190.43	568.13	182.18
54	2.7	-85	10	1	959.65	171.02	1017.9	200.13	988.775	185.575
54	2.7	0	1	1	573.844601	177.382015	628.329968	230.142341	601.0872845	203.762178
55	2.75	-86	10	1	691.85	168.11	752.01	191.4	721.93	179.755
55	2.75	-87	10	1	545.33	171.02	582.2	186.54	563.765	178.78
55	2.75	-88	10	1	979.06	172.96	1024.7	202.07	1001.88	187.515
55	2.75	0	1	1	572.708887	176.616415	627.027866	229.210878	599.8683765	202.9136465
56	2.8	-89	10	1	691.85	168.11	752.01	191.4	721.93	179.755
56	2.8	-90	10	1	545.33	171.02	582.2	186.54	563.765	178.78
56	2.8	-91	10	1	978.09	171.99	1034.4	198.19	1006.245	185.09
56	2.8	0	1	1	571.116465	175.725271	625.301926	228.187019	598.2091955	201.956145
57	2.85	-92	10	1	691.85	168.11	752.01	191.4	721.93	179.755
57	2.85	-93	10	1	545.33	171.02	582.2	186.54	563.765	178.78
57	2.85	-94	10	1	978.09	171.99	1034.4	198.19	1006.245	185.09
57	2.85	0	1	1	569.531938	174.838525	623.58451	227.168239	596.558224	201.003382
58	2.9	-95	10	1	691.85	168.11	752.01	191.4	721.93	179.755
58	2.9	-96	10	1	1000.4	173.93	1060.6	203.04	1030.5	188.485
58	2.9	-97	10	1	539.51	173.93	577.35	190.43	558.43	182.18
58	2.9	0	1	1	568.925217	177.509749	622.825392	229.696961	595.8753045	203.603355
59	2.95	-98	10	1	532.72	175.87	576.38	196.25	554.55	186.06
59	2.95	-99	10	1	1012.1	178.78	1071.2	209.83	1041.65	194.305
59	2.95	-100	10	1	708.34	172.96	761.71	195.28	735.025	184.12
59	2.95	0	1	1	568.552295	180.677482	622.300596	232.743205	595.4264455	206.7103435
60	3	-101	10	1	532.72	175.87	576.38	196.25	554.55	186.06
60	3	-102	10	1	1012.1	178.78	1071.2	209.83	1041.65	194.305
60	3	-103	10	1	710.28	175.57	780.63	209.02	745.455	192.295
60	3	0	1	1	568.181477	183.454098	621.778751	235.772254	594.980114	209.613176
61	3.05	-104	10	1	532.72	175.87	576.38	196.25	554.55	186.06
61	3.05	-105	10	1	1012.1	178.78	1071.2	209.83	1041.65	194.305
61	3.05	-106	10	1	713.8	173.38	792.47	208.2	753.135	190.79
61	3.05	0	1	1	566.759008	181.911201	620.203894	233.858179	593.481451	207.88469
62	3.1	-107	10	1	700.58	164.23	764.62	190.43	732.6	177.33
62	3.1	-108	10	1	1037.3	176.84	1101.3	206.92	1069.3	191.88
62	3.1	0	1	1	565.530216	173.751532	618.816907	225.333149	592.1735615	199.5423405
62	3.1	3	1	1	527.807037	172.885586	545.025456	186.281394	536.4162465	179.58349
63	3.15	-109	10	1	700.58	164.23	764.62	190.43	732.6	177.33
63	3.15	-110	10	1	1037.3	176.84	1101.3	206.92	1069.3	191.88
63	3.15	0	1	1	564.756584	172.632091	617.882889	224.055292	591.3197365	198.3436915
63	3.15	3	1	1	524.579193	169.732921	542.518814	183.689404	533.5490035	176.7111625
64	3.2	-111	10	1	700.58	164.23	764.62	190.43	732.6	177.33
64	3.2	-112	10	1	1063.5	163.26	1131.4	195.28	1097.45	179.27
64	3.2	0	1	1	563.987617	171.519373	616.954486	222.785146	590.4710515	197.1522595
64	3.2	3	1	1	521.132713	173.229048	539.866517	187.800363	530.499615	180.5147055
65	3.25	-113	10	1	1074.2	166.17	1162.4	209.83	1118.3	188
65	3.25	-114	10	1	709.31	166.17	781.12	191.4	745.215	178.785
65	3.25	0	1	1	564.012525	175.321063	616.84585	226.465246	590.4291875	200.8931545
65	3.25	3	1	1	518.228045	179.263702	537.797044	194.508946	528.0125445	186.886324
66	3.3	-115	10	1	709.31	166.17	781.12	191.4	745.215	178.785
66	3.3	-116	10	1	1090.6	161.32	1187.7	207.89	1139.15	184.605
66	3.3	0	1	1	564.037308	179.103681	616.737758	230.126792	590.387533	204.6152365
66	3.3	3	1	1	514.635695	182.137164	535.300213	198.200924	524.967954	190.169044
66	3.3	4	1	1	555.79239	180.276103	572.602209	193.712463	564.1972995	186.994283
67	3.35	-117	10	1	709.31	166.17	781.12	191.4	745.215	178.785
67	3.35	-118	10	1	1109.1	161.32	1199.3	204.98	1154.2	183.15
67	3.35	0	1	1	562.909909	178.760604	615.501838	229.677014	589.2058735	204.218809
67	3.35	3	1	1	510.456859	181.356584	532.47101	198.174317	521.4639345	189.7654505
67	3.35	4	1	1	553.902776	179.044943	571.566043	193.10181	562.7344095	186.0733765
68	3.4	-119	10	1	709.31	166.17	781.12	191.4	745.215	178.785
68	3.4	-120	10	1	1128.5	155.49	1232.3	210.8	1180.4	183.145
68	3.4	0	1	1	563.539094	176.802929	615.966852	227.556425	589.752973	202.179677
68	3.4	3	1	1	505.839956	180.498536	529.362406	198.14491	517.601181	189.321723
68	3.4	4	1	1	551.830089	177.694486	570.434772	192.43198	561.1324305	185.063233
69	3.45	-121	10	1	709.31	166.17	781.12	191.4	745.215	178.785
69	3.45	-122	10	1	1128.5	155.49	1232.3	210.8	1180.4	183.145
69	3.45	0	1	1	564.164366	174.857384	616.428983	225.449033	590.2966745	200.1532085
69	3.45	3	1	1	500.712276	179.489755	525.93088	198.11224	513.321578	188.8009975
69	3.45	4	1	1	549.546369	176.206513	569.194672	191.693935	559.3705205	183.950224
69	3.45	26	2	1	369.783128	176.414935	389.340564	208.387601	379.561846	192.401268
70	3.5	-123	10	1	722.9	163.26	790.82	199.16	756.86	181.21
70	3.5	-124	10	1	1162.4	157.44	1232.3	212.74	1197.35	185.09
70	3.5	0	1	1	564.785762	172.923856	616.888257	223.354716	590.8370095	198.139286
70	3.5	3	1	1	494.98407	178.362621	522.123376	198.075733	508.553723	188.219177
70	3.5	4	1	1	547.017658	174.55889	567.829246	190.876694	557.423452	182.717792
70	3.5	26	2	1	358.084661	175.574493	379.192884	209.167133	368.6387725	192.370813
71	3.55	-125	10	1	728.97	161.04	809.74	206.15	769.355	183.595
71	3.55	-126	10	1	1194.5	164.23	1242	216.62	1218.25	190.425
71	3.55	0	1	1	564.700807	173.760578	616.657545	224.050154	590.679176	198.905366
71	3.55	3	1	1	488.419012	177.865758	517.921877	198.803657	503.1704445	188.3347075
71	3.55	4	1	1	544.673201	175.029384	566.614217	192.250973	555.643709	183.6401785
71	3.55	26	2	1	345.137518	174.644364	368.018717	210.029913	356.5781175	192.3371385
72	3.6	-127	10	1	736.45	161.3	830.3	209.94	783.375	185.62
72	3.6	0	1	1	564.61644	174.592779	616.42798	224.741621	590.52221	199.6672
72	3.6	3	1	1	481.588749	180.085457	512.546526	202.419927	497.0676375	191.252692
72	3.6	4	1	1	542.053903	175.554974	565.266027	193.786435	553.659965	184.6707045
72	3.6	26	2	1	330.602485	176.085631	355.61389	213.597102	343.1081875	194.8413665
73	3.65	-128	10	1	726.78	162.29	815.08	192.37	770.93	177.33
73	3.65	0	1	1	564.532657	175.420497	616.199553	225.429152	590.366105	200.4248245
73	3.65	3	1	1	473.540996	181.017432	507.433975	204.981053	490.4874855	192.9992425
73	3.65	4	1	1	539.108414	176.145938	563.761527	195.5132	551.4349705	185.829569
73	3.65	26	2	1	314.211796	177.71085	341.718186	217.619971	327.964991	197.6654105
74	3.7	-129	10	1	726.78	162.29	815.08	192.37	770.93	177.33
74	3.7	0	1	1	565.046117	174.458628	616.567046	224.32326	590.8065815	199.390944
74	3.7	3	1	1	464.266586	182.041734	501.606206	207.932819	482.936396	194.9872765
74	3.7	4	1	1	535.771744	176.815281	562.07187	197.469397	548.921807	187.142339
74	3.7	26	2	1	295.585858	179.557639	326.045649	222.19179	310.8157535	200.8747145
75	3.75	-130	10	1	724.84	162.29	826.72	194.31	775.78	178.3
75	3.75	0	1	1	565.575674	175.407237	616.952787	225.132778	591.2642305	200.2700075
75	3.75	3	1	1	453.46184	183.219962	494.901926	211.371975	474.181883	197.2959685
75	3.75	4	1	1	531.96041	177.579703	560.160646	199.704004	546.060528	188.6418535
75	3.75	26	2	1	273.196946	180.56889	307.216826	226.25757	290.206886	203.41323
76	3.8	-131	10	1	724.84	162.29	826.72	194.31	775.78	178.3
76	3.8	0	1	1	565.82888	173.96781	617.078565	223.568366	591.4537225	198.768088
76	3.8	3	1	1	439.208944	183.674055	485.105648	214.471177	462.157296	199.072616
76	3.8	4	1	1	526.353914	177.739128	557.259646	201.591256	541.80678	189.665192
76	3.8	26	2	1	247.356264	181.654695	285.692034	230.95063	266.524149	206.3026625
77	3.85	-132	10	1	737.45	158.41	829.63	199.16	783.54	178.785
77	3.85	0	1	1	566.093951	173.85323	617.217777	223.332066	591.655864	198.592648
77	3.85	3	1	1	422.059277	184.210186	473.538248	218.200703	447.7987625	201.2054445
77	3.85	4	1	1	519.79848	177.925587	553.910407	203.798127	536.8544435	190.861857
77	3.85	26	2	1	217.198884	182.905016	260.847598	236.428272	239.023241	209.666644
78	3.9	-133	10	1	737.45	158.41	829.63	199.16	783.54	178.785
78	3.9	0	1	1	566.407313	178.723233	617.40954	228.091635	591.9084265	203.407434
78	3.9	3	1	1	401.931912	189.455348	460.90701	227.97574	431.419461	208.715544
78	3.9	4	1	1	512.801385	182.933025	550.734332	211.427673	531.7678585	197.180349
78	3.9	26	2	1	180.990055	188.855283	231.411401	247.899981	206.200728	218.377632
79	3.95	-134	10	1	744.24	170.05	842.25	203.04	793.245	186.545
79	3.95	-135	10	1	609.37	176.84	627.81	200.13	618.59	188.485
79	3.95	0	1	1	567.131917	183.019189	618.006857	232.612761	592.569387	207.815975
79	3.95	3	1	1	376.721057	195.849369	445.507678	240.221105	411.1143675	218.035237
79	3.95	4	1	1	504.407513	188.569947	546.98867	220.581529	525.6980915	204.575738
79	3.95	26	2	1	137.377635	195.910481	196.50445	261.719481	166.9410425	228.814981
80	4	-136	10	1	744.24	170.05	842.25	203.04	793.245	186.545
80	4	-137	10	1	608.4	173.93	627.81	202.07	618.105	188
80	4	0	1	1	567.80421	182.776584	618.548822	232.210364	593.176516	207.493474
80	4	3	1	1	344.96575	196.829673	427.184309	247.704445	386.0750295	222.267059
80	4	4	1	1	493.465352	188.310319	541.750539	223.869193	517.6079455	206.089756
80	4	26	2	1	83.106894	197.848161	153.874204	271.474347	118.490549	234.661254
81	4.05	-138	10	1	755.89	160.35	860.68	204.01	808.285	182.18
81	4.05	-139	10	1	613.25	174.9	629.75	193.34	621.5	184.12
81	4.05	0	1	1	568.470446	182.300374	619.085124	231.543355	593.777785	206.9218645
81	4.05	3	1	1	302.652024	198.081352	403.785023	257.678027	353.2185235	227.8796895
81	4.05	4	1	1	479.769589	187.99365	535.3607	227.984706	507.5651445	207.989178
81	4.05	26	2	1	14.690069	200.233814	101.378044	283.774869	58.0340565	242.0043415
82	4.1	-140	10	1	745.21	166.17	785	195.28	765.105	180.725
82	4.1	-141	10	1	681.17	169.08	717.08	192.37	699.125	180.725
82	4.1	-142	10	1	612.28	174.9	631.69	193.34	621.985	184.12
82	4.1	0	1	1	568.739556	180.754378	619.27492	229.711496	594.007238	205.232937
82	4.1	3	1	1	243.463677	199.735187	372.861727	271.632983	308.162702	235.684085
82	4.1	4	1	1	462.131107	187.598819	527.392469	233.285799	494.761788	210.442309
82	4.1	23	4	1	789.620451	170.933882	826.435289	192.685702	808.02787	181.809792
82	4.1	26	2	1	0	199.225146	35.247239	286.444164	17.6236195	242.834655
83	4.15	-143	10	1	745.21	166.17	785	195.28	765.105	180.725
83	4.15	-144	10	1	681.17	169.08	717.08	192.37	699.125	180.725
83	4.15	-145	10	1	612.28	173.93	632.66	191.4	622.47	182.665
83	4.15	0	1	1	569.015539	179.812038	619.472356	228.657685	594.2439475	204.2348615
83	4.15	3	1	1	155.219352	201.988998	328.84414	292.14415	242.031746	247.066574
83	4.15	4	1	1	438.905897	187.293504	516.416006	240.492119	477.6609515	213.8928115
83	4.15	23	4	1	793.374663	169.158273	831.355102	191.410734	812.3648825	180.2845035
84	4.2	-146	10	1	745.21	166.17	785	195.28	765.105	180.725
84	4.2	-147	10	1	681.17	169.08	717.08	192.37	699.125	180.725
84	4.2	-148	10	1	610.34	171.02	626.84	188.49	618.59	179.755
84	4.2	0	1	1	569.282468	178.015189	619.660337	226.782229	594.4714025	202.398709
84	4.2	3	1	1	9.992542	205.278975	264.566934	325.921228	137.279738	265.6001015
84	4.2	4	1	1	406.455894	186.89032	501.916423	250.563527	454.1861585	218.7269235
84	4.2	23	4	1	797.291618	167.299154	836.506377	190.075832	816.8989975	178.687493
84	4.2	24	5	1	828.118893	159.567451	884.506207	191.915386	856.31255	175.7414185
85	4.25	-149	10	1	681.17	169.08	717.08	192.37	699.125	180.725
85	4.25	-150	10	1	758.8	160.35	801.49	192.37	780.145	176.36
85	4.25	-151	10	1	613.25	170.05	629.75	187.51	621.5	178.78
85	4.25	0	1	1	569.525811	174.596732	619.866183	223.322387	594.695997	198.9595595
85	4.25	3	1	1	0	210.532923	161.862572	360.370745	80.931286	285.451834
85	4.25	4	1	1	357.922236	186.3332	481.873798	265.632645	419.898017	225.9829225
85	4.25	23	4	1	801.382131	165.350492	841.90584	188.67667	821.6439855	177.013581
85	4.25	24	5	1	834.065305	157.923621	892.825468	191.22775	863.4453865	174.5756855
86	4.3	-152	10	1	681.17	169.08	717.08	192.37	699.125	180.725
86	4.3	-153	10	1	758.8	160.35	801.49	192.37	780.145	176.36
86	4.3	-154	10	1	614.22	170.05	632.66	188.49	623.44	179.27
86	4.3	0	1	1	569.813004	175.602939	620.119097	224.297953	594.9660505	199.950446
86	4.3	4	1	1	281.217839	189.272716	453.649867	294.656697	367.433853	241.9647065
86	4.3	23	4	1	805.539449	165.711991	847.44388	189.613837	826.4916645	177.662914
86	4.3	24	5	1	840.34903	157.26555	901.66793	191.585008	871.00848	174.425279
87	4.35	-155	10	1	681.17	169.08	717.08	192.37	699.125	180.725
87	4.35	-156	10	1	758.8	160.35	801.49	192.37	780.145	176.36
87	4.35	-157	10	1	617.13	172.96	632.66	187.51	624.895	180.235
87	4.35	0	1	1	570.101649	176.789462	620.373592	225.454424	595.2376205	201.121943
87	4.35	4	1	1	134.251304	193.926123	408.945917	350.324642	271.5986105	272.1253825
87	4.35	23	4	1	809.889749	166.091805	853.26259	190.598458	831.5761695	178.3451315
87	4.35	24	5	1	846.984711	156.566102	911.066658	191.964745	879.0256845	174.2654235
88	4.4	-158	10	1	758.8	160.35	801.49	192.37	780.145	176.36
88	4.4	-159	10	1	682.14	165.2	719.99	189.46	701.065	177.33
88	4.4	-160	10	1	615.19	172.96	632.66	190.43	623.925	181.695
88	4.4	-161	10	1	558.91	176.84	577.35	190.43	568.13	183.635
88	4.4	0	1	1	570.387087	177.690512	620.624673	226.324833	595.50588	202.0076725
88	4.4	4	1	1	0	202.409177	327.37881	374	163.689405	288.2045885
88	4.4	22	4	1	784.639261	170.653147	816.084681	189.484665	800.361971	180.068906
88	4.4	23	4	1	814.526668	165.234568	859.468917	190.377025	836.9977925	177.8057965
88	4.4	24	5	1	854.002768	155.821248	921.075847	192.36915	887.5393075	174.095199
89	4.45	-162	10	1	758.8	160.35	801.49	192.37	780.145	176.36
89	4.45	-163	10	1	682.14	165.2	719.99	189.46	701.065	177.33
89	4.45	-164	10	1	616.16	172.96	633.63	189.46	624.895	181.21
89	4.45	-165	10	1	559.89	175.87	576.38	186.54	568.135	181.205
89	4.45	0	1	1	570.301658	177.471341	620.504686	226.072619	595.403172	201.77198
89	4.45	4	1	1	0	216.529568	145.638643	374	72.8193215	295.264784
89	4.45	22	4	1	788.138157	169.557838	820.565289	188.812863	804.351723	179.1853505
89	4.45	23	4	1	819.388833	164.33168	866.00587	190.143806	842.6973515	177.237743
89	4.45	24	5	1	861.437234	155.026417	931.756968	192.800707	896.597101	173.913562
90	4.5	-166	10	1	682.14	165.2	719.99	189.46	701.065	177.33
90	4.5	-167	10	1	614.22	170.05	630.72	188.49	622.47	179.27
90	4.5	-168	10	1	559.89	172.96	577.35	190.43	568.62	181.695
90	4.5	0	1	1	570.216354	177.252482	620.384859	225.82074	595.3006065	201.536611
90	4.5	22	4	1	791.78657	168.412168	825.251968	188.110173	808.519269	178.2611705
90	4.5	23	4	1	824.493066	163.379396	872.900594	189.897835	848.69683	176.6386155
90	4.5	24	5	1	869.326301	154.176406	943.180034	193.262245	906.2531675	173.7193255
91	4.55	-169	10	1	682.14	165.2	719.99	189.46	701.065	177.33
91	4.55	-170	10	1	616.16	170.05	630.72	186.54	623.44	178.295
91	4.55	-171	10	1	557.94	171.02	581.23	190.43	569.585	180.725
91	4.55	0	1	1	569.994041	176.551753	620.151905	225.109085	595.072973	200.830419
91	4.55	22	4	1	795.594294	167.212582	830.15927	187.374416	812.876782	177.293499
91	4.55	23	4	1	829.857906	162.373547	880.183283	189.638037	855.0205945	176.005792
91	4.55	24	5	1	878.303267	152.436497	956.295533	193.030264	917.2994	172.7333805
92	4.6	-172	10	1	682.14	165.2	719.99	189.46	701.065	177.33
92	4.6	-173	10	1	779.18	168.11	805.37	190.43	792.275	179.27
92	4.6	-174	10	1	617.13	171.02	631.69	185.57	624.41	178.295
92	4.6	-175	10	1	556.97	170.05	578.32	191.4	567.645	180.725
92	4.6	0	1	1	569.771825	175.851358	619.91905	224.397702	594.8454375	200.12453
92	4.6	22	4	1	799.571995	165.955182	835.303147	186.6032	817.437571	176.279191
92	4.6	23	4	1	835.503834	161.309484	887.887633	189.363213	861.6957335	175.3363485
92	4.6	24	5	1	886.792702	150.628932	968.991668	192.753189	927.892185	171.6910605
93	4.65	-176	10	1	682.14	165.2	719.99	189.46	701.065	177.33
93	4.65	-177	10	1	782.09	168.11	810.23	188.49	796.16	178.3
93	4.65	-178	10	1	615.19	170.05	631.69	188.49	623.44	179.27
93	4.65	-179	10	1	555.03	171.99	574.44	188.49	564.735	180.24
93	4.65	0	1	1	569.549707	175.151297	619.686295	223.686593	594.618001	199.418945
93	4.65	22	4	1	803.731315	164.635685	840.70113	185.793898	822.2162225	175.2147915
93	4.65	23	4	1	841.696547	160.952209	896.394557	189.880619	869.045552	175.416414
93	4.65	24	5	1	895.859793	148.679728	982.683284	192.454385	939.2715385	170.5670565
94	4.7	-180	10	1	682.14	165.2	719.99	189.46	701.065	177.33
94	4.7	-181	10	1	782.09	168.11	810.23	188.49	796.16	178.3
94	4.7	-182	10	1	614.22	164.23	634.6	191.4	624.41	177.815
94	4.7	-183	10	1	556	174.9	572.5	188.49	564.25	181.695
94	4.7	0	1	1	568.86588	176.09325	619.078468	224.702866	593.972174	200.398058
94	4.7	22	4	1	807.804265	164.252665	846.039008	185.929805	826.9216365	175.091235
94	4.7	24	5	1	905.565578	146.571557	997.492241	192.131193	951.5289095	169.351375
95	4.75	-184	10	1	782.09	168.11	810.23	188.49	796.16	178.3
95	4.75	-185	10	1	695.73	164.23	732.6	187.51	714.165	175.87
95	4.75	-186	10	1	550.18	175.87	574.44	194.31	562.31	185.09
95	4.75	-187	10	1	612.28	171.99	633.63	189.46	622.955	180.725
95	4.75	0	1	1	568.180032	177.03809	618.468766	225.722163	593.324399	201.3801265
95	4.75	22	4	1	812.210168	164.548409	851.829508	186.779982	832.019838	175.6641955
95	4.75	23	4	1	855.190512	160.166344	915.107175	191.018637	885.1488435	175.5924905
95	4.75	24	5	1	915.980003	144.284147	1013.561131	191.780499	964.770567	168.032323
96	4.8	-188	10	1	695.73	164.23	732.6	187.51	714.165	175.87
96	4.8	-189	10	1	550.18	175.87	574.44	194.31	562.31	185.09
96	4.8	-190	10	1	794.7	169.08	821.87	187.51	808.285	178.295
96	4.8	-191	10	1	614.22	172.96	630.72	190.43	622.47	181.695
96	4.8	0	1	1	567.239969	176.79741	617.604589	225.553207	592.422279	201.1753085
96	4.8	22	4	1	816.828802	164.859685	857.924208	187.674818	837.376505	176.2672515
96	4.8	23	4	1	862.559944	159.732846	925.42984	191.646346	893.994892	175.689596
97	4.85	-192	10	1	695.73	164.23	732.6	187.51	714.165	175.87
97	4.85	-193	10	1	550.18	175.87	574.44	194.31	562.31	185.09
97	4.85	-194	10	1	803.43	170.05	833.51	189.46	818.47	179.755
97	4.85	-195	10	1	610.34	172.96	627.81	189.46	619.075	181.21
97	4.85	0	1	1	566.297135	176.555995	616.737762	225.383749	591.5174485	200.969872
97	4.85	22	4	1	822.012031	162.656645	864.79967	186.134454	843.4058505	174.3955495
97	4.85	23	4	1	869.986952	157.329414	936.143289	190.37085	903.0651205	173.850132
97	4.85	24	5	1	939.564254	138.65276	1050.541481	190.567624	995.0528675	164.610192
98	4.9	-196	10	1	695.73	164.23	732.6	187.51	714.165	175.87
98	4.9	-197	10	1	543.39	172.96	568.62	191.4	556.005	182.18
98	4.9	-198	10	1	617.13	169.08	630.72	186.54	623.925	177.81
98	4.9	0	1	1	565.312295	176.391311	615.850805	225.312466	590.58155	200.8518885
98	4.9	21	1	1	808.136146	169.379281	841.875451	185.973256	825.0057985	177.6762685
98	4.9	22	4	1	827.478694	160.321935	872.086206	184.502008	849.78245	172.4119715
98	4.9	23	4	1	877.896936	154.750214	947.640503	189.001887	912.7687195	171.8760505
98	4.9	24	5	1	952.808542	135.424942	1071.740117	189.872337	1012.2743295	162.6486395
99	4.95	-199	10	1	695.73	164.23	732.6	187.51	714.165	175.87
99	4.95	-200	10	1	543.39	172.96	568.62	191.4	556.005	182.18
99	4.95	-201	10	1	612.28	170.05	632.66	189.46	622.47	179.755
99	4.95	0	1	1	564.305575	174.399911	614.940906	223.410187	589.6232405	198.905049
99	4.95	21	1	1	812.504476	167.01249	847.469934	184.050269	829.987205	175.5313795
99	4.95	22	4	1	832.260251	159.573167	878.659507	184.458627	855.459879	172.015897
99	4.95	23	4	1	886.587713	153.418351	960.34733	188.99711	923.4675215	171.2077305
99	4.95	24	5	1	967.186701	131.866005	1095.115152	189.10565	1031.1509265	160.4858275
100	5	-202	10	1	695.73	164.23	732.6	187.51	714.165	175.87
100	5	-203	10	1	543.39	172.96	568.62	191.4	556.005	182.18
100	5	-204	10	1	612.28	170.05	632.66	189.46	622.47	179.755
100	5	0	1	1	563.323394	175.262124	614.057899	224.369198	588.6906465	199.815661
100	5	21	1	1	817.521839	168.300206	853.830241	185.810943	835.67604	177.0555745
100	5	22	4	1	837.303357	158.779405	885.62794	184.412638	861.4656485	171.5960215
100	5	23	4	1	895.895454	151.979206	974.07816	188.991944	934.986807	170.485575
100	5	24	5	1	984.021681	129.95622	1122.82337	190.460003	1053.4225255	160.2081115
101	5.05	-205	10	1	695.73	164.23	732.6	187.51	714.165	175.87
101	5.05	-206	10	1	612.28	170.05	632.66	189.46	622.47	179.755
101	5.05	-207	10	1	540.48	177.81	563.77	195.28	552.125	186.545
101	5.05	0	1	1	563.003594	177.994025	613.896026	227.258341	588.44981	202.626183
101	5.05	21	1	1	822.804547	169.661146	860.552313	187.671863	841.67843	178.6665045
101	5.05	22	4	1	843.73105	159.878162	894.245185	186.306428	868.9881175	173.092295
101	5.05	23	4	1	906.796614	152.434365	989.357664	190.991035	948.077139	171.7127
101	5.05	24	5	1	1002.521964	127.815542	1153.884601	191.978287	1078.2032825	159.8969145
102	5.1	-208	10	1	612.28	170.05	632.66	189.46	622.47	179.755
102	5.1	-209	10	1	534.66	176.84	566.68	200.13	550.67	188.485
102	5.1	-210	10	1	695.73	165.2	731.63	188.49	713.68	176.845
102	5.1	0	1	1	562.659662	178.503764	613.709313	227.920638	588.1844875	203.212201
102	5.1	21	1	1	828.37422	171.10174	867.66792	189.641841	848.02107	180.3717905
102	5.1	22	4	1	850.531427	161.047307	903.414674	188.321565	876.9730505	174.684436
102	5.1	24	5	1	1022.947502	125.399403	1188.946675	193.692181	1105.9470885	159.545792
103	5.15	-211	10	1	612.28	170.05	632.66	189.46	622.47	179.755
103	5.15	-212	10	1	705.43	166.17	735.51	187.51	720.47	176.84
103	5.15	-213	10	1	551.64	177.13	567.16	193.69	559.4	185.41
103	5.15	0	1	1	562.302122	177.853811	613.509059	227.421364	587.9055905	202.6375875
103	5.15	5	1	1	536.000466	180.181997	553.580017	195.633922	544.7902415	187.9079595
103	5.15	21	1	1	834.374754	170.053773	875.340304	189.151384	854.857529	179.6025785
103	5.15	22	4	1	858.980626	160.238221	914.71948	188.49848	886.850053	174.3683505
103	5.15	23	4	1	930.868519	151.778967	1024.813416	193.864933	977.8409675	172.82195
103	5.15	24	5	1	1045.615324	122.650979	1228.835792	195.642092	1137.225558	159.1465355
104	5.2	-214	10	1	612.28	170.05	632.66	189.46	622.47	179.755
104	5.2	-215	10	1	704.46	166.17	747.16	190.43	725.81	178.3
104	5.2	-216	10	1	549.57	175.06	565.09	191.62	557.33	183.34
104	5.2	0	1	1	561.937853	176.740344	613.302661	226.458481	587.620257	201.5994125
104	5.2	5	1	1	533.356086	179.463045	551.795664	195.577116	542.575875	187.5200805
104	5.2	21	1	1	841.411162	169.722485	884.201812	189.42269	862.806487	179.5725875
104	5.2	22	4	1	867.999234	159.368444	926.872648	188.688665	897.435941	174.0285545
104	5.2	23	4	1	944.246422	150.517898	1045.469962	194.63472	994.858192	172.576309
104	5.2	24	5	1	1071.320471	120.033057	1241	198.031888	1156.1602355	159.0324725
105	5.25	-217	10	1	612.28	170.05	632.66	189.46	622.47	179.755
105	5.25	-218	10	1	704.46	166.17	747.16	190.43	725.81	178.3
105	5.25	-219	10	1	547.27	176.84	564.74	192.37	556.005	184.605
105	5.25	0	1	1	561.573047	175.791304	613.09678	225.661441	587.3349135	200.7263725
105	5.25	5	1	1	530.474947	178.67969	549.858769	195.515222	540.166858	187.097456
105	5.25	21	1	1	848.869622	169.369612	893.640824	189.711678	871.255223	179.540645
105	5.25	22	4	1	877.22528	158.458134	939.392486	188.867384	908.308883	173.662759
105	5.25	23	4	1	958.788649	149.12934	1068.215727	195.482906	1013.502188	172.306123
105	5.25	24	5	1	1100.170662	117.445676	1241	200.645722	1170.585331	159.045699
106	5.3	-220	10	1	612.28	170.05	632.66	189.46	622.47	179.755
106	5.3	-221	10	1	704.46	166.17	747.16	190.43	725.81	178.3
106	5.3	-222	10	1	546.3	174.9	566.68	192.37	556.49	183.635
106	5.3	0	1	1	562.401656	175.740963	614.091145	225.771342	588.2464005	200.7561525
106	5.3	5	1	1	527.432721	178.473608	547.886988	196.121992	537.6598545	187.2978
106	5.3	21	1	1	856.789282	168.992976	903.715697	190.020133	880.2524895	179.5065545
106	5.3	22	4	1	887.085825	157.477596	952.878648	189.05989	919.9822365	173.268743
106	5.3	23	4	1	974.654038	147.592928	1093.384661	196.422109	1034.0193495	172.0075185
106	5.3	24	5	1	1132.780705	118.888071	1241	201.980223	1186.8903525	160.434147
107	5.35	-223	10	1	614.22	168.11	637.51	190.43	625.865	179.27
107	5.35	-224	10	1	706.4	158.41	759.77	187.51	733.085	172.96
107	5.35	-225	10	1	546.3	176.84	565.71	190.43	556.005	183.635
107	5.35	0	1	1	563.23561	175.690293	615.091994	225.881949	589.163802	200.786121
107	5.35	5	1	1	524.081922	178.246608	545.725086	196.790326	534.903504	187.518467
107	5.35	21	1	1	865.21428	168.59009	914.492921	190.350093	889.8536005	179.4700915
107	5.35	22	4	1	897.706261	156.582136	967.561809	189.431131	932.634035	173.0066335
107	5.35	23	4	1	992.737327	146.207626	1121.547015	197.796774	1057.142171	172.0022
107	5.35	24	5	1	1169.936818	120.321599	1241	203.314207	1205.468409	161.817903
108	5.4	-226	10	1	614.22	168.11	637.51	190.43	625.865	179.27
108	5.4	-227	10	1	705.85	152.8	770.96	196.25	738.405	174.525
108	5.4	-228	10	1	539.51	172.96	564.74	194.31	552.125	183.635
108	5.4	0	1	1	564.074963	175.639292	616.099389	225.99327	590.087176	200.816281
108	5.4	5	1	1	520.373092	177.995336	543.344174	197.530092	531.858633	187.762714
108	5.4	21	1	1	874.194578	168.158113	926.048598	190.703887	900.121588	179.431
108	5.4	22	4	1	909.111224	155.611861	983.472316	189.833412	946.29177	172.7226365
108	5.4	23	4	1	1012.620426	144.656261	1153.087985	199.335978	1082.8542055	171.9961195
108	5.4	24	5	1	1212.660861	121.746717	1241	204.648059	1226.8304305	163.197388
109	5.45	-229	10	1	614.22	168.11	637.51	190.43	625.865	179.27
109	5.45	-230	10	1	720.96	159.38	754.92	189.46	737.94	174.42
109	5.45	-231	10	1	541.45	170.05	565.71	192.37	553.58	181.21
109	5.45	0	1	1	564.919766	175.587956	617.113396	226.10531	591.016581	200.846633
109	5.45	5	1	1	516.245608	177.715678	540.709199	198.35339	528.4774035	188.034534
109	5.45	21	1	1	883.680887	167.469797	938.31728	190.844715	910.9990835	179.157256
109	5.45	22	4	1	921.390975	154.556988	1000.770774	190.270797	961.0808745	172.4138925
109	5.45	23	4	1	1034.586097	142.907067	1188.654365	201.071145	1111.620231	171.989106
110	5.5	-232	10	1	614.22	168.11	637.51	190.43	625.865	179.27
110	5.5	-233	10	1	724.84	164.23	755.89	185.57	740.365	174.9
110	5.5	-234	10	1	541.45	172.96	565.71	193.34	553.58	183.15
110	5.5	0	1	1	565.770072	175.536282	618.134079	226.218078	591.9520755	200.87718
110	5.5	5	1	1	511.624341	177.402538	537.777205	199.275215	524.700773	188.3388765
110	5.5	21	1	1	893.824125	166.728909	951.523299	190.996303	922.673712	178.862606
110	5.5	22	4	1	934.650172	153.405947	1019.647079	190.748089	977.1486255	172.077018
110	5.5	23	4	1	1058.979622	140.919627	1229.069315	203.042241	1144.0244685	171.980934
111	5.55	-235	10	1	614.22	168.11	637.51	190.43	625.865	179.27
111	5.55	-236	10	1	732.05	162.33	770.33	193.4	751.19	177.865
111	5.55	-237	10	1	536.6	165.2	562.8	193.34	549.7	179.27
111	5.55	0	1	1	566.054506	176.163676	618.579494	227.001937	592.317	201.5828065
111	5.55	5	1	1	506.442052	178.360891	534.400998	201.614625	520.421525	189.987758
111	5.55	21	1	1	904.694975	165.92919	965.778343	191.159931	935.236659	178.5445605
111	5.55	22	4	1	949.010866	152.14496	1040.327433	191.271013	994.6691495	171.7079865
111	5.55	23	4	1	1086.227055	139.012702	1241	205.300895	1163.6135275	172.1567985
112	5.6	-238	10	1	614.22	168.11	637.51	190.43	625.865	179.27
112	5.6	-239	10	1	739.14	162.52	783.7	195.68	761.42	179.1
112	5.6	0	1	1	566.340694	176.794961	619.027669	227.790619	592.6841815	202.29279
112	5.6	5	1	1	500.561488	179.448316	530.600047	204.269379	515.5807675	191.8588475
112	5.6	6	1	1	539.763538	177.509435	558.025985	191.592537	548.8947615	184.550986
112	5.6	21	1	1	916.428559	166.770354	981.280948	193.049778	948.8547535	179.910066
112	5.6	22	4	1	964.146819	152.511471	1062.448459	193.562348	1013.297639	173.0369095
112	5.6	23	4	1	1116.860353	137.418575	1241	207.522476	1178.9301765	172.4705255
113	5.65	-240	10	1	624.9	169.08	645.27	192.37	635.085	180.725
113	5.65	-241	10	1	733.57	163.26	775.29	192.37	754.43	177.815
113	5.65	0	1	1	566.628651	177.430173	619.47863	228.584171	593.0536405	203.007172
113	5.65	5	1	1	493.831317	180.669076	526.288823	207.307845	510.06007	193.9884605
113	5.65	6	1	1	537.545437	179.242276	556.697965	193.920379	547.121701	186.5813275
113	5.65	21	1	1	929.071971	167.684326	998.125872	195.103263	963.5989215	181.3937945
113	5.65	22	4	1	980.626644	152.915904	1086.859569	196.090989	1033.7431065	174.5034465
113	5.65	23	4	1	1151.552428	138.189392	1241	208.069334	1196.276214	173.129363
114	5.7	-242	10	1	624.9	169.08	645.27	192.37	635.085	180.725
114	5.7	-243	10	1	733.57	163.26	775.29	192.37	754.43	177.815
114	5.7	0	1	1	566.918394	178.069347	619.932402	229.382636	593.425398	203.7259915
114	5.7	5	1	1	485.559306	180.837502	520.933788	209.593541	503.246547	195.2155215
114	5.7	6	1	1	535.329213	178.436147	555.444738	193.76005	545.3869755	186.0980985
114	5.7	21	1	1	942.660957	168.515386	1016.394785	197.170077	979.527871	182.8427315
114	5.7	22	4	1	998.637632	153.364466	1113.935798	198.895812	1056.286715	176.130139
114	5.7	23	4	1	1190.765374	137.345511	1241	207.038383	1215.882687	172.191947
115	5.75	-244	10	1	624.9	169.08	645.27	192.37	635.085	180.725
115	5.75	-245	10	1	743.77	157.91	785.31	201.61	764.54	179.76
115	5.75	0	1	1	567.014872	175.541489	620.217908	227.034307	593.61639	201.287898
115	5.75	5	1	1	476.190509	179.288761	514.941985	210.390879	495.566247	194.83982
115	5.75	6	1	1	532.908968	177.555773	554.083032	193.584957	543.496	185.570365
115	5.75	21	1	1	957.327746	165.234279	1036.315495	195.233719	996.8216205	180.233999
115	5.75	22	4	1	1018.728795	149.327638	1144.231125	197.537409	1081.47996	173.4325235
115	5.75	23	4	1	1235.964518	136.513366	1241	206.00673	1238.482259	171.260048
116	5.8	-246	10	1	624.9	169.08	645.27	192.37	635.085	180.725
116	5.8	-247	10	1	737.45	158.41	770.44	188.49	753.945	173.45
116	5.8	0	1	1	567.112043	172.995458	620.505463	224.669203	593.808753	198.8323305
116	5.8	5	1	1	465.125411	177.414375	507.961394	211.332653	486.5434025	194.373514
116	5.8	6	1	1	530.390754	175.27	552.724749	192.071771	541.5577515	183.6708855
116	5.8	21	1	1	972.97642	162.513309	1057.664203	193.97035	1015.3203115	178.2418295
116	5.8	22	4	1	1040.912434	144.785449	1178.321279	196.00965	1109.6168565	170.3975495
117	5.85	-248	10	1	624.9	169.08	645.27	192.37	635.085	180.725
117	5.85	-249	10	1	737.45	158.41	770.44	188.49	753.945	173.45
117	5.85	0	1	1	567.358321	173.096868	620.775247	224.79322	594.066784	198.945044
117	5.85	5	1	1	452.048072	179.963704	499.918718	217.279636	475.983395	198.62167
117	5.85	6	1	1	527.135202	177.323633	550.789045	194.979121	538.9621235	186.151377
117	5.85	21	1	1	990.027757	159.513702	1081.199791	192.577809	1035.613774	176.0457555
117	5.85	22	4	1	1065.533362	139.636674	1216.966968	194.278766	1141.250165	166.95772
118	5.9	-250	10	1	624.9	169.08	645.27	192.37	635.085	180.725
118	5.9	-251	10	1	747.78	155.54	788.54	200.86	768.16	178.2
118	5.9	0	1	1	567.842397	175.091007	621.424191	226.948979	594.633294	201.019993
118	5.9	5	1	1	436.062119	182.797186	490.277172	224.550136	463.1696455	203.673661
118	5.9	6	1	1	523.531567	179.596952	548.660596	198.197418	536.0960815	188.897185
118	5.9	21	1	1	1009.170018	160.427203	1108.044986	195.349324	1058.607502	177.8882635
118	5.9	22	4	1	1092.373388	138.601095	1241	196.894979	1166.686694	167.748037
119	5.95	-252	10	1	624.9	169.08	645.27	192.37	635.085	180.725
119	5.95	-253	10	1	744.24	164.23	787.91	192.37	766.075	178.3
119	5.95	0	1	1	568.329464	177.097551	622.077171	229.118045	595.2033175	203.107798
119	5.95	5	1	1	414.89912	186.229723	477.515567	233.710566	446.2073435	209.9701445
119	5.95	6	1	1	519.639498	182.279755	546.375511	202.075637	533.0075045	192.177696
119	5.95	21	1	1	1031.16457	166.399793	1139.118673	203.407553	1085.1416215	184.903673
119	5.95	22	4	1	1122.17837	141.233262	1241	203.194184	1181.589185	172.213723
120	6	-254	10	1	624.9	169.08	645.27	192.37	635.085	180.725
120	6	-255	10	1	744.22	158.46	808.64	200.67	776.43	179.565
120	6	0	1	1	568.819548	179.116616	622.734226	231.300541	595.776887	205.2085785
120	6	5	1	1	386.57698	187.019201	460.643564	241.472782	423.610272	214.2459915
120	6	6	1	1	514.366375	182.888547	542.991548	203.915686	528.6789615	193.4021165
120	6	22	4	1	1155.713329	146.458749	1241	208.228653	1198.3566645	177.343701
121	6.05	-256	10	1	624.9	169.08	645.27	192.37	635.085	180.725
121	6.05	-257	10	1	755.89	159.38	789.85	184.6	772.87	171.99
121	6.05	0	1	1	568.884166	178.846488	622.952849	231.178794	595.9185075	205.012641
121	6.05	5	1	1	349.917213	182.200339	439.725731	244.765854	394.821472	213.4830965
121	6.05	6	1	1	509.050316	177.5856	539.785439	199.721142	524.4178775	188.653371
121	6.05	21	1	1	1077.331495	164.248969	1206.460846	205.906518	1141.8961705	185.0777435
121	6.05	22	4	1	1192.857424	146.173039	1241	207.730102	1216.928712	176.9515705
122	6.1	-258	10	1	624.9	169.08	645.27	192.37	635.085	180.725
122	6.1	-259	10	1	759.77	157.44	794.7	184.6	777.235	171.02
122	6.1	0	1	1	568.949156	178.574803	623.172729	231.056351	596.0609425	204.815577
122	6.1	5	1	1	298.841291	181.687657	412.054468	256.500362	355.4478795	219.0940095
122	6.1	6	1	1	501.649671	175.5992	534.937111	199.23116	518.293391	187.41518
122	6.1	21	1	1	1104.687412	160.404959	1241	204.886646	1172.843706	182.6458025
122	6.1	22	4	1	1235.381816	145.896914	1241	207.22582	1238.190908	176.561367
123	6.15	-260	10	1	759.77	157.44	794.7	184.6	777.235	171.02
123	6.15	0	1	1	569.014523	178.301548	623.393877	230.933206	596.2042	204.617377
123	6.15	5	1	1	223.63118	184.74166	374.235602	278.649313	298.933391	231.6954865
123	6.15	6	1	1	493.202452	176.33733	529.475994	201.685045	511.339223	189.0111875
123	6.15	7	1	1	634.535987	169.546435	650.79074	184.032768	642.6633635	176.7896015
123	6.15	21	1	1	1135.030983	156.264741	1241	203.464553	1188.0154915	179.864647
124	6.2	-261	10	1	759.77	157.44	794.7	184.6	777.235	171.02
124	6.2	0	1	1	569.080269	178.02671	623.616304	230.809352	596.3482865	204.418031
124	6.2	5	1	1	99.868412	189.252604	318.351303	315.121952	209.1098575	252.187278
124	6.2	6	1	1	484.971091	177.566529	524.720224	204.931101	504.8456575	191.248815
124	6.2	7	1	1	635.140303	170.991094	651.766576	185.784526	643.4534395	178.38781
124	6.2	21	1	1	1169.322741	153.098057	1241	200.292148	1205.1613705	176.6951025
125	6.25	-262	10	1	759.77	157.44	794.7	184.6	777.235	171.02
125	6.25	0	1	1	569.146398	177.750274	623.84002	230.684785	596.493209	204.2175295
125	6.25	5	1	1	0	196.589643	227.395612	374	113.697806	285.2948215
125	6.25	6	1	1	474.899407	180.64572	518.781691	210.350916	496.840549	195.498318
125	6.25	7	1	1	635.769546	172.498275	652.784653	187.612103	644.2770995	180.055189
125	6.25	21	1	1	1208.338497	153.617236	1241	200.804433	1224.6692485	177.2108345
126	6.3	-263	10	1	759.77	157.44	794.7	184.6	777.235	171.02
126	6.3	0	1	1	569.212913	177.472227	624.065038	230.559497	596.6389755	204.015862
126	6.3	6	1	1	462.972638	183.901601	511.874222	216.76947	487.42343	200.3355355
126	6.3	7	1	1	636.425292	174.072125	653.847774	189.520531	645.136533	181.796328
127	6.35	-264	10	1	759.77	157.44	794.7	184.6	777.235	171.02
127	6.35	0	1	1	569.279817	177.192554	624.291369	230.433482	596.785593	203.813018
127	6.35	6	1	1	446.64257	185.38808	502.056594	221.846036	474.349582	203.617058
127	6.35	7	1	1	637.10925	175.717169	654.958996	191.515296	646.034123	183.6162325
128	6.4	-265	10	1	759.77	157.44	794.7	184.6	777.235	171.02
128	6.4	0	1	1	569.347114	176.911241	624.519023	230.306734	596.9330685	203.6089875
128	6.4	6	1	1	426.576641	187.16798	490.300053	228.084646	458.438347	207.626313
128	6.4	7	1	1	637.823281	177.438349	656.12166	193.602392	646.9724705	185.5203705
129	6.45	-266	10	1	777.24	153.55	825.75	185.57	801.495	169.56
129	6.45	0	1	1	569.175504	176.712301	624.529291	230.283417	596.8523975	203.497859
129	6.45	6	1	1	402.738764	187.591511	477.091199	233.820428	439.9149815	210.7059695
129	6.45	7	1	1	638.349549	177.234125	657.12187	193.786504	647.7357095	185.5103145
130	6.5	-267	10	1	777.24	153.55	825.75	185.57	801.495	169.56
130	6.5	0	1	1	569.002766	176.512038	624.539623	230.259946	596.7711945	203.385992
130	6.5	6	1	1	371.911547	188.118049	460.667854	241.239204	416.2897005	214.6786265
130	6.5	7	1	1	638.900372	177.019848	658.171323	193.979681	648.5358475	185.4997645
131	6.55	-268	10	1	777.24	153.55	825.75	185.57	801.495	169.56
131	6.55	0	1	1	568.828888	176.310437	624.550021	230.236318	596.6894545	203.2733775
131	6.55	6	1	1	330.492976	188.790375	439.694056	251.209071	385.093516	219.999723
131	6.55	7	1	1	639.477508	176.794759	659.273749	194.18261	649.3756285	185.4886845
132	6.6	-269	10	1	784.03	155.49	827.69	185.57	805.86	170.53
132	6.6	0	1	1	568.65386	176.107486	624.560484	230.212533	596.607172	203.1600095
132	6.6	6	1	1	270.951108	192.413334	411.630737	269.126276	341.2909225	230.769805
132	6.6	7	1	1	640.082891	176.558016	660.433261	194.396048	650.258076	185.477032
132	6.6	19	1	1	812.384593	163.607668	843.844018	185.11608	828.1143055	174.361874
133	6.65	-270	10	1	784.03	155.49	827.69	185.57	805.86	170.53
133	6.65	0	1	1	568.47767	175.903172	624.571013	230.188588	596.5243415	203.04588
133	6.65	6	1	1	185.146001	197.740783	374.890773	295.766355	280.018387	246.753569
133	6.65	7	1	1	640.718646	176.308692	661.654412	194.620833	651.186529	185.4647625
133	6.65	19	1	1	817.322466	164.420844	849.884334	186.473334	833.6034	175.447089
134	6.7	0	1	1	568.104217	177.027043	624.353505	231.464243	596.228861	204.245643
134	6.7	6	1	1	41.547356	205.479006	321.505637	340.381204	181.5264965	272.930105
134	6.7	7	1	1	641.273014	178.01947	662.776642	196.820073	652.024828	187.4197715
134	6.7	18	1	1	804.985413	171.57168	836.328925	187.914845	820.657169	179.7432625
134	6.7	19	1	1	822.501574	165.276249	856.238437	187.90106	839.3700055	176.5886545
135	6.75	0	1	1	567.72869	178.157234	624.134768	232.747003	595.931729	205.4521185
135	6.75	6	1	1	0	213.749961	234.661627	374	117.3308135	293.8749805
135	6.75	7	1	1	641.855945	179.823973	663.960367	199.139752	652.908156	189.4818625
135	6.75	18	1	1	809.376608	172.836516	841.751521	189.568908	825.5640645	181.202712
135	6.75	19	1	1	827.940037	166.17726	862.931429	189.404894	845.435733	177.791077
136	6.8	0	1	1	567.35107	179.2938	623.914793	234.036928	595.6329315	206.665364
136	6.8	6	1	1	0	228.863562	75.791727	374	37.8958635	301.431781
136	6.8	7	1	1	642.469706	181.647546	665.210783	201.590041	653.8402445	191.6187935
136	6.8	18	1	1	813.968554	174.163157	847.439147	191.303746	830.7038505	182.7334515
136	6.8	19	1	1	833.657836	167.127626	869.991163	190.991085	851.8244995	179.0593555
137	6.85	0	1	1	568.03374	177.831919	624.755781	232.725184	596.3947605	205.2785515
137	6.85	7	1	1	643.944711	179.855203	667.415653	200.289039	655.680182	190.072121
137	6.85	18	1	1	819.157519	172.876607	853.819933	190.446186	836.488726	181.6613965
137	6.85	19	1	1	839.677061	168.131516	877.448633	192.666592	858.562847	180.399054
138	6.9	0	1	1	568.720271	176.361572	625.601558	231.406178	597.1609145	203.883875
138	6.9	7	1	1	645.501919	177.868584	669.751919	198.91056	657.626919	188.389572
138	6.9	18	1	1	824.391429	171.669833	860.310026	189.690323	842.3507275	180.680078
138	6.9	19	1	1	846.445103	165.833957	885.726078	191.065262	866.0855905	178.4496095
139	6.95	-271	10	1	698.64	163.26	716.11	176.84	707.375	170.05
139	6.95	0	1	1	569.410696	174.882688	626.452165	230.07985	597.9314305	202.481269
139	6.95	7	1	1	647.1484	175.759975	672.231686	197.44747	659.690043	186.6037225
139	6.95	18	1	1	829.881897	170.399512	867.14197	188.894683	848.5119335	179.6470975
139	6.95	19	1	1	853.581403	163.402202	894.487155	189.370529	874.034279	176.3863655
140	7	-272	10	1	698.64	163.26	716.11	176.84	707.375	170.05
140	7	0	1	1	570.105047	173.395193	627.307644	228.746142	598.7063455	201.0706675
140	7	7	1	1	649.116864	175.089112	675.110485	197.463808	662.1136745	186.27646
140	7	18	1	1	836.094864	168.902587	874.800012	187.908833	855.447438	178.40571
140	7	19	1	1	861.149311	161.88755	903.811084	188.637442	882.4801975	175.262496
141	7.05	-273	10	1	698.64	163.26	716.11	176.84	707.375	170.05
141	7.05	0	1	1	570.803357	171.899013	628.168037	227.404991	599.485697	199.652002
141	7.05	7	1	1	651.205136	174.374324	678.177837	197.481216	664.6914865	185.92777
141	7.05	18	1	1	842.634881	167.320597	882.893335	186.867061	862.764108	177.093829
141	7.05	19	1	1	869.165087	161.192677	913.727603	188.772724	891.446345	174.9827005
142	7.1	-274	10	1	707.37	163.26	722.9	176.84	715.135	170.05
142	7.1	0	1	1	572.336277	173.252852	629.849141	228.899182	601.092709	201.076017
142	7.1	7	1	1	653.617576	175.129868	681.66173	199.019236	667.639653	187.074552
142	7.1	16	9	1	812.299551	155.564726	831.271395	179.654306	821.785473	167.609516
142	7.1	18	1	1	849.994134	167.783808	891.965403	187.90204	870.9797685	177.842924
142	7.1	19	1	1	877.656251	160.453277	924.279831	188.916662	900.968041	174.6849695
143	7.15	-275	10	1	707.37	163.26	722.9	176.84	715.135	170.05
143	7.15	0	1	1	573.881458	175.058217	631.543923	230.845488	602.7126905	202.9518525
143	7.15	7	1	1	656.186477	175.93839	685.389987	200.665045	670.788232	188.3017175
143	7.15	16	9	1	817.462654	156.207444	837.01137	180.847019	827.237012	168.5272315
143	7.15	18	1	1	857.762976	168.274976	901.58512	188.999361	879.674048	178.6371685
143	7.15	19	1	1	886.592391	160.582633	935.484923	189.989767	911.038657	175.2862
144	7.2	-276	10	1	710.28	164.23	724.84	175.87	717.56	170.05
144	7.2	0	1	1	575.421878	175.614058	633.233915	231.541894	604.3278965	203.577976
144	7.2	7	1	1	658.055558	176.390412	688.44989	202.004018	673.252724	189.197215
144	7.2	16	9	1	822.863228	156.880605	843.023331	182.102389	832.9432795	169.491497
144	7.2	18	1	1	865.976581	168.79671	911.803618	190.164831	888.8900995	179.4807705
144	7.2	19	1	1	896.093626	160.720867	947.459378	191.136459	921.776502	175.928663
145	7.25	-277	10	1	710.28	164.23	724.84	175.87	717.56	170.05
145	7.25	0	1	1	576.96815	175.975543	634.93064	232.04442	605.949395	204.0099815
145	7.25	7	1	1	660.052619	176.876072	691.737586	203.442615	675.8951025	190.1593435
145	7.25	16	9	1	828.518044	157.586427	849.327078	183.41856	838.922561	170.5024935
145	7.25	18	1	1	873.667358	169.317007	921.57218	191.34161	897.619769	180.3293085
145	7.25	19	1	1	906.215308	160.868926	960.285253	192.364575	933.2502805	176.6167505
146	7.3	-278	10	1	712.22	168.11	724.84	178.78	718.53	173.445
146	7.3	0	1	1	578.516136	175.728383	636.629609	231.938782	607.5728725	203.8335825
146	7.3	7	1	1	662.191271	177.39927	695.279493	204.992384	678.735382	191.195827
146	7.3	16	9	1	834.445484	158.327345	855.944381	184.80006	845.1949325	171.5637025
146	7.3	18	1	1	881.805433	169.870331	931.961035	192.593015	906.883234	181.231673
146	7.3	19	1	1	917.020262	161.027895	974.056699	193.683106	945.5384805	177.3555005
146	7.3	20	9	1	963.130325	146.014004	1008.850186	193.836488	985.9902555	169.925246
147	7.35	-279	10	1	714.16	167.14	731.63	182.66	722.895	174.9
147	7.35	0	1	1	580.055317	175.982776	638.313811	232.328334	609.184564	204.155555
147	7.35	7	1	1	664.487127	177.964533	699.106285	206.666731	681.796706	192.315632
147	7.35	16	9	1	840.665752	159.106044	862.899234	186.251876	851.782493	172.67896
147	7.35	18	1	1	890.430998	170.459931	943.031204	193.926378	916.731101	182.1931545
147	7.35	19	1	1	928.580093	161.199027	988.882288	195.10242	958.7311905	178.1507235
147	7.35	20	9	1	977.414437	145.346171	1025.612525	195.13336	1001.513481	170.2397655
148	7.4	0	1	1	581.601982	176.238464	640.006494	232.719745	610.804238	204.4791045
148	7.4	7	1	1	666.958179	178.577145	703.253768	208.481303	685.1059735	193.529224
148	7.4	16	9	1	846.355585	159.742369	869.335759	187.56732	857.845672	173.6548445
148	7.4	18	1	1	899.589206	171.089494	954.851979	195.350022	927.2205925	183.219758
148	7.4	19	1	1	940.099235	162.184851	1003.899783	197.422082	971.999509	179.8034665
148	7.4	20	9	1	992.868942	144.621205	1043.80998	196.541416	1018.339461	170.5813105
149	7.45	0	1	1	583.156186	176.495457	641.707723	233.113029	612.4319545	204.804243
149	7.45	7	1	1	669.625279	179.243318	707.764022	210.454488	688.6946505	194.848903
149	7.45	16	9	1	852.328732	160.411429	876.10353	188.950357	864.216131	174.680893
149	7.45	18	1	1	909.330968	171.763227	967.502381	196.873439	938.4166745	184.318333
149	7.45	19	1	1	952.474947	163.251526	1020.149552	199.931789	986.3122495	181.5916575
149	7.45	20	9	1	1009.610489	147.097678	1063.591666	201.341943	1036.6010775	174.2198105
150	7.5	0	1	1	584.717982	176.753765	643.417562	233.508198	614.067772	205.1309815
150	7.5	7	1	1	671.254305	180.024527	711.29319	212.661611	691.2737475	196.343069
150	7.5	16	9	1	858.80084	163.679542	883.430741	192.96832	871.1157905	178.323931
150	7.5	18	1	1	919.407924	176.766177	980.764219	202.792541	950.0860715	189.779359
150	7.5	19	1	1	965.603504	166.447853	1037.566462	204.693672	1001.584983	185.5707625
150	7.5	20	9	1	1027.840452	149.804945	1085.218385	206.590879	1056.5294185	178.197912
151	7.55	0	1	1	586.287423	177.013398	645.136076	233.905267	615.7117495	205.4593325
151	7.55	7	1	1	673.023654	180.82472	715.160493	215.080052	694.0920735	197.952386
151	7.55	16	9	1	865.30465	159.231527	890.833809	189.316988	878.0692295	174.2742575
151	7.55	18	1	1	930.449762	172.967768	995.331181	199.984346	962.8904715	186.476057
151	7.55	19	1	1	979.502027	162.873019	1056.153575	202.792647	1017.827801	182.832833
151	7.55	20	9	1	1047.187434	144.718196	1108.363055	204.277531	1077.7752445	174.4978635
152	7.6	0	1	1	587.613071	176.630769	646.610201	233.662477	617.111636	205.146623
152	7.6	7	1	1	676.2307	176.027132	720.760852	211.901943	698.495776	193.9645375
152	7.6	16	9	1	872.157379	154.53632	898.648475	185.46299	885.402927	169.999655
152	7.6	18	1	1	942.057273	168.084203	1010.804812	196.169493	976.4310425	182.126848
152	7.6	19	1	1	994.538625	158.971173	1076.441988	200.71793	1035.4903065	179.8445515
152	7.6	20	9	1	1068.426697	139.10774	1133.892735	201.725282	1101.159716	170.416511
153	7.65	0	1	1	588.945221	176.246253	648.091602	233.418495	618.5184115	204.832374
153	7.65	7	1	1	679.037817	175.729003	726.161763	213.454131	702.59979	194.591567
153	7.65	16	9	1	879.578302	153.784799	907.114959	185.609153	893.3466305	169.696976
153	7.65	18	1	1	954.550557	165.160752	1027.588734	194.401624	991.0696455	179.781188
153	7.65	19	1	1	1010.859051	154.695291	1098.676484	198.444575	1054.7677675	176.569933
153	7.65	20	9	1	1091.850132	132.88831	1162.196105	198.895108	1127.0231185	165.891709
154	7.7	0	1	1	590.283922	175.859835	649.580332	233.173313	619.932127	204.516574
154	7.7	7	1	1	682.628867	177.307781	732.777647	217.120943	707.703257	197.214362
154	7.7	16	9	1	887.426669	152.988335	916.088002	185.764043	901.7573355	169.376189
154	7.7	18	1	1	968.052993	165.926562	1045.878222	196.420089	1006.9656075	181.1733255
154	7.7	19	1	1	1029.021432	153.748591	1123.675115	199.726279	1076.3482735	176.737435
154	7.7	20	9	1	1117.840943	131.008448	1193.745333	200.776551	1155.793138	165.8924995
155	7.75	0	1	1	591.629223	175.471503	651.076446	232.926921	621.3528345	204.199212
155	7.75	7	1	1	686.589898	179.071705	740.169838	221.217435	713.379868	200.14457
155	7.75	16	9	1	895.740509	152.142772	925.614469	185.928467	910.677489	169.0356195
155	7.75	18	1	1	981.724963	165.619879	1064.71279	197.43973	1023.2188765	181.5298045
155	7.75	19	1	1	1048.901809	152.700225	1151.360219	201.145518	1100.131014	176.9228715
155	7.75	20	9	1	1146.783728	128.90181	1229.104525	202.885794	1187.9441265	165.893802
156	7.8	0	1	1	592.981171	175.081242	652.579999	232.67931	622.780585	203.880276
156	7.8	7	1	1	690.459113	179.309307	747.965059	224.037091	719.212086	201.673199
156	7.8	16	9	1	904.562494	151.243425	935.747186	186.103333	920.15484	168.673379
156	7.8	18	1	1	996.494948	165.285287	1085.262172	198.552096	1040.87856	181.9186915
156	7.8	19	1	1	1070.346051	151.646949	1181.598528	202.783708	1125.9722895	177.2153285
156	7.8	20	9	1	1179.211683	126.73207	1241	205.266875	1210.1058415	165.9994725
157	7.85	0	1	1	594.339817	174.689037	654.091046	232.430471	624.2154315	203.559754
157	7.85	7	1	1	694.765474	179.577901	756.777704	227.224796	725.771589	203.4013485
157	7.85	16	9	1	913.940681	150.284995	946.545929	186.289667	930.243305	168.287331
157	7.85	18	1	1	1012.500758	164.918794	1107.771728	199.770439	1060.136243	182.3446165
157	7.85	19	1	1	1093.983004	150.469686	1215.399133	204.614571	1154.6910685	177.5421285
157	7.85	20	9	1	1215.794643	126.003149	1241	207.043772	1228.3973215	166.5234605
158	7.9	0	1	1	595.705211	174.294873	655.609644	232.180396	625.6574275	203.2376345
158	7.9	7	1	1	699.587496	179.883972	766.820871	230.857644	733.2041835	205.370808
158	7.9	16	9	1	923.743722	149.047101	957.776075	186.261543	940.7598985	167.654322
158	7.9	18	1	1	1029.904269	164.515611	1132.535973	201.11066	1081.220121	182.8131355
158	7.9	19	1	1	1120.167099	149.274265	1241	206.674221	1180.5835495	177.974243
159	7.95	0	1	1	597.049547	174.631514	657.084447	232.638199	627.066997	203.6348565
159	7.95	7	1	1	705.102441	180.218384	778.384282	234.958415	741.7433615	207.5883995
159	7.95	16	9	1	934.197456	147.723083	969.787759	186.231469	951.9926075	166.977276
159	7.95	17	3	1	722.18317	171.653756	738.934163	235.029996	730.5586665	203.341876
159	7.95	18	1	1	1049.149857	163.929445	1160.314059	202.470096	1104.731958	183.1997705
159	7.95	19	1	1	1149.162572	147.882319	1241	208.622754	1195.081286	178.2525365
160	8	0	1	1	598.399539	174.96958	658.565497	233.09793	628.482518	204.033755
160	8	7	1	1	711.355198	180.561955	791.792616	239.71353	751.573907	210.1377425
160	8	16	9	1	945.36887	146.30363	982.665528	186.199235	964.017199	166.2514325
160	8	17	3	1	732.680927	172.126878	747.680928	240.70671	740.1809275	206.416794
160	8	18	1	1	1070.255834	163.277445	1191.213789	203.982223	1130.7348115	183.629834
160	8	19	1	1	1181.656197	147.978917	1241	208.869948	1211.3280985	178.4244325
161	8.05	0	1	1	599.755221	175.30908	660.052832	233.559599	629.9040265	204.4343395
161	8.05	7	1	1	718.50444	180.936199	807.525683	245.293182	763.0150615	213.1146905
161	8.05	16	9	1	956.131746	145.703467	995.397434	187.053952	975.76459	166.3787095
161	8.05	17	3	1	741.639568	172.684401	760.58797	247.39883	751.113769	210.0416155
161	8.05	18	1	1	1093.505651	162.54786	1225.792702	205.674299	1159.6491765	184.1110795
161	8.05	19	1	1	1218.32166	148.227408	1241	209.000939	1229.66083	178.6141735
162	8.1	0	1	1	601.11663	175.650023	661.546494	234.023221	631.331562	204.836622
162	8.1	7	1	1	726.56657	181.508058	825.869486	252.269311	776.218028	216.8886845
162	8.1	17	3	1	752.058381	173.351121	773.391715	255.405555	762.725048	214.378338
162	8.1	18	1	1	1119.243423	161.975802	1241	207.580477	1180.1217115	184.7781395
163	8.15	0	1	1	601.642785	176.449784	662.238675	234.980019	631.94073	205.7149015
163	8.15	7	1	1	736.016203	182.178609	848.185771	260.751528	792.100987	221.4650685
163	8.15	16	9	1	980.08102	144.361405	1023.870023	188.965444	1001.9755215	166.6634245
163	8.15	17	3	1	766.756715	173.350144	792.14531	264.392202	779.4510125	218.871173
163	8.15	18	1	1	1146.676294	159.940923	1241	207.683788	1193.838147	183.8123555
164	8.2	0	1	1	602.171796	177.253909	662.934637	235.942016	632.5532165	206.5979625
164	8.2	7	1	1	747.245215	182.975811	875.921683	271.286578	811.583449	227.1311945
164	8.2	16	9	1	993.456387	143.607887	1039.857464	190.038796	1016.6569255	166.8233415
164	8.2	17	3	1	784.516259	173.348927	811.182926	275.589733	797.8495925	224.46933
164	8.2	18	1	1	1177.330229	158.551307	1241	206.294424	1209.1651145	182.4228655
165	8.25	0	1	1	602.703688	178.062436	663.634411	236.909255	633.1690495	207.4858455
165	8.25	7	1	1	760.511173	183.917214	910.537478	284.430747	835.5243255	234.1739805
165	8.25	16	9	1	1007.70726	143.415684	1056.94197	191.781147	1032.324615	167.5984155
165	8.25	17	3	1	808.583977	173.347371	841.537025	289.928463	825.060501	231.637917
165	8.25	18	1	1	1211.807852	157.170866	1241	204.887938	1226.403926	181.029402
166	8.3	0	1	1	603.238483	178.8754	664.338029	237.881778	633.788256	208.378589
166	8.3	7	1	1	776.782977	185.072741	955.980713	301.667372	866.381845	243.3700565
166	8.3	16	9	1	1023.133618	143.206759	1075.514649	193.675336	1049.3241335	168.4410475
166	8.3	17	3	1	838.538266	173.34531	873.204934	308.945824	855.8716	241.145567
167	8.35	0	1	1	602.622804	178.845028	663.949806	238.073578	633.286305	208.459303
167	8.35	7	1	1	797.212704	186.524822	1018.273357	325.260136	907.7430305	255.892479
167	8.35	16	9	1	1039.530174	140.687715	1095.451531	193.504203	1067.4908525	167.095959
167	8.35	17	3	1	880.692127	173.342451	929.342063	335.378133	905.017095	254.360292
168	8.4	0	1	1	602.00248	178.814428	663.558662	238.266826	632.780571	208.540627
168	8.4	7	1	1	823.627431	188.404426	1108.919401	359.519637	966.273416	273.9620315
168	8.4	16	9	1	1057.433376	137.923111	1117.333243	193.316363	1087.3833095	165.619737
168	8.4	17	3	1	938.275327	173.338218	992.275327	374	965.275327	273.669109
169	8.45	0	1	1	601.377459	178.783598	663.164565	238.461541	632.271012	208.6225695
169	8.45	7	1	1	855.33271	189.928079	1241	374	1048.166355	281.9640395
169	8.45	16	9	1	1077.060863	134.875203	1141.458977	193.109246	1109.25992	163.9922245
169	8.45	17	3	1	1027.454808	173.32816	1125.086647	374	1076.2707275	273.66408
170	8.5	0	1	1	601.636551	178.708813	663.659083	238.614055	632.647817	208.661434
170	8.5	7	1	1	900.277006	192.071495	1241	374	1070.638503	283.0357475
170	8.5	16	9	1	1100.219606	132.383739	1169.781825	193.795299	1135.0007155	163.089519
170	8.5	17	3	1	1201.10378	174.486732	1241	374	1221.05189	274.243366
171	8.55	0	1	1	602.049742	179.034228	664.310633	239.168635	633.1801875	209.1014315
171	8.55	7	1	1	968.910486	195.309153	1241	374	1104.955243	284.6545765
172	8.6	0	1	1	602.466115	179.362128	664.967158	239.727483	633.7166365	209.5448055
172	8.6	7	1	1	1106.739398	208.239706	1241	374	1173.869699	291.119853
172	8.6	16	9	1	1151.93111	126.698463	1233.847787	195.370096	1192.8894485	161.0342795
173	8.65	0	1	1	602.885708	179.692542	665.628715	240.290649	634.2572115	209.9915955
173	8.65	16	9	1	1184.492094	125.23834	1241	198.033066	1212.746047	161.635703
174	8.7	0	1	1	603.308559	180.0255	666.295363	240.858181	634.801961	210.4418405
174	8.7	16	9	1	1221.327795	126.004282	1241	200.013962	1231.1638975	163.009122
175	8.75	0	1	1	602.940934	179.180766	666.258246	240.335391	634.59959	209.7580785
176	8.8	0	1	1	602.56942	178.327123	666.22073	239.807056	634.395075	209.0670895
177	8.85	0	1	1	602.193952	177.464426	666.182811	239.273086	634.1883815	208.368756
178	8.9	0	1	1	601.814469	176.592532	666.144482	238.733391	633.9794755	207.6629615
179	8.95	0	1	1	601.056665	176.428481	665.683999	238.859527	633.370332	207.644004
180	9	0	1	1	600.291763	176.2629	665.219216	238.986845	632.7554895	207.6248725
181	9.05	0	1	1	599.519663	176.09577	664.75007	239.115362	632.1348665	207.605566
182	9.1	0	1	1	599.575728	174.415334	665.07614	237.696722	632.325934	206.056028
183	9.15	0	1	1	599.632257	172.720944	665.40492	236.266328	632.5185885	204.493636
184	9.2	0	1	1	599.689256	171.012424	665.736444	234.824033	632.71285	202.9182285
185	9.25	0	1	1	598.571168	170.921803	664.915206	235.022747	631.743187	202.972275
186	9.3	0	1	1	597.442908	170.830356	664.086466	235.223269	630.764687	203.0268125
187	9.35	0	1	1	597.301002	171.240198	664.089905	235.773065	630.6954535	203.5066315
188	9.4	-280	10	1	749.1	156.46	766.56	168.11	757.83	162.285
188	9.4	0	1	1	597.158477	171.651837	664.093359	236.325263	630.625918	203.98855
189	9.45	-281	10	1	750.07	158.41	771.41	169.08	760.74	163.745
189	9.45	0	1	1	597.015328	172.065285	664.096828	236.879878	630.556078	204.4725815
190	9.5	-282	10	1	736.93	157.32	787.83	174.36	762.38	165.84
190	9.5	0	1	1	596.871552	172.480554	664.100312	237.436928	630.485932	204.958741
191	9.55	-283	10	1	743.27	160.35	780.15	172.96	761.71	166.655
191	9.55	0	1	1	596.927209	172.883086	664.240011	237.919716	630.58361	205.401401
192	9.6	-284	10	1	746.19	160.35	781.12	175.87	763.655	168.11
192	9.6	0	1	1	596.983005	173.286625	664.38006	238.403704	630.6815325	205.8451645
193	9.65	-285	10	1	744.24	158.41	782.09	173.93	763.165	166.17
193	9.65	0	1	1	597.03894	173.691175	664.520459	238.888897	630.7796995	206.290036
193	9.65	8	8	1	700.83126	150.53461	723.861837	184.049677	712.3465485	167.2921435
194	9.7	-286	10	1	740.36	160.35	782.09	178.78	761.225	169.565
194	9.7	0	1	1	596.84477	174.099086	664.341712	239.311608	630.593241	206.705347
194	9.7	8	8	1	701.489904	149.62569	725.742964	184.45405	713.616434	167.03987
195	9.75	-287	10	1	740.36	160.35	782.09	178.78	761.225	169.565
195	9.75	0	1	1	596.650509	174.507194	664.162878	239.734517	630.4066935	207.1208555
195	9.75	8	8	1	702.193134	148.642589	727.777685	184.891374	714.9854095	166.7669815
196	9.8	-288	10	1	740.36	160.35	782.09	178.78	761.225	169.565
196	9.8	0	1	1	596.456158	174.915496	663.983959	240.157623	630.2200585	207.5365595
196	9.8	8	8	1	702.945635	147.575838	729.985616	185.365846	716.4656255	166.470842
197	9.85	-289	10	1	740.36	160.35	782.09	178.78	761.225	169.565
197	9.85	0	1	1	596.261716	175.323994	663.804954	240.580927	630.033335	207.9524605
197	9.85	8	8	1	703.752771	146.414285	732.38986	185.882411	718.0713155	166.148348
198	9.9	-290	10	1	740.36	160.35	782.09	178.78	761.225	169.565
198	9.9	0	1	1	596.622745	175.167608	664.113552	240.372943	630.3681485	207.7702755
198	9.9	8	8	1	704.620714	145.144706	735.017819	186.446929	719.8192665	165.7958175
199	9.95	-291	10	1	740.36	160.35	782.09	178.78	761.225	169.565
199	9.95	0	1	1	596.983202	175.011468	664.421663	240.16529	630.7024325	207.588379
199	9.95	8	8	1	705.556604	143.751295	737.902243	187.066403	721.7294235	165.408849
200	10	-292	10	1	740.36	160.35	782.09	178.78	761.225	169.565
200	10	0	1	1	597.343087	174.855574	664.729287	239.957965	631.036187	207.4067695
200	10	8	8	1	706.568742	142.215007	741.082607	187.749268	723.8256745	164.9821375
201	10.05	-293	10	1	740.36	160.35	782.09	178.78	761.225	169.565
201	10.05	0	1	1	597.702404	174.699925	665.036426	239.750969	631.369415	207.225447
201	10.05	8	8	1	707.666839	140.512677	744.606921	188.505778	726.13688	164.5092275
201	10.05	27	3	1	424.777695	174.176382	439.120825	203.123004	431.94926	188.649693
202	10.1	-294	10	1	740.36	160.35	782.09	178.78	761.225	169.565
202	10.1	0	1	1	597.567479	174.778622	664.803021	239.731359	631.18525	207.2549905
202	10.1	8	8	1	708.964034	139.541325	749.159277	190.275951	729.0616555	164.908638
202	10.1	27	3	1	418.884749	175.056337	430.551416	205.140308	424.7180825	190.0983225
203	10.15	-295	10	1	740.36	160.35	782.09	178.78	761.225	169.565
203	10.15	0	1	1	597.433021	174.857098	664.570211	239.7118	631.001616	207.284449
203	10.15	8	8	1	710.382065	138.452172	754.264187	192.260828	732.323126	165.3565
203	10.15	27	3	1	409.968806	176.008316	422.264246	207.322748	416.116526	191.665532
204	10.2	-296	10	1	752.01	164.23	782.09	179.75	767.05	171.99
204	10.2	0	1	1	597.299028	174.935357	664.337995	239.692292	630.8185115	207.3138245
204	10.2	8	8	1	711.93862	137.222393	760.028787	194.501985	735.9837035	165.862189
204	10.2	27	3	1	400.04793	177.04154	412.381263	209.691466	406.2145965	193.366503
205	10.25	-297	10	1	752.01	164.23	782.09	179.75	767.05	171.99
205	10.25	0	1	1	597.165498	175.013397	664.106371	239.672833	630.6359345	207.343115
205	10.25	8	8	1	713.655013	135.822864	766.589824	197.052471	740.1224185	166.4376675
205	10.25	27	3	1	389.99689	178.166872	402.010925	212.271373	396.0039075	195.2191225
206	10.3	-298	10	1	752.01	164.23	782.09	179.75	767.05	171.99
206	10.3	0	1	1	597.032429	175.091221	663.875336	239.653425	630.4538825	207.372323
206	10.3	8	8	1	716.178738	132.790271	775.045672	198.633608	745.612205	165.7119395
206	10.3	11	8	1	710.312016	145.339455	746.932806	193.726063	728.622411	169.532759
206	10.3	27	3	1	378.8626	179.397204	389.862601	215.092032	384.3626005	197.244618
207	10.35	0	1	1	596.899819	175.168829	663.644887	239.634066	630.272353	207.4014475
207	10.35	8	8	1	718.995934	129.263351	784.881059	200.47231	751.9384965	164.8678305
207	10.35	11	8	1	711.546318	143.618955	751.58781	194.810845	731.567064	169.2149
207	10.35	27	3	1	365.333297	179.427758	378.529534	216.922022	371.9314155	198.17489
208	10.4	0	1	1	596.767667	175.246222	663.415024	239.614757	630.0913455	207.4304895
208	10.4	8	8	1	722.160913	125.110509	796.463638	202.637092	759.3122755	163.8738005
208	10.4	11	8	1	712.907415	141.687003	756.814574	196.02934	734.8609945	168.8581715
208	10.4	27	3	1	350.181696	179.461557	364.848362	218.946314	357.515029	199.2039355
209	10.45	0	1	1	595.452592	175.343842	661.899205	239.521073	628.6758985	207.4324575
209	10.45	8	8	1	725.742272	120.148892	810.30444	205.223133	768.023356	162.6860125
209	10.45	11	8	1	714.415785	139.502058	762.725485	197.40789	738.570635	168.454974
209	10.45	27	3	1	336.614132	179.499145	351.999153	221.197587	344.3066425	200.348366
210	10.5	0	1	1	594.145376	175.440904	660.392007	239.427937	627.2686915	207.4344205
210	10.5	8	8	1	729.692359	114.41037	828.72078	208.645965	779.2065695	161.5281675
210	10.5	11	8	1	716.096566	137.010932	769.464465	198.980246	742.7805155	167.995589
210	10.5	27	3	1	320.883455	179.881199	335.883454	224.059229	328.3834545	201.970214
211	10.55	0	1	1	592.845951	175.537415	658.893357	239.335343	625.869654	207.436379
211	10.55	8	8	1	734.242517	107.289298	851.579379	212.896321	792.910948	160.0928095
211	10.55	11	8	1	717.98095	134.14441	777.218853	200.790361	747.5999015	167.4673855
211	10.55	27	3	1	298.01807	180.298015	314.998684	227.282701	306.508377	203.790358
212	10.6	0	1	1	591.438103	175.510805	657.280966	239.118594	624.3595345	207.3146995
212	10.6	8	8	1	739.540374	98.217534	880.708746	218.315513	810.12456	158.2665235
212	10.6	11	8	1	720.108128	130.81071	786.23713	202.896568	753.172629	166.853639
212	10.6	12	8	1	711.027729	139.578358	757.113579	196.193743	734.070654	167.8860505
212	10.6	27	3	1	271.260199	180.76904	288.926866	230.941259	280.0935325	205.8551495
213	10.65	0	1	1	590.038622	175.484357	655.67837	238.903129	622.858496	207.193743
213	10.65	8	8	1	747.69496	85.390414	922.960879	224.936198	835.3279195	155.163306
213	10.65	11	8	1	722.528034	126.885474	796.856062	205.377984	759.692048	166.131729
213	10.65	12	8	1	711.851694	137.305473	763.234987	197.850563	737.5433405	167.578018
213	10.65	27	3	1	244.806152	181.305585	265.20481	235.129365	255.005481	208.217475
214	10.7	0	1	1	588.647436	175.45807	654.085481	238.688936	621.3664585	207.073503
214	10.7	8	8	1	757.480314	67.617735	981.540031	234.122328	869.5101725	150.8700315
214	10.7	11	8	1	727.36027	122.070766	811.566929	208.383565	769.4635995	165.2271655
214	10.7	12	8	1	712.770887	134.694289	770.267075	199.755014	741.518981	167.2246515
214	10.7	13	8	1	706.135676	146.051832	742.823054	194.384844	724.479365	170.218338
214	10.7	27	3	1	213.252753	181.922342	234.586087	239.970963	223.91942	210.9466525
215	10.75	0	1	1	587.493219	175.425147	652.673129	238.412655	620.083174	206.918901
215	10.75	8	8	1	769.439309	41.356151	1068.178637	247.723299	918.808973	144.539725
215	10.75	11	8	1	732.975589	116.190886	829.536452	212.054774	781.2560205	164.12283
215	10.75	12	8	1	713.802608	131.663176	778.429727	201.967078	746.1161675	166.815127
215	10.75	13	8	1	706.257057	144.266136	746.578562	195.477218	726.4178095	169.871677
215	10.75	27	3	1	175.859879	182.206273	206.123229	245.034245	190.991554	213.620259
216	10.8	0	1	1	586.347856	175.392482	651.271795	238.138487	618.8098255	206.7654845
216	10.8	8	8	1	784.385782	0	1209.391318	269.928378	996.88855	134.964189
216	10.8	11	8	1	739.581037	108.848388	851.982413	216.640261	795.781725	162.7443245
216	10.8	12	8	1	714.968599	128.101945	788.019842	204.567812	751.4942205	166.3348785
216	10.8	13	8	1	706.39097	142.254621	750.808643	196.707978	728.5998065	169.4812995
216	10.8	27	3	1	130.602906	182.540619	167.269571	251.02194	148.9362385	216.7812795
217	10.85	0	1	1	585.211244	175.360071	649.88135	237.866408	617.546297	206.6132395
217	10.85	8	8	1	806.960152	0	1241	312.497784	1023.980076	156.248892
217	10.85	11	8	1	749.396206	99.107846	885.36682	222.834709	817.381513	160.9712775
217	10.85	12	8	1	718.312864	123.376395	802.47256	207.460212	760.392712	165.4183035
217	10.85	13	8	1	706.539363	139.971552	755.609454	198.105196	731.0744085	169.038374
217	10.85	27	3	1	83.90597	182.932517	119.760345	258.145941	101.8331575	220.539229
218	10.9	0	1	1	584.347945	175.321758	648.689389	237.515165	616.518667	206.4184615
218	10.9	8	8	1	837.371177	0	1241	315.807296	1039.1855885	157.903648
218	10.9	11	8	1	761.406946	85.993923	930.335517	231.184159	845.8712315	158.589041
218	10.9	12	8	1	722.170558	117.607515	820.118703	210.994226	771.1446305	164.3008705
218	10.9	13	8	1	706.704604	137.357952	761.105022	199.705088	733.904813	168.53152
218	10.9	27	3	1	25.394586	183.407297	55.061254	266.84492	40.22792	225.1261085
219	10.95	0	1	1	583.493252	175.283833	647.509462	237.167415	615.501357	206.225624
219	10.95	8	8	1	880.554533	0	1241	320.298021	1060.7772665	160.1490105
219	10.95	11	8	1	776.442156	67.387126	994.185282	243.049938	885.313719	155.218532
219	10.95	12	8	1	728.258642	110.651492	843.809959	215.776534	786.0343005	163.214013
219	10.95	13	8	1	708.541118	134.309148	769.714785	201.50417	739.1279515	167.906659
219	10.95	14	8	1	706.034601	145.821277	740.374077	194.421492	723.204339	170.1213845
220	11	0	1	1	582.647037	175.246289	646.341387	236.823107	614.494212	206.034698
220	11	8	8	1	950.846355	0	1241	326.121735	1095.9231775	163.0608675
220	11	11	8	1	797.736368	38.490391	1095.566223	260.82673	946.6512955	149.6585605
220	11	12	8	1	735.457903	101.69831	874.314012	221.936833	804.8859575	161.8175715
220	11	13	8	1	710.598879	130.746956	779.775024	203.606859	745.1869515	167.1769075
220	11	14	8	1	707.186113	144.011797	745.146488	195.530482	726.1663005	169.7711395
221	11.05	0	1	1	581.809176	175.209121	645.184987	236.48219	613.4970815	205.8456555
221	11.05	8	8	1	1072.165977	0	1241	332.896855	1156.5829885	166.4484275
221	11.05	11	8	1	826.196533	0	1241	291.541729	1033.5982665	145.7708645
221	11.05	12	8	1	744.102811	89.743631	915.063787	230.170926	829.583299	159.9572785
221	11.05	13	8	1	712.920294	126.529765	791.686236	206.097086	752.303265	166.3134255
221	11.05	14	8	1	708.460646	141.971621	750.526673	196.781358	729.4936595	169.3764895
222	11.1	0	1	1	581.918957	175.622711	644.927429	236.540605	613.423193	206.081658
222	11.1	11	8	1	866.170132	0	1241	331.533578	1053.585066	165.766789
222	11.1	12	8	1	756.257731	72.991371	974.988589	241.639501	865.62316	157.315436
222	11.1	13	8	1	715.559335	121.458613	806.01133	209.092856	760.7853325	165.2757345
222	11.1	14	8	1	709.878858	139.653618	756.638847	198.203206	733.2588525	168.928412
222	11.1	15	8	1	703.36889	145.429141	740.652463	193.503954	722.0106765	169.4665475
223	11.15	0	1	1	582.027478	176.031526	644.672846	236.598347	613.350162	206.3149365
223	11.15	11	8	1	929.905337	0	1241	334.163208	1085.4526685	167.081604
223	11.15	12	8	1	771.452172	47.833669	1065.070405	258.898187	918.2612885	153.365928
223	11.15	13	8	1	720.273408	115.682449	825.899053	213.232436	773.0862305	164.4574425
223	11.15	14	8	1	711.466297	136.996876	763.643565	199.833648	737.554931	168.415262
223	11.15	15	8	1	703.435963	143.900021	744.056106	194.803313	723.7460345	169.351667
224	11.2	0	1	1	582.134759	176.435649	644.421187	236.655429	613.277973	206.545539
224	11.2	11	8	1	1037.275245	0	1241	338.856495	1139.1376225	169.4282475
224	11.2	12	8	1	790.988567	5.825608	1215.731042	287.812351	1003.3598045	146.8189795
224	11.2	13	8	1	725.734761	108.433924	850.863471	218.429729	788.299116	163.4318265
224	11.2	14	8	1	713.254932	133.921278	771.752064	201.722214	742.503498	167.821746
224	11.2	15	8	1	703.510332	142.179894	747.884626	196.265312	725.697479	169.222603
225	11.25	0	1	1	582.240821	176.83516	644.172402	236.711862	613.2066115	206.773511
225	11.25	12	8	1	816.586528	0	1241	340.304679	1028.793264	170.1523395
225	11.25	13	8	1	732.136175	99.067796	883.133372	225.149463	807.6347735	162.1086295
225	11.25	14	8	1	715.28531	130.319275	781.24798	203.935465	748.266645	167.12737
225	11.25	15	8	1	703.593157	140.230576	752.223003	197.922519	727.90808	169.0765475
226	11.3	0	1	1	581.746674	177.239136	643.335689	236.786458	612.5411815	207.012797
226	11.3	12	8	1	851.728303	0	1241	343.980941	1046.3641515	171.9904705
226	11.3	13	8	1	739.74297	86.497297	926.465902	234.175331	833.104436	160.336314
226	11.3	14	8	1	717.609638	126.043053	792.521266	206.565	755.065452	166.3040265
226	11.3	15	8	1	704.985088	137.96752	758.897484	199.805098	731.941286	168.886309
227	11.35	0	1	1	581.25792	177.638685	642.508154	236.860239	611.883037	207.249462
227	11.35	12	8	1	902.972328	0	1241	348.859139	1071.986164	174.4295695
227	11.35	13	8	1	749.337221	68.767729	988.462023	246.910496	868.899622	157.8391125
227	11.35	14	8	1	722.197749	121.518985	808.030449	210.40484	765.114099	165.9619125
227	11.35	15	8	1	706.540618	135.354389	766.60479	201.979543	736.572704	168.666966
228	11.4	-299	10	1	699.61	171.02	717.08	183.63	708.345	177.325
228	11.4	0	1	1	580.77447	178.033878	641.689645	236.933218	611.2320575	207.483548
228	11.4	12	8	1	987.201126	0	1241	348.654297	1114.100563	174.3271485
228	11.4	13	8	1	761.151715	41.840167	1082.723696	266.283412	921.9377055	154.0617895
228	11.4	14	8	1	727.559031	115.947382	827.134877	215.136636	777.346954	165.542009
228	11.4	15	8	1	708.290269	132.303127	775.604955	204.519424	741.947612	168.4112755
229	11.45	-300	10	1	693.79	169.08	719.99	187.51	706.89	178.295
229	11.45	0	1	1	580.29624	178.424788	640.880015	237.00541	610.5881275	207.715099
229	11.45	12	8	1	1133.081938	0	1241	351.153952	1187.040969	175.576976
229	11.45	13	8	1	777.668297	0	1241	300.097769	1009.3341485	150.0488845
229	11.45	14	8	1	733.906613	108.916735	851.249134	221.111988	792.5778735	165.0143615
229	11.45	15	8	1	710.272657	128.693441	786.253311	207.525297	748.262984	168.109369
230	11.5	-301	10	1	693.79	169.08	719.99	187.51	706.89	178.295
230	11.5	0	1	1	579.823144	178.811483	640.079122	237.076825	609.951133	207.944154
230	11.5	13	8	1	799.279048	0	1241	354.827134	1020.139524	177.413567
230	11.5	14	8	1	743.124172	98.365439	885.927225	228.319961	814.5256985	163.3427
230	11.5	15	8	1	712.902551	123.795341	800.454987	210.909691	756.678769	167.352516
231	11.55	-302	10	1	689.91	170.05	708.34	184.6	699.125	177.325
231	11.55	0	1	1	579.3551	179.194031	639.286824	237.147477	609.320962	208.170754
231	11.55	13	8	1	830.934246	0	1241	355.382291	1035.967123	177.6911455
231	11.55	14	8	1	754.525882	83.853141	933.650759	238.246004	844.0883205	161.0495725
231	11.55	15	8	1	715.953932	117.749699	817.986621	215.090479	766.9702765	166.420089
232	11.6	-303	10	1	687.97	170.05	719.99	184.6	703.98	177.325
232	11.6	0	1	1	578.988328	179.036829	638.650666	236.730658	608.819497	207.8837435
232	11.6	13	8	1	877.321355	0	1241	359.001281	1059.1606775	179.5006405
232	11.6	14	8	1	768.991786	62.633905	1003.488135	252.784762	886.2399605	157.7093335
232	11.6	15	8	1	720.806641	110.076688	842.134741	220.36329	781.470691	165.219989
233	11.65	-304	10	1	688.94	168.11	719.99	184.6	704.465	176.355
233	11.65	0	1	1	578.624918	178.880993	638.019954	236.31755	608.322436	207.5992715
233	11.65	13	8	1	955.995218	0	1241	358.408241	1098.497609	179.2041205
233	11.65	14	8	1	790.650502	28.963578	1118.968134	275.110662	954.809318	152.03712
233	11.65	15	8	1	726.582998	100.055853	873.682936	227.258616	800.132967	163.6572345
234	11.7	-305	10	1	688.94	168.11	719.99	184.6	704.465	176.355
234	11.7	0	1	1	578.264828	178.726505	637.394616	235.908103	607.829722	207.317304
234	11.7	13	8	1	1101.61344	0	1241	361.431302	1171.30672	180.715651
234	11.7	14	8	1	820.074422	0	1241	316.187586	1030.537211	158.093793
234	11.7	15	8	1	735.54855	86.625212	918.738179	236.471628	827.1433645	161.54842
235	11.75	-306	10	1	684.09	170.05	710.28	181.69	697.185	175.87
235	11.75	-307	10	1	727.75	169.08	752.98	180.72	740.365	174.9
235	11.75	0	1	1	577.908012	178.573347	636.774585	235.502269	607.3412985	207.037808
235	11.75	14	8	1	862.350058	0	1241	354.80342	1051.675029	177.40171
235	11.75	15	8	1	746.577147	67.393035	983.304699	249.689443	864.940923	158.541239
236	11.8	-308	10	1	673.41	167.14	712.22	183.63	692.815	175.385
236	11.8	-309	10	1	727.75	167.14	759.77	182.66	743.76	174.9
236	11.8	0	1	1	577.83022	178.302051	636.394928	234.94061	607.112574	206.6213305
236	11.8	14	8	1	932.301916	0	1241	356.951262	1086.650958	178.475631
236	11.8	15	8	1	760.472851	37.564587	1083.561778	270.248421	922.0173145	153.906504
237	11.85	-310	10	1	673.41	167.14	712.22	183.63	692.815	175.385
237	11.85	-311	10	1	725.81	167.14	754.92	183.63	740.365	175.385
237	11.85	0	1	1	577.753308	178.033452	636.054364	234.384655	606.903836	206.2090535
237	11.85	14	8	1	1056.939698	0	1241	360.170602	1148.969849	180.085301
237	11.85	15	8	1	779.375962	0	1241	304.852116	1010.187981	152.426058
238	11.9	-312	10	1	673.41	167.14	712.22	183.63	692.815	175.385
238	11.9	-313	10	1	725.81	167.14	754.92	183.63	740.365	175.385
238	11.9	0	1	1	577.677263	177.76751	635.888945	233.834316	606.783104	205.800913
238	11.9	15	8	1	804.619775	0	1241	360.931898	1022.8098875	180.465949
239	11.95	-314	10	1	725.81	167.14	754.92	183.63	740.365	175.385
239	11.95	-315	10	1	672.44	164.23	706.4	182.66	689.42	173.445
239	11.95	0	1	1	577.602072	177.504185	635.72487	233.28951	606.663471	205.3968475
239	11.95	15	8	1	840.036376	0	1241	365.521636	1040.518188	182.760818
240	12	-316	10	1	725.81	167.14	754.92	183.63	740.365	175.385
240	12	-317	10	1	672.44	164.23	706.4	182.66	689.42	173.445
240	12	0	1	1	577.527722	177.24344	635.56212	232.750153	606.544921	204.9967965
240	12	15	8	1	892.527663	0	1241	371.582294	1066.7638315	185.791147
241	12.05	-318	10	1	725.81	167.14	754.92	183.63	740.365	175.385
241	12.05	-319	10	1	665.65	163.26	706.4	184.6	686.025	173.93
241	12.05	0	1	1	577.454202	176.985236	635.400679	232.216165	606.4274405	204.6007005
241	12.05	15	8	1	978.96311	0	1241	374	1109.981555	187
242	12.1	-320	10	1	725.81	167.14	754.92	183.63	740.365	175.385
242	12.1	-321	10	1	665.65	163.26	706.4	184.6	686.025	173.93
242	12.1	0	1	1	577.78646	176.451674	635.988376	231.49765	606.887418	203.974662
242	12.1	15	8	1	1149.165181	0	1241	374	1195.0825905	187
243	12.15	-322	10	1	665.65	163.26	706.4	184.6	686.025	173.93
243	12.15	-323	10	1	720.96	167.14	754.92	180.72	737.94	173.93
243	12.15	0	1	1	578.117288	175.92134	636.572406	230.783903	607.344847	203.3526215
244	12.2	-324	10	1	720.96	167.14	754.92	180.72	737.94	173.93
244	12.2	-325	10	1	656.92	166.17	695.73	182.66	676.325	174.415
244	12.2	0	1	1	578.446705	175.394207	637.152795	230.074881	607.79975	202.734544
245	12.25	-326	10	1	720.96	167.14	754.92	180.72	737.94	173.93
245	12.25	-327	10	1	656.92	166.17	695.73	182.66	676.325	174.415
245	12.25	0	1	1	578.774729	174.87025	637.729568	229.370539	608.2521485	202.1203945
246	12.3	-328	10	1	720.96	167.14	754.92	180.72	737.94	173.93
246	12.3	-329	10	1	652.06	168.11	689.91	184.6	670.985	176.355
246	12.3	0	1	1	579.451914	174.908825	638.635089	229.254269	609.0435015	202.081547
247	12.35	-330	10	1	720.96	167.14	754.92	180.72	737.94	173.93
247	12.35	-331	10	1	652.06	168.11	689.91	184.6	670.985	176.355
247	12.35	0	1	1	580.126051	174.947225	639.536113	229.138572	609.831082	202.0428985
248	12.4	-332	10	1	720.96	167.14	754.92	180.72	737.94	173.93
248	12.4	-333	10	1	652.06	168.11	689.91	184.6	670.985	176.355
248	12.4	0	1	1	580.797169	174.98545	640.432668	229.023441	610.6149185	202.0044455
249	12.45	-334	10	1	720.96	167.14	754.92	180.72	737.94	173.93
249	12.45	-335	10	1	640.42	169.08	684.09	186.54	662.255	177.81
249	12.45	0	1	1	581.465298	175.023501	641.324781	228.908875	611.3950395	201.966188
250	12.5	-336	10	1	720.96	167.14	754.92	180.72	737.94	173.93
250	12.5	-337	10	1	640.42	169.08	684.09	186.54	662.255	177.81
250	12.5	0	1	1	582.130464	175.06138	642.212478	228.794868	612.171471	201.928124
251	12.55	-338	10	1	720.96	167.14	754.92	180.72	737.94	173.93
251	12.55	-339	10	1	640.42	169.08	684.09	186.54	662.255	177.81
251	12.55	0	1	1	582.792697	175.099087	643.095786	228.681416	612.9442415	201.8902515
252	12.6	-340	10	1	720.96	167.14	754.92	180.72	737.94	173.93
252	12.6	-341	10	1	633.63	169.08	670.5	185.57	652.065	177.325
252	12.6	0	1	1	584.307777	175.491925	644.338618	228.966921	614.3231975	202.229423
253	12.65	-342	10	1	720.96	167.14	754.92	180.72	737.94	173.93
253	12.65	-343	10	1	633.63	169.08	670.5	185.57	652.065	177.325
253	12.65	0	1	1	585.816941	175.883227	645.577212	229.251309	615.6970765	202.567268
254	12.7	-344	10	1	720.96	167.14	754.92	180.72	737.94	173.93
254	12.7	-345	10	1	625.87	168.11	671.47	187.51	648.67	177.81
254	12.7	0	1	1	587.320224	176.273002	646.811589	229.534588	617.0659065	202.903795
255	12.75	-346	10	1	720.96	167.14	754.92	180.72	737.94	173.93
255	12.75	-347	10	1	625.87	168.11	671.47	187.51	648.67	177.81
255	12.75	0	1	1	588.817659	176.66126	648.041771	229.816764	618.429715	203.239012
256	12.8	-348	10	1	625.87	168.11	671.47	187.51	648.67	177.81
256	12.8	-349	10	1	713.19	168.11	751.04	182.66	732.115	175.385
256	12.8	0	1	1	590.309282	177.04801	649.26778	230.097844	619.788531	203.572927
257	12.85	-350	10	1	625.87	168.11	671.47	187.51	648.67	177.81
257	12.85	-351	10	1	713.19	168.11	751.04	182.66	732.115	175.385
257	12.85	0	1	1	591.473294	176.846237	650.244471	229.833628	620.8588825	203.3399325
258	12.9	-352	10	1	713.19	168.11	751.04	182.66	732.115	175.385
258	12.9	0	1	1	592.634514	176.644946	651.219123	229.570045	621.9268185	203.1074955
259	12.95	-353	10	1	713.19	168.11	751.04	182.66	732.115	175.385
259	12.95	0	1	1	593.792953	176.444137	652.191743	229.307095	622.992348	202.875616
260	13	-354	10	1	713.19	168.11	751.04	182.66	732.115	175.385
260	13	0	1	1	594.948621	176.243807	653.162336	229.044774	624.0554785	202.6442905
261	13.05	-355	10	1	713.19	168.11	751.04	182.66	732.115	175.385
261	13.05	-356	10	1	1061.5	144.82	1158.6	186.54	1110.05	165.68
261	13.05	0	1	1	596.101528	176.043954	654.13091	228.78308	625.116219	202.413517
262	13.1	-357	10	1	713.19	168.11	751.04	182.66	732.115	175.385
262	13.1	-358	10	1	1092.6	139	1188.6	185.57	1140.6	162.285
262	13.1	0	1	1	597.251683	175.844577	655.09747	228.522012	626.1745765	202.1832945
263	13.15	-359	10	1	713.19	168.11	751.04	182.66	732.115	175.385
263	13.15	-360	10	1	1112	137.06	1200.3	191.4	1156.15	164.23
263	13.15	0	1	1	598.25138	176.286284	655.949209	228.916079	627.1002945	202.6011815
264	13.2	-361	10	1	713.19	168.11	751.04	182.66	732.115	175.385
264	13.2	-362	10	1	1130.4	142.88	1221.6	192.37	1176	167.625
264	13.2	0	1	1	599.249378	176.727245	656.799693	229.309475	628.0245355	203.01836
264	13.2	10	1	1	589.447802	178.340729	610.00663	191.916362	599.727216	185.1285455
265	13.25	-363	10	1	713.19	168.11	751.04	182.66	732.115	175.385
265	13.25	-364	10	1	1153.7	136.09	1242	197.22	1197.85	166.655
265	13.25	0	1	1	600.245679	177.167462	657.648922	229.702201	628.9473005	203.4348315
265	13.25	10	1	1	585.016472	178.431787	606.454038	192.558893	595.735255	185.49534
266	13.3	-365	10	1	713.19	168.11	751.04	182.66	732.115	175.385
266	13.3	-366	10	1	1171.2	141.91	1242	202.07	1206.6	171.99
266	13.3	0	1	1	601.101989	177.090007	658.400176	229.606812	629.7510825	203.3484095
266	13.3	10	1	1	580.209826	178.53058	602.613536	193.255871	591.411681	185.8932255
267	13.35	-367	10	1	718.05	167.14	736.48	178.78	727.265	172.96
267	13.35	-368	10	1	1179.9	125.41	1242	217.59	1210.95	171.5
267	13.35	0	1	1	601.957699	177.012606	659.150983	229.511491	630.554341	203.2620485
267	13.35	10	1	1	574.978059	178.638134	598.44866	194.014522	586.7133595	186.326328
268	13.4	-369	10	1	718.05	167.14	736.48	178.78	727.265	172.96
268	13.4	-370	10	1	1191.2	137.26	1242	221.45	1216.6	179.355
268	13.4	0	1	1	602.812809	176.935258	659.901343	229.416236	631.357076	203.175747
268	13.4	10	1	1	569.262144	178.75567	593.916516	194.843412	581.58933	186.799541
269	13.45	-371	10	1	718.05	167.14	736.48	178.78	727.265	172.96
269	13.45	0	1	1	603.667321	176.857962	660.651257	229.321048	632.159289	203.089505
269	13.45	9	1	1	590.02926	177.360848	617.33181	195.327237	603.680535	186.3440425
269	13.45	10	1	1	562.991599	178.884645	588.966304	195.752768	575.9789515	187.3187065
270	13.5	-372	10	1	718.05	167.14	736.48	178.78	727.265	172.96
270	13.5	0	1	1	604.521233	176.78072	661.400726	229.225927	632.9609795	203.0033235
270	13.5	9	1	1	584.111349	177.520008	613.087625	196.505109	598.599487	187.0125585
270	13.5	10	1	1	556.081559	179.026814	583.537395	196.754905	569.809477	187.8908595
271	13.55	-373	10	1	718.05	167.14	736.48	178.78	727.265	172.96
271	13.55	0	1	1	605.374549	176.70353	662.149749	229.130872	633.762149	202.917201
271	13.55	9	1	1	577.481673	177.69839	608.364252	197.82471	592.9229625	187.76155
271	13.55	10	1	1	548.42892	179.180953	577.556848	197.864788	562.992884	188.5228705
272	13.6	-374	10	1	718.05	167.14	736.48	178.78	727.265	172.96
272	13.6	0	1	1	605.75575	176.610894	662.201063	229.005499	633.9784065	202.8081965
272	13.6	9	1	1	571.301886	177.723711	603.904102	199.163706	587.602994	188.4437085
272	13.6	10	1	1	540.572534	179.247246	571.631829	199.013517	556.1021815	189.1303815
273	13.65	-375	10	1	718.05	167.14	736.48	178.78	727.265	172.96
273	13.65	0	1	1	606.136729	176.518418	662.252104	228.880253	634.1944165	202.6993355
273	13.65	9	1	1	564.261642	177.752595	598.866028	200.689671	581.563835	189.221133
273	13.65	10	1	1	531.752841	179.321176	565.024118	200.30315	548.3884795	189.812163
274	13.7	-376	10	1	719.02	168.11	736.48	181.69	727.75	174.9
274	13.7	0	1	1	606.517483	176.4261	662.302872	228.755135	634.4101775	202.5906175
274	13.7	9	1	1	556.167198	177.785845	593.130416	202.444707	574.648807	190.115276
274	13.7	10	1	1	521.781077	179.404141	557.608522	201.761307	539.6947995	190.582724
275	13.75	-377	10	1	719.02	168.11	736.48	181.69	727.75	174.9
275	13.75	0	1	1	607.836386	175.438537	663.191763	227.752221	635.5140745	201.595379
275	13.75	9	1	1	546.761949	177.824521	586.542183	204.48458	566.652066	191.1545505
275	13.75	10	1	1	510.41572	179.497907	549.22725	203.423328	529.821485	191.4606175
276	13.8	-378	10	1	719.02	168.11	736.48	181.69	727.75	174.9
276	13.8	0	1	1	609.154521	174.452158	664.079481	226.750052	636.617001	200.601105
276	13.8	9	1	1	535.698673	177.87006	578.896571	206.884762	557.297622	192.377411
276	13.8	10	1	1	497.342661	179.604728	539.678551	205.335181	518.510606	192.4699545
277	13.85	-379	10	1	719.02	168.11	736.48	181.69	727.75	174.9
277	13.85	0	1	1	610.471885	173.466961	664.96603	225.748628	637.7189575	199.6077945
277	13.85	9	1	1	525.048553	178.384382	572.012831	210.176768	548.530692	194.280575
277	13.85	10	1	1	483.846829	180.016579	529.72165	207.933844	506.7842395	193.9752115
278	13.9	-380	10	1	719.02	168.11	736.48	181.69	727.75	174.9
278	13.9	0	1	1	610.439518	174.229414	664.657517	226.479193	637.5485175	200.3543035
278	13.9	9	1	1	512.147878	179.007419	563.830327	214.166281	537.9891025	196.58685
278	13.9	10	1	1	467.882301	180.496873	518.105264	211.008905	492.9937825	195.752889
279	13.95	-381	10	1	719.02	168.11	736.48	181.69	727.75	174.9
279	13.95	0	1	1	611.386784	174.250572	665.480499	226.44614	638.4336415	200.348356
279	13.95	9	1	1	496.197	179.77766	553.94475	219.101227	525.070875	199.4394435
279	13.95	10	1	1	448.701986	181.064224	504.378041	214.704579	476.5400135	197.8844015
280	14	-382	10	1	719.02	168.11	736.48	181.69	727.75	174.9
280	14	0	1	1	612.332372	174.271683	666.376013	226.413127	639.3541925	200.342405
280	14	9	1	1	476.516549	180.836992	542.38557	225.689014	509.4510595	203.263003
280	14	10	1	1	426.550061	182.068305	489.847909	219.619467	458.198985	200.843886
281	14.05	-383	10	1	719.02	168.11	736.48	181.69	727.75	174.9
281	14.05	0	1	1	613.276286	174.292748	667.269115	226.380153	640.2727005	200.3364505
281	14.05	9	1	1	450.585002	182.16462	527.720482	234.373092	489.152742	208.268856
281	14.05	10	1	1	398.764578	183.297614	472.056255	225.785149	435.4104165	204.5413815
282	14.1	-384	10	1	719.02	168.11	736.48	181.69	727.75	174.9
282	14.1	0	1	1	614.218528	174.313766	668.159813	226.347218	641.1891705	200.330492
282	14.1	9	1	1	417.106999	183.258207	511.105885	245.338353	464.106442	214.29828
282	14.1	10	1	1	362.883168	184.837508	449.766285	233.748711	406.3247265	209.2931095
283	14.15	-385	10	1	719.02	168.11	736.48	181.69	727.75	174.9
283	14.15	0	1	1	615.051447	174.334946	668.900941	226.277144	641.976194	200.306045
283	14.15	9	1	1	368.469085	184.743771	488.529695	261.274901	428.49939	223.009336
284	14.2	-386	10	1	719.02	168.11	736.48	181.69	727.75	174.9
284	14.2	0	1	1	615.881723	174.356048	669.63897	226.207285	642.7603465	200.2816665
284	14.2	9	1	1	291.3583	186.878077	456.08269	286.554444	373.720495	236.7162605
285	14.25	-387	10	1	719.02	168.11	736.48	181.69	727.75	174.9
285	14.25	0	1	1	616.709368	174.377074	670.373917	226.13764	643.5416425	200.257357
285	14.25	9	1	1	157.675474	190.07881	409.192693	331.610491	283.4340835	260.8446505
286	14.3	-388	10	1	719.02	168.11	736.48	181.69	727.75	174.9
286	14.3	0	1	1	617.534392	174.398024	671.105795	226.068208	644.3200935	200.233116
286	14.3	9	1	1	0	195.686393	326.975679	374	163.4878395	284.8431965
286	14.3	10	1	1	7.579208	193.71169	266.665141	311.416326	137.1221745	252.564008
287	14.35	-389	10	1	716.11	168.11	733.57	180.72	724.84	174.415
287	14.35	0	1	1	618.356806	174.418899	671.834621	225.998987	645.0957135	200.208943
287	14.35	9	1	1	0	206.560811	168.407942	374	84.203971	290.2804055
287	14.35	10	1	1	0	199.536647	177.194584	351.11828	88.597292	275.3274635
288	14.4	-390	10	1	716.11	168.11	733.57	180.72	724.84	174.415
288	14.4	0	1	1	619.176622	174.439699	672.56041	225.929977	645.868516	200.184838
289	14.45	-391	10	1	716.11	168.11	733.57	180.72	724.84	174.415
289	14.45	0	1	1	619.134457	174.475527	672.342444	225.801419	645.7384505	200.138473
290	14.5	-392	10	1	716.11	168.11	733.57	180.72	724.84	174.415
290	14.5	0	1	1	619.092779	174.511118	672.125723	225.673646	645.609251	200.092382
291	14.55	-393	10	1	716.11	168.11	733.57	180.72	724.84	174.415
291	14.55	0	1	1	619.051581	174.546476	671.910234	225.546651	645.4809075	200.0465635
292	14.6	-394	10	1	716.11	168.11	733.57	180.72	724.84	174.415
292	14.6	0	1	1	619.010859	174.581602	671.695963	225.420427	645.353411	200.0010145
293	14.65	-395	10	1	710.28	168.11	729.69	182.66	719.985	175.385
293	14.65	0	1	1	618.970607	174.616499	671.482899	225.294967	645.226753	199.955733
