0	0	-1	10	1	219.31	188.49	245.5	218.56	232.405	203.525
0	0	-2	10	1	47.56	195.28	115.48	221.48	81.52	208.38
0	0	0	4	1	296.744956	161.752147	455.226042	292.372804	375.985499	227.0624755
0	0	1	2	1	737.619499	161.531951	931.112229	374	834.365864	267.7659755
0	0	2	3	1	1106.137292	166.576807	1204.470628	323.876144	1155.30396	245.2264755
1	0.05	-3	10	1	228.12	183.03	258.83	217.34	243.475	200.185
1	0.05	-4	10	1	59.21	191.3	137.37	227.43	98.29	209.365
1	0.05	0	4	1	294.898777	156.024256	452.199718	284.621269	373.5492475	220.3227625
1	0.05	1	2	1	745.017137	156.393157	938.839722	374	841.9284295	265.1965785
1	0.05	2	3	1	1138.342096	160.872449	1223.338201	324.146788	1180.8401485	242.5096185
2	0.1	-5	10	1	236.27	175.5	267.21	211.03	251.74	193.265
2	0.1	-6	10	1	68.906	183.81	145.87	224.02	107.388	203.915
2	0.1	0	4	1	293.09356	150.470149	449.259225	277.10429	371.1763925	213.7872195
2	0.1	1	2	1	752.406083	151.248515	946.56249	374	849.4842865	262.6242575
2	0.1	2	3	1	1151.358043	154.633575	1223.691377	324.375836	1187.52471	239.5047055
3	0.15	-7	10	1	243.86	168.79	275.27	204.27	259.565	186.53
3	0.15	-8	10	1	62.325	165.38	166.91	201.5	114.6175	183.44
3	0.15	0	4	1	291.328036	145.082168	446.40083	269.811515	368.864433	207.4468415
3	0.15	1	2	1	759.786603	146.098339	954.28016	374	857.0333815	260.0491695
3	0.15	2	3	1	1154.836779	148.360923	1241	321.627088	1197.9183895	234.9940055
4	0.2	-9	10	1	252.53	168.66	284.46	202.85	268.495	185.755
4	0.2	-10	10	1	59.32	170.67	174.83	207.91	117.075	189.29
4	0.2	0	4	1	290.287584	146.641981	444.387179	269.473545	367.3373815	208.057763
4	0.2	1	2	1	767.158958	140.942948	961.99236	374	864.575659	257.471474
4	0.2	2	3	1	1180.675035	151.025283	1241	325.015204	1210.8375175	238.0202435
5	0.25	-11	10	1	260.84	170.19	293.21	204.16	277.025	187.175
5	0.25	-12	10	1	90.252	170.4	197.45	205.15	143.851	187.775
5	0.25	0	4	1	289.271282	148.1553	442.428857	269.145082	365.8500695	208.650191
5	0.25	1	2	1	766.12199	144.055024	964.267937	374	865.1949635	259.027512
5	0.25	2	3	1	1208.535305	153.731062	1241	328.287669	1224.7676525	241.0093655
6	0.3	-13	10	1	269.51	172.05	302.09	206.04	285.8	189.045
6	0.3	-14	10	1	101.26	172.03	206.35	208.54	153.805	190.285
6	0.3	0	4	1	288.044118	147.111524	439.326636	266.443764	363.685377	206.777644
6	0.3	1	2	1	765.129111	147.124585	966.438106	374	865.7836085	260.5622925
7	0.35	-15	10	1	104.5	171.9	215.31	205.94	159.905	188.92
7	0.35	0	4	1	286.85355	148.660413	436.321849	266.388627	361.5876995	207.52452
7	0.35	1	2	1	764.180855	150.151704	968.503516	374	866.3421855	262.075852
8	0.4	-16	10	1	113.55	174.53	212.09	208.84	162.82	191.685
8	0.4	0	4	1	285.694115	151.756923	433.403548	267.928972	359.5488315	209.8429475
8	0.4	1	2	1	763.27775	153.136487	970.464903	374	866.8713265	263.5682435
9	0.45	-17	10	1	125.16	170.46	220.37	210.45	172.765	190.455
9	0.45	0	4	1	284.544464	151.84143	430.535077	266.488128	357.5397705	209.164779
9	0.45	1	2	1	762.42032	156.079075	972.323089	374	867.3717045	265.0395375
10	0.5	-18	10	1	133.43	175.93	229.59	213.72	181.51	194.825
10	0.5	0	4	1	283.445343	158.068578	427.781532	271.249591	355.6134375	214.6590845
10	0.5	1	2	1	760.775609	156.367066	967.964682	374	864.3701455	265.183533
10	0.5	3	4	1	412.706242	170.065852	498.842999	213.497464	455.7746205	191.781658
11	0.55	-19	10	1	140.8	177.58	237.92	216.44	189.36	197.01
11	0.55	0	4	1	282.442928	158.381115	425.708612	270.29996	354.07577	214.3405375
11	0.55	1	2	1	759.161786	156.64783	963.715337	374	861.4385615	265.323915
11	0.55	3	4	1	419.411629	169.346399	506.092277	213.068606	462.751953	191.2075025
12	0.6	-20	10	1	147.16	175.47	245.31	215.53	196.235	195.5
12	0.6	0	4	1	281.457376	158.6868	423.678738	269.371155	352.568057	214.0289775
12	0.6	1	2	1	757.577998	156.921635	959.570993	374	858.5744955	265.4608175
12	0.6	3	4	1	426.204758	168.617373	513.430082	212.633597	469.81742	190.625485
13	0.65	-21	10	1	153.87	173.37	253.35	213.73	203.61	193.55
13	0.65	0	4	1	280.48828	158.985857	421.690566	268.462499	351.089423	213.724178
13	0.65	1	2	1	756.023423	157.188738	955.52779	374	855.7756065	265.594369
13	0.65	3	4	1	433.087113	167.878604	520.858255	212.192324	476.972684	190.035464
14	0.7	-22	10	1	161.13	175.24	261.56	214.29	211.345	194.765
14	0.7	0	4	1	279.535241	159.278498	419.742805	267.573344	349.639023	213.425921
14	0.7	1	2	1	754.497271	157.449381	951.582054	374	853.0396625	265.7246905
14	0.7	3	4	1	440.060207	167.129915	528.378686	211.744675	484.2194465	189.437295
15	0.75	-23	10	1	168.37	176.79	269.72	216.14	219.045	196.465
15	0.75	0	4	1	278.597877	159.564927	417.834217	266.703068	348.216047	213.1339975
15	0.75	1	2	1	748.576297	161.920691	944.954488	374	846.7653925	267.9603455
15	0.75	3	4	1	447.125592	166.371128	535.993321	211.290533	491.5594565	188.8308305
16	0.8	-24	10	1	174.69	172.71	277.4	214.53	226.045	193.62
16	0.8	0	4	1	278.58375	152.925649	415.326418	259.075915	346.955084	206.000782
16	0.8	1	2	1	742.822419	166.233928	938.481856	374	840.6521375	270.116964
16	0.8	3	4	1	454.519594	166.663812	543.916138	211.893334	499.217866	189.278573
17	0.85	-25	10	1	180.14	175.51	284.31	215.32	232.225	195.415
17	0.85	0	4	1	278.625653	158.179714	412.939242	263.395357	345.7824475	210.7875355
17	0.85	1	2	1	737.23071	170.396261	932.156582	374	834.693646	272.1981305
17	0.85	3	4	1	462.012356	166.960706	551.940416	212.504132	506.976386	189.732419
18	0.9	-26	10	1	204.48	185.47	269.84	215.52	237.16	200.495
18	0.9	0	4	1	279.839832	165.295773	411.847947	269.49023	345.8438895	217.3930015
18	0.9	1	2	1	731.7965	174.414472	925.971554	374	828.884027	274.207236
18	0.9	3	4	1	469.552166	171.462318	560.040159	217.337708	514.7961625	194.400013
19	0.95	-27	10	1	212.32	190.12	279.75	222.47	246.035	206.295
19	0.95	0	4	1	281.035508	172.027539	410.771982	275.466081	345.903745	223.74681
19	0.95	1	2	1	726.515358	178.294983	919.92008	374	823.217719	276.1474915
19	0.95	3	4	1	477.197286	176.029431	568.249016	222.24112	522.723151	199.1352755
20	1	-28	10	1	221.44	197.05	289.22	229.93	255.33	213.49
20	1	0	4	1	282.213139	178.423531	409.710996	281.326228	345.9620675	229.8748795
20	1	1	2	1	718.531351	177.437178	910.500369	374	814.51586	275.718589
20	1	3	4	1	484.949656	180.131668	576.569443	227.215728	530.7595495	203.673698
21	1.05	-29	10	1	229.31	195.95	297.45	228.99	263.38	212.47
21	1.05	0	4	1	287.104745	176.360481	410.35016	278.151904	348.7274525	227.2561925
21	1.05	1	2	1	710.755958	176.610636	901.330218	374	806.043088	275.305318
21	1.05	3	4	1	494.05501	178.372652	586.046884	225.505316	540.050947	201.938984
22	1.1	-30	10	1	238.02	191.54	306.55	224.52	272.285	208.03
22	1.1	0	4	1	291.910208	172.671777	410.939474	273.267005	351.424841	222.969391
22	1.1	1	2	1	703.182825	175.813928	892.397858	374	797.7903415	274.906964
22	1.1	3	4	1	503.266894	176.591784	595.636353	223.773146	549.4516235	200.182465
23	1.15	-31	10	1	246.02	187.75	314.88	220.74	280.45	204.245
23	1.15	-32	10	1	407.44	182.27	436.6	219.77	422.02	201.02
23	1.15	0	4	1	296.639845	169.034948	411.493239	268.469247	354.066542	218.7520975
23	1.15	1	2	1	695.805929	175.045702	883.651609	374	789.728769	274.522851
23	1.15	3	4	1	512.586885	174.601512	605.340112	222.018875	558.9634985	198.3101935
24	1.2	-33	10	1	253.79	188.92	323.02	222.06	288.405	205.49
24	1.2	-34	10	1	410.16	184.5	447.16	221.93	428.66	203.215
24	1.2	0	4	1	301.316873	169.619277	412.045017	268.181094	356.680945	218.9001855
24	1.2	1	2	1	688.619556	174.304678	875.103594	374	781.861575	274.152339
24	1.2	3	4	1	522.016591	172.530495	615.160481	220.242158	568.588536	196.3863265
25	1.25	-35	10	1	260.74	188.7	330.43	222.02	295.585	205.36
25	1.25	-36	10	1	422.97	172.85	453.02	217.54	437.995	195.195
25	1.25	0	4	1	305.921995	170.196348	412.563625	267.892887	359.24281	219.0446175
25	1.25	1	2	1	679.098134	172.161527	861.06988	373.778511	770.084007	272.970019
25	1.25	3	4	1	529.2741	170.342959	623.430721	218.578921	576.3524105	194.46094
26	1.3	-37	10	1	270.57	178.31	311.72	211.38	291.145	194.845
26	1.3	-38	10	1	430.49	167.55	463.63	217.73	447.06	192.64
26	1.3	0	4	1	313.520829	159.696804	414.780052	256.07278	364.1504405	207.884792
26	1.3	1	2	1	669.797166	170.07595	847.414005	368.669808	758.6055855	269.372879
26	1.3	3	4	1	533.27026	168.114589	629.363065	217.219198	581.3166625	192.6668935
27	1.35	-39	10	1	278.03	171.02	317.76	209.49	297.895	190.255
27	1.35	-40	10	1	437.63	162.02	471.29	211.84	454.46	186.93
27	1.35	0	4	1	321.009905	154.092263	416.951807	249.445133	368.980856	201.768698
27	1.35	1	2	1	660.709081	168.045656	834.120912	363.705936	747.4149965	265.875796
27	1.35	3	4	1	544.261567	165.820584	640.486473	215.138569	592.37402	190.4795765
28	1.4	-41	10	1	284.16	171.47	323.93	208.54	304.045	190.005
28	1.4	-42	10	1	444.11	161.49	478.15	209.68	461.13	185.585
28	1.4	0	4	1	328.408812	156.477727	419.104321	250.838244	373.7565665	203.6579855
28	1.4	1	2	1	651.826656	166.06848	821.176334	358.880827	736.501495	262.4746535
28	1.4	3	4	1	552.001124	163.482569	649.283451	213.358997	600.6422875	188.420783
29	1.45	-43	10	1	292	175.2	331.78	211.83	311.89	193.515
29	1.45	-44	10	1	460.38	170.87	482.92	206.5	471.65	188.685
29	1.45	0	4	1	334.340354	157.421483	422.421905	250.703104	378.3811295	204.0622935
29	1.45	1	2	1	643.142988	164.118351	808.566742	354.188741	725.854865	259.153546
29	1.45	3	4	1	559.911287	161.091104	658.267901	211.538104	609.089594	186.314604
30	1.5	-45	10	1	298.99	176.79	338.8	214.32	318.895	195.555
30	1.5	-46	10	1	469.13	170.47	492.31	208.92	480.72	189.695
30	1.5	0	4	1	338.488103	159.797883	425.655778	252.10092	382.0719405	205.9494015
30	1.5	1	2	1	634.540834	163.653629	795.312759	351.594691	714.9267965	257.62416
30	1.5	3	4	1	567.997366	158.644422	667.446226	209.674521	617.721796	184.1594715
31	1.55	-47	10	1	306.84	175.88	346.7	214.29	326.77	195.085
31	1.55	-48	10	1	477.79	170.73	501.45	209.65	489.62	190.19
31	1.55	0	4	1	344.926937	158.820902	431.114997	250.137348	388.020967	204.479125
31	1.55	1	2	1	626.121953	163.199565	782.288676	349.054201	704.2053145	256.126883
31	1.55	3	4	1	576.863952	158.28707	677.451142	209.924748	627.157547	184.105909
32	1.6	-49	10	1	314.45	175.77	354.36	214.01	334.405	194.89
32	1.6	-50	10	1	486.16	171.31	510.18	210.49	498.17	190.9
32	1.6	0	4	1	351.793308	158.390273	436.929618	248.792471	394.361463	203.591372
32	1.6	1	2	1	617.880476	162.75584	769.488824	346.56568	693.68465	254.66076
32	1.6	3	4	1	585.934568	157.921424	687.682059	210.180509	636.8083135	184.0509665
33	1.65	-51	10	1	322	176.32	361.97	214.61	341.985	195.465
33	1.65	-52	10	1	494.6	171.33	518.74	210.88	506.67	191.105
33	1.65	0	4	1	360.278994	159.071024	448.808853	248.561671	404.5439235	203.8163475
33	1.65	1	2	1	609.810771	162.321833	756.907738	344.127601	683.3592545	253.224717
34	1.7	-53	10	1	329.06	176.24	369.11	215.26	349.085	195.75
34	1.7	-54	10	1	502.67	170.34	526.83	210.4	514.75	190.37
34	1.7	0	4	1	368.036714	157.652925	459.610368	246.353029	413.823541	202.002977
34	1.7	1	2	1	601.907429	161.88807	744.540137	341.738492	673.223783	251.813281
35	1.75	-55	10	1	337.06	174.07	378.06	214.18	357.56	194.125
35	1.75	-56	10	1	511.85	167.85	536.19	208.54	524.02	188.195
35	1.75	0	4	1	374.644175	158.555612	472.337049	246.674395	423.490612	202.6150035
35	1.75	1	2	1	595.878778	162.098541	734.945223	341.092772	665.4120005	251.5956565
36	1.8	-57	10	1	345.53	170.76	387.54	211.42	366.535	191.09
36	1.8	-58	10	1	521.38	165.01	546.07	206.14	533.725	185.575
36	1.8	0	4	1	385.116458	156.864333	486.458715	244.198162	435.7875865	200.5312475
36	1.8	1	2	1	589.923753	162.308147	725.396087	340.448777	657.65992	251.378462
37	1.85	-59	10	1	353.57	171.16	396.63	210.83	375.1	190.995
37	1.85	-60	10	1	530.68	165.36	555.64	206.42	543.16	185.89
37	1.85	0	4	1	395.509409	155.197587	500.367897	241.753236	447.938653	198.4754115
37	1.85	1	2	1	584.040764	162.516888	715.893011	339.806539	649.9668875	251.1617135
37	1.85	3	4	1	638.065474	157.273897	747.214863	213.415389	692.6401685	185.344643
38	1.9	-61	10	1	362.64	173.24	406.91	212.58	384.775	192.91
38	1.9	-62	10	1	541.27	167.29	566.55	208.54	553.91	187.915
38	1.9	0	4	1	408.223938	156.585778	515.121518	242.687427	461.672728	199.6366025
38	1.9	1	2	1	578.228252	162.724762	706.436287	339.16609	642.3322695	250.945426
38	1.9	3	4	1	650.488237	157.539413	761.616291	214.696215	706.052264	186.117814
39	1.95	-63	10	1	371.07	174.06	416.45	214.1	393.76	194.08
39	1.95	-64	10	1	551.18	168.09	576.77	209.96	563.975	189.025
39	1.95	0	4	1	420.865527	157.971829	529.764197	243.598106	475.314862	200.7849675
39	1.95	1	2	1	572.484687	162.931768	697.026205	338.527462	634.755446	250.729615
39	1.95	3	4	1	663.343823	157.815235	776.519199	216.023145	719.931511	186.91919
40	2	-65	10	1	398.96	176.01	438.75	204.75	418.855	190.38
40	2	0	4	1	433.433068	159.355012	544.299114	244.485392	488.866091	201.920202
40	2	1	2	1	571.316466	164.186232	695.072485	340.287582	633.1944755	252.236907
40	2	3	4	1	676.65396	158.101912	791.951389	217.398661	734.3026745	187.7502865
41	2.05	-66	10	1	410.91	176.98	451.73	212.34	431.32	194.66
41	2.05	0	4	1	449.158946	160.904321	561.535012	245.879202	505.346979	203.3917615
41	2.05	1	2	1	570.146443	165.448622	693.103565	342.055737	631.625004	253.7521795
41	2.05	3	4	1	690.441862	158.400031	807.94275	218.825429	749.192306	188.61273
42	2.1	-67	10	1	421.9	180.16	463.63	215.71	442.765	197.935
42	2.1	0	4	1	464.855601	162.457394	578.744723	247.42386	521.800162	204.940627
42	2.1	1	2	1	568.974583	166.718999	691.119344	343.831961	630.0469635	255.27548
42	2.1	3	4	1	704.732333	158.710223	824.525441	220.306311	764.628887	189.508267
43	2.15	-68	10	1	433.56	180.85	476.1	216.89	454.83	198.87
43	2.15	0	4	1	480.519596	164.013369	595.931504	248.956022	538.22555	206.4846955
43	2.15	1	2	1	567.800847	167.99742	689.119716	345.616284	628.4602815	256.806852
43	2.15	3	4	1	719.551963	159.033168	841.734163	221.844394	780.643063	190.438781
44	2.2	-69	10	1	447.32	179.38	490.65	215.92	468.985	197.65
44	2.2	0	4	1	499.770269	163.278934	615.417909	248.177461	557.594089	205.7281975
44	2.2	1	2	1	566.625199	169.283949	687.104579	347.40874	626.864889	258.3463445
44	2.2	3	4	1	734.929218	159.369597	859.606337	223.442998	797.2677775	191.4062975
45	2.25	-70	10	1	459.87	177.37	503.94	214.21	481.905	195.79
45	2.25	1	2	1	572.311032	168.367076	692.010736	347.057547	632.160884	257.7123115
45	2.25	3	4	1	750.89469	159.7203	878.182463	225.105712	814.5385765	192.413006
46	2.3	-71	10	1	472.57	175.48	517.36	212.6	494.965	194.04
46	2.3	1	2	1	578.029185	167.441722	696.94583	346.697852	637.4875075	257.069787
46	2.3	3	4	1	767.856968	158.129401	898.499676	225.095213	833.178322	191.612307
47	2.35	-72	10	1	491.5	178.23	566.44	213.88	528.97	196.055
47	2.35	-73	10	1	916.81	151.02	950.15	235.4	933.48	193.21
47	2.35	1	2	1	583.779938	166.50784	701.91017	346.329628	642.845054	256.418734
47	2.35	3	4	1	785.602722	156.460483	919.787505	225.082209	852.6951135	190.771346
48	2.4	-74	10	1	501.6	178.61	581.97	212.65	541.785	195.63
48	2.4	-75	10	1	939.73	148.94	973.06	220.81	956.395	184.875
48	2.4	1	2	1	589.563576	165.565387	706.904066	345.95285	648.233821	255.7591185
48	2.4	3	4	1	804.185045	154.7078	942.119473	225.066526	873.152259	189.887163
49	2.45	-76	10	1	504.75	173.55	603.35	210.26	554.05	191.905
49	2.45	-77	10	1	968.9	147.9	1007.4	228.1	988.15	188
49	2.45	1	2	1	595.380399	164.614323	711.927826	345.567497	653.6541125	255.09091
49	2.45	3	4	1	823.661948	152.865028	965.576695	225.047973	894.6193215	188.9565005
50	2.5	-78	10	1	528.25	177.63	606.39	209.89	567.32	193.76
50	2.5	-79	10	1	992.85	147.9	1039.7	233.31	1016.275	190.605
50	2.5	1	2	1	605.792671	164.104341	721.150806	345.297272	663.4717385	254.7008065
50	2.5	3	4	1	844.096954	150.925188	990.248905	225.02634	917.1729295	187.975764
51	2.55	-80	10	1	538.67	175.75	616.63	208.65	577.65	192.2
51	2.55	-81	10	1	1015.8	146.85	1067.9	224.98	1041.85	185.915
51	2.55	1	2	1	616.232216	163.591893	730.403241	345.012773	673.3177285	254.302333
51	2.55	3	4	1	861.830386	150.332825	1012.607149	226.598295	937.2187675	188.46556
52	2.6	-82	10	1	549.6	175.91	629.96	210.75	589.78	193.33
52	2.6	-83	10	1	1035.9	147.31	1095.6	226.57	1065.75	186.94
52	2.6	1	2	1	626.699801	163.077061	739.684637	344.714102	683.192219	253.8955815
52	2.6	3	4	1	880.545667	149.705641	1036.247592	228.2632	958.3966295	188.9844205
53	2.65	-84	10	1	563.2	175.41	643.6	210.93	603.4	193.17
53	2.65	-85	10	1	1064.3	142.66	1154.4	235.76	1109.35	189.21
53	2.65	1	2	1	637.196218	162.559935	748.994465	344.401374	693.0953415	253.4806545
53	2.65	3	4	1	900.324413	149.040446	1061.285889	230.029552	980.805151	189.534999
54	2.7	-86	10	1	574.94	174.63	656.01	210.88	615.475	192.755
54	2.7	-87	10	1	1078	144.92	1188.7	240.19	1133.35	192.555
54	2.7	1	2	1	647.722298	162.040604	758.33216	344.074721	703.027229	253.0576625
54	2.7	3	4	1	921.257543	148.333652	1087.852021	231.906914	1004.554782	190.120283
55	2.75	-88	10	1	586.45	173.72	668.48	210.43	627.465	192.075
55	2.75	-89	10	1	1134.1	138.01	1242	242.01	1188.05	190.01
55	2.75	0	4	1	732.385772	152.717807	860.91088	240.581375	796.648326	196.649591
55	2.75	1	2	1	667.75269	161.41755	770.784104	342.499171	719.268397	251.9583605
55	2.75	3	4	1	943.446661	147.581201	1116.092596	233.906097	1029.7696285	190.743649
56	2.8	-90	10	1	598.72	173.11	681.82	210.32	640.27	191.715
56	2.8	-91	10	1	1149.8	138.57	1242	244.08	1195.9	191.325
56	2.8	0	4	1	754.522069	152.319774	886.301229	240.700618	820.411649	196.510196
56	2.8	1	2	1	687.794349	160.807413	782.94402	341.262086	735.3691845	251.0347495
56	2.8	3	4	1	960.969274	146.392041	1139.019393	235.343508	1049.9943335	190.8677745
57	2.85	-92	10	1	608.6	172.17	692.6	210.03	650.6	191.1
57	2.85	-93	10	1	1168.2	138.55	1242	258.25	1205.1	198.4
57	2.85	0	4	1	776.868831	151.923077	912.114507	240.807051	844.491669	196.365064
57	2.85	1	2	1	706.210236	160.211597	794.81856	340.883746	750.514398	250.5476715
57	2.85	3	4	1	979.48762	145.128764	1163.289831	236.870186	1071.3887255	190.999475
58	2.9	-94	10	1	617.93	170.86	702.77	209.4	660.35	190.13
58	2.9	-95	10	1	1186.9	137.15	1242	260.38	1214.45	198.765
58	2.9	0	4	1	799.424313	151.52787	938.36658	240.900463	868.8954465	196.2141665
58	2.9	1	2	1	717.747406	159.631412	806.41645	340.38721	762.081928	250.009311
58	2.9	3	4	1	999.087862	143.78423	1189.026727	238.494739	1094.0572945	191.1394845
59	2.95	-96	10	1	625.86	169.98	711.69	209.02	668.775	189.5
59	2.95	-97	10	1	1204.4	136.19	1242	262.97	1223.2	199.58
59	2.95	0	4	1	822.187118	151.134297	965.073653	240.980677	893.6303855	196.057487
59	2.95	1	2	1	738.010347	157.673069	827.130587	338.572904	782.570467	248.1229865
60	3	-98	10	1	633.33	169.89	720.5	209.31	676.915	189.6
60	3	0	4	1	845.156239	150.742486	992.252277	241.047557	918.704258	195.8950215
60	3	1	2	1	753.761984	157.19924	843.596634	338.970912	798.679309	248.085076
61	3.05	-99	10	1	638.58	169.58	727.09	209.7	682.835	189.64
61	3.05	0	4	1	866.184807	150.558461	1016.806133	241.196235	941.49547	195.877348
61	3.05	1	2	1	769.598145	156.72511	860.161033	339.345411	814.879589	248.0352605
61	3.05	3	4	1	1055.035983	139.774187	1241	244.016201	1148.0179915	191.895194
62	3.1	-100	10	1	643.09	168.71	732.96	209.57	688.025	189.14
62	3.1	0	4	1	887.344384	150.377075	1041.719837	241.336234	964.5321105	195.8566545
62	3.1	1	2	1	785.516835	156.250892	877.739888	339.695706	831.6283615	247.973299
62	3.1	3	4	1	1068.851592	138.66719	1241	246.072206	1154.925796	192.369698
63	3.15	-101	10	1	646.73	168.28	738.11	209.57	692.42	188.925
63	3.15	0	4	1	908.634643	150.198327	1067.003577	241.467511	987.81911	195.832919
63	3.15	1	2	1	801.516166	155.776802	896.913671	340.021148	849.2149185	247.898975
63	3.15	3	4	1	1083.437634	137.491023	1241	248.256876	1162.218817	192.8739495
64	3.2	-102	10	1	648.35	168.39	741.13	210.01	694.74	189.2
64	3.2	0	4	1	930.055522	150.022205	1092.667632	241.590039	1011.361577	195.806122
64	3.2	1	2	1	817.594385	155.303054	916.281812	340.321134	866.9380985	247.812094
64	3.2	3	4	1	1098.860318	136.238994	1241	250.58268	1169.930159	193.410837
65	3.25	-103	10	1	648.94	168.82	743.06	210.91	696	189.865
65	3.25	0	4	1	951.607253	149.848692	1118.722382	241.703815	1035.1648175	195.7762535
65	3.25	1	2	1	836.01133	156.247287	935.079331	339.970611	885.5453305	248.108949
65	3.25	3	4	1	1115.193669	134.903519	1241	253.063752	1178.0968345	193.9836355
66	3.3	-104	10	1	647.73	169.85	743.35	212.35	695.54	191.1
66	3.3	0	4	1	971.198382	150.674196	1141.089812	242.648143	1056.144097	196.6611695
66	3.3	1	2	1	854.127339	157.180218	953.72194	339.612412	903.9246395	248.396315
66	3.3	3	4	1	1121.709042	134.453568	1241	255.732204	1181.354521	195.092886
67	3.35	-105	10	1	639.73	176.02	731.4	207.27	685.565	191.645
67	3.35	0	4	1	990.826921	151.503288	1163.669504	243.590651	1077.2482125	197.5469695
67	3.35	1	2	1	871.949093	158.101848	972.212417	339.246778	922.080755	248.674313
67	3.35	3	4	1	1128.547891	134.335812	1241	257.851339	1184.7739455	196.0935755
68	3.4	-106	10	1	642.95	174.2	741.32	217.44	692.135	195.82
68	3.4	0	4	1	1007.269808	152.416952	1181.111262	244.488408	1094.190535	198.45268
68	3.4	1	2	1	889.483192	159.012186	990.553388	338.873953	940.01829	248.9430695
68	3.4	3	4	1	1135.734386	134.407321	1241	259.940474	1188.367193	197.1738975
69	3.45	-107	10	1	637.68	174.59	737.59	219.09	687.635	196.84
69	3.45	-108	10	1	879.89	174.74	902.88	231.81	891.385	203.275
69	3.45	0	4	1	1023.697699	153.330554	1198.613317	245.384924	1111.155508	199.357739
69	3.45	1	2	1	906.736163	159.911243	1008.747339	338.494184	957.741751	249.2027135
69	3.45	3	4	1	1143.295169	134.476086	1241	262.110527	1192.1475845	198.2933065
70	3.5	-109	10	1	631.5	173.12	732.77	219.03	682.135	196.075
70	3.5	-110	10	1	873.16	174.06	906.34	236.48	889.75	205.27
70	3.5	1	2	1	919.028751	159.395918	1019.315478	337.01199	969.1721145	248.203954
70	3.5	3	4	1	1151.259677	134.542034	1241	264.366411	1196.1298385	199.4542225
71	3.55	-111	10	1	623.37	171.34	726.09	218.3	674.73	194.82
71	3.55	-112	10	1	871.04	168.05	906.46	234.28	888.75	201.165
71	3.55	1	2	1	931.193328	158.88613	1029.793706	335.545677	980.493517	247.2159035
71	3.55	3	4	1	1152.144046	134.447239	1241	266.682658	1196.572023	200.5649485
72	3.6	-113	10	1	614.44	170.14	718.48	217.82	666.46	193.98
72	3.6	-114	10	1	861.13	171.64	898.78	232.52	879.955	202.08
72	3.6	1	2	1	943.23188	158.381789	1040.18317	334.094992	991.707525	246.2383905
72	3.6	3	4	1	1153.099442	134.346844	1241	269.091458	1197.049721	201.719151
73	3.65	-115	10	1	604.13	169.18	709.58	217.77	656.855	193.475
73	3.65	-116	10	1	858.3	168.5	887.19	232.7	872.745	200.6
73	3.65	1	2	1	955.146347	157.88281	1050.484993	332.659688	1002.81567	245.271249
73	3.65	3	4	1	1154.129835	134.240546	1241	271.598473	1197.5649175	202.9195095
74	3.7	-117	10	1	591.76	169.48	698.84	218.69	645.3	194.085
74	3.7	-118	10	1	849.91	165.1	877.34	232.07	863.625	198.585
74	3.7	0	4	1	1082.841889	153.592557	1241	243.443555	1161.9209445	198.518056
74	3.7	1	2	1	966.938637	157.389109	1061.261737	331.239522	1014.100187	244.3143155
74	3.7	3	4	1	1155.239526	134.128011	1241	274.209838	1198.119763	204.1689245
75	3.75	-119	10	1	578.47	170.5	687.1	220.44	632.785	195.47
75	3.75	-120	10	1	838.74	169.66	867.19	233.88	852.965	201.77
75	3.75	0	4	1	1090.710612	155.238174	1241	244.280562	1165.855306	199.759368
75	3.75	1	2	1	967.918669	159.153733	1060.752021	330.130839	1014.335345	244.642286
75	3.75	3	4	1	1156.43319	134.008875	1241	276.932222	1198.716595	205.4705485
76	3.8	-121	10	1	540.77	174.64	654.29	213.24	597.53	193.94
76	3.8	-122	10	1	824.99	171.1	857.79	237.51	841.39	204.305
76	3.8	0	4	1	1093.359395	157.151782	1241	244.835918	1167.1796975	200.99385
76	3.8	1	2	1	968.868913	160.861034	1060.258826	329.05823	1014.5638695	244.959632
76	3.8	3	4	1	1150.635451	135.282103	1241	281.503161	1195.8177255	208.392632
77	3.85	-123	10	1	523.28	174.83	638.71	215.58	580.995	195.205
77	3.85	-124	10	1	812.33	173.64	845.45	250.66	828.89	212.15
77	3.85	0	4	1	1095.973133	159.008522	1241	245.371493	1168.4865665	202.1900075
77	3.85	1	2	1	969.790711	162.513759	1059.781359	328.019961	1014.786035	245.26686
77	3.85	3	4	1	1144.676123	136.62458	1241	286.262302	1192.8380615	211.443441
78	3.9	-125	10	1	507.23	175.82	624.43	217.07	565.83	196.445
78	3.9	-126	10	1	801.12	174.34	834.56	248.73	817.84	211.535
78	3.9	-127	10	1	938.69	186.44	960.56	224.98	949.625	205.71
78	3.9	1	2	1	970.685324	164.114483	1059.318875	327.014408	1015.0020995	245.5644455
78	3.9	3	4	1	1138.544188	138.040135	1241	291.219926	1189.772094	214.6300305
79	3.95	-128	10	1	489.83	176.66	609.03	218.45	549.43	197.555
79	3.95	-129	10	1	784.34	175.95	823.89	250	804.115	212.975
79	3.95	-130	10	1	918.9	184.35	961.6	223.94	940.25	204.145
79	3.95	1	2	1	971.55394	165.665622	1058.870676	326.040048	1015.212308	245.852835
79	3.95	3	4	1	1132.227811	139.53289	1241	296.387016	1186.6139055	217.959953
80	4	-131	10	1	469.55	177.61	591.17	220.05	530.36	198.83
80	4	-132	10	1	774.25	177.85	805.63	249.94	789.94	213.895
80	4	-133	10	1	902.23	186.44	947.02	227.06	924.625	206.75
80	4	1	2	1	965.75257	166.935618	1051.08057	324.152283	1008.41657	245.5439505
80	4	3	4	1	1125.714259	141.107291	1241	301.775309	1183.3571295	221.4413
81	4.05	-134	10	1	449.87	178.67	573.95	221.76	511.91	200.215
81	4.05	-135	10	1	763.8	176.73	790.33	253.76	777.065	215.245
81	4.05	-136	10	1	884.52	186.44	926.19	229.15	905.355	207.795
81	4.05	1	2	1	960.182351	169.706358	1043.614973	323.892933	1001.898662	246.7996455
81	4.05	3	4	1	1117.640683	139.172441	1241	304.165893	1179.3203415	221.669167
82	4.1	-137	10	1	429.4	179.87	556.21	223.63	492.805	201.75
82	4.1	-138	10	1	740.97	175.57	778.98	249.86	759.975	212.715
82	4.1	-139	10	1	867.85	184.35	912.65	234.35	890.25	209.35
82	4.1	1	2	1	954.804789	172.130187	1036.425484	323.399036	995.6151365	247.7646115
82	4.1	3	4	1	1109.277489	137.144228	1241	306.639732	1175.1387445	221.89198
83	4.15	-140	10	1	405.28	180.19	535.48	224.79	470.38	202.49
83	4.15	-141	10	1	729.47	179.96	761.65	253.88	745.56	216.92
83	4.15	-142	10	1	1073.1	190.6	1101.2	217.69	1087.15	204.145
83	4.15	-143	10	1	856.4	186.44	891.81	228.1	874.105	207.27
83	4.15	1	2	1	949.549896	170.152687	1029.42892	318.5925	989.489408	244.3725935
83	4.15	3	4	1	1100.602849	135.017059	1241	309.201243	1170.8014245	222.109151
84	4.2	-144	10	1	470.87	175.58	507.63	221.54	489.25	198.56
84	4.2	-145	10	1	706.17	177.04	745.48	253.91	725.825	215.475
84	4.2	-146	10	1	400.75	183.08	436.92	211.08	418.835	197.08
84	4.2	-147	10	1	1052.2	180.19	1091.8	221.85	1072	201.02
84	4.2	-148	10	1	834.52	186.44	878.27	229.15	856.395	207.795
84	4.2	1	2	1	944.487598	169.118887	1022.700709	314.836139	983.5941535	241.977513
84	4.2	3	4	1	1091.593085	132.784954	1241	311.855039	1166.2965425	222.3199965
85	4.25	-149	10	1	452.44	184.1	486.27	218.69	469.355	201.395
85	4.25	-150	10	1	690.93	179.36	727.54	252.59	709.235	215.975
85	4.25	-151	10	1	383.13	178.91	411.21	211.86	397.17	195.385
85	4.25	-152	10	1	1030.4	176.87	1070.6	221.62	1050.5	199.245
85	4.25	-153	10	1	818.9	186.44	859.52	221.85	839.21	204.145
85	4.25	1	2	1	936.836465	169.364757	1013.298183	312.350679	975.067324	240.857718
85	4.25	3	4	1	1082.222472	130.441522	1241	314.605933	1161.611236	222.5237275
86	4.3	-154	10	1	432.12	178.6	462.97	212.55	447.545	195.575
86	4.3	-155	10	1	672.66	177.24	710.49	253.75	691.575	215.495
86	4.3	-156	10	1	354.99	181.86	391.57	214.78	373.28	198.32
86	4.3	-157	10	1	1016.6	180.43	1065.3	217.16	1040.95	198.795
86	4.3	-158	10	1	801.19	190.6	837.65	223.94	819.42	207.27
86	4.3	1	2	1	929.446249	169.601828	1004.23385	309.953771	966.8400495	239.7777995
86	4.3	3	4	1	1076.944004	128.963697	1241	318.745752	1158.972002	223.8547245
87	4.35	-159	10	1	412.4	180.77	444.14	214.06	428.27	197.415
87	4.35	-160	10	1	655.85	181.24	692.3	258.49	674.075	219.865
87	4.35	-161	10	1	330.44	182.99	365.75	211.68	348.095	197.335
87	4.35	-162	10	1	991.54	184.9	1053.3	223.13	1022.42	204.015
87	4.35	-163	10	1	785.56	191.65	824.1	228.1	804.83	209.875
87	4.35	1	2	1	922.304305	169.830563	995.489718	307.640768	958.8970115	238.7356655
87	4.35	3	4	1	1071.419964	127.402135	1241	323.117032	1156.209982	225.2595835
88	4.4	-164	10	1	384.7	178.12	421.15	217.14	402.925	197.63
88	4.4	-165	10	1	630.09	181.94	674.73	258.08	652.41	220.01
88	4.4	-166	10	1	305.2	180.08	344.56	213.22	324.88	196.65
88	4.4	-167	10	1	971.35	185.04	1036.2	224.41	1003.775	204.725
88	4.4	-168	10	1	764.73	187.48	805.35	226.02	785.04	206.75
88	4.4	1	2	1	915.398782	170.051394	987.049041	305.407342	951.2239115	237.729368
88	4.4	3	4	1	1065.624454	125.749818	1241	327.739159	1153.312227	226.7444885
89	4.45	-169	10	1	358.01	178.42	395.66	216.98	376.835	197.7
89	4.45	-170	10	1	617.76	179.33	656.62	259.71	637.19	219.52
89	4.45	-171	10	1	278.28	180.62	319.04	213.97	298.66	197.295
89	4.45	-172	10	1	978.02	182.79	1029.6	217.5	1003.81	200.145
89	4.45	-173	10	1	747.02	190.6	786.6	226.02	766.81	208.31
89	4.45	1	2	1	908.718562	170.264724	978.896204	303.249461	943.807383	236.7570925
89	4.45	3	4	1	1059.52843	123.998956	1241	332.63366	1150.264215	228.316308
90	4.5	-174	10	1	342.77	190.13	374.84	218.47	358.805	204.3
90	4.5	-175	10	1	603.86	178.59	636.86	268.66	620.36	223.625
90	4.5	-176	10	1	252.98	181.42	295.16	215.41	274.07	198.415
90	4.5	-177	10	1	961.85	173.63	1013.2	217.08	987.525	195.355
90	4.5	-178	10	1	731.4	188.52	775.15	224.98	753.275	206.75
90	4.5	1	2	1	901.204419	170.545314	970.038712	301.505436	935.6215655	236.025375
90	4.5	3	4	1	1053.099224	122.140874	1241	337.824503	1147.049612	229.9826885
91	4.55	-179	10	1	902	179	982	216	942	197.5
91	4.55	-180	10	1	315.74	189.51	349.98	221.32	332.86	205.415
91	4.55	-181	10	1	579.57	179.45	621.04	275.91	600.305	227.68
91	4.55	-182	10	1	226.14	181.11	270.25	216.34	248.195	198.725
91	4.55	-183	10	1	943.9	173.81	996.61	216.4	970.255	195.105
91	4.55	-184	10	1	713.69	187.48	756.4	223.94	735.045	205.71
91	4.55	1	2	1	893.903769	170.817516	961.446389	299.813542	927.675079	235.315529
91	4.55	3	4	1	1054.826237	120.056671	1241	343.93017	1147.9131185	231.9934205
92	4.6	-185	10	1	285	188.97	320.94	222.44	302.97	205.705
92	4.6	-186	10	1	552.8	175.61	601.21	269.69	577.005	222.65
92	4.6	-187	10	1	195.52	180.1	242.76	216.54	219.14	198.32
92	4.6	-188	10	1	924.04	174.52	979.08	216.9	951.56	195.71
92	4.6	-189	10	1	693.9	186.44	732.44	220.81	713.17	203.625
92	4.6	1	2	1	886.807681	171.081702	953.107512	298.171477	919.9575965	234.6265895
92	4.6	3	4	1	1048.972093	117.795385	1241	350.559786	1144.9860465	234.1775855
93	4.65	-190	10	1	538.8	175.65	584.1	275.49	561.45	225.57
93	4.65	-191	10	1	150.97	179.45	213.87	212.75	182.42	196.1
93	4.65	-192	10	1	938.88	176.65	980.29	203.69	959.585	190.17
93	4.65	-193	10	1	679.58	186.58	721.58	229.75	700.58	208.165
93	4.65	-194	10	1	267.85	192.69	290.77	223.94	279.31	208.315
93	4.65	1	2	1	879.907716	171.33822	945.011043	296.57707	912.4593795	233.957645
93	4.65	3	4	1	1037.410551	115.333497	1241	357.783236	1139.2052755	236.5583665
94	4.7	-195	10	1	867	164	935	215	901	189.5
94	4.7	-196	10	1	520.61	175.77	559.88	282.37	540.245	229.07
94	4.7	-197	10	1	122.09	177.12	197.31	212.9	159.7	195.01
94	4.7	-198	10	1	933.08	169.31	964.35	199.74	948.715	184.525
94	4.7	-199	10	1	661.72	183.74	706.67	230.67	684.195	207.205
94	4.7	1	2	1	873.195891	171.587397	937.146571	295.028276	905.171231	233.3078365
94	4.7	3	4	1	1025.415378	112.64304	1241	365.683708	1133.207689	239.163374
95	4.75	-200	10	1	854	181	901	215	877.5	198
95	4.75	-201	10	1	489.63	174.49	543.75	279.9	516.69	227.195
95	4.75	-202	10	1	85.78	170.62	175.87	217.85	130.825	194.235
95	4.75	-203	10	1	642.79	183.15	688.36	230.34	665.575	206.745
95	4.75	-204	10	1	853.27	188.52	877.23	216.65	865.25	202.585
95	4.75	0	4	1	955.815916	169.54173	1016.527081	227.574872	986.1714985	198.558301
95	4.75	1	2	1	866.11702	172.024361	929.635854	293.72786	897.876437	232.8761105
95	4.75	3	4	1	1012.954107	109.690493	1241	374	1126.9770535	241.8452465
96	4.8	-205	10	1	466.27	174.81	520.33	284.88	493.3	229.845
96	4.8	-206	10	1	50.066	171.56	124.84	210.52	87.453	191.04
96	4.8	-207	10	1	624.58	183.39	670.81	230.79	647.695	207.09
96	4.8	-208	10	1	115.77	172.9	150.15	217.69	132.96	195.295
96	4.8	-209	10	1	832.44	182.27	867.85	215.6	850.145	198.935
96	4.8	0	4	1	941.163412	171.823091	998.784517	228.499606	969.9739645	200.1613485
96	4.8	1	2	1	859.233946	172.44923	923.268247	292.463296	891.2510965	232.456263
96	4.8	3	4	1	1005.866406	108.088874	1241	374	1123.433203	241.044437
97	4.85	-210	10	1	445.25	173.02	492.5	295.09	468.875	234.055
97	4.85	-211	10	1	12.747	169.38	93.081	209.76	52.914	189.57
97	4.85	-212	10	1	606.3	183.5	653.34	231.92	629.82	207.71
97	4.85	-213	10	1	86.067	171.71	124.84	220.18	105.4535	195.945
97	4.85	-214	10	1	817.85	181.23	855.35	216.65	836.6	198.94
97	4.85	0	4	1	927.136595	174.000569	983.06012	229.378477	955.0983575	201.689523
97	4.85	1	2	1	852.538727	172.862498	917.047435	291.233121	884.793081	232.0478095
97	4.85	3	4	1	998.389194	106.248081	1241	374	1119.694597	240.1240405
98	4.9	-215	10	1	409.81	180.45	461.15	290.18	435.48	235.315
98	4.9	-216	10	1	1	168.44	59.041	209.65	30.0205	189.045
98	4.9	-217	10	1	587.28	183.16	635.26	232.81	611.27	207.985
98	4.9	-218	10	1	57.673	173.12	106.26	220.95	81.9665	197.035
98	4.9	-219	10	1	799.1	179.15	844.94	216.65	822.02	197.9
98	4.9	0	4	1	910.417947	173.760176	964.805288	228.055233	937.6116175	200.9077045
98	4.9	1	2	1	846.023846	173.264629	910.968348	290.035948	878.496097	231.6502885
98	4.9	3	4	1	990.483588	104.116461	1241	374	1115.741794	239.0582305
99	4.95	-220	10	1	389.98	174.52	432.47	299.93	411.225	237.225
99	4.95	-221	10	1	1	166.77	19.2	209.83	10.1	188.3
99	4.95	-222	10	1	565.77	182.51	614.93	233.53	590.35	208.02
99	4.95	-223	10	1	783.48	178.1	838.69	222.9	811.085	200.5
99	4.95	-224	10	1	944.94	184.35	988.69	219.77	966.815	202.06
99	4.95	0	4	1	894.291008	173.529444	947.22964	226.779508	920.760324	200.154476
99	4.95	1	2	1	839.682182	173.656068	905.026143	288.870464	872.3541625	231.263266
99	4.95	3	4	1	982.104896	101.626214	1241	374	1111.552448	237.813107
100	5	-225	10	1	350.85	170.05	403.3	310.26	377.075	240.155
100	5	-226	10	1	545.4	181.21	595.78	234.04	570.59	207.625
100	5	-227	10	1	767.57	182.34	821.07	214.44	794.32	198.39
100	5	-228	10	1	927.23	182.27	972.02	221.85	949.625	202.06
100	5	0	4	1	878.726892	173.307887	930.296897	225.548883	904.5118945	199.428385
100	5	1	2	1	835.015903	173.374268	900.845722	287.642462	867.9308125	230.508365
100	5	3	4	1	973.201503	98.686569	1241	374	1107.1007515	236.3432845
101	5.05	-229	10	1	304.25	172.4	365.61	312.96	334.93	242.68
101	5.05	-230	10	1	522.69	179.43	574.6	234.11	548.645	206.77
101	5.05	-231	10	1	745.93	178.24	823.78	219.02	784.855	198.63
101	5.05	-232	10	1	906.1	181.71	971.91	224.91	939.005	203.31
101	5.05	1	2	1	830.426817	173.097063	896.721659	286.434239	863.574238	229.765651
101	5.05	3	4	1	971.25438	92.408283	1241	374	1106.12719	233.2041415
102	5.1	-233	10	1	243.18	166.26	327.86	329.19	285.52	247.725
102	5.1	-234	10	1	502.19	177.61	555.66	233.81	528.925	205.71
102	5.1	-235	10	1	734.78	168.72	810.43	214.41	772.605	191.565
102	5.1	-236	10	1	888.22	180.6	969.57	226.38	928.895	203.49
102	5.1	1	2	1	825.913066	172.824345	892.652788	285.245324	859.282927	229.0348345
102	5.1	3	4	1	969.205398	84.612989	1241	374	1105.102699	229.3064945
103	5.15	-237	10	1	165.45	163.89	289.61	349.84	227.53	256.865
103	5.15	-238	10	1	481.01	176.63	536.25	233.77	508.63	205.2
103	5.15	-239	10	1	719.35	174.43	790.85	217.18	755.1	195.805
103	5.15	-240	10	1	870.69	180.03	968.51	227.24	919.6	203.635
103	5.15	-241	10	1	796.25	169.08	821.92	191.25	809.085	180.165
103	5.15	1	2	1	821.472853	172.556006	888.637978	284.07526	855.0554155	228.315633
103	5.15	3	4	1	967.041981	81.686012	1241	374	1104.0209905	227.843006
104	5.2	-242	10	1	48.137	161.8	241.76	375	144.9485	268.4
104	5.2	-243	10	1	456.61	176.63	514.95	234.94	485.78	205.785
104	5.2	-244	10	1	701.6	173.79	769.56	214.86	735.58	194.325
104	5.2	-245	10	1	886.56	186.67	977.4	228.27	931.98	207.47
104	5.2	-246	10	1	777.93	174.99	807.02	188.81	792.475	181.9
104	5.2	1	2	1	817.104437	172.291945	884.676125	282.923603	850.890281	227.607774
104	5.2	3	4	1	964.748764	82.119239	1241	374	1102.874382	228.0596195
105	5.25	-247	10	1	1	159.57	190.97	375	95.985	267.285
105	5.25	-248	10	1	432.89	176.9	494.64	236.86	463.765	206.88
105	5.25	-249	10	1	684.14	177.51	754.11	215.49	719.125	196.5
105	5.25	-250	10	1	866.78	183.08	977.19	238.71	921.985	210.895
105	5.25	-251	10	1	763.11	171.63	792.21	196.36	777.66	183.995
105	5.25	0	4	1	795.339646	171.047867	842.752123	218.844098	819.0458845	194.9459825
105	5.25	1	2	1	814.032504	172.981635	881.397426	283.02267	847.714965	228.0021525
105	5.25	3	4	1	962.306787	81.709951	1241	374	1101.6533935	227.8549755
106	5.3	-252	10	1	1	155.15	131.37	375	66.185	265.075
106	5.3	-253	10	1	421.97	180.81	472.53	224.15	447.25	202.48
106	5.3	-254	10	1	667.1	177.4	737.86	216.24	702.48	196.82
106	5.3	-255	10	1	880.7	185.73	975.64	243.56	928.17	214.645
106	5.3	-256	10	1	750.41	175.52	780.89	197.29	765.65	186.405
106	5.3	0	4	1	778.556026	171.242246	826.755092	218.400798	802.655559	194.821522
106	5.3	1	2	1	810.991618	173.663999	878.149978	283.120653	844.570798	228.392326
106	5.3	3	4	1	969.380486	83.302724	1241	374	1105.190243	228.651362
107	5.35	-257	10	1	1	148.32	53.682	375	27.341	261.66
107	5.35	-258	10	1	394.01	179.33	451.45	226.69	422.73	203.01
107	5.35	-259	10	1	649.05	177.36	720.72	216.6	684.885	196.98
107	5.35	-260	10	1	874.7	184.34	974.92	243.6	924.81	213.97
107	5.35	-261	10	1	729.39	173.01	769.33	196.98	749.36	184.995
107	5.35	0	4	1	762.154621	171.432636	811.142621	218.054222	786.648621	194.743429
107	5.35	1	2	1	807.981314	174.339155	874.933333	283.217571	841.4573235	228.778363
107	5.35	3	4	1	977.571195	84.02636	1241	374	1109.2855975	229.01318
108	5.4	-262	10	1	370.04	179.14	429.83	227.9	399.935	203.52
108	5.4	-263	10	1	633.25	177.43	705.78	217.11	669.515	197.27
108	5.4	-264	10	1	854.07	182.44	982.09	242.48	918.08	212.46
108	5.4	-265	10	1	712.69	173.53	749.76	193.88	731.225	183.705
108	5.4	0	4	1	746.121391	171.619153	795.901852	217.711323	771.0116215	194.665238
108	5.4	1	2	1	805.001136	175.007214	871.747054	283.313439	838.374095	229.1603265
108	5.4	3	4	1	987.146334	83.983496	1241	374	1114.073167	228.991748
109	5.45	-266	10	1	345.12	178.17	407.52	229.26	376.32	203.715
109	5.45	-267	10	1	617.58	176.62	691.01	217.8	654.295	197.21
109	5.45	-268	10	1	692.2	175.27	733.58	193.82	712.89	184.545
109	5.45	-269	10	1	247.02	208.31	299.1	254.15	273.06	231.23
109	5.45	0	4	1	730.44308	171.801914	781.020359	217.372028	755.7317195	194.586971
109	5.45	1	2	1	802.050638	175.668287	868.590709	283.408275	835.3206735	229.538281
109	5.45	3	4	1	998.46475	83.224064	1241	374	1119.732375	228.612032
109	5.45	5	1	1	873.92095	187.130316	982.119251	244.218665	928.0201005	215.6744905
110	5.5	-270	10	1	781	180	845	217	813	198.5
110	5.5	-271	10	1	318.88	176.6	384.19	230	351.535	203.3
110	5.5	-272	10	1	601.71	175.25	676.03	217.63	638.87	196.44
110	5.5	-273	10	1	676.09	170.17	718.76	190.79	697.425	180.48
110	5.5	-274	10	1	768.25	183.08	806.75	218.08	787.5	200.58
110	5.5	-275	10	1	198.06	198.94	292.85	260.4	245.455	229.67
110	5.5	0	4	1	714.655354	171.862232	763.789517	217.025718	739.2224355	194.443975
110	5.5	1	2	1	797.967611	175.189864	860.989777	282.508129	829.478694	228.8489965
110	5.5	3	4	1	1012.01948	83.93734	1241	374	1126.50974	228.96867
110	5.5	5	1	1	863.38383	186.542931	971.945745	244.780494	917.6647875	215.6617125
111	5.55	-276	10	1	768	180	825	221	796.5	200.5
111	5.55	-277	10	1	288.42	174.93	357.32	230.57	322.87	202.75
111	5.55	-278	10	1	584.26	173.77	659.55	217.13	621.905	195.45
111	5.55	-279	10	1	654.97	172.81	702.8	201.94	678.885	187.375
111	5.55	-280	10	1	751.28	180.97	790.84	219.53	771.06	200.25
111	5.55	-281	10	1	140.77	202.06	270.98	266.65	205.875	234.355
111	5.55	0	4	1	699.117094	171.921543	746.880836	216.684974	722.998965	194.3032585
111	5.55	1	2	1	793.948267	174.7159	853.431399	281.602034	823.689833	228.158967
111	5.55	3	4	1	1040.243001	81.206492	1241	374	1140.6215005	227.603246
111	5.55	5	1	1	852.403904	185.936597	961.413222	245.363981	906.908563	215.650289
112	5.6	-282	10	1	259.39	173.69	332.13	231.13	295.76	202.41
112	5.6	-283	10	1	568.51	172.56	644.76	216.44	606.635	194.5
112	5.6	-284	10	1	640.03	171.52	688.6	201.12	664.315	186.32
112	5.6	-285	10	1	730.73	182	798.61	217.81	764.67	199.905
112	5.6	-286	10	1	93.046	185.18	253.88	289.72	173.463	237.45
112	5.6	0	4	1	683.82212	171.979873	730.285736	216.349663	707.053928	194.164768
112	5.6	1	2	1	789.990302	174.24656	845.916088	280.690463	817.953195	227.4685115
112	5.6	3	4	1	1075.51378	78.352973	1241	374	1158.25689	226.1764865
112	5.6	5	1	1	840.951001	185.310324	950.503592	245.970495	895.7272965	215.6404095
113	5.65	-287	10	1	264.29	178.9	301.97	227.57	283.13	203.235
113	5.65	-288	10	1	553.44	170.02	625.17	221.05	589.305	195.535
113	5.65	-289	10	1	631.58	166.8	674.77	193.27	653.175	180.035
113	5.65	-290	10	1	715.25	180.68	794.58	220.25	754.915	200.465
113	5.65	0	4	1	668.764462	172.037249	713.995934	216.019656	691.380198	194.0284525
113	5.65	1	2	1	786.091377	173.782001	839.125144	279.773904	812.6082605	226.7779525
113	5.65	3	4	1	1120.80282	75.352748	1241	374	1180.90141	224.676374
113	5.65	4	1	1	0	175.332718	251.622402	278.824334	125.811201	227.078526
113	5.65	5	1	1	832.291545	184.754725	942.176599	246.709357	887.234072	215.732041
114	5.7	-291	10	1	235.78	179.58	276.18	231.17	255.98	205.375
114	5.7	-292	10	1	536.38	176.55	612.36	223.8	574.37	200.175
114	5.7	-293	10	1	606.27	167.35	656.9	190.24	631.585	178.795
114	5.7	-294	10	1	702.08	180.51	787.63	220.64	744.855	200.575
114	5.7	0	4	1	653.938348	172.093696	698.003425	215.694826	675.9708865	193.894261
114	5.7	1	2	1	782.249116	173.32237	835.061496	278.852859	808.655306	226.0876145
114	5.7	3	4	1	1181.020944	72.167203	1241	374	1211.010472	223.0836015
114	5.7	4	1	1	0	175.050872	237.296742	285.963695	118.648371	230.5072835
114	5.7	5	1	1	823.247492	184.180181	933.536189	247.479467	878.3918405	215.829824
115	5.75	-295	10	1	760	182	837	232	798.5	207
115	5.75	-296	10	1	206.22	180.28	249.5	233.57	227.86	206.925
115	5.75	-297	10	1	522.21	176.92	599	224.57	560.605	200.745
115	5.75	-298	10	1	579.63	171.89	645.65	199.91	612.64	185.9
115	5.75	-299	10	1	689.6	180.77	781.5	222	735.55	201.385
115	5.75	0	4	1	639.338195	172.149238	682.300476	215.375052	660.8193355	193.762145
115	5.75	1	2	1	773.617869	174.073146	825.967979	278.94082	799.792924	226.506983
115	5.75	4	1	1	0	174.727899	221.107551	294.052748	110.5537755	234.3903235
115	5.75	5	1	1	815.555169	184.805206	926.916975	249.995292	871.236072	217.400249
116	5.8	-300	10	1	507.41	177.5	585.29	226.03	546.35	201.765
116	5.8	-301	10	1	561.57	168.67	629.08	190.94	595.325	179.805
116	5.8	-302	10	1	677.04	181.45	775.44	224.01	726.24	202.73
116	5.8	-303	10	1	512.65	160.4	576.19	191.65	544.42	176.025
116	5.8	0	4	1	624.958603	172.203899	666.879612	215.060216	645.9191075	193.6320575
116	5.8	1	2	1	763.472815	174.815187	816.956272	279.019003	790.2145435	226.917095
116	5.8	4	1	1	0	174.353919	202.677739	303.296109	101.3388695	238.825014
116	5.8	5	1	1	807.440914	185.458126	919.988691	252.654286	863.7148025	219.056206
117	5.85	-304	10	1	489.22	178.15	569.5	227.96	529.36	203.055
117	5.85	-305	10	1	541.75	178.32	617.05	195.08	579.4	186.7
117	5.85	-306	10	1	656.38	181.53	742.61	223.88	699.495	202.705
117	5.85	-307	10	1	497.02	159.35	558.48	190.6	527.75	174.975
117	5.85	0	4	1	610.794349	172.257701	651.733605	214.750206	631.263977	193.5039535
117	5.85	1	2	1	752.962953	175.548481	808.025227	279.08766	780.49409	227.3180705
117	5.85	4	1	1	0	173.915607	181.521077	313.961308	90.7605385	243.9384575
117	5.85	5	1	1	798.8673	186.14087	912.730433	255.468933	855.7988665	220.8049015
118	5.9	-308	10	1	472.28	178.79	554.99	229.81	513.635	204.3
118	5.9	-309	10	1	532.14	169.99	599.78	192.53	565.96	181.26
118	5.9	-310	10	1	634.02	180.09	745.56	223.77	689.79	201.93
118	5.9	-311	10	1	483.48	158.31	549.1	194.77	516.29	176.54
118	5.9	0	4	1	595.280194	172.299709	636.510473	214.576056	615.8953335	193.4378825
118	5.9	1	2	1	742.568964	176.273019	799.173696	279.147051	770.87133	227.710035
118	5.9	4	1	1	0	173.394553	156.999607	326.405006	78.4998035	249.8997795
118	5.9	5	1	1	789.792409	186.855545	905.119315	258.453215	847.455862	222.65438
119	5.95	-312	10	1	454.72	178.95	540.06	231.83	497.39	205.39
119	5.95	-313	10	1	520.63	166.48	584.07	191.58	552.35	179.03
119	5.95	-314	10	1	620.06	182.79	723.82	226.36	671.94	204.575
119	5.95	-315	10	1	1	174.98	114.54	243.73	57.77	209.355
119	5.95	-316	10	1	463.69	157.27	530.35	191.65	497.02	174.46
119	5.95	0	4	1	579.907008	172.341744	621.459606	214.401761	600.683307	193.3717525
119	5.95	1	2	1	732.288751	176.988801	790.400525	279.197444	761.344638	228.0931225
119	5.95	4	1	1	0	173.77399	127.76225	341.240976	63.881125	257.507483
119	5.95	5	1	1	780.169129	187.604468	897.130224	261.622839	838.6496765	224.6136535
120	6	-317	10	1	434.48	178.92	523.01	233.74	478.745	206.33
120	6	-318	10	1	492.67	159.38	568.54	192.64	530.605	176.01
120	6	-319	10	1	605.06	180.37	674.54	218.97	639.8	199.67
120	6	-320	10	1	1	234.35	89.542	341.65	45.271	288
120	6	-321	10	1	1	180.19	88.5	256.23	44.75	218.21
120	6	-322	10	1	438.69	153.1	520.98	196.85	479.835	174.975
120	6	0	4	1	564.671993	172.383805	606.578985	214.227345	585.625489	193.305575
120	6	1	2	1	715.26609	176.587805	774.396297	278.308601	744.8311935	227.448203
120	6	4	1	1	0	174.670596	93.35946	348.593983	46.67973	261.6322895
120	6	5	1	1	772.847692	187.513285	891.278305	263.989382	832.0629985	225.7513335
120	6	9	1	1	657.556842	181.936063	721.097946	226.374997	689.327394	204.15553
121	6.05	-323	10	1	478.09	158.95	554.57	192.6	516.33	175.775
121	6.05	-324	10	1	589.08	177.27	660.42	219.92	624.75	198.595
121	6.05	-325	10	1	1	237.28	50	364.42	25.5	300.85
121	6.05	-326	10	1	1	179.17	46.729	261.55	23.8645	220.36
121	6.05	-327	10	1	438.69	159.35	502.23	193.73	470.46	176.54
121	6.05	0	4	1	549.572451	172.42589	591.866568	214.05283	570.7195095	193.23936
121	6.05	1	2	1	698.397872	176.192521	758.539879	277.532137	728.4688755	226.862329
121	6.05	5	1	1	765.044311	187.417851	885.106829	266.516273	825.07557	226.967062
121	6.05	7	1	1	414.115617	180.307435	484.83061	232.6055	449.4731135	206.4564675
121	6.05	9	1	1	645.314038	181.518993	710.209639	226.856302	677.7618385	204.1876475
122	6.1	-328	10	1	463.22	158.27	540.25	192.32	501.735	175.295
122	6.1	-329	10	1	575.09	175.47	648.71	221.7	611.9	198.585
122	6.1	-330	10	1	415.77	157.27	488.69	197.9	452.23	177.585
122	6.1	0	4	1	534.605795	172.467997	577.320299	213.878242	555.963047	193.1731195
122	6.1	1	2	1	681.680222	175.802998	742.830938	276.750591	712.25558	226.2767945
122	6.1	5	1	1	756.707389	187.317819	878.590476	269.220433	817.6489325	228.269126
122	6.1	7	1	1	395.038028	180.648635	468.805998	234.666004	431.922013	207.6573195
122	6.1	9	1	1	632.590707	181.022925	698.850239	227.358056	665.720473	204.1904905
123	6.15	-331	10	1	446.51	157.89	524.17	192.39	485.34	175.14
123	6.15	-332	10	1	559.67	175.08	634.68	222.18	597.175	198.63
123	6.15	-333	10	1	399.1	156.23	472.02	194.77	435.56	175.5
123	6.15	0	4	1	519.76952	172.510124	562.938088	213.703606	541.353804	193.106865
123	6.15	1	2	1	665.109458	175.419277	727.269022	275.964118	696.18924	225.6916975
123	6.15	5	1	1	747.777792	187.212809	871.701107	272.121252	809.7394495	229.6670305
123	6.15	7	1	1	374.681924	181.011813	451.905936	236.864349	413.29393	208.938081
123	6.15	9	1	1	619.356894	180.489049	686.989828	227.88163	653.173361	204.1853395
124	6.2	-334	10	1	430.87	157.91	509.05	192.84	469.96	175.375
124	6.2	-335	10	1	543.98	175.24	589.37	217.61	566.675	196.425
124	6.2	-336	10	1	383.48	155.19	457.44	196.85	420.46	176.02
124	6.2	0	4	1	504.592739	172.556715	547.102858	213.640656	525.8477985	193.0986855
124	6.2	1	2	1	648.682082	175.041388	711.853539	275.172897	680.2678105	225.1071425
124	6.2	5	1	1	738.187413	187.102394	864.407353	275.241055	801.297383	231.1717245
124	6.2	6	1	1	654.391035	186.25938	760.053796	250.22036	707.2224155	218.23987
124	6.2	7	1	1	352.34122	181.422852	433.814397	239.436744	393.0778085	210.429798
124	6.2	9	1	1	605.580097	179.931867	674.595919	228.42852	640.088008	204.1801935
125	6.25	-337	10	1	363.73	162.26	493.43	196.03	428.58	179.145
125	6.25	-338	10	1	526.62	174.64	575.93	218.63	551.275	196.635
125	6.25	0	4	1	489.478364	172.603142	531.363477	213.577604	510.4209205	193.090373
125	6.25	1	2	1	630.199835	174.765748	693.161176	274.883109	661.6805055	224.8244285
125	6.25	5	1	1	730.896947	186.330124	860.340586	278.114595	795.6187665	232.2223595
125	6.25	6	1	1	642.364931	185.732252	751.392617	251.686151	696.878774	218.7092015
125	6.25	7	1	1	328.225633	181.821431	414.566357	242.213301	371.395995	212.017366
125	6.25	9	1	1	591.224979	179.349852	661.633169	229.00036	626.429074	204.175106
126	6.3	-339	10	1	361.79	163.78	476.84	192.37	419.315	178.075
126	6.3	0	4	1	474.425719	172.649406	515.719407	213.514453	495.072563	193.0819295
126	6.3	1	2	1	611.72184	174.491469	674.508669	274.588681	643.1152545	224.540075
126	6.3	5	1	1	722.96463	185.506314	855.990091	281.249983	789.4773605	233.3781485
126	6.3	6	1	1	629.661031	185.176971	742.148507	253.251201	685.904769	219.214086
126	6.3	7	1	1	303.60022	182.21493	394.885056	244.888353	349.242638	213.5516415
126	6.3	9	1	1	579.925737	179.055387	651.777743	230.048879	615.85174	204.552133
127	6.35	-340	10	1	333.98	159.17	464.6	197.27	399.29	178.22
127	6.35	0	4	1	459.434146	172.695508	500.170107	213.451207	479.8021265	193.0733575
127	6.35	1	2	1	593.246715	174.218581	655.897445	274.289629	624.57208	224.254105
127	6.35	5	1	1	714.299788	184.625548	851.326303	284.68488	782.8130455	234.655214
127	6.35	6	1	1	616.218325	184.59114	732.263455	254.926061	674.24089	219.7586005
127	6.35	7	1	1	275.615363	184.16645	374.832421	250.272099	325.223892	217.2192745
128	6.4	-341	10	1	324.88	155.92	453.38	201.03	389.13	178.475
128	6.4	-342	10	1	480.35	171.85	524.1	215.6	502.225	193.725
128	6.4	0	4	1	444.502995	172.741447	484.715031	213.38787	464.609013	193.0646585
128	6.4	1	2	1	574.773114	173.947115	637.328879	273.985978	606.0509965	223.9665465
128	6.4	5	1	1	712.374196	183.679578	852.205447	288.354092	782.2898215	236.016835
128	6.4	6	1	1	612.333747	185.067739	732.851428	258.35713	672.5925875	221.7124345
128	6.4	7	1	1	253.596217	186.217196	359.534663	255.639984	306.56544	220.92859
129	6.45	-343	10	1	293.54	161.91	442.84	202.69	368.19	182.3
129	6.45	-344	10	1	469.02	171.93	517.59	219.46	493.305	195.695
129	6.45	0	4	1	438.05801	172.818655	477.168328	213.287541	457.613169	193.053098
129	6.45	1	2	1	556.299718	173.6771	618.804279	273.677753	587.5519985	223.6774265
129	6.45	5	1	1	710.270331	182.664764	853.13777	292.402326	781.7040505	237.533545
129	6.45	6	1	1	608.19227	185.574944	733.48447	262.075381	670.83837	223.8251625
129	6.45	7	1	1	229.647902	188.407397	343.193163	261.479099	286.4205325	224.943248
130	6.5	-345	10	1	280.65	161.39	433.47	204.65	357.06	183.02
130	6.5	-346	10	1	462.56	173.23	512.77	221.95	487.665	197.59
130	6.5	0	4	1	431.66485	172.895218	469.685126	213.188078	450.674988	193.041648
130	6.5	1	2	1	544.299278	174.645473	605.882151	274.704918	575.0907145	224.6751955
130	6.5	5	1	1	713.74583	182.490351	862.614614	299.383394	788.180222	240.9368725
130	6.5	6	1	1	603.767361	186.115806	734.168225	266.11844	668.967793	226.117123
130	6.5	7	1	1	210.068524	190.657178	330.621848	267.598768	270.345186	229.127973
130	6.5	9	1	1	542.658408	180.832155	622.210551	237.881077	582.4344795	209.356616
131	6.55	-347	10	1	279.06	159.14	430.06	205.71	354.56	182.425
131	6.55	-348	10	1	457.74	174.89	509.7	223.6	483.72	199.245
131	6.55	0	4	1	424.918199	172.971143	462.264635	213.089472	443.591417	193.0303075
131	6.55	1	2	1	532.286072	175.614032	592.956699	275.732772	562.6213855	225.673402
131	6.55	5	1	1	717.675906	182.298633	873.032892	307.348292	795.354399	244.8234625
131	6.55	6	1	1	599.028699	186.693793	734.909322	270.530802	666.9690105	228.6122975
131	6.55	7	1	1	188.687897	193.064537	317.166382	274.282904	252.9271395	233.6737205
132	6.6	-349	10	1	293.82	167.74	415.57	209.04	354.695	188.39
132	6.6	-350	10	1	455.07	176.25	508.86	226.49	481.965	201.37
132	6.6	0	4	1	423.028963	172.928279	460.155685	212.780537	441.592324	192.854408
132	6.6	1	2	1	523.864732	176.48344	583.990447	276.525534	553.9275895	226.504487
132	6.6	5	1	1	722.155981	182.086901	884.54022	316.520757	803.3481005	249.303829
132	6.6	6	1	1	593.941478	187.312867	735.715601	275.365482	664.8285395	231.3391745
132	6.6	7	1	1	171.869415	196.219158	309.369533	281.84335	240.619474	239.031254
133	6.65	-351	10	1	288.09	169.98	425.23	213.96	356.66	191.97
133	6.65	-352	10	1	454.03	176.77	509.85	230.36	481.94	203.565
133	6.65	0	4	1	418.959034	172.927611	456.070559	212.713464	437.5147965	192.8205375
133	6.65	1	2	1	515.454513	177.35071	575.045349	277.316626	545.249931	227.333668
133	6.65	5	1	1	733.655394	181.694008	901.637717	326.545442	817.6465555	254.119725
133	6.65	6	1	1	596.465573	186.053718	744.913555	278.472844	670.689564	232.263281
133	6.65	7	1	1	153.590473	199.581738	301.056688	290.061924	227.3235805	244.821831
134	6.7	-353	10	1	282.84	168.21	426.68	219.57	354.76	193.89
134	6.7	-354	10	1	463.13	174.16	501.33	217.93	482.23	196.045
134	6.7	0	4	1	422.496059	172.043109	459.342794	211.573815	440.9194265	191.808462
134	6.7	1	2	1	507.055359	178.215845	566.121375	278.106045	536.588367	228.160945
134	6.7	5	1	1	746.949942	181.257106	921.067423	338.287889	834.0086825	259.7724975
134	6.7	6	1	1	599.207132	184.6888	755.149151	281.937344	677.1781415	233.313072
134	6.7	7	1	1	139.532122	197.944933	296.360259	291.832339	217.9461905	244.888636
134	6.7	9	1	1	541.068981	180.204161	629.445955	244.925996	585.257468	212.5650785
135	6.75	-355	10	1	274.62	162.67	418.53	205.39	346.575	184.03
135	6.75	-356	10	1	457.52	173.53	508.57	218.39	483.045	195.96
135	6.75	0	4	1	425.989979	171.169266	462.575574	210.448062	444.2827765	190.808664
135	6.75	1	2	1	505.736781	176.23603	563.606494	276.24647	534.6716375	226.24125
135	6.75	5	1	1	766.873724	180.28219	960.900393	353.246892	863.8870585	266.764541
135	6.75	6	1	1	606.026094	183.057113	771.366555	285.427106	688.6963245	234.2421095
135	6.75	7	1	1	124.189882	196.197064	291.342699	293.764444	207.7662905	244.980754
135	6.75	9	1	1	543.365265	177.844173	634.861329	244.81989	589.113297	211.3320315
136	6.8	-357	10	1	260.38	162.81	423.81	199.13	342.095	180.97
136	6.8	-358	10	1	463.32	170.31	515.83	216.07	489.575	193.19
136	6.8	0	4	1	429.441578	170.30589	465.769609	209.335953	447.6055935	189.8209215
136	6.8	1	2	1	504.419453	174.247404	561.07553	274.380169	532.7474915	224.3137865
136	6.8	5	1	1	790.840459	179.16487	1010.034124	371.696035	900.4372915	275.4304525
136	6.8	6	1	1	613.458627	180.928325	789.582659	289.3545	701.520643	235.1414125
136	6.8	7	1	1	107.379244	194.326399	285.970033	295.881511	196.6746385	245.103955
136	6.8	9	1	1	550.264492	175.172009	644.512253	244.527664	597.3883725	209.8498365
137	6.85	-359	10	1	308.39	165.27	426.75	204.73	367.57	185
137	6.85	-360	10	1	470.3	167.94	524.1	214.36	497.2	191.15
137	6.85	0	4	1	437.010839	169.34668	473.02732	208.101677	455.0190795	188.7241785
137	6.85	1	2	1	506.731799	172.087892	562.535086	272.211206	534.6334425	222.149549
137	6.85	5	1	1	820.209094	177.871348	1071.793336	374	946.001215	275.935674
137	6.85	6	1	1	621.590968	178.212323	810.192161	293.807485	715.8915645	236.009904
137	6.85	7	1	1	93.779149	194.913302	284.966633	301.585796	189.372891	248.249549
137	6.85	9	1	1	557.59201	172.295613	654.891779	244.21192	606.2418945	208.2537665
138	6.9	-361	10	1	311.11	160.54	432.96	208.49	372.035	184.515
138	6.9	-362	10	1	478.73	166.34	533.76	213.56	506.245	189.95
138	6.9	0	4	1	444.4784	168.399604	480.191377	206.884149	462.3348885	187.6418765
138	6.9	1	2	1	509.046965	169.924434	563.992811	270.040411	536.519888	219.9824225
138	6.9	5	1	1	857.024268	176.098214	1152.249013	374	1004.6366405	275.049107
138	6.9	6	1	1	632.972137	178.795609	836.287394	303.262171	734.6297655	241.02889
138	6.9	7	1	1	78.843399	195.543448	283.875628	307.857897	181.3595135	251.7006725
138	6.9	9	1	1	566.909339	171.831513	667.857831	246.533663	617.383585	209.182588
139	6.95	-363	10	1	312.86	159.93	441.89	206.75	377.375	183.34
139	6.95	0	4	1	451.846223	167.464456	487.263448	205.683056	469.5548355	186.573756
139	6.95	1	2	1	511.364927	167.757076	565.448743	267.867859	538.406835	217.8124675
139	6.95	5	1	1	904.511265	172.800475	1241	374	1072.7556325	273.4002375
139	6.95	6	1	1	645.610445	179.47518	866.650257	314.274246	756.130351	246.874713
139	6.95	7	1	1	62.362904	196.221804	282.686679	314.787033	172.5247915	255.5044185
139	6.95	9	1	1	576.831664	171.329809	681.87176	249.040661	629.351712	210.185235
140	7	-364	10	1	314.84	160.36	450.76	206.56	382.8	183.46
140	7	0	4	1	462.596258	168.479981	497.662221	206.42034	480.1292395	187.4501605
140	7	1	2	1	515.517146	168.494275	569.561886	268.664179	542.539516	218.579227
140	7	5	1	1	965.563117	173.444209	1241	374	1103.2815585	273.7221045
140	7	6	1	1	659.724277	180.276809	902.425998	327.262907	781.0751375	253.769858
140	7	7	1	1	44.082422	196.954126	281.387806	322.482143	162.735114	259.7181345
140	7	9	1	1	587.419401	170.785731	697.066762	251.756028	642.2430815	211.2708795
141	7.05	-365	10	1	316.46	161.46	459.84	207.77	388.15	184.615
141	7.05	0	4	1	473.183385	169.481233	507.910971	207.14605	490.547178	188.3136415
141	7.05	1	2	1	519.672204	169.23272	573.680629	269.460928	546.6764165	219.346824
141	7.05	5	1	1	1024.855917	173.996109	1241	374	1132.9279585	273.9980545
141	7.05	6	1	1	675.585819	181.236367	945.209642	342.812622	810.3977305	262.0244945
141	7.05	7	1	1	23.687078	197.747127	279.965044	331.077666	151.826061	264.4123965
141	7.05	9	1	1	597.020507	170.992032	711.915366	255.955964	654.4679365	213.473998
142	7.1	-366	10	1	317.41	162.12	469.28	210.47	393.345	186.295
142	7.1	0	4	1	482.684192	169.493093	517.110801	206.893323	499.8974965	188.193208
142	7.1	1	2	1	523.83012	169.97241	577.804968	270.2581	550.817544	220.115255
142	7.1	5	1	1	1085.210605	174.478338	1241	374	1163.1053025	274.239169
142	7.1	6	1	1	693.538728	182.082957	997.290857	361.763507	845.4147925	271.923232
142	7.1	7	1	1	0	197.697781	275.082171	339.994496	137.5410855	268.8461385
142	7.1	9	1	1	607.399721	171.220283	728.303733	260.586483	667.851727	215.903383
143	7.15	-367	10	1	351.55	156.48	485.89	205.4	418.72	180.94
143	7.15	0	4	1	492.051912	169.504973	526.187368	206.643876	509.11964	188.0744245
143	7.15	1	2	1	527.990912	170.713341	581.934897	271.055689	554.9629045	220.884515
143	7.15	5	1	1	1161.393382	175.042007	1241	374	1201.196691	274.5210035
143	7.15	6	1	1	710.004219	182.708644	1058.227101	374	884.11566	278.354322
143	7.15	7	1	1	0	197.644218	269.704545	349.402099	134.8522725	273.5231585
143	7.15	9	1	1	618.654783	171.474099	746.48598	265.717322	682.5703815	218.5957105
144	7.2	-368	10	1	358.15	157.85	496.06	208.58	427.105	183.215
144	7.2	0	4	1	501.289174	169.51687	535.14288	206.397646	518.216027	187.957258
144	7.2	1	2	1	532.154598	171.455512	586.070411	271.853689	559.1125045	221.6546005
144	7.2	6	1	1	729.145084	183.436177	1136.833908	374	932.989496	278.7180885
144	7.2	7	1	1	0	197.585782	263.754992	360.399248	131.877496	278.992515
144	7.2	9	1	1	630.900562	171.757932	766.775313	271.434137	698.8379375	221.5960345
145	7.25	-369	10	1	361.53	156.41	504.56	209.09	433.045	182.75
145	7.25	0	4	1	509.989028	167.880735	543.617448	204.548416	526.803238	186.2145755
145	7.25	1	2	1	537.863361	170.041813	591.465587	270.490828	564.664474	220.2663205
145	7.25	6	1	1	751.667392	184.292688	1241	374	996.333696	279.146344
145	7.25	7	1	1	0	197.521676	257.139475	373.421613	128.5697375	285.4716445
145	7.25	9	1	1	644.27299	172.077335	789.562276	277.843326	716.917633	224.9603305
146	7.3	-370	10	1	364.43	154.35	513.46	208.91	438.945	181.63
146	7.3	0	4	1	518.593129	166.261375	552.003437	202.719803	535.298283	184.490589
146	7.3	1	2	1	543.578543	168.624529	596.871108	269.125466	570.2248255	218.8749975
146	7.3	6	1	1	778.549821	185.315889	1241	374	1009.7749105	279.6579445
146	7.3	7	1	1	0	197.450919	249.742217	374	124.8711085	285.7254595
146	7.3	9	1	1	655.750592	170.04058	811.762893	282.780965	733.7567425	226.4107725
147	7.35	-371	10	1	366.81	151.65	521.65	207.94	444.23	179.795
147	7.35	0	4	1	527.012219	165.761275	560.212822	202.021354	543.6125205	183.8913145
147	7.35	1	2	1	549.300215	167.203684	602.286946	267.75764	575.7935805	217.480662
147	7.35	6	1	1	811.189317	186.559775	1241	374	1026.0946585	280.2798875
147	7.35	7	1	1	0	198.375664	235.037496	374	117.518748	286.187832
147	7.35	9	1	1	668.415539	167.712039	837.137286	288.414453	752.7764125	228.063246
148	7.4	-372	10	1	368.15	149.34	529.83	206.24	448.99	177.79
148	7.4	0	4	1	535.340037	165.266318	568.337518	201.330483	551.8387775	183.2984005
148	7.4	1	2	1	555.028444	165.7793	607.713075	266.387387	581.3707595	216.0833435
148	7.4	6	1	1	843.345586	187.892185	1241	374	1042.172793	280.9460925
148	7.4	7	1	1	0	199.427198	218.304083	374	109.1520415	286.713599
148	7.4	9	1	1	682.689393	165.014429	866.729576	294.888063	774.7094845	229.951246
148	7.4	11	1	1	283.187502	186.436901	394.370846	257.764658	338.779174	222.1007795
148	7.4	12	3	1	948.170433	150.70986	1004.170432	273.143581	976.1704325	211.9267205
148	7.4	13	1	1	348.881834	182.138431	424.532493	232.079723	386.7071635	207.109077
149	7.45	-373	10	1	367.96	149.28	536.58	204.5	452.27	176.89
149	7.45	0	4	1	543.577974	164.776437	576.378694	200.647079	559.978334	182.711758
149	7.45	1	2	1	560.763302	164.351398	613.149466	265.014746	586.956384	214.683072
149	7.45	6	1	1	884.67706	189.605288	1241	374	1062.83853	281.802644
149	7.45	7	1	1	0	200.633478	199.093602	374	99.546801	287.316739
149	7.45	9	1	1	695.368853	166.025687	897.222038	307.025832	796.2954455	236.5257595
149	7.45	12	3	1	990.933279	150.453328	1052.003255	284.016082	1021.468267	217.234705
150	7.5	-374	10	1	367.01	150.44	543.08	205.33	455.045	177.885
150	7.5	0	4	1	551.727394	164.291564	584.337498	199.971034	568.032446	182.131299
150	7.5	1	2	1	565.100759	166.268776	616.235079	267.136471	590.667919	216.7026235
150	7.5	6	1	1	939.756757	191.889486	1241	374	1090.3783785	282.944743
150	7.5	7	1	1	0	202.031334	176.815126	374	88.407563	288.015667
150	7.5	8	4	1	84.153804	176.427144	343.22701	325.376247	213.690407	250.9016955
150	7.5	9	1	1	709.65678	167.229106	933.479597	321.420944	821.5681885	244.325025
150	7.5	10	1	1	651.565818	173.639314	783.187401	262.176848	717.3766095	217.908081
150	7.5	12	3	1	1037.470203	150.107001	1096.803538	297.301092	1067.1368705	223.7040465
151	7.55	-375	10	1	364.67	152.42	548.79	207.25	456.73	179.835
151	7.55	0	4	1	557.003184	165.677241	589.526385	201.274334	573.2647845	183.4757875
151	7.55	1	2	1	569.457563	168.197948	619.327725	269.262661	594.392644	218.7303045
151	7.55	6	1	1	1016.802489	196.056347	1241	374	1128.9012445	285.0281735
151	7.55	7	1	1	0	203.670285	150.673614	374	75.336807	288.8351425
151	7.55	8	4	1	50.898297	177.385475	336.60401	337.594017	193.7511535	257.489746
151	7.55	9	1	1	723.318347	167.335491	974.034627	337.083241	848.676487	252.209366
151	7.55	12	3	1	1055.61958	149.769955	1189.029446	312.988277	1122.324513	231.379116
152	7.6	-376	10	1	360.35	154.76	554.17	210.32	457.26	182.54
152	7.6	-377	10	1	624.1	174.98	662.65	218.73	643.375	196.855
152	7.6	0	4	1	562.252888	167.057029	594.690646	202.570531	578.471767	184.81378
152	7.6	1	2	1	573.720843	170.138865	622.427599	271.393167	598.074221	220.766016
152	7.6	6	1	1	1132.211786	203.14415	1241	374	1186.605893	288.572075
152	7.6	7	1	1	0	207.677017	111.164337	374	55.5821685	290.8385085
152	7.6	8	4	1	12.254783	178.50343	329.270909	351.80059	170.762846	265.15201
152	7.6	9	1	1	738.918522	167.466258	1023.766541	356.249322	881.3425315	261.85779
152	7.6	11	1	1	256.396586	192.432191	395.89411	279.324714	326.145348	235.8784525
152	7.6	12	3	1	1113.859013	149.517605	1241	333.077624	1177.4295065	241.2976145
152	7.6	13	1	1	345.382414	187.303718	429.203781	244.777187	387.2930975	216.0404525
153	7.65	-378	10	1	354.93	155.11	558.49	215.09	456.71	185.1
153	7.65	0	4	1	567.476659	168.430941	599.830393	203.859657	583.653526	186.145299
153	7.65	1	2	1	576.69866	172.091469	625.534894	273.527842	601.116777	222.8096555
153	7.65	8	4	1	0	177.812504	319.844246	367.69461	159.922123	272.753557
153	7.65	9	1	1	756.900536	167.630718	1086.145857	374	921.5231965	270.815359
153	7.65	12	3	1	1185.19908	151.165841	1241	348.552707	1213.09954	249.859274
153	7.65	13	1	1	344.36156	188.772369	430.531955	248.482384	387.4467575	218.6273765
