0	0	-1	10	1	714.16	182.66	762.68	198.19	738.42	190.425
0	0	0	2	1	554.486073	166.426608	665.956732	271.803919	610.2214025	219.1152635
0	0	1	1	1	459.62103	180.293358	566.834571	217.035394	513.2278005	198.664376
0	0	3	1	1	654.989751	180.244977	688.725257	206.880017	671.857504	193.562497
1	0.05	-2	10	1	714.16	182.66	762.68	198.19	738.42	190.425
1	0.05	0	2	1	572.458213	166.2166	684.010526	271.066768	628.2343695	218.641684
1	0.05	1	1	1	473.380554	180.027445	578.368093	216.809494	525.8743235	198.4184695
1	0.05	3	1	1	654.990426	180.243042	688.724857	206.878045	671.8576415	193.5605435
2	0.1	-3	10	1	714.16	182.66	762.68	198.19	738.42	190.425
2	0.1	0	2	1	590.26164	166.008629	701.888967	270.336901	646.0753035	218.172765
2	0.1	1	1	1	487.284054	179.760494	591.294463	216.579696	539.2892585	198.170095
2	0.1	3	1	1	654.991102	180.241107	688.724458	206.876073	671.85778	193.55859
3	0.15	-4	10	1	714.16	182.66	762.68	198.19	738.42	190.425
3	0.15	0	2	1	607.898715	165.802666	719.594597	269.61421	663.746656	217.708438
3	0.15	1	1	1	499.8845	179.736553	603.4516	216.541428	551.66805	198.1389905
3	0.15	3	1	1	654.991778	180.239172	688.724058	206.874101	671.857918	193.5566365
4	0.2	-5	10	1	714.16	182.66	762.68	198.19	738.42	190.425
4	0.2	0	2	1	626.591171	165.090679	738.046098	268.23153	682.3186345	216.6611045
4	0.2	1	1	1	512.092125	179.713812	615.382199	216.500156	563.737162	198.106984
5	0.25	-6	10	1	714.16	182.66	762.68	198.19	738.42	190.425
5	0.25	0	2	1	645.074618	165.414123	756.353802	267.909902	700.71421	216.6620125
5	0.25	1	1	1	522.484161	179.69226	627.088087	216.45575	574.786124	198.074005
5	0.25	3	1	1	654.99313	180.235302	688.723259	206.870156	671.8581945	193.552729
6	0.3	-7	10	1	714.16	182.66	762.68	198.19	738.42	190.425
6	0.3	0	2	1	662.630535	165.108283	774.158087	267.166425	718.394311	216.137354
6	0.3	1	1	1	533.488479	179.601333	638.848135	216.22257	586.168307	197.9119515
6	0.3	3	1	1	654.993806	180.233367	688.722859	206.868184	671.8583325	193.5507755
7	0.35	-8	10	1	714.16	182.66	762.68	198.19	738.42	190.425
7	0.35	0	2	1	680.051076	165.293408	791.820227	266.924134	735.9356515	216.108771
7	0.35	1	1	1	544.528341	179.513115	650.295321	215.987093	597.411831	197.750104
7	0.35	3	1	1	654.994482	180.231432	688.72246	206.866212	671.858471	193.548822
8	0.4	-9	10	1	714.16	182.66	762.68	198.19	738.42	190.425
8	0.4	0	2	1	697.330248	165.26438	809.33294	266.468437	753.331594	215.8664085
8	0.4	1	1	1	555.605131	179.427541	661.437003	215.749257	608.521067	197.588399
8	0.4	3	1	1	654.995158	180.229497	688.72206	206.86424	671.858609	193.5468685
9	0.45	-10	10	1	714.16	182.66	762.68	198.19	738.42	190.425
9	0.45	0	2	1	715.154707	165.036724	827.374794	265.788498	771.2647505	215.412611
9	0.45	1	1	1	566.840486	179.401064	672.142299	215.476386	619.4913925	197.438725
9	0.45	3	1	1	654.995834	180.227562	688.72166	206.862267	671.858747	193.5449145
10	0.5	-11	10	1	714.16	182.66	762.68	198.19	738.42	190.425
10	0.5	0	2	1	732.833707	164.811301	845.239724	265.114392	789.0367155	214.9628465
10	0.5	1	1	1	578.071951	179.376335	682.49389	215.202219	630.2829205	197.289277
10	0.5	3	1	1	654.99651	180.225627	688.721261	206.860295	671.8588855	193.542961
11	0.55	-12	10	1	714.16	182.66	762.68	198.19	738.42	190.425
11	0.55	0	2	1	750.369047	164.588076	862.930286	264.446046	806.6496665	214.517061
11	0.55	1	1	1	589.299959	179.353287	692.504161	214.926733	640.90206	197.14001
12	0.6	-13	10	1	714.16	182.66	762.68	198.19	738.42	190.425
12	0.6	0	2	1	767.762504	164.367019	880.448997	263.783384	824.1057505	214.0752015
12	0.6	1	1	1	600.524416	179.331855	702.185425	214.64992	651.3549205	196.9908875
13	0.65	-14	10	1	714.16	182.66	762.68	198.19	738.42	190.425
13	0.65	0	2	1	785.015812	164.148098	897.798311	263.126336	841.4070615	213.637217
13	0.65	1	1	1	611.447614	179.458901	710.773849	214.393798	661.1107315	196.9263495
13	0.65	2	3	1	596.536234	180.211888	612.949251	211.317029	604.7427425	195.7644585
14	0.7	-15	10	1	714.16	182.66	762.68	198.19	738.42	190.425
14	0.7	0	2	1	802.130687	163.931284	914.980648	262.47483	858.5556675	213.203057
14	0.7	1	1	1	622.318481	179.583461	718.984486	214.136849	670.6514835	196.860155
14	0.7	2	3	1	595.740783	180.23846	609.40745	211.340472	602.5741165	195.789466
15	0.75	-16	10	1	714.16	182.66	762.68	198.19	738.42	190.425
15	0.75	0	2	1	819.108816	163.716545	931.998378	261.828795	875.553597	212.77267
15	0.75	1	1	1	633.136076	179.705637	726.836695	213.879093	679.9863855	196.792365
15	0.75	2	3	1	594.130659	180.265026	606.64019	211.36391	600.3854245	195.814468
16	0.8	-17	10	1	714.16	182.66	762.68	198.19	738.42	190.425
16	0.8	0	2	1	836.361085	163.419218	949.282835	261.036554	892.82196	212.227886
16	0.8	1	1	1	643.898799	179.825524	734.349212	213.620574	689.1240055	196.723049
16	0.8	2	3	1	592.405272	180.291587	603.738606	211.387343	598.071939	195.839465
17	0.85	-18	10	1	714.16	182.66	762.68	198.19	738.42	190.425
17	0.85	0	2	1	853.450238	163.124833	966.396022	260.252174	909.92313	211.6885035
17	0.85	1	1	1	653.747911	179.601409	740.514403	212.848747	697.131157	196.225078
17	0.85	2	3	1	589.450636	180.318142	600.45851	211.410771	594.954573	195.8644565
18	0.9	-19	10	1	714.16	182.66	762.68	198.19	738.42	190.425
18	0.9	0	2	1	870.378579	162.833346	983.340473	259.475537	926.859526	211.1544415
18	0.9	1	1	1	663.457413	179.386084	746.373059	212.094039	704.915236	195.7400615
18	0.9	2	3	1	586.405415	180.344691	597.072081	211.434194	591.738748	195.8894425
18	0.9	3	1	1	655.001919	180.210146	688.718063	206.844516	671.859991	193.527331
19	0.95	-20	10	1	714.16	182.66	762.68	198.19	738.42	190.425
19	0.95	0	2	1	887.148364	162.544715	1000.118668	258.706531	943.633516	210.625623
19	0.95	1	1	1	673.028532	179.179042	751.944445	211.355999	712.4864885	195.2675205
19	0.95	2	3	1	583.437757	180.371234	594.445141	211.457611	588.941449	195.9144225
19	0.95	3	1	1	655.002595	180.208211	688.717663	206.842544	671.860129	193.5253775
20	1	-21	10	1	714.16	182.66	762.68	198.19	738.42	190.425
20	1	0	2	1	903.761811	162.258899	1016.733043	257.945043	960.247427	210.101971
20	1	1	1	1	682.46201	178.979803	757.246778	210.634205	719.854394	194.807004
20	1	2	3	1	580.407877	180.397772	591.74121	211.481024	586.0745435	195.939398
20	1	3	1	1	655.003272	180.206276	688.717264	206.840571	671.860268	193.5234235
21	1.05	-22	10	1	714.16	182.66	762.68	198.19	738.42	190.425
21	1.05	0	2	1	920.476167	161.98468	1033.395629	257.236073	976.935898	209.6103765
21	1.05	1	1	1	689.542244	179.369772	760.344677	210.466304	724.9434605	194.918038
21	1.05	2	3	1	578.093876	180.424304	588.768359	211.504431	583.4311175	195.9643675
21	1.05	3	1	1	655.003948	180.204341	688.716864	206.838599	671.860406	193.52147
22	1.1	-23	10	1	714.16	182.66	762.68	198.19	738.42	190.425
22	1.1	0	2	1	937.051684	161.713086	1049.898357	256.533292	993.4750205	209.123189
22	1.1	1	1	1	696.469739	179.745849	763.2707	210.300724	729.8702195	195.0232865
22	1.1	2	3	1	575.745988	180.45083	585.745988	211.527833	580.745988	195.9893315
22	1.1	3	1	1	655.004624	180.202406	688.716464	206.836626	671.860544	193.519516
23	1.15	-24	10	1	714.16	182.66	762.68	198.19	738.42	190.425
23	1.15	0	2	1	953.490099	161.444082	1066.243499	255.836619	1009.866799	208.6403505
23	1.15	1	1	1	703.248164	180.108833	766.036907	210.137403	734.6425355	195.123118
23	1.15	2	3	1	572.419912	180.477351	583.760117	211.55123	578.0900145	196.0142905
23	1.15	3	1	1	655.0053	180.20047	688.716064	206.834653	671.860682	193.5175615
24	1.2	-25	10	1	714.16	182.66	762.68	198.19	738.42	190.425
24	1.2	0	2	1	969.793125	161.177629	1082.433289	255.145975	1026.113207	208.161802
24	1.2	1	1	1	709.88081	180.45947	768.654574	209.976288	739.267692	195.217879
24	1.2	2	3	1	569.086415	180.503866	581.753082	211.574622	575.4197485	196.039244
24	1.2	3	1	1	655.005977	180.198535	688.715665	206.832681	671.860821	193.515608
25	1.25	-26	10	1	714.16	182.66	762.68	198.19	738.42	190.425
25	1.25	0	2	1	985.962435	160.913692	1098.469905	254.461282	1042.21617	207.687487
25	1.25	1	1	1	716.650923	180.155425	770.184093	209.060201	743.417508	194.607813
25	1.25	2	3	1	566.746901	180.530375	578.922241	211.598009	572.834571	196.064192
25	1.25	3	1	1	655.006653	180.1966	688.715265	206.830708	671.860959	193.513654
26	1.3	-27	10	1	714.16	182.66	762.68	198.19	738.42	190.425
26	1.3	0	2	1	1001.999693	160.652236	1114.355508	253.782463	1058.1776005	207.2173495
26	1.3	1	1	1	723.316789	179.863945	771.570378	208.170612	747.4435835	194.0172785
26	1.3	2	3	1	564.780167	180.531374	576.446834	211.595895	570.6135005	196.0636345
26	1.3	3	1	1	655.007329	180.194665	688.714865	206.828736	671.861097	193.5117005
27	1.35	-28	10	1	714.16	182.66	762.68	198.19	738.42	190.425
27	1.35	0	2	1	1018.762191	160.872194	1131.593399	253.582524	1075.177795	207.227359
27	1.35	1	1	1	726.447347	180.245282	773.610633	208.038734	750.02899	194.142008
27	1.35	2	3	1	562.781879	180.532373	573.622089	211.593781	568.201984	196.063077
27	1.35	3	1	1	655.008005	180.192729	688.714465	206.826763	671.861235	193.509746
28	1.4	-29	10	1	714.16	182.66	762.68	198.19	738.42	190.425
28	1.4	0	2	1	1035.373946	161.090737	1148.707566	253.384235	1092.040756	207.237486
28	1.4	1	1	1	729.460167	180.613357	775.579906	207.911903	752.5200365	194.26263
28	1.4	2	3	1	560.826894	180.533372	570.826894	211.591667	565.826894	196.0625195
28	1.4	3	1	1	655.008682	180.190794	688.714065	206.82479	671.8613735	193.507792
29	1.45	-30	10	1	703.49	185.57	754.92	201.1	729.205	193.335
29	1.45	0	2	1	1051.837153	161.30788	1165.699164	253.187577	1108.7681585	207.2477285
29	1.45	1	1	1	732.991276	180.4817	774.797335	207.193364	753.8943055	193.837532
29	1.45	2	3	1	557.484788	180.534371	568.157331	211.589554	562.8210595	196.0619625
29	1.45	3	1	1	655.009358	180.188859	688.713666	206.822818	671.861512	193.5058385
30	1.5	-31	10	1	703.49	185.57	754.92	201.1	729.205	193.335
30	1.5	0	2	1	1068.153965	161.523636	1182.569326	252.992535	1125.3616455	207.2580855
30	1.5	1	1	1	736.456245	180.355754	773.998482	206.498945	755.2273635	193.4273495
30	1.5	2	3	1	553.869053	180.539238	565.202386	211.590776	559.5357195	196.065007
30	1.5	3	1	1	655.010034	180.186923	688.713266	206.820845	671.86165	193.503884
31	1.55	-32	10	1	703.49	185.57	754.92	201.1	729.205	193.335
31	1.55	0	2	1	1084.326505	161.738021	1199.319171	252.799091	1141.822838	207.268556
31	1.55	1	1	1	738.54917	181.008799	774.721289	206.708505	756.6352295	193.858652
31	1.55	2	3	1	551.506367	180.544103	562.847294	211.591998	557.1768305	196.0680505
31	1.55	3	1	1	655.010711	180.184988	688.712866	206.818872	671.8617885	193.50193
32	1.6	-33	10	1	703.49	185.57	754.92	201.1	729.205	193.335
32	1.6	0	2	1	1098.46025	161.416403	1213.807432	252.237805	1156.133841	206.827104
32	1.6	1	1	1	740.566989	181.639164	775.417811	206.911175	757.9924	194.2751695
32	1.6	2	3	1	549.24047	180.548967	560.573804	211.59322	554.907137	196.0710935
32	1.6	3	1	1	655.011387	180.183053	688.712466	206.816899	671.8619265	193.499976
33	1.65	-34	10	1	703.49	185.57	754.92	201.1	729.205	193.335
33	1.65	0	2	1	1112.522196	161.096265	1228.228811	251.679491	1170.3755035	206.387878
33	1.65	1	1	1	742.249678	181.649587	775.993141	206.429033	759.1214095	194.03931
33	1.65	2	3	1	545.939953	180.558921	557.948708	211.598869	551.9443305	196.078895
33	1.65	3	1	1	655.012063	180.181117	688.712066	206.814926	671.8620645	193.4980215
34	1.7	-35	10	1	703.49	185.57	754.92	201.1	729.205	193.335
34	1.7	0	2	1	1132.402338	160.759602	1241	250.997777	1186.701169	205.8786895
34	1.7	1	1	1	743.868849	181.659645	776.547392	205.96521	760.2081205	193.8124275
34	1.7	2	3	1	543.614394	180.558693	556.28106	211.595663	549.947727	196.077178
34	1.7	3	1	1	655.01274	180.179182	688.711666	206.812954	671.862203	193.496068
35	1.75	-36	10	1	703.49	185.57	754.92	201.1	729.205	193.335
35	1.75	0	2	1	1152.159892	160.56109	1241	250.320445	1196.579946	205.4407675
35	1.75	1	1	1	745.428048	181.669357	777.081684	205.518681	761.254866	193.594019
35	1.75	2	3	1	540.395747	180.571556	552.40676	211.603572	546.4012535	196.087564
35	1.75	3	1	1	655.013416	180.177246	688.711266	206.810981	671.862341	193.4941135
36	1.8	-37	10	1	703.49	185.57	754.92	201.1	729.205	193.335
36	1.8	0	2	1	1165.130867	160.373448	1241	249.77807	1203.0654335	205.075759
36	1.8	1	1	1	746.930563	181.67874	777.59706	205.088496	762.2638115	193.383618
36	1.8	2	3	1	537.334668	180.584416	548.668002	211.611478	543.001335	196.097947
36	1.8	3	1	1	655.014093	180.175311	688.710867	206.809008	671.86248	193.4921595
37	1.85	-38	10	1	696.7	184.6	733.57	199.16	715.135	191.88
37	1.85	0	2	1	1178.03818	160.187734	1241	249.238472	1209.51909	204.713103
37	1.85	1	1	1	748.379447	181.687812	778.094493	204.673774	763.23697	193.180793
37	1.85	2	3	1	534.225084	180.547778	547.066062	211.587113	540.645573	196.0674455
37	1.85	3	1	1	655.014769	180.173375	688.710467	206.807035	671.862618	193.490205
38	1.9	-39	10	1	696.7	184.6	733.57	199.16	715.135	191.88
38	1.9	0	2	1	1197.037533	160.736569	1241	249.450349	1219.0187665	205.093459
38	1.9	1	1	1	748.950429	182.161915	777.761478	204.726425	763.3559535	193.44417
38	1.9	2	3	1	531.297524	180.511114	545.630858	211.562727	538.464191	196.0369205
38	1.9	3	1	1	655.015446	180.17144	688.710067	206.805062	671.8627565	193.488251
39	1.95	-40	10	1	696.7	184.6	733.57	199.16	715.135	191.88
39	1.95	0	2	1	1215.975389	161.348245	1241	249.153265	1228.4876945	205.250755
39	1.95	1	1	1	749.49965	182.618645	777.440316	204.776999	763.469983	193.697822
39	1.95	2	3	1	529.002632	180.474422	541.679123	211.538321	535.3408775	196.0063715
39	1.95	3	1	1	655.016122	180.169504	688.709667	206.803089	671.8628945	193.4862965
40	2	-41	10	1	698.64	185.57	734.54	206.92	716.59	196.245
40	2	0	2	1	1234.852047	162.247194	1241	247.422103	1237.9260235	204.8346485
40	2	1	1	1	750.028347	183.058942	777.130371	204.825616	763.579359	193.942279
40	2	2	3	1	526.918152	180.437704	537.918152	211.513893	532.418152	195.9757985
40	2	3	1	1	655.016798	180.167569	688.709267	206.801116	671.8630325	193.4843425
41	2.05	-42	10	1	698.64	185.57	734.54	206.92	716.59	196.245
41	2.05	1	1	1	750.537666	183.483678	776.83105	204.872384	763.684358	194.178031
41	2.05	2	3	1	523.772169	180.40096	535.613161	211.489445	529.692665	195.9452025
41	2.05	3	1	1	655.017475	180.165633	688.708867	206.799143	671.863171	193.482388
42	2.1	-43	10	1	698.64	185.57	734.54	206.92	716.59	196.245
42	2.1	1	1	1	751.028668	183.893666	776.654567	204.917405	763.8416175	194.4055355
42	2.1	2	3	1	520.863198	180.364188	533.529865	211.464975	527.1965315	195.9145815
42	2.1	3	1	1	655.018151	180.163698	688.708467	206.79717	671.863309	193.480434
43	2.15	-44	10	1	687.97	185.57	732.6	202.07	710.285	193.82
43	2.15	1	1	1	751.048427	183.667165	776.193268	204.281858	763.6208475	193.9745115
43	2.15	2	3	1	520.07715	180.286415	533.409981	211.402539	526.7435655	195.844477
43	2.15	3	1	1	655.018828	180.161762	688.708067	206.795197	671.8634475	193.4784795
44	2.2	-45	10	1	687.97	185.57	732.6	202.07	710.285	193.82
44	2.2	1	1	1	751.067624	183.448482	775.748913	203.669542	763.4082685	193.559012
44	2.2	2	3	1	516.03684	180.250456	530.03684	211.378788	523.03684	195.814622
44	2.2	3	1	1	655.019505	180.159827	688.707667	206.793224	671.863586	193.4765255
45	2.25	-46	10	1	687.97	185.57	732.6	202.07	710.285	193.82
45	2.25	1	1	1	751.086287	183.237218	775.320576	203.079205	763.2034315	193.1582115
45	2.25	2	3	1	513.977899	180.214353	526.988398	211.355017	520.4831485	195.784685
45	2.25	3	1	1	655.020181	180.157891	688.707267	206.791251	671.863724	193.474571
46	2.3	-47	10	1	687.97	185.57	732.6	202.07	710.285	193.82
46	2.3	1	1	1	751.104445	183.033003	774.907398	202.509687	763.0059215	192.771345
46	2.3	2	3	1	511.703856	180.177809	523.703856	211.331225	517.703856	195.754517
46	2.3	3	1	1	655.020858	180.155955	688.706867	206.789278	671.8638625	193.4726165
47	2.35	-48	10	1	693.79	184.6	728.72	205.95	711.255	195.275
47	2.35	1	1	1	751.122121	182.835488	774.508579	201.959903	762.81535	192.3976955
47	2.35	2	3	1	508.624665	180.177999	522.137697	211.339051	515.381181	195.758525
47	2.35	3	1	1	655.021534	180.15402	688.706467	206.787305	671.8640005	193.4706625
48	2.4	-49	10	1	693.79	184.6	728.72	205.95	711.255	195.275
48	2.4	1	1	1	750.632491	183.07619	773.589434	201.870091	762.1109625	192.4731405
48	2.4	2	3	1	505.370466	180.178189	520.370466	211.34688	512.870466	195.7625345
48	2.4	3	1	1	655.022211	180.152084	688.706067	206.785332	671.864139	193.468708
49	2.45	-50	10	1	693.79	184.6	728.72	205.95	711.255	195.275
49	2.45	1	1	1	750.160277	183.308848	772.703197	201.783474	761.431737	192.546161
49	2.45	2	3	1	503.598473	180.17838	516.614524	211.354713	510.1064985	195.7665465
49	2.45	3	1	1	655.022887	180.150149	688.705667	206.783359	671.864277	193.466754
50	2.5	-51	10	1	693.79	184.6	728.72	205.95	711.255	195.275
50	2.5	1	1	1	749.704566	183.533859	771.848129	201.699885	760.7763475	192.616872
50	2.5	2	3	1	501.698505	180.178571	512.698505	211.362548	507.198505	195.7705595
50	2.5	3	1	1	655.023564	180.148213	688.705267	206.781386	671.8644155	193.4647995
51	2.55	-52	10	1	693.79	184.6	728.72	205.95	711.255	195.275
51	2.55	1	1	1	749.264506	183.751595	771.022617	201.619167	760.1435615	192.685381
51	2.55	2	3	1	498.736795	180.178742	511.24839	211.370387	504.9925925	195.7745645
51	2.55	3	1	1	655.024241	180.146277	688.704867	206.779412	671.864554	193.4628445
52	2.6	-53	10	1	693.79	184.6	728.72	205.95	711.255	195.275
52	2.6	-54	10	1	753.95	183.63	780.15	201.1	767.05	192.365
52	2.6	1	1	1	748.839307	183.962401	770.225153	201.541176	759.53223	192.7517885
52	2.6	2	3	1	495.687965	180.178799	509.687966	211.378229	502.6879655	195.778514
52	2.6	3	1	1	655.024917	180.144341	688.704467	206.777439	671.864692	193.46089
53	2.65	-55	10	1	685.06	185.57	730.66	205.95	707.86	195.76
53	2.65	-56	10	1	753.95	182.66	781.12	202.07	767.535	192.365
53	2.65	1	1	1	748.672629	184.115959	769.686465	201.400355	759.179547	192.758157
53	2.65	2	3	1	492.730507	180.110173	505.607396	211.3108	499.1689515	195.7104865
53	2.65	3	1	1	655.025594	180.142406	688.704067	206.775466	671.8648305	193.458936
54	2.7	-57	10	1	685.06	185.57	730.66	205.95	707.86	195.76
54	2.7	-58	10	1	756.86	181.69	781.12	201.1	768.99	191.395
54	2.7	1	1	1	748.512066	184.264561	769.16574	201.264248	758.838903	192.7644045
54	2.7	2	3	1	489.801562	180.041517	501.468229	211.243303	495.6348955	195.64241
54	2.7	3	1	1	655.026271	180.14047	688.703667	206.773493	671.864969	193.4569815
55	2.75	-59	10	1	685.06	185.57	730.66	205.95	707.86	195.76
55	2.75	-60	10	1	756.86	181.69	783.06	199.16	769.96	190.425
55	2.75	1	1	1	748.232947	184.408445	768.662065	201.132619	758.447506	192.770532
55	2.75	2	3	1	486.952739	179.97283	499.65061	211.175739	493.3016745	195.5742845
55	2.75	3	1	1	655.026947	180.138534	688.703267	206.771519	671.865107	193.4550265
56	2.8	-61	10	1	685.06	185.57	730.66	205.95	707.86	195.76
56	2.8	-62	10	1	759.77	180.72	784.03	201.1	771.9	190.91
56	2.8	1	1	1	747.789888	184.547833	768.174586	201.005251	757.982237	192.776542
56	2.8	2	3	1	484.24385	179.904113	497.910517	211.108111	491.0771835	195.506112
56	2.8	3	1	1	655.027624	180.136598	688.702867	206.769546	671.8652455	193.453072
57	2.85	-63	10	1	685.06	185.57	730.66	205.95	707.86	195.76
57	2.85	-64	10	1	757.83	181.69	785.97	198.19	771.9	189.94
57	2.85	1	1	1	747.360727	184.682934	767.702507	200.881939	757.531617	192.7824365
57	2.85	2	3	1	482.842804	179.782012	496.148703	211.010654	489.4957535	195.396333
57	2.85	3	1	1	655.028301	180.134663	688.702467	206.767573	671.865384	193.451118
58	2.9	-65	10	1	760.74	184.6	787.91	199.16	774.325	191.88
58	2.9	-66	10	1	685.06	181.69	729.69	204.01	707.375	192.85
58	2.9	1	1	1	746.858523	184.720648	766.825246	200.649948	756.8418845	192.685298
58	2.9	2	3	1	479.740824	179.67244	492.740824	210.907435	486.240824	195.2899375
58	2.9	3	1	1	655.028977	180.132727	688.702067	206.765599	671.865522	193.449163
59	2.95	-67	10	1	760.74	184.6	787.91	199.16	774.325	191.88
59	2.95	-68	10	1	685.06	181.69	729.69	204.01	707.375	192.85
59	2.95	1	1	1	746.371953	184.757183	765.977072	200.425615	756.1745125	192.591399
59	2.95	2	3	1	476.814782	179.562783	489.505393	210.804151	483.1600875	195.183467
59	2.95	3	1	1	655.029654	180.130791	688.701667	206.763626	671.8656605	193.4472085
60	3	-69	10	1	760.74	184.6	787.91	199.16	774.325	191.88
60	3	-70	10	1	685.06	181.69	729.69	204.01	707.375	192.85
60	3	1	1	1	745.9003	184.792594	765.15656	200.208566	755.52843	192.50058
60	3	2	3	1	474.106989	179.453041	486.440322	210.700802	480.2736555	195.0769215
60	3	3	1	1	655.030331	180.128855	688.701267	206.761653	671.865799	193.445254
61	3.05	-71	10	1	760.74	184.6	787.91	199.16	774.325	191.88
61	3.05	-72	10	1	685.06	181.69	729.69	204.01	707.375	192.85
61	3.05	1	1	1	745.442888	184.826931	764.362381	199.998454	754.9026345	192.4126925
61	3.05	2	3	1	470.642704	179.343215	484.82968	210.59739	477.736192	194.9703025
61	3.05	3	1	1	655.031008	180.126919	688.700867	206.759679	671.8659375	193.443299
62	3.1	-73	10	1	685.06	181.69	729.69	204.01	707.375	192.85
62	3.1	-74	10	1	762.68	182.66	795.67	198.19	779.175	190.425
62	3.1	1	1	1	744.99908	184.860242	763.593285	199.794949	754.2961825	192.3275955
62	3.1	2	3	1	467.582843	179.248752	483.582843	210.49826	475.582843	194.873506
62	3.1	3	1	1	655.031684	180.124984	688.700466	206.757706	671.866075	193.441345
63	3.15	-75	10	1	685.06	181.69	729.69	204.01	707.375	192.85
63	3.15	-76	10	1	767.53	181.69	795.67	200.13	781.6	190.91
63	3.15	1	1	1	744.689919	184.884911	762.97714	199.589036	753.8335295	192.2369735
63	3.15	2	3	1	465.475125	179.154306	479.985798	210.399158	472.7304615	194.776732
63	3.15	3	1	1	655.032361	180.123048	688.700066	206.755732	671.8662135	193.43939
64	3.2	-77	10	1	685.06	181.69	729.69	204.01	707.375	192.85
64	3.2	-78	10	1	767.53	181.69	795.67	200.13	781.6	190.91
64	3.2	1	1	1	744.389712	184.908863	762.379911	199.38942	753.3848115	192.1491415
64	3.2	2	3	1	463.17568	179.059877	476.17568	210.300086	469.67568	194.6799815
64	3.2	3	1	1	655.033038	180.121112	688.699666	206.753759	671.866352	193.4374355
65	3.25	-79	10	1	685.06	181.69	729.69	204.01	707.375	192.85
65	3.25	-80	10	1	770.44	182.66	800.52	199.16	785.48	190.91
65	3.25	1	1	1	744.098076	184.932129	761.800742	199.195815	752.949409	192.063972
65	3.25	2	3	1	461.722298	178.965465	474.23056	210.201042	467.976429	194.5832535
65	3.25	3	1	1	655.033715	180.119176	688.699266	206.751785	671.8664905	193.4354805
66	3.3	-81	10	1	770.44	182.66	800.52	199.16	785.48	190.91
66	3.3	-82	10	1	689.91	183.63	766.56	206.92	728.235	195.275
66	3.3	2	3	1	460.104112	178.87107	472.104112	210.102028	466.104112	194.486549
66	3.3	3	1	1	655.034392	180.11724	688.698866	206.749812	671.866629	193.433526
67	3.35	-83	10	1	689.91	183.63	766.56	206.92	728.235	195.275
67	3.35	-84	10	1	775.29	179.75	799.55	197.22	787.42	188.485
67	3.35	2	3	1	457.301535	178.996836	468.970716	210.217955	463.1361255	194.6073955
67	3.35	3	1	1	655.035069	180.115304	688.698466	206.747838	671.8667675	193.431571
68	3.4	-85	10	1	689.91	183.63	766.56	206.92	728.235	195.275
68	3.4	-86	10	1	775.29	179.75	799.55	197.22	787.42	188.485
68	3.4	2	3	1	454.34671	179.12251	465.680043	210.333809	460.0133765	194.7281595
68	3.4	3	1	1	655.035745	180.113368	688.698066	206.745864	671.8669055	193.429616
69	3.45	-87	10	1	689.91	183.63	766.56	206.92	728.235	195.275
69	3.45	-88	10	1	778.21	182.66	803.43	198.19	790.82	190.425
69	3.45	2	3	1	451.042923	179.248092	463.045417	210.449592	457.04417	194.848842
69	3.45	3	1	1	655.036422	180.111432	688.697665	206.743891	671.8670435	193.4276615
70	3.5	-89	10	1	689.91	183.63	766.56	206.92	728.235	195.275
70	3.5	-90	10	1	778.21	182.66	803.43	198.19	790.82	190.425
70	3.5	2	3	1	448.088934	179.365108	460.7556	210.538652	454.422267	194.95188
70	3.5	3	1	1	655.037099	180.109496	688.697265	206.741917	671.867182	193.4257065
71	3.55	-91	10	1	689.91	183.63	766.56	206.92	728.235	195.275
71	3.55	-92	10	1	781.12	181.69	808.29	198.19	794.705	189.94
71	3.55	2	3	1	446.735638	179.116683	459.068248	210.269102	452.901943	194.6928925
71	3.55	3	1	1	655.037776	180.10756	688.696865	206.739944	671.8673205	193.423752
72	3.6	-93	10	1	689.91	183.63	766.56	206.92	728.235	195.275
72	3.6	-94	10	1	781.12	181.69	808.29	198.19	794.705	189.94
72	3.6	2	3	1	445.23307	178.868634	457.233069	209.999924	451.2330695	194.434279
72	3.6	3	1	1	655.038453	180.105624	688.696465	206.73797	671.867459	193.421797
73	3.65	-95	10	1	689.91	183.63	766.56	206.92	728.235	195.275
73	3.65	-96	10	1	781.12	181.69	808.29	198.19	794.705	189.94
73	3.65	2	3	1	442.720629	178.62096	454.720029	209.731117	448.720329	194.1760385
73	3.65	3	1	1	655.03913	180.103688	688.696065	206.735996	671.8675975	193.419842
74	3.7	-97	10	1	689.91	183.63	766.56	206.92	728.235	195.275
74	3.7	-98	10	1	785.97	181.69	814.11	199.16	800.04	190.425
74	3.7	2	3	1	440.056921	178.373661	452.056921	209.462682	446.056921	193.9181715
74	3.7	3	1	1	655.039807	180.101752	688.695664	206.734023	671.8677355	193.4178875
75	3.75	-99	10	1	689.91	183.63	766.56	206.92	728.235	195.275
75	3.75	-100	10	1	785.97	181.69	814.11	199.16	800.04	190.425
75	3.75	2	3	1	437.88528	178.126735	449.884764	209.194616	443.885022	193.6606755
75	3.75	3	1	1	655.040484	180.099816	688.695264	206.732049	671.867874	193.4159325
76	3.8	-101	10	1	689.91	183.63	766.56	206.92	728.235	195.275
76	3.8	-102	10	1	785.97	181.69	814.11	199.16	800.04	190.425
76	3.8	2	3	1	435.560431	177.880182	447.560432	208.926919	441.5604315	193.4035505
76	3.8	3	1	1	655.041161	180.09788	688.694864	206.730075	671.8680125	193.4139775
77	3.85	-103	10	1	689.91	183.63	766.56	206.92	728.235	195.275
77	3.85	-104	10	1	785.97	181.69	814.11	199.16	800.04	190.425
77	3.85	-105	10	1	431.8	177.81	451.21	207.89	441.505	192.85
77	3.85	3	1	1	655.041838	180.095944	688.694464	206.728101	671.868151	193.4120225
