0	0	-1	10	1	320.98	172.9	357.44	195.81	339.21	184.355
0	0	-2	10	1	445.98	171.85	457.44	183.31	451.71	177.58
0	0	-3	10	1	479.31	166.65	489.73	173.94	484.52	170.295
0	0	-4	10	1	527.23	168.73	545.98	180.19	536.605	174.46
0	0	0	1	1	894.768323	190.650299	1241	374	1067.8841615	282.3251495
0	0	2	1	1	292.437316	176.913677	331.777285	197.46697	312.1073005	187.1903235
1	0.05	-5	10	1	320.98	172.9	357.44	195.81	339.21	184.355
1	0.05	-6	10	1	440.77	166.65	454.31	183.31	447.54	174.98
1	0.05	-7	10	1	480.35	164.56	490.77	176.02	485.56	170.29
1	0.05	-8	10	1	525.15	165.6	545.98	178.1	535.565	171.85
1	0.05	0	1	1	880.106634	190.173318	1241	374	1060.553317	282.086659
1	0.05	2	1	1	285.843327	175.734031	326.595526	196.783746	306.2194265	186.2588885
2	0.1	-9	10	1	320.98	172.9	357.44	195.81	339.21	184.355
2	0.1	-10	10	1	479.31	167.69	491.81	178.1	485.56	172.895
2	0.1	-11	10	1	441.81	172.9	455.35	183.31	448.58	178.105
2	0.1	-12	10	1	529.31	168.73	545.98	179.15	537.645	173.94
2	0.1	0	1	1	866.581546	189.734306	1241	374	1053.790773	281.867153
2	0.1	2	1	1	278.933162	176.461573	321.186012	198.036447	300.059587	187.24901
3	0.15	-13	10	1	309.52	172.9	344.94	199.98	327.23	186.44
3	0.15	-14	10	1	443.9	176.02	455.35	183.31	449.625	179.665
3	0.15	-15	10	1	480.35	170.81	492.85	181.23	486.6	176.02
3	0.15	-16	10	1	529.31	171.85	543.9	180.19	536.605	176.02
3	0.15	0	1	1	854.066047	189.328905	1241	374	1047.5330235	281.6644525
3	0.15	2	1	1	271.670578	177.22624	315.520329	199.353063	293.5954535	188.2896515
4	0.2	-17	10	1	309.52	172.9	344.94	199.98	327.23	186.44
4	0.2	-18	10	1	528.27	171.85	545.98	180.19	537.125	176.02
4	0.2	-19	10	1	440.77	173.94	456.4	185.4	448.585	179.67
4	0.2	-20	10	1	479.31	170.81	489.73	182.27	484.52	176.54
4	0.2	0	1	1	842.451378	188.953397	1241	374	1041.725689	281.4766985
4	0.2	2	1	1	264.027908	178.030947	309.57984	200.738615	286.803874	189.384781
5	0.25	-21	10	1	304.31	176.02	327.23	201.02	315.77	188.52
5	0.25	-22	10	1	526.19	171.85	549.1	183.31	537.645	177.58
5	0.25	-23	10	1	476.19	168.73	491.81	180.19	484	174.46
5	0.25	-24	10	1	443.9	174.98	455.35	185.4	449.625	180.19
5	0.25	0	1	1	831.643863	188.604595	1241	374	1036.3219315	281.3022975
5	0.25	2	1	1	255.97451	178.878923	303.344058	202.19866	279.659284	190.5387915
6	0.3	-25	10	1	457.44	173.94	478.27	183.31	467.855	178.625
6	0.3	-26	10	1	528.27	171.85	545.98	183.31	537.125	177.58
6	0.3	-27	10	1	477.23	168.73	495.98	182.27	486.605	175.5
6	0.3	0	1	1	821.333837	187.337916	1241	374	1031.1669185	280.668958
6	0.3	2	1	1	246.346775	179.705091	295.689001	203.661121	271.017888	191.683106
6	0.3	3	1	1	276.432623	179.030816	319.963003	199.372952	298.197813	189.201884
7	0.35	-28	10	1	457.44	173.94	478.27	183.31	467.855	178.625
7	0.35	-29	10	1	528.27	171.85	545.98	183.31	537.125	177.58
7	0.35	-30	10	1	480.35	168.73	490.77	182.27	485.56	175.5
7	0.35	0	1	1	811.756294	186.753052	1230.610208	374	1021.183251	280.376526
7	0.35	2	1	1	236.180418	180.577446	287.639985	205.205428	261.9102015	192.891437
8	0.4	-31	10	1	457.44	173.94	478.27	183.31	467.855	178.625
8	0.4	-32	10	1	528.27	171.85	545.98	183.31	537.125	177.58
8	0.4	-33	10	1	477.23	171.85	492.85	182.27	485.04	177.06
8	0.4	0	1	1	802.878261	189.891797	1190.147643	374	996.512952	281.9458985
8	0.4	2	1	1	225.901754	179.255363	279.596515	204.588404	252.7491345	191.9218835
9	0.45	-34	10	1	457.44	173.94	478.27	183.31	467.855	178.625
9	0.45	-35	10	1	528.27	171.85	545.98	183.31	537.125	177.58
9	0.45	-36	10	1	430.35	171.85	447.02	185.4	438.685	178.625
9	0.45	-37	10	1	476.19	168.73	492.85	181.23	484.52	174.98
9	0.45	0	1	1	794.48387	185.445058	1154.319055	374	974.4014625	279.722529
9	0.45	2	1	1	215.015309	177.855164	271.117588	203.93488	243.0664485	190.895022
10	0.5	-38	10	1	528.27	171.85	545.98	183.31	537.125	177.58
10	0.5	-39	10	1	429.31	170.81	451.19	184.35	440.25	177.58
10	0.5	-40	10	1	459.52	171.85	477.23	179.15	468.375	175.5
10	0.5	-41	10	1	476.19	168.73	490.77	180.19	483.48	174.46
10	0.5	0	1	1	788.209778	185.668133	1131.214288	369.712004	959.712033	277.6900685
11	0.55	-42	10	1	459.52	171.85	477.23	179.15	468.375	175.5
11	0.55	-43	10	1	428.27	167.69	447.02	185.4	437.645	176.545
11	0.55	-44	10	1	525.15	168.73	545.98	179.15	535.565	173.94
11	0.55	-45	10	1	477.23	167.69	488.69	179.15	482.96	173.42
11	0.55	0	1	1	782.252432	183.442241	1098.272028	353.478189	940.26223	268.460215
12	0.6	-46	10	1	459.52	171.85	477.23	179.15	468.375	175.5
12	0.6	-47	10	1	428.27	167.69	447.02	185.4	437.645	176.545
12	0.6	-48	10	1	525.15	168.73	545.98	179.15	535.565	173.94
12	0.6	-49	10	1	480.35	167.69	489.73	180.19	485.04	173.94
12	0.6	0	1	1	778.103109	183.280152	1076.606969	345.13395	927.355039	264.207051
12	0.6	2	1	1	181.643434	178.966173	246.066814	207.557218	213.855124	193.2616955
12	0.6	3	1	1	222.158522	177.228977	277.446773	201.135395	249.8026475	189.182186
13	0.65	-50	10	1	459.52	171.85	477.23	179.15	468.375	175.5
13	0.65	-51	10	1	403.17	167.81	448.33	197.68	425.75	182.745
13	0.65	-52	10	1	525.15	168.73	545.98	179.15	535.565	173.94
13	0.65	-53	10	1	481.4	167.69	493.9	182.27	487.65	174.98
13	0.65	0	1	1	774.175909	182.388094	1056.868653	336.337349	915.522281	259.3627215
13	0.65	2	1	1	169.65524	180.392916	237.294494	209.928249	203.474867	195.1605825
13	0.65	3	1	1	213.097505	178.804366	270.744674	203.398413	241.9210895	191.1013895
14	0.7	-54	10	1	459.52	171.85	477.23	179.15	468.375	175.5
14	0.7	-55	10	1	525.15	172.9	548.06	182.27	536.605	177.585
14	0.7	-56	10	1	430.35	173.94	448.06	187.48	439.205	180.71
14	0.7	-57	10	1	483.48	168.73	495.98	182.27	489.73	175.5
14	0.7	0	1	1	770.452133	180.770478	1038.807942	327.059544	904.6300375	253.915011
14	0.7	2	1	1	156.851198	181.790196	227.981275	212.460756	192.4162365	197.125476
14	0.7	3	1	1	203.502164	180.473014	263.679422	205.79499	233.590793	193.134002
15	0.75	-58	10	1	525.15	172.9	548.06	182.27	536.605	177.585
15	0.75	-59	10	1	430.35	176.02	448.06	189.56	439.205	182.79
15	0.75	-60	10	1	463.69	174.98	474.1	184.35	468.895	179.665
15	0.75	-61	10	1	483.48	170.81	494.94	181.23	489.21	176.02
15	0.75	0	1	1	766.996705	184.755332	1022.380647	327.287381	894.688676	256.0213565
15	0.75	2	1	1	143.145073	183.252455	218.075549	215.171816	180.610311	199.2121355
15	0.75	3	1	1	193.323787	182.092349	256.220693	208.337308	224.77224	195.2148285
16	0.8	-62	10	1	525.15	172.9	548.06	182.27	536.605	177.585
16	0.8	-63	10	1	430.35	176.02	448.06	189.56	439.205	182.79
16	0.8	-64	10	1	463.69	174.98	474.1	184.35	468.895	179.665
16	0.8	-65	10	1	483.48	170.81	494.94	181.23	489.21	176.02
16	0.8	0	1	1	762.1666	184.018914	1004.048751	320.00188	883.1076755	252.010397
16	0.8	2	1	1	127.899877	183.340381	207.128768	216.410977	167.5143225	199.875679
16	0.8	3	1	1	182.507553	183.797888	248.334686	211.039075	215.4211195	197.4184815
17	0.85	-66	10	1	525.15	172.9	548.06	182.27	536.605	177.585
17	0.85	-67	10	1	430.35	176.02	448.06	189.56	439.205	182.79
17	0.85	-68	10	1	463.69	174.98	474.1	184.35	468.895	179.665
17	0.85	-69	10	1	483.48	170.81	494.94	181.23	489.21	176.02
17	0.85	0	1	1	757.598223	183.322205	987.219927	313.318193	872.409075	248.320199
17	0.85	2	1	1	111.530595	183.43415	195.454292	217.741592	153.4924435	200.587871
17	0.85	3	1	1	174.13847	183.745482	242.723974	211.843824	208.431222	197.794653
18	0.9	-70	10	1	525.15	172.9	548.06	182.27	536.605	177.585
18	0.9	-71	10	1	430.35	176.02	448.06	189.56	439.205	182.79
18	0.9	-72	10	1	463.69	174.98	474.1	184.35	468.895	179.665
18	0.9	-73	10	1	483.48	170.81	494.94	181.23	489.21	176.02
18	0.9	0	1	1	753.270861	182.662079	971.716594	307.164709	862.4937275	244.913394
18	0.9	2	1	1	93.908079	183.534365	182.977115	219.174174	138.442597	201.3542695
18	0.9	3	1	1	160.144694	183.88017	232.223628	212.935396	196.184161	198.407783
19	0.95	-74	10	1	525.15	172.9	548.06	182.27	536.605	177.585
19	0.95	-75	10	1	430.35	176.02	448.06	189.56	439.205	182.79
19	0.95	-76	10	1	463.69	174.98	474.1	184.35	468.895	179.665
19	0.95	-77	10	1	483.48	170.81	494.94	181.23	489.21	176.02
19	0.95	0	1	1	749.165932	182.035727	957.388089	301.480746	853.2770105	241.7582365
19	0.95	2	1	1	74.882615	183.641712	169.611564	220.72091	122.2470895	202.181311
19	0.95	3	1	1	145.181023	184.023285	221.066052	214.102658	183.1235375	199.0629715
20	1	-78	10	1	430.35	176.02	448.06	189.56	439.205	182.79
20	1	-79	10	1	463.69	174.98	474.1	184.35	468.895	179.665
20	1	-80	10	1	483.48	170.81	494.94	181.23	489.21	176.02
20	1	-81	10	1	527.23	168.73	554.31	182.27	540.77	175.5
20	1	0	1	1	745.266716	181.440622	944.105744	296.214541	844.68623	238.8275815
20	1	2	1	1	54.279643	183.75698	155.259315	222.396012	104.769479	203.076496
20	1	3	1	1	129.142998	184.175644	209.18755	215.353766	169.165274	199.764705
21	1.05	-82	10	1	430.35	176.02	448.06	189.56	439.205	182.79
21	1.05	-83	10	1	463.69	174.98	474.1	184.35	468.895	179.665
21	1.05	-84	10	1	483.48	170.81	494.94	181.23	489.21	176.02
21	1.05	-85	10	1	527.23	168.73	554.31	182.27	540.77	175.5
21	1.05	0	1	1	740.419976	181.936285	930.040288	292.498576	835.230132	237.2174305
21	1.05	2	1	1	31.614639	183.873678	139.181694	224.153299	85.3981665	204.0134885
21	1.05	3	1	1	111.910604	184.338171	196.515921	216.698091	154.2132625	200.518131
22	1.1	-86	10	1	463.69	174.98	474.1	184.35	468.895	179.665
22	1.1	-87	10	1	483.48	170.81	494.94	181.23	489.21	176.02
22	1.1	-88	10	1	527.23	168.73	554.31	182.27	540.77	175.5
22	1.1	-89	10	1	423.06	177.06	443.9	190.6	433.48	183.83
22	1.1	0	1	1	735.824881	182.406141	917.021897	289.058732	826.423389	235.7324365
22	1.1	1	1	1	1192.179611	167.565265	1241	374	1216.5898055	270.7826325
22	1.1	2	1	1	3.687565	184.018944	119.442866	226.275202	61.5652155	205.147073
22	1.1	3	1	1	92.303094	186.719837	182.035971	220.644767	137.1695325	203.682302
23	1.15	-90	10	1	463.69	174.98	474.1	184.35	468.895	179.665
23	1.15	-91	10	1	483.48	170.81	494.94	181.23	489.21	176.02
23	1.15	-92	10	1	423.06	177.06	443.9	190.6	433.48	183.83
23	1.15	-93	10	1	537.65	171.85	558.48	182.27	548.065	177.06
23	1.15	0	1	1	731.46234	182.852153	904.937823	285.865333	818.2000815	234.358743
23	1.15	1	1	1	1147.132426	165.750009	1241	374	1194.066213	269.8750045
23	1.15	2	1	1	0	184.162121	100.028218	228.131557	50.014109	206.146839
24	1.2	-94	10	1	463.69	174.98	474.1	184.35	468.895	179.665
24	1.2	-95	10	1	483.48	170.81	494.94	181.23	489.21	176.02
24	1.2	-96	10	1	423.06	177.06	443.9	190.6	433.48	183.83
24	1.2	-97	10	1	537.65	171.85	558.48	182.27	548.065	177.06
24	1.2	0	1	1	727.315147	183.276094	893.690943	282.892808	810.503045	233.084451
24	1.2	1	1	1	1108.345956	163.931183	1241	374	1174.672978	268.9655915
24	1.2	2	1	1	0	184.343243	75.798369	229.562243	37.8991845	206.952743
25	1.25	-98	10	1	483.48	170.81	494.94	181.23	489.21	176.02
25	1.25	-99	10	1	423.06	177.06	443.9	190.6	433.48	183.83
25	1.25	-100	10	1	537.65	171.85	558.48	182.27	548.065	177.06
25	1.25	0	1	1	723.367754	183.679563	883.197145	280.119007	803.2824495	231.899285
25	1.25	1	1	1	1074.59982	162.108327	1241	374	1157.79991	268.0541635
25	1.25	2	1	1	0	184.527133	51.311306	229.507264	25.655653	207.0171985
26	1.3	-101	10	1	483.48	170.81	494.94	181.23	489.21	176.02
26	1.3	-102	10	1	537.65	171.85	558.48	182.27	548.065	177.06
26	1.3	-103	10	1	403.27	171.85	434.52	190.6	418.895	181.225
26	1.3	0	1	1	719.523371	184.223991	872.601668	277.534834	796.0625195	230.8794125
26	1.3	1	1	1	1044.971485	160.280979	1241	374	1142.9857425	267.1404895
26	1.3	3	1	1	0	182.6961	115.383064	222.340425	57.691532	202.5182625
27	1.35	-104	10	1	537.65	171.85	558.48	182.27	548.065	177.06
27	1.35	-105	10	1	403.27	171.85	434.52	190.6	418.895	181.225
27	1.35	-106	10	1	455.35	173.94	491.81	187.48	473.58	180.71
27	1.35	0	1	1	714.011516	184.733611	860.225031	275.128044	787.1182735	229.9308275
27	1.35	1	1	1	1018.750578	158.448671	1241	374	1129.875289	266.2243355
27	1.35	3	1	1	0	184.320965	93.002039	225.858209	46.5010195	205.089587
28	1.4	-107	10	1	537.65	171.85	558.48	182.27	548.065	177.06
28	1.4	-108	10	1	403.27	171.85	434.52	190.6	418.895	181.225
28	1.4	-109	10	1	455.35	173.94	491.81	187.48	473.58	180.71
28	1.4	0	1	1	709.668553	185.222968	849.846339	272.874114	779.757446	229.048541
28	1.4	1	1	1	995.857237	156.209442	1241	374	1118.4286185	265.104721
28	1.4	3	1	1	0	186.093163	68.590501	228.5384	34.2952505	207.3157815
29	1.45	-110	10	1	537.65	171.85	558.48	182.27	548.065	177.06
29	1.45	-111	10	1	455.35	173.94	491.81	187.48	473.58	180.71
29	1.45	-112	10	1	392.85	174.98	425.15	194.77	409	184.875
29	1.45	0	1	1	705.528183	185.689551	840.113948	270.761085	772.8210655	228.225318
29	1.45	1	1	1	975.455942	161.120125	1241	374	1108.227971	267.5600625
29	1.45	3	1	1	0	188.033685	41.858999	230.235718	20.9294995	209.1347015
30	1.5	-113	10	1	537.65	171.85	558.48	182.27	548.065	177.06
30	1.5	-114	10	1	394.94	173.94	419.94	191.65	407.44	182.795
30	1.5	-115	10	1	443.9	172.9	483.48	187.48	463.69	180.19
30	1.5	0	1	1	701.576554	186.134913	830.969308	268.776144	766.272931	227.4555285
30	1.5	1	1	1	957.061864	161.052075	1241	374	1099.030932	267.5260375
31	1.55	-116	10	1	537.65	171.85	558.48	182.27	548.065	177.06
31	1.55	-117	10	1	387.65	178.1	417.85	195.81	402.75	186.955
31	1.55	-118	10	1	444.94	171.85	484.52	189.56	464.73	180.705
31	1.55	0	1	1	694.462966	185.385887	819.135672	265.343608	756.799319	225.3647475
31	1.55	1	1	1	933.234272	160.673035	1241	374	1087.117136	267.3365175
32	1.6	-119	10	1	537.65	171.85	558.48	182.27	548.065	177.06
32	1.6	-120	10	1	387.65	178.1	417.85	195.81	402.75	186.955
32	1.6	-121	10	1	444.94	171.85	484.52	189.56	464.73	180.705
32	1.6	0	1	1	687.659741	184.670027	807.986216	262.10635	747.8229785	223.3881885
32	1.6	1	1	1	911.388639	157.060449	1241	374	1076.1943195	265.5302245
33	1.65	-122	10	1	377.23	177.06	406.4	191.65	391.815	184.355
33	1.65	-123	10	1	429.31	168.73	480.35	188.52	454.83	178.625
33	1.65	-124	10	1	525.15	168.73	554.31	182.27	539.73	175.5
33	1.65	0	1	1	681.147048	183.985168	797.463174	259.04818	739.305111	221.516674
33	1.65	1	1	1	891.343417	158.330892	1241	374	1066.1717085	266.165446
34	1.7	-125	10	1	377.23	177.06	406.4	191.65	391.815	184.355
34	1.7	-126	10	1	429.31	168.73	480.35	188.52	454.83	178.625
34	1.7	-127	10	1	525.15	168.73	554.31	182.27	539.73	175.5
34	1.7	0	1	1	674.906712	183.329333	787.515106	256.154651	731.210909	219.741992
34	1.7	1	1	1	872.801729	153.093748	1241	374	1056.9008645	263.546874
35	1.75	-128	10	1	377.23	177.06	406.4	191.65	391.815	184.355
35	1.75	-129	10	1	429.31	168.73	480.35	188.52	454.83	178.625
35	1.75	-130	10	1	525.15	168.73	554.31	182.27	539.73	175.5
35	1.75	0	1	1	668.922047	182.700706	778.096049	253.412827	723.509048	218.0567665
35	1.75	1	1	1	855.702671	155.547144	1241	374	1048.3513355	264.773572
36	1.8	-131	10	1	429.31	168.73	480.35	188.52	454.83	178.625
36	1.8	-132	10	1	525.15	168.73	554.31	182.27	539.73	175.5
36	1.8	-133	10	1	351.19	173.94	392.85	197.9	372.02	185.92
36	1.8	0	1	1	661.651564	182.575792	765.709191	251.174481	713.6803775	216.8751365
36	1.8	1	1	1	834.788385	156.408246	1241	374	1037.8941925	265.204123
37	1.85	-134	10	1	429.31	168.73	480.35	188.52	454.83	178.625
37	1.85	-135	10	1	351.19	173.94	392.85	197.9	372.02	185.92
37	1.85	-136	10	1	512.65	169.77	542.85	182.27	527.75	176.02
37	1.85	0	1	1	654.708091	182.456459	754.023612	249.063919	704.3658515	215.760189
37	1.85	1	1	1	815.352279	157.158913	1241	374	1028.1761395	265.5794565
38	1.9	-137	10	1	512.65	169.77	542.85	182.27	527.75	176.02
38	1.9	-138	10	1	337.65	174.98	381.4	193.73	359.525	184.355
38	1.9	-139	10	1	414.73	168.73	462.65	188.52	438.69	178.625
38	1.9	0	1	1	648.070049	182.342343	742.981397	247.070502	695.525723	214.7064225
38	1.9	1	1	1	797.24301	158.030293	1219.692891	374	1008.4679505	266.0151465
39	1.95	-140	10	1	512.65	169.77	542.85	182.27	527.75	176.02
39	1.95	-141	10	1	319.92	177.14	371.99	199.12	345.955	188.13
39	1.95	-142	10	1	402.23	166.65	461.6	189.56	431.915	178.105
39	1.95	0	1	1	641.71772	182.233107	732.530839	245.18474	687.1242795	213.7089235
39	1.95	1	1	1	780.329218	159.028919	1169.740749	374	975.0349835	266.5144595
40	2	-143	10	1	302.12	177.32	362.12	199.81	332.12	188.565
40	2	-144	10	1	402.23	166.65	461.6	189.56	431.915	178.105
40	2	-145	10	1	499.1	168.73	528.27	183.31	513.685	176.02
40	2	0	1	1	635.633046	182.128445	722.625625	243.398142	679.1293355	212.7632935
40	2	1	1	1	764.496324	159.922862	1124.937842	374	944.717083	266.961431
41	2.05	-146	10	1	402.23	166.65	461.6	189.56	431.915	178.105
41	2.05	-147	10	1	310.56	172.9	365.77	196.85	338.165	184.875
41	2.05	-148	10	1	495.98	164.56	527.23	185.4	511.605	174.98
41	2.05	0	1	1	628.509286	182.543979	712.500492	242.394715	670.504889	212.469347
41	2.05	1	1	1	748.347959	161.414736	1078.231726	365.685579	913.2898425	263.5501575
42	2.1	-149	10	1	402.23	166.65	461.6	189.56	431.915	178.105
42	2.1	-150	10	1	310.56	172.9	365.77	196.85	338.165	184.875
42	2.1	-151	10	1	491.81	171.85	527.23	185.4	509.52	178.625
42	2.1	0	1	1	621.663131	182.943195	702.867142	241.439485	662.2651365	212.19134
42	2.1	1	1	1	733.361784	162.741103	1036.721081	355.374997	885.0414325	259.05805
43	2.15	-152	10	1	491.81	171.85	527.23	185.4	509.52	178.625
43	2.15	-153	10	1	293.9	174.98	347.02	202.06	320.46	188.52
43	2.15	-154	10	1	386.6	166.65	441.81	189.56	414.205	178.105
43	2.15	0	1	1	615.078674	183.327039	693.690576	240.529056	654.384625	211.9280475
43	2.15	1	1	1	719.416692	163.928058	999.584681	346.179517	859.5006865	255.0537875
44	2.2	-155	10	1	491.81	171.85	527.23	185.4	509.52	178.625
44	2.2	-156	10	1	293.9	174.98	347.02	202.06	320.46	188.52
44	2.2	-157	10	1	387.65	169.77	437.65	193.73	412.65	181.75
44	2.2	0	1	1	608.7412	183.696387	684.93904	239.660343	646.84012	211.678365
44	2.2	1	1	1	706.407842	164.996483	966.165728	337.927521	836.286785	251.462002
45	2.25	-158	10	1	491.81	171.85	527.23	185.4	509.52	178.625
45	2.25	-159	10	1	387.65	169.77	437.65	193.73	412.65	181.75
45	2.25	-160	10	1	278.27	178.1	336.6	202.06	307.435	190.08
45	2.25	0	1	1	602.63708	184.052046	676.583653	238.830539	639.6103665	211.4412925
45	2.25	1	1	1	694.24401	165.963289	935.932633	330.480888	815.0883215	248.2220885
46	2.3	-161	10	1	491.81	171.85	527.23	185.4	509.52	178.625
46	2.3	-162	10	1	266.58	178.44	336.76	207.73	301.67	193.085
46	2.3	-163	10	1	380.35	170.81	432.44	191.65	406.395	181.23
46	2.3	-164	10	1	168.9	173.94	190.77	210.4	179.835	192.17
46	2.3	0	1	1	596.89594	184.432084	668.917005	238.204305	632.9064725	211.3181945
46	2.3	1	1	1	682.188689	166.826486	908.41155	323.978835	795.3001195	245.4026605
47	2.35	-165	10	1	479.31	173.94	514.73	188.52	497.02	181.23
47	2.35	-166	10	1	379.31	172.9	425.15	192.69	402.23	182.795
47	2.35	-167	10	1	263.69	178.1	328.27	204.15	295.98	191.125
47	2.35	-168	10	1	160.56	171.85	185.56	206.23	173.06	189.04
47	2.35	0	1	1	591.338422	184.799882	661.549967	237.602221	626.4441945	211.2010515
47	2.35	1	1	1	670.841498	167.616622	883.224638	318.034945	777.033068	242.8257835
48	2.4	-169	10	1	479.31	173.94	514.73	188.52	497.02	181.23
48	2.4	-170	10	1	379.31	172.9	425.15	192.69	402.23	182.795
48	2.4	-171	10	1	263.69	178.1	328.27	204.15	295.98	191.125
48	2.4	-172	10	1	149.1	173.94	178.27	209.35	163.685	191.645
48	2.4	0	1	1	585.955864	185.156024	654.465299	237.022913	620.2105815	211.0894685
48	2.4	1	1	1	660.14183	168.342596	860.087004	312.5803	760.114417	240.461448
49	2.45	-173	10	1	479.31	173.94	514.73	188.52	497.02	181.23
49	2.45	-174	10	1	379.31	172.9	425.15	192.69	402.23	182.795
49	2.45	-175	10	1	245.87	175.66	317.36	207.97	281.615	191.815
49	2.45	-176	10	1	149.1	173.94	178.27	209.35	163.685	191.645
49	2.45	0	1	1	581.710268	183.332945	648.786503	233.824247	615.2483855	208.578596
49	2.45	1	1	1	650.035806	169.011918	838.758312	307.556885	744.397059	238.2844015
50	2.5	-177	10	1	479.31	173.94	514.73	188.52	497.02	181.23
50	2.5	-178	10	1	237.8	173.95	303.67	207.68	270.735	190.815
50	2.5	-179	10	1	359.52	164.56	412.65	188.52	386.085	176.54
50	2.5	-180	10	1	130.35	166.65	165.77	209.35	148.06	188
50	2.5	0	1	1	577.596028	181.566621	643.319738	230.744288	610.457883	206.1554545
50	2.5	1	1	1	640.47536	169.630971	819.034386	302.915504	729.754873	236.2732375
51	2.55	-181	10	1	229.59	172.62	289.46	207.53	259.525	190.075
51	2.55	-182	10	1	353.22	163.93	407.33	190.16	380.275	177.045
51	2.55	-183	10	1	124.1	167.69	155.35	203.1	139.725	185.395
51	2.55	-184	10	1	487.65	169.77	518.9	183.31	503.275	176.54
51	2.55	0	1	1	573.828761	180.379757	637.682119	228.627169	605.75544	204.503463
51	2.55	1	1	1	632.767098	169.952115	801.57618	297.94628	717.171639	233.9491975
52	2.6	-185	10	1	222.03	173.46	274.79	209.56	248.41	191.51
52	2.6	-186	10	1	365.77	165.6	410.56	190.6	388.165	178.1
52	2.6	-187	10	1	119.94	167.69	150.15	206.23	135.045	186.96
52	2.6	-188	10	1	488.69	170.81	516.81	184.35	502.75	177.58
52	2.6	-189	10	1	265.77	176.02	300.15	195.81	282.96	185.915
52	2.6	0	1	1	570.173894	179.207556	632.243063	226.585324	601.2084785	202.89644
52	2.6	1	1	1	625.487312	170.24922	785.42706	293.356968	705.457186	231.803094
53	2.65	-190	10	1	213.11	174.2	260.26	211.91	236.685	193.055
53	2.65	-191	10	1	365.77	165.6	410.56	190.6	388.165	178.1
53	2.65	-192	10	1	119.94	167.69	150.15	206.23	135.045	186.96
53	2.65	-193	10	1	482.44	170.81	499.1	182.27	490.77	176.54
53	2.65	-194	10	1	507.44	169.77	518.9	183.31	513.17	176.54
53	2.65	-195	10	1	262.65	178.1	299.1	196.85	280.875	187.475
53	2.65	0	1	1	566.626469	178.075901	626.992261	224.614809	596.809365	201.345355
53	2.65	1	1	1	618.601242	170.524887	770.445104	289.105604	694.523173	229.8152455
54	2.7	-196	10	1	204.12	176.43	246.08	215.76	225.1	196.095
54	2.7	-197	10	1	365.77	165.6	410.56	190.6	388.165	178.1
54	2.7	-198	10	1	109.52	170.81	133.48	207.27	121.5	189.04
54	2.7	-199	10	1	485.56	173.94	502.23	187.48	493.895	180.71
54	2.7	-200	10	1	252.23	178.1	293.9	201.02	273.065	189.56
54	2.7	0	1	1	563.39554	180.447067	622.171684	226.210781	592.783612	203.328924
54	2.7	1	1	1	612.077788	170.781357	756.508196	285.156184	684.292992	227.9687705
55	2.75	-201	10	1	109.52	170.81	133.48	207.27	121.5	189.04
55	2.75	-202	10	1	199.1	181.23	237.65	202.06	218.375	191.645
55	2.75	-203	10	1	362.65	173.94	411.6	190.6	387.125	182.27
55	2.75	-204	10	1	487.65	174.98	505.35	187.48	496.5	181.23
55	2.75	0	1	1	560.256825	182.538656	617.51228	227.752911	588.8845525	205.1457835
55	2.75	1	1	1	605.889043	171.020566	743.510674	281.477645	674.6998585	226.2491055
55	2.75	4	1	1	244.309392	181.670045	285.508367	201.034387	264.9088795	191.352216
56	2.8	-205	10	1	82.111	169.18	110.4	211.89	96.2555	190.535
56	2.8	-206	10	1	363.76	174.54	418.29	199.63	391.025	187.085
56	2.8	-207	10	1	203.27	176.02	233.48	209.35	218.375	192.685
56	2.8	-208	10	1	487.65	173.94	502.23	187.48	494.94	180.71
56	2.8	0	1	1	557.881263	182.806751	613.312206	227.349763	585.5967345	205.078257
56	2.8	1	1	1	601.733066	171.499931	733.285629	278.03904	667.5093475	224.7694855
56	2.8	4	1	1	239.589583	182.120653	282.009512	201.889701	260.7995475	192.005177
57	2.85	-209	10	1	360.17	174.74	416.23	200.29	388.2	187.515
57	2.85	-210	10	1	83.479	177.06	117.85	209.35	100.6645	193.205
57	2.85	-211	10	1	185.56	180.19	227.23	209.35	206.395	194.77
57	2.85	-212	10	1	488.69	173.94	501.19	190.6	494.94	182.27
57	2.85	0	1	1	555.570418	183.067766	609.241213	226.959299	582.4058155	205.0135325
57	2.85	1	1	1	597.79431	171.946959	723.751335	274.836531	660.7728225	223.391745
57	2.85	4	1	1	234.688269	182.587329	278.385693	202.777946	256.536981	192.6826375
58	2.9	-213	10	1	356.77	174.05	414.6	199.79	385.685	186.92
58	2.9	-214	10	1	177.23	181.23	222.02	210.4	199.625	195.815
58	2.9	-215	10	1	81.396	176.02	117.85	208.31	99.623	192.165
58	2.9	-216	10	1	487.65	173.94	505.35	186.44	496.5	180.19
58	2.9	0	1	1	554.118397	182.552159	606.211052	225.662739	580.1647245	204.107449
58	2.9	1	1	1	594.056178	172.364815	714.840083	271.84661	654.4481305	222.1057125
58	2.9	4	1	1	229.493677	182.223534	274.536883	202.781294	252.01528	192.502414
59	2.95	-217	10	1	163.92	180.87	223.14	215.22	193.53	198.045
59	2.95	-218	10	1	357.44	171.85	416.81	191.65	387.125	181.75
59	2.95	-219	10	1	488.69	173.94	507.44	190.6	498.065	182.27
59	2.95	0	1	1	552.7055	182.049998	603.272261	224.406394	577.9888805	203.228196
59	2.95	1	1	1	590.503725	172.756266	706.492735	269.048789	648.49823	220.9025275
59	2.95	4	1	1	224.09132	181.846289	270.545538	202.784766	247.318429	192.3155275
60	3	-220	10	1	155.75	180.63	219.45	216.58	187.6	198.605
60	3	-221	10	1	352.77	171.12	416.74	194.9	384.755	183.01
60	3	-222	10	1	490.77	170.81	509.52	188.52	500.145	179.665
60	3	0	1	1	551.330172	181.560763	600.420763	223.188424	575.8754675	202.3745935
60	3	1	1	1	587.123449	173.123737	698.657407	266.42513	642.890428	219.7744335
60	3	4	1	1	218.468472	181.454835	266.403595	202.788371	242.4360335	192.121603
61	3.05	-223	10	1	145.65	180.48	214.68	218.36	180.165	199.42
61	3.05	-224	10	1	357.44	167.69	394.94	196.85	376.19	182.27
61	3.05	-225	10	1	495.98	177.06	512.65	189.56	504.315	183.31
61	3.05	0	1	1	551.970692	179.909332	603.272105	223.511486	577.6213985	201.710409
61	3.05	1	1	1	583.112772	173.707055	690.651182	264.506884	636.881977	219.1069695
61	3.05	4	1	1	212.724192	180.709009	262.21258	202.473968	237.468386	191.5914885
62	3.1	-226	10	1	134.53	178.79	208.94	218.68	171.735	198.735
62	3.1	-227	10	1	357.44	169.77	393.9	193.73	375.67	181.75
62	3.1	-228	10	1	497.02	173.94	516.81	187.48	506.915	180.71
62	3.1	0	1	1	550.192624	180.956094	600.002761	223.782267	575.0976925	202.3691805
62	3.1	1	1	1	579.267676	174.260263	683.058743	262.689173	631.1632095	218.474718
62	3.1	4	1	1	206.72412	179.898168	257.849963	202.145546	232.2870415	191.021857
63	3.15	-229	10	1	121.89	178.76	202.2	220.71	162.045	199.735
63	3.15	-230	10	1	355.35	167.69	387.65	190.6	371.5	179.145
63	3.15	-231	10	1	402.23	167.69	423.06	193.73	412.645	180.71
63	3.15	-232	10	1	492.85	173.94	518.9	189.56	505.875	181.75
63	3.15	0	1	1	548.468459	181.856822	596.847058	224.04346	572.6577585	202.950141
63	3.15	1	1	1	575.578116	174.785634	675.848819	260.964295	625.7134675	217.8749645
63	3.15	4	1	1	198.634296	179.67361	251.65507	202.43241	225.144683	191.05301
64	3.2	-233	10	1	106.98	178.63	194.39	223.07	150.685	200.85
64	3.2	-234	10	1	317.45	166.55	400.96	199	359.205	182.775
64	3.2	-235	10	1	498.06	173.94	515.77	187.48	506.915	180.71
64	3.2	-236	10	1	405.35	176.02	430.35	186.44	417.85	181.23
64	3.2	0	1	1	546.795786	182.6927	593.799171	224.295563	570.2974785	203.4941315
64	3.2	1	1	1	572.034841	175.285216	668.993215	259.325316	620.514028	217.305266
64	3.2	4	1	1	190.297167	179.940798	245.314631	203.236578	217.805899	191.588688
64	3.2	5	4	1	360.56207	169.402958	387.449418	193.791589	374.005744	181.5972735
65	3.25	-237	10	1	97.021	173.94	165.77	216.65	131.3955	195.295
65	3.25	-238	10	1	407.44	176.02	426.19	190.6	416.815	183.31
65	3.25	-239	10	1	500.15	177.06	511.6	186.44	505.875	181.75
65	3.25	1	1	1	568.629321	175.760865	662.466437	257.765975	615.547879	216.76342
65	3.25	4	1	1	181.299602	182.514424	238.462879	206.526352	209.8812405	194.520388
65	3.25	5	4	1	355.450028	170.02404	383.609084	195.240606	369.529556	182.632323
66	3.3	-240	10	1	74.755	176.03	162.65	221.2	118.7025	198.615
66	3.3	-241	10	1	401.19	182.27	426.19	194.77	413.69	188.52
66	3.3	-242	10	1	501.19	181.23	516.81	190.6	509	185.915
66	3.3	1	1	1	566.119817	179.031009	657.320542	259.255939	611.7201795	219.143474
66	3.3	4	1	1	172.32526	185.5429	231.732006	210.467799	202.028633	198.0053495
66	3.3	5	4	1	349.821776	174.032076	379.372303	200.146121	364.5970395	187.0890985
67	3.35	-243	10	1	55.252	178.89	154.42	226.42	104.836	202.655
67	3.35	-244	10	1	401.19	182.27	426.19	194.77	413.69	188.52
67	3.35	-245	10	1	501.19	181.23	516.81	190.6	509	185.915
67	3.35	1	1	1	563.698535	181.987766	652.396017	260.681009	608.047276	221.3343875
67	3.35	4	1	1	162.460202	187.917062	224.299427	213.734375	193.3798145	200.8257185
67	3.35	5	4	1	344.379967	176.046588	375.399337	203.114137	359.889652	189.5803625
68	3.4	-246	10	1	36.766	175.66	147.01	228.61	91.888	202.135
68	3.4	-247	10	1	401.19	182.27	426.19	194.77	413.69	188.52
68	3.4	-248	10	1	501.19	181.23	516.81	190.6	509	185.915
68	3.4	1	1	1	561.047259	178.262196	647.292112	255.053174	604.1696855	216.657685
68	3.4	4	1	1	152.70089	184.708052	217.068869	210.864724	184.8848795	197.786388
68	3.4	5	4	1	337.708927	172.067898	370.388902	200.143119	354.0489145	186.1055085
69	3.45	-249	10	1	16.12	170.8	138.71	227.07	77.415	198.935
69	3.45	-250	10	1	406.4	173.94	439.73	190.6	423.065	182.27
69	3.45	-251	10	1	504.31	173.94	516.81	185.4	510.56	179.67
69	3.45	1	1	1	558.486236	174.524754	642.399207	249.660779	600.4427215	212.0927665
69	3.45	4	1	1	142.413391	181.342031	209.484284	207.839653	175.9488375	194.590842
69	3.45	5	4	1	330.516122	167.778374	365.015583	196.939596	347.7658525	182.358985
70	3.5	-252	10	1	1	167.66	129.57	225.79	65.285	196.725
70	3.5	-253	10	1	406.4	173.94	439.73	190.6	423.065	182.27
70	3.5	-254	10	1	504.31	173.94	516.81	185.4	510.56	179.67
70	3.5	1	1	1	556.010936	170.938535	637.704485	244.489353	596.8577105	207.713944
70	3.5	4	1	1	131.330043	179.22217	201.320888	206.408281	166.3254655	192.8152255
70	3.5	5	4	1	323.197868	163.388733	359.646439	193.675928	341.4221535	178.5323305
71	3.55	-255	10	1	1	167.59	121.09	226.83	61.045	197.21
71	3.55	-256	10	1	406.4	173.94	439.73	190.6	423.065	182.27
71	3.55	-257	10	1	507.44	172.9	519.94	181.23	513.69	177.065
71	3.55	-258	10	1	357.44	173.94	387.65	192.69	372.545	183.315
71	3.55	1	1	1	554.698028	172.180288	634.638464	244.396779	594.668246	208.2885335
71	3.55	4	1	1	120.07661	179.413865	193.207856	207.378239	156.642233	193.396052
71	3.55	5	4	1	315.197105	163.925682	353.797806	195.449293	334.4974555	179.6874875
72	3.6	-259	10	1	1	168.81	112.35	230.34	56.675	199.575
72	3.6	-260	10	1	406.4	173.94	439.73	190.6	423.065	182.27
72	3.6	-261	10	1	507.44	172.9	522.02	184.35	514.73	178.625
72	3.6	-262	10	1	344.94	177.06	385.56	193.73	365.25	185.395
72	3.6	1	1	1	553.424032	173.377826	631.681723	244.307542	592.5528775	208.842684
72	3.6	4	1	1	108.161273	179.616862	184.665913	208.405288	146.413593	194.011075
72	3.6	5	4	1	306.517553	164.508168	347.493653	197.373211	327.005603	180.9406895
73	3.65	-263	10	1	1	168.99	102.91	234.66	51.955	201.825
73	3.65	-264	10	1	406.4	173.94	439.73	190.6	423.065	182.27
73	3.65	-265	10	1	500.15	172.9	522.02	187.48	511.085	180.19
73	3.65	-266	10	1	347.02	177.06	386.6	193.73	366.81	185.395
73	3.65	1	1	1	552.187243	174.53347	628.828523	244.221464	590.507883	209.377467
73	3.65	4	1	1	95.523854	179.832191	175.660136	209.494621	135.591995	194.663406
73	3.65	5	4	1	297.068991	165.14224	340.678618	199.467702	318.8738045	182.304971
74	3.7	-267	10	1	500.15	172.9	522.02	187.48	511.085	180.19
74	3.7	-268	10	1	338.07	179.26	383.79	202.85	360.93	191.055
74	3.7	-269	10	1	409.52	173.94	437.65	192.69	423.585	183.315
74	3.7	-270	10	1	1	168.73	62.458	226.02	31.729	197.375
74	3.7	1	1	1	550.986054	175.64938	626.073518	244.138381	588.529786	209.8938805
74	3.7	4	1	1	81.756866	181.293558	165.853115	211.945977	123.8049905	196.6197675
74	3.7	5	4	1	286.744467	165.835064	333.287986	201.756503	310.0162265	183.7957835
75	3.75	-271	10	1	334.48	177.75	380.83	202.91	357.655	190.33
75	3.75	-272	10	1	409.52	173.94	437.65	192.69	423.585	183.315
75	3.75	-273	10	1	507.44	173.94	527.23	183.31	517.335	178.625
75	3.75	1	1	1	549.818951	176.72757	623.411724	244.058139	586.6153375	210.3928545
75	3.75	4	1	1	67.799348	178.888498	156.092312	210.463126	111.94583	194.675812
75	3.75	5	4	1	275.936982	164.82657	325.77292	202.461649	300.854951	183.6441095
76	3.8	-274	10	1	330.5	177.16	377.82	202.81	354.16	189.985
76	3.8	-275	10	1	409.52	173.94	437.65	192.69	423.585	183.315
76	3.8	-276	10	1	514.73	173.94	531.4	183.31	523.065	178.625
76	3.8	1	1	1	550.200788	176.587887	622.018189	242.943635	586.1094885	209.765761
76	3.8	4	1	1	53.403463	178.699782	146.181489	211.290166	99.792476	194.994974
76	3.8	5	4	1	264.047127	163.717005	317.57714	203.237465	290.8121335	183.477235
77	3.85	-277	10	1	406.01	174.61	435.32	195.58	420.665	185.095
77	3.85	-278	10	1	517.85	171.85	532.44	186.44	525.145	179.145
77	3.85	-279	10	1	339.73	174.98	389.73	194.77	364.73	184.875
77	3.85	1	1	1	550.574448	176.452032	620.66121	241.860747	585.617829	209.1563895
77	3.85	4	1	1	38.051848	178.498478	135.68758	212.172153	86.869714	195.3353155
77	3.85	5	4	1	250.903687	162.490375	308.603807	204.095137	279.753747	183.292756
78	3.9	-280	10	1	403.68	175.02	434.67	195.41	419.175	185.215
78	3.9	-281	10	1	519.94	171.85	536.6	186.44	528.27	179.145
78	3.9	-282	10	1	333.48	177.06	387.65	192.69	360.565	184.875
78	3.9	1	1	1	550.940211	176.319852	619.339337	240.808151	585.139774	208.5640015
78	3.9	4	1	1	21.64602	178.283285	124.557599	213.114752	73.1018095	195.6990185
78	3.9	5	4	1	236.297327	161.127123	298.736798	205.048344	267.5170625	183.0877335
79	3.95	-283	10	1	518.9	168.73	540.77	189.56	529.835	179.145
79	3.95	-284	10	1	332.44	177.06	387.65	197.9	360.045	187.48
79	3.95	-285	10	1	414.73	174.98	449.1	191.65	431.915	183.315
79	3.95	1	1	1	551.298348	176.191202	618.051198	239.784595	584.674773	207.9878985
79	3.95	4	1	1	4.073487	178.052714	112.731944	214.124436	58.4027155	196.088575
79	3.95	5	4	1	219.823543	159.081772	287.70669	205.591135	253.7651165	182.3364535
80	4	-286	10	1	523.06	172.9	539.73	185.4	531.395	179.15
80	4	-287	10	1	412.65	171.85	439.73	190.6	426.19	181.225
80	4	-288	10	1	335.56	173.94	390.77	192.69	363.165	183.315
80	4	1	1	1	551.649116	176.065946	616.795494	238.788895	584.222305	207.4274205
80	4	4	1	1	0	177.805056	100.14332	215.033958	50.07166	196.419507
80	4	5	4	1	200.478475	157.04702	274.770494	206.467278	237.6244845	181.757149
81	4.05	-289	10	1	522.02	169.77	544.94	191.65	533.48	180.71
81	4.05	-290	10	1	334.52	172.9	391.81	191.65	363.165	182.275
81	4.05	1	1	1	553.310885	175.921291	617.246515	237.792355	585.2787	206.856823
81	4.05	4	1	1	0	177.041544	86.137532	215.491231	43.068766	196.2663875
81	4.05	5	4	1	178.551148	154.740371	260.320912	207.46046	219.43603	181.1004155
82	4.1	-291	10	1	334.52	171.85	392.85	192.69	363.685	182.27
82	4.1	-292	10	1	423.06	171.85	440.77	185.4	431.915	178.625
82	4.1	-293	10	1	528.27	173.94	542.85	183.31	535.56	178.625
82	4.1	1	1	1	554.586022	175.780387	617.685016	236.822418	586.135519	206.3014025
82	4.1	4	1	1	0	176.31367	71.142865	215.352891	35.5714325	195.8332805
82	4.1	5	4	1	152.98316	152.942222	243.643194	209.440068	198.313177	181.191145
83	4.15	-294	10	1	328.27	168.73	392.85	192.69	360.56	180.71
83	4.15	-295	10	1	528.27	174.98	551.19	187.48	539.73	181.23
83	4.15	1	1	1	555.824882	175.643092	618.11148	235.878033	586.968181	205.7605625
83	4.15	4	1	1	0	175.621957	55.050806	214.852497	27.525403	195.237227
83	4.15	5	4	1	123.473226	150.866543	224.754437	211.725187	174.1138315	181.295865
84	4.2	-296	10	1	328.27	168.73	392.85	192.69	360.56	180.71
84	4.2	-297	10	1	531.4	172.9	549.1	188.52	540.25	180.71
84	4.2	1	1	1	557.032118	175.509269	618.526365	234.958206	587.7792415	205.2337375
84	4.2	4	1	1	0	174.918886	37.736369	214.357637	18.8681845	194.6382615
84	4.2	5	4	1	89.033449	148.443705	203.183834	214.392453	146.1086415	181.418079
85	4.25	-298	10	1	328.27	168.73	392.85	192.69	360.56	180.71
85	4.25	-299	10	1	531.4	171.85	553.27	186.44	542.335	179.145
85	4.25	-300	10	1	426.19	170.81	440.77	186.44	433.48	178.625
85	4.25	1	1	1	558.208954	175.378791	618.930109	234.061991	588.5695315	204.720391
85	4.25	4	1	1	0	174.203546	19.054835	213.867663	9.5274175	194.0356045
85	4.25	5	4	1	43.959199	144.99203	174.763039	217.123057	109.361119	181.0575435
86	4.3	-301	10	1	328.27	168.73	392.85	192.69	360.56	180.71
86	4.3	-302	10	1	426.19	170.81	440.77	186.44	433.48	178.625
86	4.3	-303	10	1	525.15	167.69	556.4	183.31	540.775	175.5
86	4.3	1	1	1	559.120289	175.083205	619.100508	233.048727	589.1103985	204.065966
86	4.3	5	4	1	0	142.011727	141.509622	221.485321	70.754811	181.748524
87	4.35	-304	10	1	328.27	168.73	392.85	192.69	360.56	180.71
87	4.35	-305	10	1	426.19	170.81	440.77	186.44	433.48	178.625
87	4.35	-306	10	1	526.19	164.56	556.4	184.35	541.295	174.455
87	4.35	1	1	1	560.009671	174.794706	619.266817	232.05989	589.638244	203.427298
87	4.35	5	4	1	0	139.427506	102.070133	225.218415	51.0350665	182.3229605
88	4.4	-307	10	1	328.27	168.73	392.85	192.69	360.56	180.71
88	4.4	-308	10	1	426.19	170.81	440.77	186.44	433.48	178.625
88	4.4	-309	10	1	526.19	164.56	556.4	184.35	541.295	174.455
88	4.4	1	1	1	560.877884	174.513041	619.429184	231.094609	590.153534	202.803825
88	4.4	5	4	1	0	140.025989	54.541441	226.164962	27.2707205	183.0954755
89	4.45	-310	10	1	426.19	170.81	440.77	186.44	433.48	178.625
89	4.45	-311	10	1	526.19	164.56	556.4	184.35	541.295	174.455
89	4.45	-312	10	1	308.48	169.77	389.73	190.6	349.105	180.185
89	4.45	1	1	1	561.725676	174.23797	619.587746	230.152051	590.656711	202.1950105
90	4.5	-313	10	1	308.48	169.77	389.73	190.6	349.105	180.185
90	4.5	-314	10	1	535.56	165.6	560.56	183.31	548.06	174.455
90	4.5	-315	10	1	427.23	170.81	444.94	183.31	436.085	177.06
90	4.5	1	1	1	562.553757	173.969265	619.742636	229.231424	591.1481965	201.6003445
91	4.55	-316	10	1	308.48	169.77	389.73	190.6	349.105	180.185
91	4.55	-317	10	1	427.23	170.81	444.94	183.31	436.085	177.06
91	4.55	-318	10	1	527.23	170.81	559.52	184.35	543.375	177.58
91	4.55	1	1	1	562.923048	174.079325	619.376016	228.629064	591.149532	201.3541945
92	4.6	-319	10	1	308.48	169.77	389.73	190.6	349.105	180.185
92	4.6	-320	10	1	427.23	170.81	444.94	183.31	436.085	177.06
92	4.6	-321	10	1	527.23	170.81	559.52	184.35	543.375	177.58
92	4.6	1	1	1	563.282939	174.186596	619.018695	228.04205	591.150817	201.114323
93	4.65	-322	10	1	427.23	170.81	444.94	183.31	436.085	177.06
93	4.65	-323	10	1	551.19	169.77	565.77	183.31	558.48	176.54
93	4.65	-324	10	1	502.23	172.9	528.27	182.27	515.25	177.585
93	4.65	-325	10	1	302.23	162.48	383.48	194.77	342.855	178.625
93	4.65	1	1	1	563.633783	174.291182	618.670323	227.469802	591.152053	200.880492
94	4.7	-326	10	1	427.23	170.81	444.94	183.31	436.085	177.06
94	4.7	-327	10	1	551.19	170.81	566.81	184.35	559	177.58
94	4.7	-328	10	1	301.19	165.6	373.06	192.69	337.125	179.145
94	4.7	-329	10	1	504.31	170.81	522.02	181.23	513.165	176.02
94	4.7	1	1	1	563.975917	174.393183	618.330567	226.911771	591.153242	200.652477
95	4.75	-330	10	1	427.23	170.81	444.94	183.31	436.085	177.06
95	4.75	-331	10	1	301.19	165.6	373.06	192.69	337.125	179.145
95	4.75	-332	10	1	501.19	170.81	519.94	182.27	510.565	176.54
95	4.75	1	1	1	564.309663	174.492694	617.999113	226.367433	591.154388	200.4300635
96	4.8	-333	10	1	427.23	170.81	444.94	183.31	436.085	177.06
96	4.8	-334	10	1	290.77	162.48	375.15	192.69	332.96	177.585
96	4.8	-335	10	1	500.15	165.6	520.98	180.19	510.565	172.895
96	4.8	1	1	1	564.663493	172.768261	617.628734	223.917594	591.1461135	198.3429275
97	4.85	-336	10	1	427.23	170.81	444.94	183.31	436.085	177.06
97	4.85	-337	10	1	276.6	158.29	367.95	198.82	322.275	178.555
97	4.85	-338	10	1	501.19	165.6	518.9	180.19	510.045	172.895
97	4.85	1	1	1	565.008427	171.089534	617.267302	221.534725	591.1378645	196.3121295
98	4.9	-339	10	1	427.23	170.81	444.94	183.31	436.085	177.06
98	4.9	-340	10	1	501.19	165.6	518.9	180.19	510.045	172.895
98	4.9	-341	10	1	315.77	161.44	360.56	184.35	338.165	172.895
98	4.9	1	1	1	566.176702	173.304415	617.745041	223.080623	591.9608715	198.192519
98	4.9	6	1	1	277.201941	168.670866	320.926451	188.123306	299.064196	178.397086
99	4.95	-342	10	1	427.23	170.81	444.94	183.31	436.085	177.06
99	4.95	-343	10	1	501.19	171.85	519.94	182.27	510.565	177.06
99	4.95	-344	10	1	553.27	171.85	567.85	183.31	560.56	177.58
99	4.95	-345	10	1	343.9	168.73	364.73	188.52	354.315	178.625
99	4.95	1	1	1	567.314656	175.462193	618.209619	224.585236	592.7621375	200.0237145
99	4.95	6	1	1	270.250441	171.906554	315.401782	191.798304	292.8261115	181.852429
100	5	-346	10	1	427.23	170.81	444.94	183.31	436.085	177.06
100	5	-347	10	1	501.19	171.85	519.94	182.27	510.565	177.06
100	5	-348	10	1	335.56	173.94	365.77	189.56	350.665	181.75
100	5	-349	10	1	554.31	174.98	568.9	189.56	561.605	182.27
100	5	1	1	1	568.423484	177.565034	618.661543	226.050183	593.5425135	201.8076085
100	5	6	1	1	263.188786	172.135141	309.833196	192.483352	286.510991	182.3092465
100	5	8	1	1	299.430532	172.121325	337.305261	191.123172	318.3678965	181.6222485
101	5.05	-350	10	1	501.19	171.85	519.94	182.27	510.565	177.06
101	5.05	-351	10	1	332.44	171.85	359.52	192.69	345.98	182.27
101	5.05	-352	10	1	414.73	176.02	437.65	188.52	426.19	182.27
101	5.05	-353	10	1	554.31	178.1	566.81	190.6	560.56	184.35
101	5.05	1	1	1	568.978388	177.715113	618.575642	225.572198	593.777015	201.6436555
101	5.05	6	1	1	255.688597	173.98943	303.923316	194.817011	279.8059565	184.4032205
102	5.1	-354	10	1	329.31	170.81	356.4	192.69	342.855	181.75
102	5.1	-355	10	1	498.06	174.98	512.65	188.52	505.355	181.75
102	5.1	-356	10	1	550.15	179.15	563.69	187.48	556.92	183.315
102	5.1	1	1	1	569.519842	177.861475	618.4911	225.106362	594.005471	201.4839185
102	5.1	6	1	1	247.827681	175.932994	297.74965	197.26295	272.7886655	186.597972
103	5.15	-357	10	1	494.94	178.1	510.56	188.52	502.75	183.31
103	5.15	-358	10	1	550.15	174.98	564.73	189.56	557.44	182.27
103	5.15	1	1	1	570.04836	178.004257	618.407877	224.652218	594.2281185	201.3282375
103	5.15	6	1	1	239.579368	177.972439	291.294136	199.82947	265.436752	188.9009545
104	5.2	-359	10	1	494.94	178.1	510.56	188.52	502.75	183.31
104	5.2	-360	10	1	416.81	176.02	435.56	192.69	426.185	184.355
104	5.2	-361	10	1	552.23	178.1	562.65	189.56	557.44	183.83
104	5.2	1	1	1	570.564433	178.143587	618.325931	224.20933	594.445182	201.1764585
104	5.2	7	1	1	305.813687	177.139887	343.966755	195.445711	324.890221	186.292799
105	5.25	-362	10	1	494.94	178.1	510.56	188.52	502.75	183.31
105	5.25	-363	10	1	410.04	175.37	428.37	196.96	419.205	186.165
105	5.25	-364	10	1	549.1	174.98	564.73	187.48	556.915	181.23
105	5.25	1	1	1	571.068527	178.279589	618.245227	223.777284	594.656877	201.0284365
105	5.25	7	1	1	300.078011	177.069855	339.39495	195.745782	319.7364805	186.4078185
106	5.3	-365	10	1	494.94	178.1	510.56	188.52	502.75	183.31
106	5.3	-366	10	1	549.1	173.94	561.6	185.4	555.35	179.67
106	5.3	-367	10	1	412.65	176.02	428.27	188.52	420.46	182.27
106	5.3	1	1	1	571.77024	177.957744	618.320562	222.850647	595.045401	200.4041955
106	5.3	6	1	1	210.867689	177.293294	268.814698	200.911407	239.8411935	189.1023505
106	5.3	7	1	1	294.105636	176.996937	334.648301	196.05824	314.3769685	186.5275885
106	5.3	8	1	1	259.559535	177.881424	305.613538	199.594809	282.5865365	188.7381165
107	5.35	-368	10	1	494.94	178.1	510.56	188.52	502.75	183.31
107	5.35	-369	10	1	412.65	176.02	428.27	188.52	420.46	182.27
107	5.35	-370	10	1	548.06	174.98	566.81	186.44	557.435	180.71
107	5.35	1	1	1	572.453562	177.644331	618.393922	221.94831	595.423742	199.7963205
107	5.35	6	1	1	200.240877	177.041908	260.561887	201.311869	230.401382	189.1768885
107	5.35	8	1	1	251.420266	177.673285	299.179139	199.924597	275.2997025	188.798941
108	5.4	-371	10	1	494.94	178.1	510.56	188.52	502.75	183.31
108	5.4	-372	10	1	392.22	174.38	424.73	195.43	408.475	184.905
108	5.4	-373	10	1	545.98	174.98	560.56	188.52	553.27	181.75
108	5.4	1	1	1	573.119209	177.339024	618.465384	221.06933	595.7922965	199.204177
108	5.4	6	1	1	189.011012	176.776243	251.879857	201.735065	220.4454345	189.255654
108	5.4	8	1	1	242.867429	177.454573	292.443197	200.271146	267.655313	188.8628595
109	5.45	-374	10	1	494.94	178.1	510.56	188.52	502.75	183.31
109	5.45	-375	10	1	545.98	174.98	560.56	188.52	553.27	181.75
109	5.45	-376	10	1	403.27	172.9	418.9	189.56	411.085	181.23
109	5.45	1	1	1	573.767855	177.041512	618.535019	220.212813	596.151437	198.6271625
109	5.45	6	1	1	176.562837	177.401401	242.318838	203.129237	209.4408375	190.265319
109	5.45	8	1	1	233.868681	177.224461	285.384003	200.63577	259.626342	188.9301155
110	5.5	-377	10	1	403.27	172.9	418.9	189.56	411.085	181.23
110	5.5	-378	10	1	542.85	174.98	558.48	187.48	550.665	181.23
110	5.5	-379	10	1	485.56	173.94	505.35	187.48	495.455	180.71
110	5.5	1	1	1	574.400145	176.751501	618.602899	219.377906	596.501522	198.0647035
110	5.5	6	1	1	163.323971	178.06631	232.204091	204.611999	197.764031	191.3391545
110	5.5	7	1	1	267.424447	178.023052	313.710262	198.850802	290.5673545	188.436927
110	5.5	8	1	1	224.244615	177.919831	277.875501	201.965656	251.060058	189.9427435
111	5.55	-380	10	1	403.27	172.9	418.9	189.56	411.085	181.23
111	5.55	-381	10	1	485.56	176.02	503.27	185.4	494.415	180.71
111	5.55	-382	10	1	538.69	177.06	560.56	187.48	549.625	182.27
111	5.55	1	1	1	575.494865	177.66676	619.199676	219.813256	597.3472705	198.740008
111	5.55	6	1	1	149.216606	178.774886	221.48608	206.192074	185.351343	192.48348
111	5.55	7	1	1	259.933425	178.656686	307.907114	199.991917	283.9202695	189.3243015
111	5.55	8	1	1	214.085502	178.653868	269.984286	203.369504	242.034894	191.011686
112	5.6	-383	10	1	485.56	176.02	503.27	185.4	494.415	180.71
112	5.6	-384	10	1	538.69	177.06	560.56	187.48	549.625	182.27
112	5.6	-385	10	1	397.02	173.94	417.85	191.65	407.435	182.795
112	5.6	1	1	1	576.565186	178.561625	619.783147	220.238896	598.1741665	199.4002605
112	5.6	6	1	1	134.152383	179.531575	210.109177	207.879365	172.13078	193.70547
112	5.6	7	1	1	252.069733	179.321805	301.839236	201.189821	276.9544845	190.255813
112	5.6	8	1	1	203.345446	179.429887	261.68033	204.853663	232.512888	192.141775
113	5.65	-386	10	1	392.85	174.98	416.81	194.77	404.83	184.875
113	5.65	-387	10	1	484.52	179.15	504.31	189.56	494.415	184.355
113	5.65	-388	10	1	534.52	178.1	557.44	190.6	545.98	184.35
113	5.65	1	1	1	577.611913	179.436769	620.353753	220.655149	598.982833	200.045959
113	5.65	6	1	1	118.030529	180.341452	198.010699	209.685171	158.020614	195.0133115
113	5.65	7	1	1	243.80485	180.020813	295.488088	202.448862	269.646469	191.2348375
113	5.65	8	1	1	191.973152	180.251597	252.930387	206.425226	222.4517695	193.3384115
114	5.7	-389	10	1	392.85	174.98	416.81	194.77	404.83	184.875
114	5.7	-390	10	1	484.52	179.15	504.31	189.56	494.415	184.355
114	5.7	-391	10	1	534.52	178.1	557.44	190.6	545.98	184.35
114	5.7	1	1	1	578.635819	180.292837	620.911913	221.06232	599.773866	200.6775785
114	5.7	6	1	1	100.109316	179.894382	184.664635	210.343844	142.3869755	195.119113
114	5.7	7	1	1	234.811929	178.951076	288.608311	201.977801	261.71012	190.4644385
114	5.7	8	1	1	179.911095	181.075586	243.697533	208.092149	211.804314	194.5838675
115	5.75	-392	10	1	392.85	174.98	416.81	194.77	404.83	184.875
115	5.75	-393	10	1	484.52	179.15	504.31	189.56	494.415	184.355
115	5.75	1	1	1	579.637643	181.053345	621.458031	221.460706	600.547837	201.2570255
115	5.75	6	1	1	80.785061	179.412257	170.381426	211.054109	125.5832435	195.233183
115	5.75	7	1	1	225.323414	177.822445	281.383108	201.480768	253.353261	189.6516065
115	5.75	8	1	1	166.422292	179.674957	233.445876	207.534013	199.934084	193.604485
116	5.8	-394	10	1	380.35	178.1	409.52	191.65	394.935	184.875
116	5.8	-395	10	1	481.4	177.06	500.15	189.56	490.775	183.31
116	5.8	-396	10	1	454.31	177.06	472.02	187.48	463.165	182.27
116	5.8	1	1	1	580.158974	180.88375	621.572224	220.876683	600.865599	200.8802165
116	5.8	6	1	1	59.886281	178.890784	155.058772	211.822272	107.4725265	195.356528
116	5.8	7	1	1	215.297177	176.629918	273.785795	200.955555	244.541486	188.7927365
116	5.8	8	1	1	152.010912	178.127674	222.560007	206.937684	187.2854595	192.532679
117	5.85	-397	10	1	380.35	178.1	409.52	191.65	394.935	184.875
117	5.85	-398	10	1	481.4	177.06	500.15	189.56	490.775	183.31
117	5.85	-399	10	1	454.31	177.06	472.02	187.48	463.165	182.27
117	5.85	1	1	1	580.670252	180.717073	621.684214	220.303929	601.177233	200.510501
117	5.85	6	1	1	37.21237	178.324942	138.578928	212.655714	87.895649	195.490328
117	5.85	8	1	1	136.578955	176.470776	210.979199	206.299103	173.779077	191.3849395
118	5.9	-400	10	1	380.35	178.1	409.52	191.65	394.935	184.875
118	5.9	-401	10	1	481.4	177.06	500.15	189.56	490.775	183.31
118	5.9	-402	10	1	454.31	177.06	472.02	187.48	463.165	182.27
118	5.9	1	1	1	581.171764	180.55324	621.794064	219.742121	601.482914	200.1476805
118	5.9	6	1	1	12.527121	177.708817	120.805661	213.563126	66.666391	195.6359715
118	5.9	8	1	1	119.75165	178.759537	198.40415	209.688994	159.0779	194.2242655
119	5.95	-403	10	1	380.35	178.1	409.52	191.65	394.935	184.875
119	5.95	-404	10	1	481.4	177.06	500.15	189.56	490.775	183.31
119	5.95	-405	10	1	454.31	177.06	472.02	187.48	463.165	182.27
119	5.95	1	1	1	581.663787	180.388218	621.901835	219.190949	601.782811	199.7895835
119	5.95	6	1	1	0	177.573111	100.567876	214.99969	50.283938	196.2864005
119	5.95	8	1	1	101.639299	181.152497	184.969899	213.337887	143.304599	197.245192
120	6	-406	10	1	481.4	177.06	500.15	189.56	490.775	183.31
120	6	-407	10	1	454.31	177.06	472.02	187.48	463.165	182.27
120	6	-408	10	1	376.19	181.23	399.1	195.81	387.645	188.52
120	6	1	1	1	582.146588	180.211354	622.007585	218.650113	602.0770865	199.4307335
120	6	6	1	1	0	177.42407	78.531946	216.440237	39.265973	196.9321535
120	6	7	1	1	165.74288	179.724583	236.826867	207.400006	201.2848735	193.5622945
120	6	8	1	1	81.130458	181.174904	169.847724	214.695728	125.489091	197.935316
121	6.05	-409	10	1	481.4	177.06	500.15	189.56	490.775	183.31
121	6.05	-410	10	1	454.31	177.06	472.02	187.48	463.165	182.27
121	6.05	-411	10	1	376.19	181.23	399.1	195.81	387.645	188.52
121	6.05	1	1	1	581.889454	180.230301	621.470711	218.399339	601.6800825	199.31482
121	6.05	6	1	1	0	177.410725	54.44708	216.482239	27.22354	196.946482
121	6.05	7	1	1	150.21887	180.415227	225.426001	209.137549	187.8224355	194.776388
122	6.1	-412	10	1	481.4	177.06	500.15	189.56	490.775	183.31
122	6.1	-413	10	1	454.31	177.06	472.02	187.48	463.165	182.27
122	6.1	-414	10	1	376.19	181.23	399.1	195.81	387.645	188.52
122	6.1	1	1	1	581.635901	180.248984	620.941319	218.15206	601.28861	199.200522
122	6.1	6	1	1	0	177.396241	28.013586	216.527827	14.006793	196.962034
122	6.1	7	1	1	133.477504	181.124984	213.229321	211.011406	173.3534125	196.068195
123	6.15	-415	10	1	481.4	177.06	500.15	189.56	490.775	183.31
123	6.15	-416	10	1	454.31	177.06	472.02	187.48	463.165	182.27
123	6.15	-417	10	1	359.52	179.15	390.77	194.77	375.145	186.96
123	6.15	1	1	1	581.385856	180.267409	620.419251	217.908203	600.9025535	199.087806
123	6.15	7	1	1	115.365558	180.739737	200.145451	211.808013	157.7555045	196.273875
124	6.2	-418	10	1	481.4	177.06	500.15	189.56	490.775	183.31
124	6.2	-419	10	1	454.31	177.06	472.02	187.48	463.165	182.27
124	6.2	-420	10	1	363.69	174.98	383.48	196.85	373.585	185.915
124	6.2	-421	10	1	509.52	177.06	529.31	188.52	519.415	182.79
124	6.2	1	1	1	581.139246	180.28558	619.904358	217.667698	600.521802	198.976639
124	6.2	7	1	1	96.148864	180.749211	186.265612	213.060592	141.207238	196.9049015
124	6.2	8	1	1	0	181.283883	96.294507	221.233406	48.1472535	201.2586445
125	6.25	-422	10	1	481.4	177.06	500.15	189.56	490.775	183.31
125	6.25	-423	10	1	454.31	177.06	472.02	187.48	463.165	182.27
125	6.25	-424	10	1	363.69	174.98	383.48	196.85	373.585	185.915
125	6.25	-425	10	1	507.44	180.19	524.1	189.56	515.77	184.875
125	6.25	1	1	1	580.896	180.303504	619.396493	217.430477	600.1462465	198.8669905
125	6.25	7	1	1	75.331145	180.759473	171.370673	214.41758	123.350909	197.5885265
125	6.25	8	1	1	0	181.239812	73.513243	222.467996	36.7566215	201.853904
126	6.3	-426	10	1	352.23	181.23	380.35	198.94	366.29	190.085
126	6.3	-427	10	1	465.77	180.19	488.69	195.81	477.23	188
126	6.3	-428	10	1	492.85	180.19	516.81	191.65	504.83	185.92
126	6.3	1	1	1	581.398422	179.519919	619.710917	216.464828	600.5546695	197.9923735
126	6.3	7	1	1	52.703617	180.770626	155.345047	215.892599	104.024332	198.3316125
126	6.3	8	1	1	0	181.191478	48.526774	222.404953	24.263387	201.7982155
127	6.35	-429	10	1	335.59	181.08	373.82	194.87	354.705	187.975
127	6.35	-430	10	1	461.6	178.1	489.73	193.73	475.665	185.915
127	6.35	-431	10	1	490.77	172.9	512.65	190.6	501.71	181.75
127	6.35	1	1	1	581.895959	178.743951	620.022283	215.508573	600.959121	197.126262
127	6.35	7	1	1	28.019553	180.782791	138.054915	217.501749	83.037234	199.14227
127	6.35	8	1	1	0	181.13823	20.998625	222.346545	10.4993125	201.7423875
128	6.4	-432	10	1	340.77	173.94	369.94	195.81	355.355	184.875
128	6.4	-433	10	1	465.77	179.15	484.52	192.69	475.145	185.92
128	6.4	-434	10	1	491.81	174.98	511.6	189.56	501.705	182.27
128	6.4	1	1	1	582.38868	177.975491	620.330634	214.561576	601.359657	196.2685335
128	6.4	7	1	1	0.985232	180.795938	119.344464	219.264197	60.164848	200.0300675
129	6.45	-435	10	1	343.9	178.1	375.15	198.94	359.525	188.52
129	6.45	-436	10	1	464.73	174.98	479.31	188.52	472.02	181.75
129	6.45	-437	10	1	483.48	176.02	506.4	189.56	494.94	182.79
129	6.45	1	1	1	582.876657	177.214429	620.636015	213.623704	601.756336	195.4190665
129	6.45	7	1	1	0	180.80493	98.790117	220.857427	49.3950585	200.8311785
130	6.5	-438	10	1	464.73	178.1	481.4	191.65	473.065	184.875
130	6.5	-439	10	1	335.56	173.94	364.73	195.81	350.145	184.875
130	6.5	-440	10	1	482.44	176.02	506.4	187.48	494.42	181.75
130	6.5	1	1	1	583.359958	176.46066	620.938469	212.694825	602.1492135	194.5777425
130	6.5	7	1	1	0	180.81474	76.363523	222.000915	38.1817615	201.4078275
131	6.55	-441	10	1	464.73	178.1	481.4	191.65	473.065	184.875
131	6.55	-442	10	1	318.17	176.42	359.43	201.15	338.8	188.785
131	6.55	-443	10	1	482.44	172.9	499.1	188.52	490.77	180.71
131	6.55	1	1	1	583.884967	176.765506	621.301358	212.843383	602.5931625	194.8044445
131	6.55	7	1	1	0	180.825486	51.796672	221.938796	25.898336	201.382141
132	6.6	-444	10	1	464.73	178.1	481.4	191.65	473.065	184.875
132	6.6	-445	10	1	478.27	176.02	499.1	186.44	488.685	181.23
132	6.6	-446	10	1	329.31	173.94	361.6	194.77	345.455	184.355
132	6.6	-447	10	1	1	171.85	96.833	224.98	48.9165	198.415
132	6.6	1	1	1	584.405462	177.067732	621.661127	212.990662	603.0332945	195.029197
132	6.6	7	1	1	0	180.837309	24.767846	221.883649	12.383923	201.360479
133	6.65	-448	10	1	464.73	178.1	481.4	191.65	473.065	184.875
133	6.65	-449	10	1	481.4	173.94	497.02	186.44	489.21	180.19
133	6.65	-450	10	1	319.94	176.02	359.52	196.85	339.73	186.435
133	6.65	-451	10	1	10.562	170.81	64.729	209.35	37.6455	190.08
133	6.65	1	1	1	584.921502	177.367371	622.017815	213.13668	603.4696585	195.2520255
134	6.7	-452	10	1	319.94	176.02	359.52	196.85	339.73	186.435
134	6.7	-453	10	1	1.1875	168.73	54.312	211.44	27.74975	190.085
134	6.7	-454	10	1	458.48	174.98	470.98	190.6	464.73	182.79
134	6.7	1	1	1	586.446059	175.940463	623.383557	211.555138	604.914808	193.7478005
135	6.75	-455	10	1	1	167.29	36.966	213.87	18.983	190.58
135	6.75	-456	10	1	309.52	171.85	342.85	198.94	326.185	185.395
135	6.75	-457	10	1	453.27	172.9	477.23	195.81	465.25	184.355
135	6.75	1	1	1	587.957583	174.52575	624.737621	209.987122	606.347602	192.256436
136	6.8	-458	10	1	1	165.56	22.2	214.34	11.6	189.95
136	6.8	-459	10	1	447.02	171.85	464.73	186.44	455.875	179.145
136	6.8	-460	10	1	301.19	174.98	339.73	205.19	320.46	190.085
136	6.8	1	1	1	588.42954	173.188954	625.053189	208.498428	606.7413645	190.843691
137	6.85	-461	10	1	1	161.31	4.5886	212.9	2.7943	187.105
137	6.85	-462	10	1	298.06	170.81	341.81	194.77	319.935	182.79
137	6.85	1	1	1	588.897498	171.863482	625.366083	207.022355	607.1317905	189.4429185
138	6.9	-463	10	1	286.6	167.69	327.23	194.77	306.915	181.23
138	6.9	1	1	1	589.361508	170.549191	625.676335	205.558742	607.5189215	188.0539665
139	6.95	-464	10	1	281.4	171.85	320.98	201.02	301.19	186.435
139	6.95	-465	10	1	454.31	173.94	479.31	187.48	466.81	180.71
139	6.95	1	1	1	589.59697	175.434074	625.762564	210.303075	607.679767	192.8685745
140	7	-466	10	1	454.31	173.94	479.31	187.48	466.81	180.71
140	7	-467	10	1	269.94	174.98	308.48	209.35	289.21	192.165
140	7	1	1	1	589.830504	180.278973	625.848087	215.008548	607.8392955	197.6437605
141	7.05	-468	10	1	249.91	178.32	303.07	213.36	276.49	195.84
141	7.05	-469	10	1	458.48	179.15	475.15	191.65	466.815	185.4
141	7.05	1	1	1	589.299215	179.458514	625.21664	214.091076	607.2579275	196.774795
142	7.1	-470	10	1	458.48	179.15	475.15	191.65	466.815	185.4
142	7.1	-471	10	1	254.31	176.02	285.56	204.15	269.935	190.085
142	7.1	1	1	1	588.770868	178.642596	624.58869	213.178685	606.679779	195.9106405
143	7.15	-472	10	1	417.85	177.06	469.94	195.81	443.895	186.435
143	7.15	-473	10	1	241.81	181.23	277.23	205.19	259.52	193.21
143	7.15	1	1	1	588.245437	177.831181	623.964207	212.271334	606.104822	195.0512575
