0	0	-1	10	1	555.03	169.08	564.74	178.78	559.885	173.93
0	0	-2	10	1	594.82	171.99	609.37	181.69	602.095	176.84
0	0	0	1	1	286.703158	187.113715	527.953102	292.563529	407.32813	239.838622
1	0.05	-3	10	1	555.03	169.08	564.74	178.78	559.885	173.93
1	0.05	-4	10	1	593.85	171.02	609.37	180.72	601.61	175.87
1	0.05	0	1	1	219.924597	185.942776	482.560839	299.357499	351.242718	242.6501375
2	0.1	-5	10	1	555.03	169.08	564.74	178.78	559.885	173.93
2	0.1	-6	10	1	594.82	171.02	605.49	181.69	600.155	176.355
2	0.1	0	1	1	138.444465	187.587268	430.734967	312.47003	284.589716	250.028649
3	0.15	-7	10	1	555.03	169.08	564.74	178.78	559.885	173.93
3	0.15	-8	10	1	592.88	171.99	605.49	181.69	599.185	176.84
3	0.15	0	1	1	46.844795	186.618416	377.060349	324.182503	211.952572	255.4004595
4	0.2	-9	10	1	555.03	169.08	564.74	178.78	559.885	173.93
4	0.2	-10	10	1	592.88	171.99	605.49	181.69	599.185	176.84
4	0.2	0	1	1	0	189.068685	314.454345	341.820162	157.2271725	265.4444235
4	0.2	1	1	1	1216.377793	178.844886	1241	222.455162	1228.6888965	200.650024
5	0.25	-11	10	1	555.03	169.08	564.74	178.78	559.885	173.93
5	0.25	-12	10	1	592.88	171.99	605.49	181.69	599.185	176.84
5	0.25	0	1	1	0	195.343936	244.889552	350.938475	122.444776	273.1412055
5	0.25	1	1	1	1179.670918	178.078467	1241	221.589408	1210.335459	199.8339375
6	0.3	-13	10	1	555.03	169.08	564.74	178.78	559.885	173.93
6	0.3	-14	10	1	592.88	171.99	605.49	181.69	599.185	176.84
6	0.3	0	1	1	0	192.929778	162.259517	346.552173	81.1297585	269.7409755
6	0.3	1	1	1	1143.113112	177.315573	1241	220.746381	1192.056556	199.030977
7	0.35	-15	10	1	555.03	169.08	564.74	178.78	559.885	173.93
7	0.35	-16	10	1	588.02	171.99	600.64	180.72	594.33	176.355
7	0.35	0	1	1	0	198.354147	63.412266	350.060019	31.706133	274.207083
7	0.35	1	1	1	1108.114386	176.555258	1241	219.924904	1174.557193	198.240081
8	0.4	-17	10	1	555.03	169.08	564.74	178.78	559.885	173.93
8	0.4	-18	10	1	588.02	171.99	600.64	180.72	594.33	176.355
8	0.4	1	1	1	1076.795708	176.87171	1212.834693	219.42007	1144.8152005	198.14589
9	0.45	-19	10	1	555.03	169.08	564.74	178.78	559.885	173.93
9	0.45	-20	10	1	588.02	171.99	600.64	180.72	594.33	176.355
9	0.45	1	1	1	1047.179649	177.222947	1179.542895	218.759266	1113.361272	197.9911065
10	0.5	-21	10	1	555.03	169.08	564.74	178.78	559.885	173.93
10	0.5	-22	10	1	588.02	171.99	600.64	180.72	594.33	176.355
10	0.5	1	1	1	1017.014235	176.53113	1144.238677	216.930101	1080.626456	196.7306155
11	0.55	-23	10	1	555.03	169.08	564.74	178.78	559.885	173.93
11	0.55	-24	10	1	588.02	171.99	600.64	180.72	594.33	176.355
11	0.55	1	1	1	989.160277	176.832951	1111.889234	216.147784	1050.5247555	196.4903675
12	0.6	-25	10	1	555.03	169.08	564.74	178.78	559.885	173.93
12	0.6	-26	10	1	588.02	171.99	600.64	180.72	594.33	176.355
12	0.6	1	1	1	962.794664	177.120058	1081.11907	215.406173	1021.956867	196.2631155
13	0.65	-27	10	1	555.03	169.08	564.74	178.78	559.885	173.93
13	0.65	-28	10	1	588.02	171.99	600.64	180.72	594.33	176.355
13	0.65	1	1	1	939.115617	176.5085	1053.184516	213.779039	996.1500665	195.1437695
14	0.7	-29	10	1	555.03	169.08	564.74	178.78	559.885	173.93
14	0.7	-30	10	1	588.02	171.99	600.64	180.72	594.33	176.355
15	0.75	-31	10	1	555.03	169.08	564.74	178.78	559.885	173.93
15	0.75	-32	10	1	588.02	171.99	600.64	180.72	594.33	176.355
16	0.8	-33	10	1	555.03	169.08	564.74	178.78	559.885	173.93
16	0.8	-34	10	1	588.02	171.99	600.64	180.72	594.33	176.355
16	0.8	1	1	1	875.486875	175.332773	977.154046	209.803253	926.3204605	192.568013
17	0.85	-35	10	1	555.03	169.08	564.74	178.78	559.885	173.93
17	0.85	-36	10	1	585.11	171.02	595.79	180.72	590.45	175.87
17	0.85	1	1	1	856.564871	175.050985	953.988138	208.606554	905.2765045	191.8287695
18	0.9	-37	10	1	555.03	169.08	564.74	178.78	559.885	173.93
18	0.9	-38	10	1	585.11	171.02	595.79	180.72	590.45	175.87
18	0.9	1	1	1	838.645736	174.783312	931.904483	207.47073	885.2751095	191.127021
19	0.95	-39	10	1	555.03	169.08	564.74	178.78	559.885	173.93
19	0.95	-40	10	1	585.11	171.02	595.79	180.72	590.45	175.87
19	0.95	1	1	1	823.46668	174.528525	912.826785	206.412857	868.1467325	190.470691
20	1	-41	10	1	555.03	169.08	564.74	178.78	559.885	173.93
20	1	-42	10	1	585.11	171.02	595.79	180.72	590.45	175.87
20	1	1	1	1	809.039417	174.285676	894.571851	205.404909	851.805634	189.8452925
21	1.05	-43	10	1	555.03	169.08	564.74	178.78	559.885	173.93
21	1.05	-44	10	1	579.52	171.16	594.34	180.15	586.93	175.655
21	1.05	1	1	1	795.310384	174.053998	877.086942	204.443475	836.198663	189.2487365
22	1.1	-45	10	1	555.03	169.08	564.74	178.78	559.885	173.93
22	1.1	-46	10	1	579.52	171.16	594.34	180.15	586.93	175.655
22	1.1	1	1	1	782.12421	174.038126	860.47272	203.666103	821.298465	188.8521145
23	1.15	-47	10	1	555.03	169.08	564.74	178.78	559.885	173.93
23	1.15	-48	10	1	579.52	171.16	594.34	180.15	586.93	175.655
23	1.15	1	1	1	769.56059	174.023133	844.632718	202.926738	807.096654	188.4749355
24	1.2	-49	10	1	555.03	169.08	564.74	178.78	559.885	173.93
24	1.2	-50	10	1	579.52	171.16	594.34	180.15	586.93	175.655
24	1.2	1	1	1	757.576682	174.008959	829.513836	202.222666	793.545259	188.1158125
25	1.25	-51	10	1	555.03	169.08	564.74	178.78	559.885	173.93
25	1.25	-52	10	1	579.52	171.16	594.34	180.15	586.93	175.655
25	1.25	1	1	1	747.336965	173.993694	816.272465	201.51563	781.804715	187.754662
26	1.3	-53	10	1	555.03	169.08	564.74	178.78	559.885	173.93
26	1.3	-54	10	1	579.52	171.16	594.34	180.15	586.93	175.655
26	1.3	1	1	1	737.571583	173.979259	803.636524	200.84245	770.6040535	187.4108545
27	1.35	-55	10	1	555.03	169.08	564.74	178.78	559.885	173.93
27	1.35	-56	10	1	579.52	171.16	594.34	180.15	586.93	175.655
27	1.35	1	1	1	728.248534	173.965597	791.565222	200.200757	759.906878	187.083177
28	1.4	-57	10	1	555.03	169.08	564.74	178.78	559.885	173.93
28	1.4	-58	10	1	579.52	171.16	594.34	180.15	586.93	175.655
28	1.4	1	1	1	720.613534	173.95264	780.428876	199.57819	750.521205	186.765415
29	1.45	-59	10	1	555.03	169.08	564.74	178.78	559.885	173.93
29	1.45	-60	10	1	579.52	171.16	594.34	180.15	586.93	175.655
29	1.45	1	1	1	713.364354	173.940952	769.729316	198.983157	741.546835	186.4620545
30	1.5	-61	10	1	555.03	169.08	564.74	178.78	559.885	173.93
30	1.5	-62	10	1	579.52	171.16	594.34	180.15	586.93	175.655
30	1.5	1	1	1	706.920171	173.928867	759.863632	198.385555	733.3919015	186.157211
31	1.55	-63	10	1	555.03	169.08	564.74	178.78	559.885	173.93
31	1.55	-64	10	1	579.52	171.16	594.34	180.15	586.93	175.655
31	1.55	1	1	1	700.801476	173.917982	750.388988	197.814578	725.595232	185.86628
32	1.6	-65	10	1	555.03	169.08	564.74	178.78	559.885	173.93
32	1.6	-66	10	1	579.52	171.16	594.34	180.15	586.93	175.655
32	1.6	1	1	1	695.608529	173.843684	742.618573	197.174224	719.113551	185.508954
33	1.65	-67	10	1	555.03	169.08	564.74	178.78	559.885	173.93
33	1.65	-68	10	1	579.52	171.16	594.34	180.15	586.93	175.655
33	1.65	1	1	1	690.656167	173.77295	735.184673	196.563408	712.92042	185.168179
34	1.7	-69	10	1	555.03	169.08	564.74	178.78	559.885	173.93
34	1.7	-70	10	1	579.52	171.16	594.34	180.15	586.93	175.655
34	1.7	1	1	1	685.928284	173.705548	728.065753	195.980143	706.9970185	184.8428455
35	1.75	-71	10	1	557.46	169.53	565.85	179.5	561.655	174.515
35	1.75	-72	10	1	575.41	170.05	587.05	180.72	581.23	175.385
35	1.75	1	1	1	681.410147	173.641266	721.242115	195.422616	701.326131	184.531941
35	1.75	2	1	1	1233.426372	218.483561	1241	374	1237.213186	296.2417805
36	1.8	-73	10	1	557.46	169.53	565.85	179.5	561.655	174.515
36	1.8	-74	10	1	575.41	170.05	587.05	180.72	581.23	175.385
36	1.8	1	1	1	678.192323	173.579141	715.873131	194.885455	697.032727	184.232298
36	1.8	2	1	1	1135.640577	209.868585	1241	374	1188.3202885	291.9342925
37	1.85	-75	10	1	557.46	169.53	565.85	179.5	561.655	174.515
37	1.85	-76	10	1	575.41	170.05	587.05	180.72	581.23	175.385
37	1.85	1	1	1	675.114422	173.519809	710.717463	194.371154	692.9159425	183.9454815
37	1.85	2	1	1	1069.146253	204.596494	1241	374	1155.0731265	289.298247
38	1.9	-77	10	1	557.46	169.53	565.85	179.5	561.655	174.515
38	1.9	-78	10	1	575.41	170.05	587.05	180.72	581.23	175.385
38	1.9	1	1	1	672.16766	173.463101	705.762597	193.878293	688.9651285	183.670697
38	1.9	2	1	1	1009.98496	200.481567	1241	374	1125.49248	287.2407835
39	1.95	-79	10	1	557.46	169.53	565.85	179.5	561.655	174.515
39	1.95	-80	10	1	575.41	170.05	587.05	180.72	581.23	175.385
39	1.95	1	1	1	669.258963	173.404874	701.630127	193.381231	685.444545	183.3930525
39	1.95	2	1	1	958.045664	197.207671	1241	374	1099.522832	285.6038355
40	2	-81	10	1	557.46	169.53	565.85	179.5	561.655	174.515
40	2	-82	10	1	575.41	170.05	587.05	180.72	581.23	175.385
40	2	1	1	1	666.46581	173.34909	697.669169	192.905123	682.0674895	183.1271065
40	2	2	1	1	917.279189	194.650221	1241	374	1079.1395945	284.3251105
41	2.05	-83	10	1	557.46	169.53	565.85	179.5	561.655	174.515
41	2.05	-84	10	1	575.41	170.05	587.05	180.72	581.23	175.385
41	2.05	1	1	1	663.78147	173.295599	693.869242	192.448674	678.825356	182.8721365
41	2.05	2	1	1	884.515044	192.531463	1241	374	1062.757522	283.2657315
41	2.05	7	1	1	1224.728987	191.08759	1241	319.895792	1232.8644935	255.491691
42	2.1	-85	10	1	557.46	169.53	565.85	179.5	561.655	174.515
42	2.1	-86	10	1	575.41	170.05	587.05	180.72	581.23	175.385
42	2.1	1	1	1	661.932189	173.284196	690.535057	192.012076	676.233623	182.648136
42	2.1	2	1	1	857.767978	190.798486	1184.932361	374	1021.3501695	282.399243
42	2.1	7	1	1	1177.798576	189.16497	1241	319.286946	1209.399288	254.225958
43	2.15	-87	10	1	556	169.08	567.65	176.84	561.825	172.96
43	2.15	-88	10	1	572.5	170.05	584.14	178.78	578.32	174.415
43	2.15	1	1	1	660.162348	173.273369	687.340093	191.594476	673.7512205	182.4339225
43	2.15	2	1	1	835.519948	189.354718	1110.702748	350.268222	973.111348	269.81147
43	2.15	7	1	1	1132.755533	187.37782	1241	318.724917	1186.8777665	253.0513685
44	2.2	-89	10	1	556	169.08	567.65	176.84	561.825	172.96
44	2.2	-90	10	1	572.5	170.05	584.14	178.78	578.32	174.415
44	2.2	1	1	1	658.467016	173.26308	684.275742	191.19466	671.371379	182.22887
44	2.2	2	1	1	816.211632	188.111099	1051.659218	330.331451	933.935425	259.221275
44	2.2	7	1	1	1094.205402	186.334631	1241	318.236877	1167.602701	252.285754
45	2.25	-91	10	1	556	169.08	567.65	176.84	561.825	172.96
45	2.25	-92	10	1	572.5	170.05	584.14	178.78	578.32	174.415
45	2.25	1	1	1	656.841657	173.253298	681.334104	190.811519	669.0878805	182.0324085
45	2.25	2	1	1	799.724092	187.047944	1004.499374	314.437169	902.111733	250.7425565
45	2.25	7	1	1	1060.838704	185.441694	1241	317.823008	1150.919352	251.632351
46	2.3	-93	10	1	556	169.08	567.65	176.84	561.825	172.96
46	2.3	-94	10	1	572.5	170.05	584.14	178.78	578.32	174.415
46	2.3	1	1	1	655.282087	173.24399	678.507909	190.444033	666.894998	181.8440115
46	2.3	2	1	1	785.481331	186.12863	965.963412	301.469041	875.7223715	243.7988355
46	2.3	7	1	1	1027.950653	184.562764	1241	305.733546	1134.4753265	245.148155
47	2.35	-95	10	1	556	169.08	567.65	176.84	561.825	172.96
47	2.35	-96	10	1	572.5	170.05	584.14	178.78	578.32	174.415
47	2.35	-97	10	1	650.12	171.99	677.29	190.43	663.705	181.21
47	2.35	2	1	1	773.201866	185.646041	934.534443	290.926402	853.8681545	238.2862215
47	2.35	7	1	1	999.362769	183.799785	1241	294.077518	1120.1813845	238.9386515
48	2.4	-98	10	1	556	169.08	567.65	176.84	561.825	172.96
48	2.4	-99	10	1	572.5	170.05	584.14	178.78	578.32	174.415
48	2.4	-100	10	1	644.3	173.93	674.38	191.4	659.34	182.665
48	2.4	2	1	1	762.419363	185.222318	908.075306	282.050668	835.2473345	233.636493
48	2.4	7	1	1	973.548508	183.112387	1191.753539	283.625184	1082.6510235	233.3687855
49	2.45	-101	10	1	556	169.08	567.65	176.84	561.825	172.96
49	2.45	-102	10	1	572.5	170.05	584.14	178.78	578.32	174.415
49	2.45	-103	10	1	646.24	171.02	674.38	192.37	660.31	181.695
49	2.45	2	1	1	751.5487	184.142258	882.792179	272.888688	817.1704395	228.515473
49	2.45	7	1	1	950.936346	182.50956	1144.775989	274.839849	1047.8561675	228.6747045
50	2.5	-104	10	1	556	169.08	567.65	176.84	561.825	172.96
50	2.5	-105	10	1	572.5	170.05	584.14	178.78	578.32	174.415
50	2.5	-106	10	1	643.33	172.96	668.56	190.43	655.945	181.695
50	2.5	2	1	1	741.969118	183.190512	861.270578	265.089916	801.619848	224.140214
50	2.5	7	1	1	930.965384	181.976602	1104.684101	267.352175	1017.8247425	224.6643885
51	2.55	-107	10	1	556	169.08	567.65	176.84	561.825	172.96
51	2.55	-108	10	1	572.5	170.05	584.14	178.78	578.32	174.415
51	2.55	-109	10	1	643.33	172.96	668.56	190.43	655.945	181.695
51	2.55	2	1	1	733.463512	182.345497	842.729171	258.371172	788.0963415	220.3583345
51	2.55	7	1	1	912.05839	181.48593	1068.849909	260.709367	990.4541495	221.0976485
52	2.6	-110	10	1	557.06	169.31	565.9	179.2	561.48	174.255
52	2.6	-111	10	1	571.51	169.97	584.1	178.89	577.805	174.43
52	2.6	-112	10	1	643.33	172.96	668.56	190.43	655.945	181.695
52	2.6	2	1	1	726.066192	183.146603	826.413522	254.123195	776.239857	218.634899
52	2.6	7	1	1	895.178893	181.04784	1037.740724	254.943127	966.4598085	217.9954835
53	2.65	-113	10	1	557.06	169.31	565.9	179.2	561.48	174.255
53	2.65	-114	10	1	571.51	169.97	584.1	178.89	577.805	174.43
53	2.65	-115	10	1	643.33	172.96	668.56	190.43	655.945	181.695
53	2.65	2	1	1	718.095857	182.349865	810.277231	248.394915	764.186544	215.37239
53	2.65	7	1	1	880.017361	180.654312	1010.47981	249.890689	945.2485855	215.2725005
53	2.65	8	1	1	1207.848492	191.368861	1241	321.810092	1224.424246	256.5894765
54	2.7	-116	10	1	557.06	169.31	565.9	179.2	561.48	174.255
54	2.7	-117	10	1	571.51	169.97	584.1	178.89	577.805	174.43
54	2.7	-118	10	1	643.33	172.96	668.56	190.43	655.945	181.695
54	2.7	2	1	1	710.967209	181.637267	796.170799	243.387409	753.569004	212.512338
54	2.7	7	1	1	866.152061	180.262409	986.704731	245.388847	926.428396	212.825628
54	2.7	8	1	1	1158.39418	188.871596	1241	320.844071	1199.69709	254.8578335
55	2.75	-119	10	1	557.06	169.31	565.9	179.2	561.48	174.255
55	2.75	-120	10	1	571.51	169.97	584.1	178.89	577.805	174.43
55	2.75	-121	10	1	634.33	171.9	659.59	188.74	646.96	180.32
55	2.75	2	1	1	704.752212	180.981168	783.822031	238.848103	744.2871215	209.9146355
55	2.75	3	1	1	1173.06726	236.844875	1241	374	1207.03363	305.4224375
55	2.75	7	1	1	853.577727	179.872886	965.582502	241.386201	909.5801145	210.6295435
55	2.75	8	1	1	1116.159486	186.88923	1241	319.810937	1178.579743	253.3500835
56	2.8	-122	10	1	557.06	169.31	565.9	179.2	561.48	174.255
56	2.8	-123	10	1	571.51	169.97	584.1	178.89	577.805	174.43
56	2.8	-124	10	1	634.33	171.9	659.59	188.74	646.96	180.32
56	2.8	2	1	1	699.147562	180.354472	772.891123	234.830143	736.0193425	207.5923075
56	2.8	3	1	1	1084.649085	225.806663	1241	374	1162.8245425	299.9033315
56	2.8	7	1	1	839.967424	179.51676	944.081699	237.758245	892.0245615	208.6375025
56	2.8	8	1	1	1078.49849	185.484398	1241	318.508825	1159.749245	251.9966115
57	2.85	-125	10	1	557.06	169.31	565.9	179.2	561.48	174.255
57	2.85	-126	10	1	571.51	169.97	584.1	178.89	577.805	174.43
57	2.85	-127	10	1	634.33	171.9	659.59	188.74	646.96	180.32
57	2.85	2	1	1	693.919606	179.927151	762.560151	231.297563	728.2398785	205.612357
57	2.85	3	1	1	1017.361788	217.432222	1241	374	1129.180894	295.716111
57	2.85	7	1	1	829.932531	179.172102	927.239758	234.281144	878.5861445	206.726623
57	2.85	8	1	1	1046.172506	185.468328	1241	319.155776	1143.586253	252.312052
58	2.9	-128	10	1	557.06	169.31	565.9	179.2	561.48	174.255
58	2.9	-129	10	1	571.51	169.97	584.1	178.89	577.805	174.43
58	2.9	-130	10	1	634.33	171.9	659.59	188.74	646.96	180.32
58	2.9	2	1	1	689.181331	179.545747	753.339995	228.145867	721.260663	203.845807
58	2.9	3	1	1	966.249677	211.936683	1241	374	1103.6248385	292.9683415
58	2.9	7	1	1	819.248328	178.892433	910.056954	231.202896	864.652641	205.0476645
58	2.9	8	1	1	1018.005852	185.454368	1241	315.433634	1129.502926	250.444001
59	2.95	-131	10	1	557.06	169.31	565.9	179.2	561.48	174.255
59	2.95	-132	10	1	627.9	172.3	653.96	188.93	640.93	180.615
59	2.95	2	1	1	684.867018	179.203235	745.060637	225.316607	714.9638275	202.259921
59	2.95	3	1	1	926.106264	207.668609	1241	374	1083.553132	290.8343045
59	2.95	7	1	1	809.457483	178.639778	894.534921	228.422072	851.996202	203.530925
59	2.95	8	1	1	990.027641	183.48253	1241	300.361451	1115.5138205	241.9219905
60	3	-133	10	1	557.06	169.31	565.9	179.2	561.48	174.255
60	3	-134	10	1	627.81	171.99	651.09	187.51	639.45	179.75
60	3	2	1	1	680.771103	178.874879	737.246633	222.614105	709.008868	200.744492
60	3	3	1	1	888.355178	203.706428	1241	374	1064.677589	288.853214
60	3	7	1	1	800.193451	178.405821	880.073455	225.849096	840.133453	202.1274585
61	3.05	-135	10	1	552.72	166.65	566.39	179.8	559.555	173.225
61	3.05	-136	10	1	628.78	172.96	652.06	188.49	640.42	180.725
61	3.05	2	1	1	677.030266	178.578577	730.195877	220.176189	703.6130715	199.377383
61	3.05	3	1	1	858.090004	200.535261	1241	374	1049.545002	287.2676305
61	3.05	7	1	1	791.657484	178.192849	866.90975	223.506962	829.283617	200.8499055
62	3.1	-137	10	1	552.72	166.65	566.39	179.8	559.555	173.225
62	3.1	-138	10	1	627.81	171.02	651.09	186.54	639.45	178.78
62	3.1	2	1	1	672.91199	178.45864	723.226825	217.993056	698.0694075	198.225848
62	3.1	3	1	1	833.285722	197.939717	1235.715468	374	1034.500595	285.9698585
62	3.1	7	1	1	783.767004	177.998159	854.87661	221.365936	819.321807	199.6820475
63	3.15	-139	10	1	552.72	166.65	566.39	179.8	559.555	173.225
63	3.15	-140	10	1	626.84	171.99	648.18	184.6	637.51	178.295
63	3.15	2	1	1	669.142183	178.35006	716.917459	216.016163	693.029821	197.1831115
63	3.15	3	1	1	811.693913	195.615893	1145.227766	374	978.4608395	284.8079465
63	3.15	7	1	1	775.99179	177.789123	843.014551	219.184106	809.5031705	198.4866145
64	3.2	-141	10	1	552.72	166.65	566.39	179.8	559.555	173.225
64	3.2	-142	10	1	626.84	171.99	648.18	184.6	637.51	178.295
64	3.2	2	1	1	665.500819	178.109231	710.905198	214.015071	688.2030085	196.062151
64	3.2	3	1	1	793.631303	193.67088	1076.972598	361.979811	935.3019505	277.8253455
64	3.2	7	1	1	768.818437	177.598261	832.184274	217.192059	800.5013555	197.39516
65	3.25	-143	10	1	552.72	166.65	566.39	179.8	559.555	173.225
65	3.25	-144	10	1	626.84	171.99	648.18	184.6	637.51	178.295
65	3.25	2	1	1	662.153262	177.889932	705.430319	212.192552	683.7917905	195.041242
65	3.25	3	1	1	777.074699	191.913315	1020.090258	339.502945	898.5824785	265.70813
65	3.25	7	1	1	762.179672	177.423302	822.256763	215.366065	792.2182175	196.3946835
66	3.3	-145	10	1	552.72	166.65	566.39	179.8	559.555	173.225
66	3.3	-146	10	1	620.04	173.93	644.3	184.6	632.17	179.265
66	3.3	2	1	1	659.065355	177.689401	700.423828	210.525723	679.7445915	194.107562
66	3.3	3	1	1	762.977991	190.416227	975.16387	321.773482	869.0709305	256.0948545
66	3.3	7	1	1	754.894257	177.250663	811.749371	213.594137	783.321814	195.4224
67	3.35	-147	10	1	552.72	166.65	566.39	179.8	559.555	173.225
67	3.35	-148	10	1	620.04	173.93	644.3	184.6	632.17	179.265
67	3.35	2	1	1	656.066805	177.525718	695.541156	208.949169	675.8039805	193.2374435
67	3.35	3	1	1	750.572028	189.066612	936.559383	306.802201	843.5657055	247.9344065
67	3.35	7	1	1	748.140006	177.091975	802.091413	211.965474	775.1157095	194.5287245
68	3.4	-149	10	1	552.72	166.65	566.39	179.8	559.555	173.225
68	3.4	-150	10	1	620.04	173.93	644.3	184.6	632.17	179.265
68	3.4	2	1	1	653.294411	177.375543	691.061335	207.502612	672.177873	192.4390775
68	3.4	3	1	1	739.840795	187.897459	904.882664	294.546898	822.3617295	241.2221785
68	3.4	4	1	1	1237.876618	212.694785	1241	371.643507	1239.438309	292.169146
68	3.4	7	1	1	741.513023	176.786806	793.121841	210.277223	767.317432	193.5320145
68	3.4	8	1	1	825.750347	179.054065	946.906532	237.904129	886.3284395	208.479097
68	3.4	9	5	1	1227.009432	0	1241	338.471252	1234.004716	169.235626
69	3.45	-151	10	1	552.72	166.65	566.39	179.8	559.555	173.225
69	3.45	-152	10	1	620.04	173.93	644.3	184.6	632.17	179.265
69	3.45	2	1	1	650.72353	177.237269	686.936469	206.17061	668.8299995	191.7039395
69	3.45	3	1	1	730.122837	186.8653	877.861299	284.244086	803.992068	235.554693
69	3.45	4	1	1	1136.852973	205.261194	1241	374	1188.9264865	289.630597
69	3.45	7	1	1	735.880605	176.502908	785.405501	208.702209	760.643053	192.6025585
69	3.45	9	5	1	1151.3171	0	1241	337.791579	1196.15855	168.8957895
70	3.5	-153	10	1	552.72	166.65	566.39	179.8	559.555	173.225
70	3.5	-154	10	1	620.04	173.93	644.3	184.6	632.17	179.265
70	3.5	2	1	1	648.139072	177.001589	682.86498	204.791198	665.502026	190.8963935
70	3.5	3	1	1	721.596755	185.911152	854.466483	275.106294	788.031619	230.508723
70	3.5	4	1	1	1058.741619	199.410582	1241	374	1149.8708095	286.705291
70	3.5	8	1	1	803.328743	178.212493	906.46718	230.386485	854.8979615	204.299489
70	3.5	9	5	1	1102.587368	0	1241	337.148056	1171.793684	168.574028
71	3.55	-155	10	1	618.1	171.02	637.51	184.6	627.805	177.81
71	3.55	-156	10	1	548.24	169.08	561.83	179.75	555.035	174.415
71	3.55	2	1	1	645.736004	176.783828	679.102978	203.516604	662.419491	190.150216
71	3.55	3	1	1	714.080832	185.069177	834.556327	267.340869	774.3185795	226.205023
71	3.55	4	1	1	1000.475589	195.375605	1241	374	1120.7377945	284.6878025
71	3.55	8	1	1	793.558952	177.835467	889.005271	227.011045	841.2821115	202.423256
71	3.55	9	5	1	1061.74704	0	1241	336.51918	1151.37352	168.25959
72	3.6	-157	10	1	618.1	171.02	637.51	184.6	627.805	177.81
72	3.6	-158	10	1	548.24	169.08	561.83	179.75	555.035	174.415
72	3.6	2	1	1	643.667058	176.591786	675.507557	202.315071	659.5873075	189.4534285
72	3.6	3	1	1	707.185961	184.494268	817.305443	260.66739	762.245702	222.580829
72	3.6	4	1	1	951.623837	192.602325	1241	374	1096.3119185	283.3011625
72	3.6	8	1	1	784.692092	177.499136	873.429355	224.002236	829.0607235	200.750686
72	3.6	9	5	1	1027.023646	0	1241	335.904734	1134.011823	167.952367
73	3.65	-159	10	1	618.1	171.02	637.51	184.6	627.805	177.81
73	3.65	-160	10	1	548.24	169.08	561.83	179.75	555.035	174.415
73	3.65	2	1	1	641.737976	176.413663	672.172744	201.200967	656.95536	188.807315
73	3.65	3	1	1	700.236409	183.961404	801.158836	254.712438	750.6976225	219.336921
73	3.65	4	1	1	913.416945	190.423502	1241	374	1077.2084725	282.211751
73	3.65	8	1	1	775.868692	177.16869	858.165522	221.046918	817.017107	199.107804
73	3.65	9	5	1	997.138671	0	1241	335.304513	1119.0693355	167.6522565
74	3.7	-161	10	1	618.1	171.02	637.51	184.6	627.805	177.81
74	3.7	-162	10	1	548.24	169.08	561.83	179.75	555.035	174.415
74	3.7	2	1	1	639.935044	176.248	669.071189	200.165083	654.5031165	188.2065415
74	3.7	3	1	1	694.029474	183.48536	787.106246	249.531796	740.56786	216.508578
74	3.7	4	1	1	879.909026	188.567037	1241	374	1060.454513	281.2835185
74	3.7	8	1	1	767.553054	176.959024	844.618298	218.657611	806.085676	197.8083175
74	3.7	9	5	1	968.94617	0	1241	334.717061	1104.973085	167.3585305
75	3.75	-163	10	1	548.24	169.08	561.83	179.75	555.035	174.415
75	3.75	-164	10	1	613.25	172.96	630.72	185.57	621.985	179.265
75	3.75	2	1	1	638.19409	176.096391	666.148709	199.22331	652.1713995	187.6598505
75	3.75	3	1	1	689.102379	183.027901	775.300534	244.771926	732.2014565	213.8999135
75	3.75	4	1	1	852.705093	187.05824	1241	374	1046.8525465	280.52912
75	3.75	8	1	1	759.336028	176.752266	831.470875	216.362869	795.4034515	196.5575675
75	3.75	9	5	1	944.443005	0	1241	334.14389	1092.7215025	167.071945
76	3.8	-165	10	1	548.24	169.08	561.83	179.75	555.035	174.415
76	3.8	-166	10	1	613.25	172.96	630.72	185.57	621.985	179.265
76	3.8	2	1	1	636.557316	175.954444	663.412478	198.341773	649.984897	187.1481085
76	3.8	3	1	1	684.670936	182.616373	764.905828	240.58227	724.788382	211.5993215
76	3.8	4	1	1	829.382199	185.73446	1238.188189	374	1033.785194	279.86723
76	3.8	8	1	1	751.804535	176.565146	819.572847	214.286847	785.688691	195.4259965
76	3.8	9	5	1	922.949461	0	1241	333.584825	1081.9747305	166.7924125
77	3.85	-167	10	1	548.24	169.08	561.83	179.75	555.035	174.415
77	3.85	-168	10	1	613.25	172.96	630.72	185.57	621.985	179.265
77	3.85	2	1	1	635.015645	175.821266	660.845238	197.514872	647.9304415	186.668069
77	3.85	3	1	1	679.852991	182.002808	754.576447	236.485401	717.214719	209.2441045
77	3.85	4	1	1	809.922936	184.629395	1151.413739	372.225679	980.6683375	278.427537
77	3.85	8	1	1	745.452471	176.397407	809.437184	212.419744	777.4448275	194.4085755
77	3.85	9	5	1	902.927854	0	1241	333.10019	1071.963927	166.550095
78	3.9	-169	10	1	548.24	169.08	561.83	179.75	555.035	174.415
78	3.9	-170	10	1	613.25	172.96	630.72	185.57	621.985	179.265
78	3.9	2	1	1	633.527101	175.692287	658.367821	196.710284	645.947461	186.2012855
78	3.9	3	1	1	675.487806	181.446788	745.380029	232.838925	710.4339175	207.1428565
78	3.9	4	1	1	791.905659	183.623238	1079.506417	346.399468	935.706038	265.011353
78	3.9	8	1	1	739.584689	176.244075	800.172478	210.713519	769.8785835	193.478797
78	3.9	9	5	1	885.181073	0	1241	322.253161	1063.0905365	161.1265805
79	3.95	-171	10	1	610.34	171.02	626.84	184.6	618.59	177.81
79	3.95	-172	10	1	546.3	170.05	560.86	179.75	553.58	174.9
79	3.95	2	1	1	632.123181	175.571075	656.039577	195.954302	644.081379	185.7626885
79	3.95	3	1	1	671.514427	180.940581	737.139862	229.572439	704.3271445	205.25651
79	3.95	4	1	1	776.622734	182.769048	1023.935343	326.482741	900.2790385	254.6258945
79	3.95	8	1	1	734.147842	176.103372	791.671088	209.148238	762.909465	192.625805
79	3.95	9	5	1	869.342267	11.488836	1241	307.234666	1055.1711335	159.361751
80	4	-173	10	1	546.3	170.05	560.86	179.75	553.58	174.9
80	4	-174	10	1	608.4	169.08	625.87	183.63	617.135	176.355
80	4	2	1	1	630.796874	175.45695	653.847424	195.24265	642.322149	185.3498
80	4	3	1	1	667.60806	180.681378	729.325445	226.809923	698.4667525	203.7456505
80	4	4	1	1	763.024783	182.192372	977.844522	310.174293	870.4346525	246.1833325
80	4	8	1	1	729.096141	175.973798	783.84241	207.70713	756.4692755	191.840464
80	4	9	5	1	853.806354	26.980829	1241	293.869239	1047.403177	160.425034
81	4.05	-175	10	1	546.3	170.05	560.86	179.75	553.58	174.9
81	4.05	-176	10	1	609.37	171.02	623.93	186.54	616.65	178.78
81	4.05	2	1	1	629.541917	175.349309	651.779764	194.571541	640.6608405	184.960425
81	4.05	3	1	1	664.030497	180.418378	722.262984	224.313758	693.1467405	202.366068
81	4.05	4	1	1	751.302191	181.694906	940.659632	297.035093	845.9809115	239.3649995
81	4.05	8	1	1	724.132239	175.849845	776.268156	206.33942	750.2001975	191.0946325
81	4.05	9	5	1	839.858766	39.831886	1205.183111	282.908167	1022.5209385	161.3700265
82	4.1	-177	10	1	546.3	170.05	560.86	179.75	553.58	174.9
82	4.1	-178	10	1	608.4	171.02	654.01	196.25	631.205	183.635
82	4.1	3	1	1	660.7419	180.171213	715.848925	222.047196	688.2954125	201.1092045
82	4.1	4	1	1	741.092025	181.261378	910.026807	286.223129	825.559416	233.7422535
82	4.1	8	1	1	719.505221	175.735211	769.263544	205.074817	744.3843825	190.405014
82	4.1	9	5	1	827.656892	50.59704	1155.059484	273.795205	991.358188	162.1961225
83	4.15	-179	10	1	546.3	170.05	560.86	179.75	553.58	174.9
83	4.15	-180	10	1	607.43	172.96	650.12	192.37	628.775	182.665
83	4.15	3	1	1	657.651397	179.934811	709.862834	219.915034	683.7571155	199.9249225
83	4.15	4	1	1	731.514674	180.394094	882.282243	275.799037	806.8984585	228.0965655
83	4.15	8	1	1	715.181922	175.628883	762.76664	203.902085	738.974281	189.765484
83	4.15	9	5	1	816.581835	59.740702	1112.508029	266.065982	964.544932	162.903342
84	4.2	-181	10	1	546.3	170.05	560.86	179.75	553.58	174.9
84	4.2	-182	10	1	607.43	172.96	650.12	192.37	628.775	182.665
84	4.2	3	1	1	654.79841	179.718834	704.394229	217.967509	679.5963195	198.8431715
84	4.2	4	1	1	723.130995	179.479157	859.05439	267.079348	791.0926925	223.2792525
84	4.2	9	5	1	805.950925	68.0707	1073.874078	259.029572	939.9125015	163.550136
85	4.25	-183	10	1	607.43	172.96	650.12	192.37	628.775	182.665
85	4.25	-184	10	1	546.3	169.08	556.97	177.81	551.635	173.445
85	4.25	3	1	1	652.156571	179.520745	699.378786	216.181634	675.7676785	197.8511895
85	4.25	4	1	1	715.73092	178.701797	839.323314	259.677634	777.527117	219.1897155
85	4.25	5	1	1	1154.999897	167.466276	1241	374	1197.9999485	270.733138
85	4.25	9	5	1	796.271571	75.249714	1040.591916	252.97227	918.4317435	164.110992
85	4.25	12	1	1	986.772359	179.331804	1083.812549	214.13425	1035.292454	196.733027
86	4.3	-185	10	1	607.43	172.96	650.12	192.37	628.775	182.665
86	4.3	-186	10	1	546.3	169.08	556.97	177.81	551.635	173.445
86	4.3	3	1	1	649.703277	179.33841	694.762419	214.538083	672.232848	196.9382465
86	4.3	4	1	1	708.677825	178.686701	821.410813	253.741446	765.044319	216.2140735
86	4.3	5	1	1	1070.332535	166.083617	1241	374	1155.6662675	270.0418085
86	4.3	9	5	1	787.42149	81.500881	1011.621536	247.703007	899.521513	164.601944
86	4.3	12	1	1	974.568728	178.871029	1069.764222	213.216476	1022.166475	196.0437525
87	4.35	-187	10	1	546.3	169.08	556.97	177.81	551.635	173.445
87	4.35	-188	10	1	621.01	174.9	642.36	193.34	631.685	184.12
87	4.35	-189	10	1	602.58	170.05	617.13	182.66	609.855	176.355
87	4.35	3	1	1	647.635816	179.103317	690.671011	212.899354	669.1534135	196.0013355
87	4.35	4	1	1	702.394273	178.673653	805.930909	248.614224	754.162591	213.6439385
87	4.35	5	1	1	1008.440473	164.593231	1241	374	1124.7202365	269.2966155
87	4.35	9	5	1	778.576743	87.552845	983.744042	242.604157	881.1603925	165.078501
87	4.35	12	1	1	962.660634	178.421412	1056.054081	212.321819	1009.3573575	195.3716155
88	4.4	-190	10	1	546.3	169.08	556.97	177.81	551.635	173.445
88	4.4	-191	10	1	621.01	174.9	642.36	193.34	631.685	184.12
88	4.4	-192	10	1	602.58	170.05	617.13	182.66	609.855	176.355
88	4.4	3	1	1	645.711454	178.886214	686.892838	211.386266	666.302146	195.13624
88	4.4	4	1	1	696.377473	178.626196	791.431952	243.749996	743.9047125	211.188096
88	4.4	5	1	1	959.049619	163.058215	1241	374	1100.0248095	268.5291075
88	4.4	9	5	1	770.499794	92.845899	959.369633	238.148477	864.9347135	165.497188
89	4.45	-193	10	1	602.58	170.05	617.13	182.66	609.855	176.355
89	4.45	-194	10	1	616.16	173.93	639.45	191.4	627.805	182.665
89	4.45	-195	10	1	538.54	168.11	556.97	180.72	547.755	174.415
89	4.45	3	1	1	643.91583	178.685112	683.393253	209.984904	663.6545415	194.335008
89	4.45	4	1	1	690.997784	178.58483	778.795677	239.51257	734.8967305	209.0487
89	4.45	5	1	1	920.444053	161.542473	1241	374	1080.7220265	267.7712365
89	4.45	9	5	1	763.094828	97.514371	937.877044	234.221492	850.485936	165.8679315
90	4.5	-196	10	1	602.58	170.05	617.13	182.66	609.855	176.355
90	4.5	-197	10	1	616.16	173.93	639.45	191.4	627.805	182.665
90	4.5	-198	10	1	538.54	168.11	556.97	180.72	547.755	174.415
90	4.5	3	1	1	642.236444	178.498306	680.142539	208.683334	661.1894915	193.59082
90	4.5	4	1	1	685.77215	178.117794	767.016961	235.212603	726.3945555	206.6651985
90	4.5	5	1	1	885.798855	160.439317	1241	374	1063.3994275	267.2196585
90	4.5	9	5	1	755.822572	101.646292	918.161854	230.750677	836.992213	166.1984845
90	4.5	12	1	1	928.606207	177.135608	1016.834696	209.768168	972.7204515	193.451888
91	4.55	-199	10	1	602.58	170.05	617.13	182.66	609.855	176.355
91	4.55	-200	10	1	616.16	173.93	639.45	191.4	627.805	182.665
91	4.55	-201	10	1	538.54	168.11	556.97	180.72	547.755	174.415
91	4.55	3	1	1	640.375331	178.316222	676.75524	207.426731	658.5652855	192.8714765
91	4.55	4	1	1	681.065554	177.70583	756.628228	231.421422	718.846891	204.563626
91	4.55	5	1	1	857.791913	161.561761	1241	374	1049.3959565	267.7808805
91	4.55	9	5	1	749.106613	105.343903	900.522581	227.646562	824.814597	166.4952325
92	4.6	-202	10	1	602.58	170.05	617.13	182.66	609.855	176.355
92	4.6	-203	10	1	538.54	168.11	556.97	180.72	547.755	174.415
92	4.6	-204	10	1	615.19	172.96	636.54	189.46	625.865	181.21
92	4.6	3	1	1	638.631229	178.146633	673.600457	206.256494	656.115843	192.2015635
92	4.6	4	1	1	676.804327	177.339739	747.397143	228.053768	712.100735	202.6967535
92	4.6	5	1	1	834.682245	162.339341	1241	374	1037.8411225	268.1696705
92	4.6	9	5	1	742.885472	108.672259	884.647746	224.853951	813.766609	166.763105
93	4.65	-205	10	1	602.58	170.05	617.13	182.66	609.855	176.355
93	4.65	-206	10	1	538.54	168.11	556.97	180.72	547.755	174.415
93	4.65	-207	10	1	615.19	172.96	636.54	189.46	625.865	181.21
93	4.65	3	1	1	636.961215	177.979895	670.576797	205.120714	653.769006	191.5503045
93	4.65	4	1	1	672.741367	176.993071	738.694251	224.857317	705.717809	200.925194
93	4.65	5	1	1	813.748593	163.845003	1154.454597	372.135172	984.101595	267.9900875
93	4.65	9	5	1	737.012193	111.820018	869.855672	222.211746	803.4339325	167.015882
94	4.7	-208	10	1	602.58	170.05	617.13	182.66	609.855	176.355
94	4.7	-209	10	1	538.54	168.11	556.97	180.72	547.755	174.415
94	4.7	-210	10	1	615.19	172.96	636.54	189.46	625.865	181.21
94	4.7	3	1	1	635.393575	177.82425	667.754374	204.060614	651.5739745	190.942432
94	4.7	4	1	1	669.050533	176.683172	730.915007	222.000873	699.98277	199.3420225
94	4.7	5	1	1	796.127215	164.985779	1084.934707	347.123061	940.530961	256.05442
94	4.7	9	5	1	731.559917	114.669568	856.467061	219.820977	794.013489	167.2452725
95	4.75	-211	10	1	538.54	168.11	556.97	180.72	547.755	174.415
95	4.75	-212	10	1	607.43	175.87	629.75	191.4	618.59	183.635
95	4.75	-213	10	1	598.7	171.99	610.34	181.69	604.52	176.84
95	4.75	3	1	1	633.919174	177.678626	665.113744	203.068874	649.516459	190.37375
95	4.75	4	1	1	665.68294	176.404486	723.919779	219.432925	694.8013595	197.9187055
95	4.75	5	1	1	781.089687	165.873076	1030.89832	327.691125	905.9940035	246.7821005
95	4.75	9	5	1	726.484944	117.26137	844.291218	217.647384	785.388081	167.454377
96	4.8	-214	10	1	538.54	168.11	556.97	180.72	547.755	174.415
96	4.8	-215	10	1	607.43	175.87	629.75	191.4	618.59	183.635
96	4.8	-216	10	1	598.7	171.99	610.34	181.69	604.52	176.84
96	4.8	3	1	1	632.529935	177.542086	662.637892	202.139086	647.5839135	189.840586
96	4.8	4	1	1	662.416394	176.271128	717.144554	217.048906	689.780474	196.660017
96	4.8	5	1	1	767.262387	166.695956	984.079694	311.603079	875.6710405	239.1495175
96	4.8	6	1	1	1142.804021	218.536144	1241	374	1191.9020105	296.268072
96	4.8	9	5	1	721.749421	119.628881	833.170499	215.662661	777.45996	167.645771
97	4.85	-217	10	1	535.63	171.02	551.15	181.69	543.39	176.355
97	4.85	-218	10	1	599.67	172.96	612.28	182.66	605.975	177.81
97	4.85	-219	10	1	608.4	171.99	628.78	188.49	618.59	180.24
97	4.85	3	1	1	631.108188	177.364663	660.154743	201.184086	645.6314655	189.2743745
97	4.85	4	1	1	659.435167	176.150993	711.041485	214.901854	685.238326	195.5264235
97	4.85	5	1	1	755.991523	167.378032	946.482134	298.177455	851.2368285	232.7777435
97	4.85	6	1	1	1052.835215	209.32612	1241	374	1146.9176075	291.66306
97	4.85	9	5	1	717.29998	121.836996	822.869501	213.812364	770.0847405	167.82468
98	4.9	-220	10	1	535.63	171.02	551.15	181.69	543.39	176.355
98	4.9	-221	10	1	599.67	172.96	612.28	182.66	605.975	177.81
98	4.9	-222	10	1	608.4	171.99	628.78	188.49	618.59	180.24
98	4.9	3	1	1	629.767357	177.198095	657.823581	200.287598	643.795469	188.7428465
98	4.9	4	1	1	656.70344	176.042207	705.515274	212.958113	681.109357	194.50016
98	4.9	5	1	1	746.167471	167.940209	915.505284	287.135517	830.8363775	227.537863
98	4.9	6	1	1	989.222878	203.28047	1241	374	1115.111439	288.640235
98	4.9	9	5	1	713.134132	123.866375	813.403363	212.112405	763.2687475	167.98939
99	4.95	-223	10	1	535.63	171.02	551.15	181.69	543.39	176.355
99	4.95	-224	10	1	608.4	171.99	628.78	188.49	618.59	180.24
99	4.95	-225	10	1	596.76	171.02	609.37	182.66	603.065	176.84
99	4.95	3	1	1	628.500725	177.041417	655.630868	199.444404	642.0657965	188.2429105
99	4.95	4	1	1	654.191151	175.943235	700.487826	211.190108	677.3394885	193.5666715
99	4.95	5	1	1	736.209068	168.421569	888.270184	277.449567	812.239626	222.935568
99	4.95	6	1	1	936.383282	198.889583	1241	374	1088.691641	286.4447915
99	4.95	9	5	1	709.225602	125.737877	804.674544	210.545177	756.950073	168.141527
99	4.95	12	1	1	857.707918	176.446881	935.04976	206.302595	896.378839	191.374738
100	5	-226	10	1	535.63	171.02	551.15	181.69	543.39	176.355
100	5	-227	10	1	608.4	171.99	628.78	188.49	618.59	180.24
100	5	-228	10	1	596.76	171.02	609.37	182.66	603.065	176.84
100	5	3	1	1	627.3023	176.893773	653.564626	198.64989	640.433463	187.7718315
100	5	4	1	1	651.360199	175.892384	695.224052	209.540036	673.2921255	192.71621
100	5	5	1	1	727.433095	168.827351	865.31769	269.285733	796.3753925	219.056542
100	5	6	1	1	896.238805	195.560932	1241	374	1068.6194025	284.780466
100	5	9	5	1	705.330841	127.507442	796.25732	209.080459	750.7940805	168.2939505
100	5	12	1	1	851.780508	176.191136	928.209981	205.801066	889.9952445	190.996101
101	5.05	-229	10	1	535.63	171.02	551.15	181.69	543.39	176.355
101	5.05	-230	10	1	596.76	171.02	609.37	182.66	603.065	176.84
101	5.05	-231	10	1	602.58	169.08	623.93	188.49	613.255	178.785
101	5.05	3	1	1	626.166716	176.754403	651.614218	197.899958	638.890467	187.3271805
101	5.05	4	1	1	648.749704	175.845938	690.416447	208.033191	669.5830755	191.9395645
101	5.05	5	1	1	719.640802	169.174061	845.711228	262.31136	782.676015	215.7427105
101	5.05	6	1	1	864.004701	192.855942	1241	374	1052.5023505	283.427971
101	5.05	9	5	1	701.666406	129.147213	788.458173	207.723548	745.0622895	168.4353805
101	5.05	10	1	1	1186.682393	190.146076	1241	326.759907	1213.8411965	258.4529915
101	5.05	12	1	1	846.908137	176.171835	922.443101	205.574559	884.675619	190.873197
102	5.1	-232	10	1	535.63	171.02	551.15	181.69	543.39	176.355
102	5.1	-233	10	1	596.76	171.02	609.37	182.66	603.065	176.84
102	5.1	-234	10	1	602.58	169.08	623.93	188.49	613.255	178.785
102	5.1	-235	10	1	617.13	174.9	648.18	198.19	632.655	186.545
102	5.1	4	1	1	646.355639	175.803765	686.022704	206.645517	666.1891715	191.224641
102	5.1	5	1	1	712.313667	169.485213	827.968485	256.041087	770.141076	212.76315
102	5.1	6	1	1	838.235209	190.693449	1163.983552	374	1001.1093805	282.3467245
102	5.1	9	5	1	698.212451	130.670965	781.211434	206.462965	739.7119425	168.566965
102	5.1	10	1	1	1126.397256	187.521954	1241	325.456079	1183.698628	256.4890165
102	5.1	12	1	1	842.108223	176.15283	916.748658	205.351134	879.4284405	190.751982
103	5.15	-236	10	1	535.63	171.02	551.15	181.69	543.39	176.355
103	5.15	-237	10	1	617.13	174.9	648.18	198.19	632.655	186.545
103	5.15	-238	10	1	597.73	171.02	618.1	187.51	607.915	179.265
103	5.15	4	1	1	643.836865	175.756578	681.581853	205.306167	662.709359	190.5313725
103	5.15	5	1	1	705.753728	169.755347	812.567625	250.598195	759.1606765	210.176771
103	5.15	6	1	1	817.162832	188.925127	1088.614594	346.83246	952.888713	267.8787935
103	5.15	9	5	1	694.951351	132.090591	774.46042	205.288804	734.7058855	168.6896975
103	5.15	10	1	1	1077.97407	186.057617	1241	324.174894	1159.487035	255.1162555
103	5.15	12	1	1	837.379198	176.134116	911.125271	205.130729	874.2522345	190.6324225
104	5.2	-239	10	1	617.13	174.9	648.18	198.19	632.655	186.545
104	5.2	-240	10	1	597.73	171.02	618.1	187.51	607.915	179.265
104	5.2	-241	10	1	529.81	169.08	548.24	181.69	539.025	175.385
104	5.2	4	1	1	641.502066	175.713179	677.497629	204.074525	659.4998475	189.893852
104	5.2	5	1	1	699.818211	169.993332	798.692548	245.56483	749.2553795	207.779081
104	5.2	6	1	1	797.711376	187.83025	1026.348712	325.157697	912.030044	256.4939735
104	5.2	9	5	1	691.700837	133.42483	767.935353	204.184147	729.818095	168.8044885
104	5.2	10	1	1	1037.703007	184.893545	1241	322.910683	1139.3515035	253.902114
104	5.2	12	1	1	832.719533	176.115687	905.571593	204.913281	869.145563	190.514484
105	5.25	-242	10	1	617.13	174.9	648.18	198.19	632.655	186.545
105	5.25	-243	10	1	529.81	169.08	548.24	181.69	539.025	175.385
105	5.25	-244	10	1	593.85	171.99	621.01	185.57	607.43	178.78
105	5.25	4	1	1	639.452911	175.448078	673.86002	202.711544	656.6564655	189.079811
105	5.25	5	1	1	694.474079	170.202227	786.515496	241.147444	740.4947875	205.6748355
105	5.25	6	1	1	781.456747	186.915317	978.15536	308.381471	879.8060535	247.648394
105	5.25	9	5	1	688.623385	134.673154	761.830857	203.150838	725.227121	168.911996
105	5.25	10	1	1	1002.219867	183.860015	1241	316.82403	1121.6099335	250.3420225
106	5.3	-245	10	1	617.13	174.9	648.18	198.19	632.655	186.545
106	5.3	-246	10	1	529.81	169.08	548.24	181.69	539.025	175.385
106	5.3	-247	10	1	593.85	171.99	621.01	185.57	607.43	178.78
106	5.3	4	1	1	637.54338	175.202695	670.493084	201.450114	654.018232	188.3264045
106	5.3	5	1	1	689.466493	170.417448	775.471978	237.392902	732.4692355	203.905175
106	5.3	6	1	1	767.670697	186.139336	939.748179	295.011766	853.709438	240.575551
106	5.3	9	5	1	685.705533	135.843604	756.107541	202.182181	720.906537	169.0128925
106	5.3	10	1	1	972.058549	182.980924	1241	300.917117	1106.5292745	241.9490205
107	5.35	-248	10	1	529.81	169.08	548.24	181.69	539.025	175.385
107	5.35	-249	10	1	593.85	171.99	621.01	185.57	607.43	178.78
107	5.35	-250	10	1	618.1	173.93	640.42	193.34	629.26	183.635
107	5.35	4	1	1	635.759672	174.974909	667.367691	200.279292	651.5636815	187.6271005
107	5.35	5	1	1	684.655501	170.613057	764.990109	233.79189	724.822805	202.2024735
107	5.35	6	1	1	755.794511	185.202457	908.814139	283.87678	832.304325	234.5396185
107	5.35	9	5	1	683.044248	136.988857	750.389424	201.231665	716.716836	169.110261
107	5.35	10	1	1	946.122282	182.232729	1209.360712	288.266808	1077.741497	235.2497685
108	5.4	-251	10	1	529.81	169.08	548.24	181.69	539.025	175.385
108	5.4	-252	10	1	593.85	171.99	621.01	185.57	607.43	178.78
108	5.4	-253	10	1	618.1	173.93	640.42	193.34	629.26	183.635
108	5.4	4	1	1	634.089748	174.762894	664.458752	199.189655	649.27425	186.9762745
108	5.4	5	1	1	680.522795	170.788002	755.933458	230.586349	718.2281265	200.6871755
108	5.4	6	1	1	744.856572	184.330101	881.483638	274.008354	813.170105	229.1692275
108	5.4	9	5	1	680.520446	138.064206	745.020554	200.339651	712.7705	169.2019285
108	5.4	10	1	1	923.542384	181.581046	1154.744962	277.879616	1039.143673	229.730331
109	5.45	-254	10	1	529.81	169.08	548.24	181.69	539.025	175.385
109	5.45	-255	10	1	590.94	169.08	610.34	182.66	600.64	175.87
109	5.45	-256	10	1	613.25	175.87	638.48	196.25	625.865	186.06
109	5.45	4	1	1	632.523057	174.565065	661.744531	198.173041	647.133794	186.369053
109	5.45	5	1	1	676.744979	170.945225	747.795003	227.706406	712.269991	199.3258155
109	5.45	6	1	1	735.33689	183.571046	858.6126	265.747555	796.974745	224.6593005
109	5.45	9	5	1	678.123748	139.075862	739.969873	199.5009	709.0468105	169.288381
109	5.45	10	1	1	903.706939	181.008332	1109.062756	269.198102	1006.3848475	225.103217
109	5.45	12	1	1	815.022853	175.440323	884.121433	203.457518	849.572143	189.4489205
110	5.5	-257	10	1	529.81	169.08	548.24	181.69	539.025	175.385
110	5.5	-258	10	1	590.94	169.08	610.34	182.66	600.64	175.87
110	5.5	-259	10	1	613.25	175.87	638.48	196.25	625.865	186.06
110	5.5	4	1	1	630.790206	174.484674	658.919494	197.322729	644.85485	185.9037015
110	5.5	5	1	1	672.887033	171.087802	739.817214	224.970522	706.3521235	198.029162
110	5.5	6	1	1	727.071818	182.913027	839.422657	258.817886	783.2472375	220.8654565
110	5.5	9	5	1	675.424691	140.097358	735.234245	198.741269	705.329468	169.4193135
110	5.5	10	1	1	885.251027	180.433871	1068.325144	261.446241	976.7880855	220.940056
110	5.5	12	1	1	812.2225	175.23082	880.657215	203.120337	846.4398575	189.1755785
111	5.55	-260	10	1	529.81	169.08	548.24	181.69	539.025	175.385
111	5.55	-261	10	1	590.94	169.08	610.34	182.66	600.64	175.87
111	5.55	-262	10	1	608.4	170.05	634.6	191.4	621.5	180.725
111	5.55	4	1	1	629.158805	174.409354	656.272681	196.526121	642.715743	185.4677375
111	5.55	5	1	1	669.414094	171.160532	732.522536	222.536408	700.968315	196.84847
111	5.55	6	1	1	719.278493	182.283163	821.794269	252.427118	770.536381	217.3551405
111	5.55	9	5	1	672.856842	141.060378	730.769852	198.025083	701.813347	169.5427305
111	5.55	10	1	1	868.895485	179.81924	1033.590647	254.840474	951.243066	217.329857
111	5.55	12	1	1	809.784959	175.202146	877.808691	202.986498	843.796825	189.094322
112	5.6	-263	10	1	529.81	169.08	548.24	181.69	539.025	175.385
112	5.6	-264	10	1	590.94	169.08	610.34	182.66	600.64	175.87
112	5.6	-265	10	1	612.28	174.9	635.57	193.34	623.925	184.12
112	5.6	4	1	1	627.620198	174.338638	653.787743	195.778283	640.7039705	185.0584605
112	5.6	5	1	1	666.208031	171.226831	725.873496	220.318806	696.0407635	195.7728185
112	5.6	6	1	1	712.377176	181.725483	806.599159	246.917453	759.4881675	214.321468
112	5.6	9	5	1	670.410868	141.969804	726.554032	197.34872	698.48245	169.659262
112	5.6	10	1	1	854.30107	179.288883	1003.623393	249.144126	928.9622315	214.2165045
112	5.6	12	1	1	807.364712	175.173682	874.980881	202.853662	841.1727965	189.013672
113	5.65	-266	10	1	529.81	169.08	548.24	181.69	539.025	175.385
113	5.65	-267	10	1	590.94	169.08	610.34	182.66	600.64	175.87
113	5.65	-268	10	1	612.28	174.9	635.57	193.34	623.925	184.12
113	5.65	4	1	1	626.166688	174.272118	651.45027	195.074871	638.808479	184.6734945
113	5.65	5	1	1	663.173591	171.286839	719.633171	218.223143	691.403381	194.754991
113	5.65	6	1	1	705.843881	181.322905	792.709031	242.087284	749.276456	211.7050945
113	5.65	9	5	1	668.078299	142.829989	722.566578	196.708947	695.3224385	169.769468
113	5.65	10	1	1	841.070625	178.817011	977.501959	244.092114	909.286292	211.4545625
113	5.65	12	1	1	804.961575	175.145425	872.173558	202.721816	838.5675665	188.9336205
114	5.7	-269	10	1	526.89	170.05	543.39	185.57	535.14	177.81
114	5.7	-270	10	1	588.02	170.05	610.34	184.6	599.18	177.325
114	5.7	-271	10	1	605.49	171.99	626.84	190.43	616.165	181.21
114	5.7	4	1	1	624.791405	174.20943	649.247513	194.41204	637.019459	184.310735
114	5.7	5	1	1	660.362345	171.341825	713.915688	216.303857	687.1390165	193.822841
114	5.7	6	1	1	700.003625	180.963076	780.557671	237.861184	740.280648	209.41213
114	5.7	9	5	1	666.179858	143.629342	719.144568	196.061697	692.662213	169.8455195
114	5.7	10	1	1	829.148117	178.40315	954.594286	239.66155	891.8712015	209.03235
114	5.7	12	1	1	802.575367	175.117373	869.386502	202.590951	835.9809345	188.854162
115	5.75	-272	10	1	526.89	170.05	543.39	185.57	535.14	177.81
115	5.75	-273	10	1	588.02	170.05	610.34	184.6	599.18	177.325
115	5.75	-274	10	1	607.43	171.02	650.12	194.31	628.775	182.665
115	5.75	5	1	1	657.750543	171.392393	708.657974	214.539582	683.2042585	192.9659875
115	5.75	6	1	1	694.751696	180.63953	769.837811	234.132504	732.2947535	207.386017
115	5.75	9	5	1	663.896337	144.407892	715.317454	195.429473	689.6068955	169.9186825
115	5.75	10	1	1	818.348746	178.037224	934.341636	235.744412	876.345191	206.890818
115	5.75	12	1	1	802.347648	175.100927	869.084792	202.559377	835.71622	188.830152
116	5.8	-275	10	1	526.89	170.05	543.39	185.57	535.14	177.81
116	5.8	-276	10	1	588.02	170.05	610.34	184.6	599.18	177.325
116	5.8	-277	10	1	607.43	171.02	650.12	194.31	628.775	182.665
116	5.8	5	1	1	655.043948	171.515647	703.856105	212.989292	679.4500265	192.2524695
116	5.8	6	1	1	690.003464	180.323075	760.310556	230.818303	725.15701	205.570689
116	5.8	9	5	1	661.7164	145.145671	711.690836	194.83034	686.703618	169.9880055
116	5.8	10	1	1	808.059353	177.703367	915.632859	232.190273	861.846106	204.94682
117	5.85	-278	10	1	526.89	170.05	543.39	185.57	535.14	177.81
117	5.85	-279	10	1	588.02	170.05	610.34	184.6	599.18	177.325
117	5.85	-280	10	1	604.52	169.08	646.24	193.34	625.38	181.21
117	5.85	5	1	1	652.516425	171.629703	699.412877	211.554698	675.964651	191.5922005
117	5.85	6	1	1	685.194529	179.966855	751.158458	227.759385	718.1764935	203.86312
117	5.85	9	5	1	659.780774	145.868187	708.405264	194.270807	684.093019	170.069497
117	5.85	10	1	1	798.671541	177.404768	898.90092	229.011647	848.7862305	203.2082075
118	5.9	-281	10	1	526.89	170.05	543.39	185.57	535.14	177.81
118	5.9	-282	10	1	588.02	170.05	610.34	184.6	599.18	177.325
118	5.9	-283	10	1	604.52	169.08	646.24	193.34	625.38	181.21
118	5.9	5	1	1	650.150784	171.735551	695.289545	210.223315	672.7201645	190.979433
118	5.9	6	1	1	680.813036	179.646826	742.936717	225.011205	711.8748765	202.3290155
118	5.9	9	5	1	657.93003	146.554379	705.284914	193.739391	681.607472	170.146885
118	5.9	10	1	1	790.071797	177.13612	883.848208	226.15201	836.9600025	201.644065
119	5.95	-284	10	1	526.89	170.05	543.39	185.57	535.14	177.81
119	5.95	-285	10	1	588.02	170.05	610.34	184.6	599.18	177.325
119	5.95	-286	10	1	604.52	169.08	646.24	193.34	625.38	181.21
119	5.95	5	1	1	647.888409	171.833762	691.348835	208.936803	669.618622	190.3852825
119	5.95	6	1	1	676.768618	179.337351	735.317162	222.395964	706.04289	200.8666575
119	5.95	9	5	1	656.15871	147.206919	702.317623	193.234025	679.2381665	170.220472
119	5.95	10	1	1	781.868656	176.889336	869.807462	223.521366	825.838059	200.205351
120	6	-287	10	1	526.89	170.05	543.39	185.57	535.14	177.81
120	6	-288	10	1	588.02	170.05	610.34	184.6	599.18	177.325
120	6	-289	10	1	598.7	170.05	637.51	192.37	618.105	181.21
120	6	5	1	1	645.766913	171.925156	687.68178	207.739588	666.7243465	189.832372
120	6	6	1	1	673.070639	179.057807	728.434896	220.033646	700.7527675	199.5457265
120	6	9	5	1	654.483266	147.479862	699.281553	192.375095	676.8824095	169.9274785
120	6	10	1	1	774.311447	176.66542	857.068352	221.134594	815.6898995	198.900007
121	6.05	-290	10	1	526.89	170.05	543.39	185.57	535.14	177.81
121	6.05	-291	10	1	588.02	170.05	610.34	184.6	599.18	177.325
121	6.05	-292	10	1	598.7	170.05	637.51	192.37	618.105	181.21
121	6.05	5	1	1	643.959944	171.945684	684.251016	206.536535	664.10548	189.2411095
121	6.05	6	1	1	669.676419	178.804052	722.187839	217.889252	695.932129	198.346652
121	6.05	9	5	1	652.878664	147.739735	696.390949	191.557429	674.6348065	169.648582
121	6.05	10	1	1	767.326775	176.461336	845.457885	218.959286	806.39233	197.710311
122	6.1	-293	10	1	526.89	170.05	543.39	185.57	535.14	177.81
122	6.1	-294	10	1	588.02	170.05	610.34	184.6	599.18	177.325
122	6.1	-295	10	1	598.7	170.05	637.51	192.37	618.105	181.21
122	6.1	5	1	1	642.260763	171.964859	681.046418	205.412972	661.6535905	188.6889155
122	6.1	6	1	1	666.550011	178.572676	716.491924	215.933958	691.5209675	197.253317
122	6.1	9	5	1	651.340506	147.987456	693.635602	190.778122	672.488054	169.382789
122	6.1	10	1	1	760.204849	176.259307	833.852878	216.826503	797.0288635	196.542905
122	6.1	12	1	1	801.119321	175.05809	867.431433	202.443732	834.275377	188.750911
123	6.15	-296	10	1	526.89	170.05	543.39	185.57	535.14	177.81
123	6.15	-297	10	1	589.96	171.99	601.61	184.6	595.785	178.295
123	6.15	-298	10	1	604.52	169.08	636.54	194.31	620.53	181.695
123	6.15	5	1	1	640.660007	171.982811	678.046336	204.361275	659.3531715	188.172043
123	6.15	6	1	1	663.660926	178.360842	711.277291	214.143806	687.4691085	196.252324
123	6.15	9	5	1	649.813811	148.563164	690.765838	190.353598	670.2898245	169.458381
123	6.15	10	1	1	754.063325	176.253426	823.772315	215.16026	788.91782	195.706843
123	6.15	11	4	1	1170.030567	131.759777	1241	340.778448	1205.5152835	236.2691125
123	6.15	12	1	1	801.07229	175.077661	867.35699	202.464591	834.21464	188.771126
124	6.2	-299	10	1	526.89	170.05	543.39	185.57	535.14	177.81
124	6.2	-300	10	1	589.96	171.99	601.61	184.6	595.785	178.295
124	6.2	-301	10	1	604.52	169.08	636.54	194.31	620.53	181.695
124	6.2	5	1	1	638.795213	172.142488	674.79484	203.476201	656.7950265	187.8093445
124	6.2	6	1	1	660.879719	178.073913	706.351374	212.391496	683.6155465	195.2327045
124	6.2	9	5	1	648.349358	149.112633	688.026913	189.948546	668.1881355	169.5305895
124	6.2	10	1	1	748.342123	176.248005	814.482548	213.625045	781.4123355	194.936525
124	6.2	11	4	1	1110.476954	130.636918	1241	339.900981	1175.738477	235.2689495
124	6.2	12	1	1	801.025303	175.097236	867.282494	202.485449	834.1538985	188.7913425
125	6.25	-302	10	1	526.89	170.05	543.39	185.57	535.14	177.81
125	6.25	-303	10	1	589.96	171.99	601.61	184.6	595.785	178.295
125	6.25	-304	10	1	604.52	169.08	636.54	194.31	620.53	181.695
125	6.25	5	1	1	637.036664	172.292205	671.746272	202.646479	654.391468	187.469342
125	6.25	6	1	1	658.296681	177.80955	701.812998	210.776997	680.0548395	194.2932735
125	6.25	9	5	1	646.94342	149.637615	685.410075	189.561655	666.1767475	169.599635
125	6.25	10	1	1	742.775919	176.240443	805.606531	212.184824	774.191225	194.2126335
125	6.25	11	4	1	1060.431012	129.552534	1241	338.784199	1150.715506	234.1683665
125	6.25	12	1	1	800.978359	175.116813	867.207944	202.506307	834.0931515	188.81156
126	6.3	-305	10	1	589.96	171.99	601.61	184.6	595.785	178.295
126	6.3	-306	10	1	600.64	170.05	628.78	190.43	614.71	180.24
126	6.3	-307	10	1	521.07	168.11	540.48	182.66	530.775	175.385
126	6.3	5	1	1	635.375531	172.432864	668.882208	201.867076	652.1288695	187.14997
126	6.3	6	1	1	655.891362	177.565192	697.618156	209.284667	676.754759	193.4249295
126	6.3	9	5	1	645.59256	150.139713	682.907337	189.191731	664.2499485	169.665722
126	6.3	10	1	1	737.570823	176.233437	797.384351	210.850932	767.477587	193.5421845
126	6.3	11	4	1	1019.356092	128.496511	1241	337.566847	1130.178046	233.031679
126	6.3	12	1	1	800.931459	175.136392	867.133342	202.527164	834.0324005	188.831778
127	6.35	-308	10	1	589.96	171.99	601.61	184.6	595.785	178.295
127	6.35	-309	10	1	600.64	170.05	628.78	190.43	614.71	180.24
127	6.35	-310	10	1	522.04	166.17	538.54	182.66	530.29	174.415
127	6.35	5	1	1	633.803939	172.565263	666.18639	201.133548	649.9951645	186.8494055
127	6.35	6	1	1	653.802366	177.422074	693.95171	208.091046	673.877038	192.75656
127	6.35	9	5	1	644.312111	150.636919	680.502667	188.823184	662.407389	169.7300515
127	6.35	10	1	1	732.435314	175.985687	789.562032	209.344864	760.998673	192.6652755
127	6.35	11	4	1	984.396221	129.4212	1241	330.58604	1112.6981105	230.00362
127	6.35	12	1	1	800.884602	175.155974	867.058688	202.548021	833.971645	188.8519975
128	6.4	-311	10	1	589.96	171.99	601.61	184.6	595.785	178.295
128	6.4	-312	10	1	600.64	170.05	628.78	190.43	614.71	180.24
128	6.4	-313	10	1	519.13	169.08	538.54	183.63	528.835	176.355
128	6.4	5	1	1	632.231962	172.393727	663.536129	200.128746	647.8840455	186.2612365
128	6.4	6	1	1	651.698504	177.266017	690.23265	206.846216	670.965577	192.0561165
128	6.4	9	5	1	643.081694	151.1126	678.202118	188.470682	660.641906	169.791641
128	6.4	10	1	1	727.618803	175.755299	782.287996	207.944349	754.9533995	191.849824
128	6.4	11	4	1	954.844187	133.774052	1241	311.845326	1097.9220935	222.809689
128	6.4	12	1	1	800.837788	175.175559	866.98398	202.568878	833.910884	188.8722185
129	6.45	-314	10	1	589.96	171.99	601.61	184.6	595.785	178.295
129	6.45	-315	10	1	600.64	170.05	628.78	190.43	614.71	180.24
129	6.45	-316	10	1	519.13	169.08	538.54	183.63	528.835	176.355
129	6.45	5	1	1	630.741937	172.231888	661.035742	199.180871	645.8888395	185.7063795
129	6.45	6	1	1	649.726953	177.120641	686.768239	205.686722	668.247596	191.4036815
129	6.45	9	5	1	641.898434	151.568125	675.999069	188.1332	658.9487515	169.8506625
129	6.45	10	1	1	723.092467	175.540511	775.506545	206.638668	749.299506	191.0895895
129	6.45	11	4	1	928.546983	137.508353	1223.527644	296.624933	1076.0373135	217.066643
129	6.45	12	1	1	800.791018	175.195146	866.90922	202.589734	833.850119	188.89244
130	6.5	-317	10	1	589.96	171.99	601.61	184.6	595.785	178.295
130	6.5	-318	10	1	519.13	169.08	538.54	183.63	528.835	176.355
130	6.5	-319	10	1	598.7	172.96	630.72	185.57	614.71	179.265
130	6.5	5	1	1	629.327618	172.078945	658.672864	198.285218	644.000241	185.1820815
130	6.5	6	1	1	647.604001	177.185037	683.225523	204.794645	665.414762	190.989841
130	6.5	9	5	1	640.759674	152.004749	673.887447	187.809798	657.3235605	169.9072735
130	6.5	10	1	1	718.92239	175.816992	768.953555	205.869969	743.9379725	190.8434805
130	6.5	11	4	1	905.875784	140.938536	1162.719799	284.399971	1034.2977915	212.6692535
130	6.5	12	1	1	800.744292	175.214736	866.834407	202.61059	833.7893495	188.912663
131	6.55	-320	10	1	519.13	169.08	538.54	183.63	528.835	176.355
131	6.55	-321	10	1	590.94	170.05	626.84	186.54	608.89	178.295
131	6.55	5	1	1	628.506632	172.065994	656.690396	197.528375	642.598514	184.7971845
131	6.55	6	1	1	645.607939	177.245266	679.912133	203.960377	662.760036	190.6028215
131	6.55	9	5	1	639.576968	152.427327	671.760471	187.496778	655.6687195	169.9620525
131	6.55	10	1	1	714.995727	176.075562	762.825223	205.151309	738.910475	190.6134355
131	6.55	11	4	1	886.129033	143.755047	1112.810958	274.365392	999.4699955	209.0602195
131	6.55	12	1	1	800.454611	175.015426	866.492947	202.39227	833.473779	188.703848
132	6.6	-322	10	1	519.13	169.08	538.54	183.63	528.835	176.355
132	6.6	-323	10	1	590.94	170.05	626.84	186.54	608.89	178.295
132	6.6	5	1	1	627.728	172.053764	654.816489	196.813368	641.2722445	184.433566
132	6.6	6	1	1	643.72772	177.30172	676.806499	203.178476	660.2671095	190.240098
132	6.6	9	5	1	638.437506	152.83292	669.718992	187.196405	654.078249	170.0146625
132	6.6	10	1	1	711.291773	176.317905	757.081562	204.477954	734.1866675	190.3979295
132	6.6	11	4	1	868.241002	146.167444	1069.92523	265.76359	969.083116	205.965517
132	6.6	12	1	1	800.165229	174.816332	866.151858	202.174192	833.1585435	188.495262
133	6.65	-324	10	1	519.13	169.08	538.54	183.63	528.835	176.355
133	6.65	-325	10	1	590.94	170.05	626.84	186.54	608.89	178.295
133	6.65	5	1	1	626.988544	172.042198	653.042447	196.136822	640.0154955	184.08951
133	6.65	6	1	1	642.040757	176.97169	673.953396	202.03675	657.9970765	189.50422
133	6.65	9	5	1	637.33896	153.222534	667.757955	186.907926	652.5484575	170.06523
133	6.65	10	1	1	707.508608	175.998919	751.551101	203.275061	729.5298545	189.63699
133	6.65	11	4	1	852.447469	148.205104	1033.711753	258.499797	943.079611	203.3524505
133	6.65	12	1	1	799.876144	174.617455	865.811141	201.956355	832.8436425	188.286905
134	6.7	-326	10	1	519.13	169.08	538.54	183.63	528.835	176.355
134	6.7	-327	10	1	585.11	172.96	621.01	189.46	603.06	181.21
134	6.7	5	1	1	626.285395	172.031243	651.360477	195.495715	638.822936	183.763479
134	6.7	6	1	1	640.449053	176.661697	671.27357	200.964435	655.8613115	188.813066
134	6.7	9	5	1	636.279167	153.597094	665.872694	186.63065	651.0759305	170.113872
134	6.7	10	1	1	703.933525	175.699318	746.356819	202.145305	725.145172	188.9223115
134	6.7	11	4	1	837.841829	150.097577	1001.300313	252.157092	919.571071	201.1273345
134	6.7	12	1	1	799.587356	174.418794	865.470794	201.738759	832.529075	188.0787765
135	6.75	-328	10	1	519.13	169.08	538.54	183.63	528.835	176.355
135	6.75	-329	10	1	585.11	172.96	621.01	189.46	603.06	181.21
135	6.75	5	1	1	625.615956	172.020853	649.763576	194.887334	637.689766	183.4540935
135	6.75	6	1	1	638.944763	176.369969	668.7517	199.955385	653.8482315	188.162677
135	6.75	9	5	1	635.373323	154.042504	664.165914	186.28118	649.7696185	170.161842
135	6.75	10	1	1	700.549817	175.417388	741.468966	201.082215	721.0093915	188.2498015
135	6.75	11	4	1	824.819418	151.727778	973.386786	246.696381	899.103102	199.2120795
136	6.8	-330	10	1	519.13	169.08	538.54	183.63	528.835	176.355
136	6.8	-331	10	1	585.11	174.9	620.04	187.51	602.575	181.205
136	6.8	-332	10	1	620.04	174.9	641.39	194.31	630.715	184.605
136	6.8	6	1	1	637.520878	176.094939	666.374221	199.004164	651.9475495	187.5495515
136	6.8	9	5	1	634.506292	154.466998	662.539321	185.948148	648.5228065	170.207573
136	6.8	10	1	1	697.587733	175.30832	737.149376	200.249168	717.3685545	187.778744
136	6.8	11	4	1	813.136041	153.146695	949.095621	241.945652	881.115831	197.5461735
137	6.85	-333	10	1	519.13	169.08	538.54	183.63	528.835	176.355
137	6.85	-334	10	1	586.08	172.96	616.16	188.49	601.12	180.725
137	6.85	-335	10	1	620.04	171.02	642.36	196.25	631.2	183.635
137	6.85	6	1	1	636.340477	175.965889	664.286766	198.218367	650.3136215	187.092128
137	6.85	9	5	1	633.675633	154.872015	660.987392	185.630422	647.3315125	170.2512185
137	6.85	10	1	1	694.773747	175.205231	733.066581	199.461799	713.920164	187.333515
137	6.85	11	4	1	802.595271	154.392904	927.764668	237.774893	865.1799695	196.0838985
137	6.85	12	1	1	799.55459	174.275117	865.515416	201.588152	832.535003	187.9316345
138	6.9	-336	10	1	519.13	169.08	538.54	183.63	528.835	176.355
138	6.9	-337	10	1	586.08	172.96	616.16	188.49	601.12	180.725
138	6.9	-338	10	1	620.04	171.02	642.36	196.25	631.2	183.635
138	6.9	6	1	1	635.221653	175.844021	662.315527	197.476358	648.76859	186.6601895
138	6.9	9	5	1	632.879103	155.258865	659.505104	185.326969	646.1921035	170.292917
138	6.9	10	1	1	692.097025	175.107642	729.201628	198.716451	710.6493265	186.9120465
138	6.9	11	4	1	793.037305	155.496128	908.883887	234.084011	850.960596	194.7900695
138	6.9	12	1	1	799.68272	174.302516	865.707638	201.621543	832.695179	187.9620295
139	6.95	-339	10	1	519.13	169.08	538.54	183.63	528.835	176.355
139	6.95	-340	10	1	618.1	172.96	634.6	198.19	626.35	185.575
139	6.95	-341	10	1	582.2	171.99	618.1	187.51	600.15	179.75
139	6.95	6	1	1	634.159711	175.728752	660.451061	196.774575	647.305386	186.2516635
139	6.95	9	5	1	632.114641	155.628744	658.087871	185.036851	645.101256	170.3327975
139	6.95	10	1	1	689.179471	175.012741	725.110495	197.990975	707.144983	186.501858
139	6.95	11	4	1	783.798215	156.518575	891.122457	230.638038	837.460336	193.5783065
139	6.95	12	1	1	799.811028	174.329927	865.899807	201.654946	832.8554175	187.9924365
140	7	-342	10	1	519.13	169.08	538.54	183.63	528.835	176.355
140	7	-343	10	1	618.1	172.96	634.6	198.19	626.35	185.575
140	7	-344	10	1	582.2	171.99	618.1	187.51	600.15	179.75
140	7	-345	10	1	627.81	155.49	656.92	191.4	642.365	173.445
140	7	6	1	1	633.150421	175.619561	658.684922	196.109833	645.9176715	185.864697
140	7	10	1	1	686.40118	174.922772	721.232005	197.303218	703.8165925	186.112995
140	7	11	4	1	775.38194	157.43123	875.270203	227.56304	825.3260715	192.497135
140	7	12	1	1	799.939514	174.357347	866.091924	201.688361	833.015719	188.022854
141	7.05	-346	10	1	519.13	169.08	538.54	183.63	528.835	176.355
141	7.05	-347	10	1	582.2	171.99	618.1	187.51	600.15	179.75
141	7.05	-348	10	1	616.16	173.93	634.6	195.28	625.38	184.605
141	7.05	-349	10	1	625.87	154.52	657.89	191.4	641.88	172.96
141	7.05	6	1	1	632.189961	175.515978	657.009531	195.479276	644.599746	185.497627
141	7.05	10	1	1	683.752414	174.837362	717.549998	196.650311	700.651206	185.7438365
141	7.05	11	4	1	767.642974	158.126985	861.024159	224.704542	814.3335665	191.4157635
141	7.05	12	1	1	800.068179	174.384779	866.283988	201.721788	833.1760835	188.0532835
142	7.1	-350	10	1	514.28	166.17	532.72	186.54	523.5	176.355
142	7.1	-351	10	1	618.1	156.46	658.86	193.34	638.48	174.9
142	7.1	-352	10	1	594.82	170.05	612.28	185.57	603.55	177.81
142	7.1	-353	10	1	581.23	171.99	590.94	182.66	586.085	177.325
142	7.1	10	1	1	681.280661	174.753573	714.08835	196.01242	697.6845055	185.3829965
142	7.1	11	4	1	760.532306	158.755752	848.151011	222.121898	804.3416585	190.438825
143	7.15	-354	10	1	514.28	166.17	532.72	186.54	523.5	176.355
143	7.15	-355	10	1	618.1	156.46	658.86	193.34	638.48	174.9
143	7.15	-356	10	1	594.82	170.05	612.28	185.57	603.55	177.81
143	7.15	-357	10	1	581.23	171.99	590.94	182.66	586.085	177.325
143	7.15	10	1	1	678.921941	174.673931	710.798026	195.406109	694.8599835	185.04002
143	7.15	11	4	1	753.976409	159.326759	836.461421	219.777015	795.218915	189.551887
144	7.2	-358	10	1	514.28	166.17	532.72	186.54	523.5	176.355
144	7.2	-359	10	1	618.1	156.46	658.86	193.34	638.48	174.9
144	7.2	-360	10	1	594.82	170.05	612.28	185.57	603.55	177.81
144	7.2	-361	10	1	581.23	171.99	590.94	182.66	586.085	177.325
144	7.2	10	1	1	676.668677	174.598136	707.666613	194.82909	692.167645	184.713613
144	7.2	11	4	1	747.851739	159.914819	825.556267	217.622485	786.704003	188.768652
144	7.2	12	1	1	800.45525	174.467137	866.859865	201.822138	833.6575575	188.1446375
145	7.25	-362	10	1	514.28	166.17	532.72	186.54	523.5	176.355
145	7.25	-363	10	1	594.82	170.05	612.28	185.57	603.55	177.81
145	7.25	-364	10	1	581.23	171.99	590.94	182.66	586.085	177.325
145	7.25	-365	10	1	610.34	157.44	654.01	195.28	632.175	176.36
145	7.25	10	1	1	674.496851	174.525155	704.655896	194.272912	689.5763735	184.3990335
145	7.25	11	4	1	741.822916	160.467102	815.078491	215.596138	778.4507035	188.03162
145	7.25	12	1	1	800.584633	174.494611	867.051717	201.855612	833.818175	188.1751115
146	7.3	-366	10	1	514.28	166.17	532.72	186.54	523.5	176.355
146	7.3	-367	10	1	594.82	170.05	612.28	185.57	603.55	177.81
146	7.3	-368	10	1	581.23	171.99	590.94	182.66	586.085	177.325
146	7.3	-369	10	1	610.34	157.44	654.01	195.28	632.175	176.36
146	7.3	10	1	1	672.419043	174.455575	701.785476	193.74266	687.1022595	184.0991175
146	7.3	11	4	1	736.240087	160.972237	805.495866	213.743238	770.8679765	187.3577375
146	7.3	12	1	1	800.236919	174.714378	866.611437	202.066311	833.424178	188.3903445
147	7.35	-370	10	1	514.28	166.17	532.72	186.54	523.5	176.355
147	7.35	-371	10	1	594.82	170.05	612.28	185.57	603.55	177.81
147	7.35	-372	10	1	581.23	171.99	590.94	182.66	586.085	177.325
147	7.35	-373	10	1	610.34	157.44	654.01	195.28	632.175	176.36
147	7.35	10	1	1	670.429278	174.389164	699.04577	193.236563	684.737524	183.8128635
147	7.35	11	4	1	731.055528	161.436015	796.698376	212.042429	763.876952	186.739222
147	7.35	12	1	1	799.889695	174.933949	866.17144	202.276793	833.0305675	188.605371
148	7.4	-374	10	1	514.28	166.17	532.72	186.54	523.5	176.355
148	7.4	-375	10	1	594.82	170.05	612.28	185.57	603.55	177.81
148	7.4	-376	10	1	581.23	171.99	590.94	182.66	586.085	177.325
148	7.4	-377	10	1	610.34	156.46	650.12	195.28	630.23	175.87
148	7.4	10	1	1	668.525333	174.312552	696.196111	192.728001	682.360722	183.5202765
148	7.4	11	4	1	726.22809	161.863314	788.593328	210.475724	757.410709	186.169519
148	7.4	12	1	1	799.542959	175.153324	865.731726	202.487057	832.6373425	188.8201905
149	7.45	-378	10	1	514.28	166.17	532.72	186.54	523.5	176.355
149	7.45	-379	10	1	594.82	170.05	612.28	185.57	603.55	177.81
149	7.45	-380	10	1	581.23	171.99	590.94	182.66	586.085	177.325
149	7.45	-381	10	1	610.34	156.46	650.12	195.28	630.23	175.87
149	7.45	10	1	1	666.701243	174.23936	693.473436	192.242244	680.0873395	183.240802
149	7.45	11	4	1	721.722102	162.258277	781.102064	209.027863	751.412083	185.64307
149	7.45	12	1	1	799.19671	175.372504	865.292296	202.697103	832.244503	189.0348035
150	7.5	-382	10	1	514.28	166.17	532.72	186.54	523.5	176.355
150	7.5	-383	10	1	594.82	170.05	612.28	185.57	603.55	177.81
150	7.5	-384	10	1	581.23	171.99	590.94	182.66	586.085	177.325
150	7.5	-385	10	1	610.34	156.46	650.12	195.28	630.23	175.87
150	7.5	10	1	1	664.952092	174.169365	690.869435	191.777792	677.9107635	182.9735785
150	7.5	11	4	1	717.337627	162.620209	773.992705	207.702709	745.665166	185.161459
150	7.5	12	1	1	798.850947	175.591488	864.853148	202.906932	831.8520475	189.24921
151	7.55	-386	10	1	514.28	166.17	532.72	186.54	523.5	176.355
151	7.55	-387	10	1	594.82	170.05	612.28	185.57	603.55	177.81
151	7.55	-388	10	1	581.23	171.99	590.94	182.66	586.085	177.325
151	7.55	-389	10	1	610.34	156.46	650.12	195.28	630.23	175.87
151	7.55	10	1	1	663.273359	174.102362	688.376511	191.333274	675.824935	182.717818
151	7.55	11	4	1	713.223584	162.956982	767.377853	206.469873	740.3007185	184.7134275
151	7.55	12	1	1	798.006354	175.277164	863.835434	202.551161	830.920894	188.9141625
152	7.6	-390	10	1	514.28	166.17	532.72	186.54	523.5	176.355
152	7.6	-391	10	1	594.82	170.05	612.28	185.57	603.55	177.81
152	7.6	-392	10	1	606.46	154.52	643.33	192.37	624.895	173.445
152	7.6	-393	10	1	578.32	171.99	590.94	181.69	584.63	176.84
152	7.6	10	1	1	661.660881	174.038163	685.9877	190.907433	673.8242905	182.472798
152	7.6	11	4	1	709.355702	163.27113	761.207649	205.320034	735.2816755	184.295582
152	7.6	12	1	1	797.16406	174.96362	862.820125	202.19632	829.9920925	188.57997
153	7.65	-394	10	1	514.28	166.17	532.72	186.54	523.5	176.355
153	7.65	-395	10	1	594.82	170.05	612.28	185.57	603.55	177.81
153	7.65	-396	10	1	606.46	154.52	643.33	192.37	624.895	173.445
153	7.65	-397	10	1	578.32	171.99	590.94	181.69	584.63	176.84
153	7.65	-398	10	1	656.92	171.99	685.06	194.31	670.99	183.15
153	7.65	11	4	1	705.71253	163.564861	755.438716	204.245083	730.575623	183.904972
153	7.65	12	1	1	796.324058	174.650851	861.807214	201.842406	829.065636	188.2466285
154	7.7	-399	10	1	514.28	166.17	532.72	186.54	523.5	176.355
154	7.7	-400	10	1	594.82	170.05	612.28	185.57	603.55	177.81
154	7.7	-401	10	1	606.46	154.52	643.33	192.37	624.895	173.445
154	7.7	-402	10	1	578.32	171.99	590.94	181.69	584.63	176.84
154	7.7	-403	10	1	655.95	170.05	682.14	191.4	669.045	180.725
154	7.7	11	4	1	702.255777	163.898104	750.088924	203.266429	726.1723505	183.5822665
154	7.7	12	1	1	795.486337	174.338855	860.796691	201.489415	828.141514	187.914135
155	7.75	-404	10	1	514.28	166.17	532.72	186.54	523.5	176.355
155	7.75	-405	10	1	594.82	170.05	612.28	185.57	603.55	177.81
155	7.75	-406	10	1	606.46	154.52	643.33	192.37	624.895	173.445
155	7.75	-407	10	1	578.32	171.99	590.94	181.69	584.63	176.84
155	7.75	-408	10	1	654.98	172.96	681.17	194.31	668.075	183.635
155	7.75	11	4	1	698.99294	164.210532	745.07345	202.348898	722.033195	183.279715
155	7.75	12	1	1	794.650889	174.027629	859.788549	201.137344	827.219719	187.5824865
156	7.8	-409	10	1	594.82	170.05	612.28	185.57	603.55	177.81
156	7.8	-410	10	1	606.46	154.52	643.33	192.37	624.895	173.445
156	7.8	-411	10	1	578.32	171.99	590.94	181.69	584.63	176.84
156	7.8	-412	10	1	652.06	173.93	680.2	192.37	666.13	183.15
156	7.8	-413	10	1	509.43	166.17	531.75	187.51	520.59	176.84
156	7.8	11	4	1	695.908149	164.504037	740.361903	201.486939	718.135026	182.995488
156	7.8	12	1	1	792.698431	174.356228	857.542377	201.380793	825.120404	187.8685105
157	7.85	-414	10	1	594.82	170.05	612.28	185.57	603.55	177.81
157	7.85	-415	10	1	606.46	154.52	643.33	192.37	624.895	173.445
157	7.85	-416	10	1	578.32	171.99	590.94	181.69	584.63	176.84
157	7.85	-417	10	1	652.06	173.93	680.2	192.37	666.13	183.15
157	7.85	-418	10	1	509.43	166.17	531.75	187.51	520.59	176.84
157	7.85	11	4	1	692.987221	164.780287	735.927466	200.675651	714.4573435	182.727969
157	7.85	12	1	1	790.757968	174.682647	855.311064	201.622611	823.034516	188.152629
158	7.9	-419	10	1	509.43	166.17	531.75	187.51	520.59	176.84
158	7.9	-420	10	1	650.12	173.93	674.38	191.4	662.25	182.665
158	7.9	-421	10	1	609.37	157.44	634.6	189.46	621.985	173.45
158	7.9	-422	10	1	579.29	171.99	608.4	184.6	593.845	178.295
158	7.9	11	4	1	690.217439	165.040761	731.746389	199.910694	710.981914	182.4757275
158	7.9	12	1	1	788.829388	175.006909	853.094462	201.862816	820.961925	188.4348625
159	7.95	-423	10	1	509.43	166.17	531.75	187.51	520.59	176.84
159	7.95	-424	10	1	650.12	173.93	674.38	191.4	662.25	182.665
159	7.95	-425	10	1	609.37	157.44	634.6	189.46	621.985	173.45
159	7.95	-426	10	1	579.29	171.99	608.4	184.6	593.845	178.295
159	7.95	11	4	1	687.365148	165.285799	727.56157	199.194231	707.463359	182.240015
159	7.95	12	1	1	786.912583	175.329035	850.892427	202.101422	818.902505	188.7152285
160	8	-427	10	1	509.43	166.17	531.75	187.51	520.59	176.84
160	8	-428	10	1	650.12	173.93	674.38	191.4	662.25	182.665
160	8	-429	10	1	609.37	157.44	634.6	189.46	621.985	173.45
160	8	-430	10	1	579.29	171.99	608.4	184.6	593.845	178.295
160	8	11	4	1	684.652198	165.517693	723.601335	198.516202	704.1267665	182.0169475
160	8	12	1	1	785.007446	175.649044	848.704813	202.338447	816.8561295	188.9937455
161	8.05	-431	10	1	579.29	171.99	608.4	184.6	593.845	178.295
161	8.05	-432	10	1	646.24	171.02	671.47	192.37	658.855	181.695
161	8.05	-433	10	1	609.37	161.32	630.72	191.4	620.045	176.36
161	8.05	-434	10	1	507.49	166.17	527.86	187.51	517.675	176.84
161	8.05	11	4	1	682.068624	165.737472	719.848075	197.873593	700.9583495	181.8055325
161	8.05	12	1	1	781.964794	175.465526	845.197744	202.010467	813.581269	188.7379965
162	8.1	-435	10	1	579.29	171.99	608.4	184.6	593.845	178.295
162	8.1	-436	10	1	646.24	171.02	671.47	192.37	658.855	181.695
162	8.1	-437	10	1	609.37	161.32	630.72	191.4	620.045	176.36
162	8.1	-438	10	1	507.49	166.17	527.86	187.51	517.675	176.84
162	8.1	11	4	1	679.60539	165.946061	716.285977	197.263701	697.9456835	181.604881
162	8.1	12	1	1	778.951607	175.283909	841.726972	201.685926	810.3392895	188.4849175
163	8.15	-439	10	1	579.29	171.99	608.4	184.6	593.845	178.295
163	8.15	-440	10	1	646.24	171.02	671.47	192.37	658.855	181.695
163	8.15	-441	10	1	609.37	161.32	630.72	191.4	620.045	176.36
163	8.15	-442	10	1	507.49	166.17	527.86	187.51	517.675	176.84
163	8.15	11	4	1	677.254281	166.144294	712.900795	196.684088	695.077538	181.414191
163	8.15	12	1	1	775.967461	175.104165	838.291936	201.364769	807.1296985	188.234467
164	8.2	-443	10	1	579.29	171.99	608.4	184.6	593.845	178.295
164	8.2	-444	10	1	609.37	161.32	630.72	191.4	620.045	176.36
164	8.2	-445	10	1	507.49	166.17	527.86	187.51	517.675	176.84
164	8.2	-446	10	1	642.36	173.93	661.77	190.43	652.065	182.18
164	8.2	11	4	1	675.007811	166.332924	709.679666	196.132555	692.3437385	181.2327395
164	8.2	12	1	1	773.011937	174.926264	834.892088	201.046944	803.9520125	187.986604
165	8.25	-447	10	1	579.29	171.99	608.4	184.6	593.845	178.295
165	8.25	-448	10	1	609.37	161.32	630.72	191.4	620.045	176.36
165	8.25	-449	10	1	642.36	173.93	661.77	190.43	652.065	182.18
165	8.25	-450	10	1	501.67	168.11	526.89	189.46	514.28	178.785
165	8.25	11	4	1	672.859151	166.512632	706.610948	195.607109	689.7350495	181.0598705
165	8.25	12	1	1	770.084626	174.750179	831.526889	200.732399	800.8057575	187.741289
166	8.3	-451	10	1	579.29	171.99	608.4	184.6	593.845	178.295
166	8.3	-452	10	1	609.37	161.32	630.72	191.4	620.045	176.36
166	8.3	-453	10	1	642.36	173.93	661.77	190.43	652.065	182.18
166	8.3	-454	10	1	501.67	168.11	526.89	189.46	514.28	178.785
166	8.3	11	4	1	670.802048	166.684036	703.684068	195.105942	687.243058	180.894989
166	8.3	12	1	1	766.817786	174.845156	827.32621	200.669879	797.071998	187.7575175
167	8.35	-455	10	1	579.29	171.99	608.4	184.6	593.845	178.295
167	8.35	-456	10	1	609.37	161.32	630.72	191.4	620.045	176.36
167	8.35	-457	10	1	642.36	173.93	661.77	190.43	652.065	182.18
167	8.35	-458	10	1	501.67	168.11	526.89	189.46	514.28	178.785
167	8.35	11	4	1	668.830775	166.8477	700.889415	194.62741	684.860095	180.737555
167	8.35	12	1	1	763.600414	174.939144	823.166088	200.607942	793.383251	187.773543
168	8.4	-459	10	1	579.29	171.99	608.4	184.6	593.845	178.295
168	8.4	-460	10	1	501.67	168.11	526.89	189.46	514.28	178.785
168	8.4	-461	10	1	636.54	171.99	656.92	191.4	646.73	181.695
168	8.4	-462	10	1	601.61	159.38	625.87	185.57	613.74	172.475
168	8.4	11	4	1	666.940071	167.004135	698.218223	194.170012	682.579147	180.5870735
168	8.4	12	1	1	760.431443	175.032158	819.045951	200.546575	789.738697	187.7893665
169	8.45	-463	10	1	579.29	171.99	608.4	184.6	593.845	178.295
169	8.45	-464	10	1	501.67	168.11	526.89	189.46	514.28	178.785
169	8.45	-465	10	1	636.54	171.99	656.92	191.4	646.73	181.695
169	8.45	-466	10	1	601.61	159.38	625.87	185.57	613.74	172.475
169	8.45	11	4	1	665.09638	167.104161	695.488965	193.651478	680.2926725	180.3778195
169	8.45	12	1	1	757.309832	175.124214	814.965244	200.485769	786.137538	187.8049915
170	8.5	-467	10	1	579.29	171.99	608.4	184.6	593.845	178.295
170	8.5	-468	10	1	501.67	168.11	526.89	189.46	514.28	178.785
170	8.5	-469	10	1	636.54	171.99	656.92	191.4	646.73	181.695
170	8.5	-470	10	1	601.61	159.38	625.87	185.57	613.74	172.475
170	8.5	11	4	1	663.328966	167.199742	692.881024	193.15605	678.104995	180.177896
170	8.5	12	1	1	753.546378	175.021438	810.073026	200.172703	781.809702	187.5970705
171	8.55	-471	10	1	579.29	171.99	608.4	184.6	593.845	178.295
171	8.55	-472	10	1	636.54	171.99	656.92	191.4	646.73	181.695
171	8.55	-473	10	1	601.61	159.38	625.87	185.57	613.74	172.475
171	8.55	-474	10	1	496.81	165.2	523.98	189.46	510.395	177.33
171	8.55	11	4	1	661.63319	167.291169	690.386489	192.682215	676.0098395	179.986692
171	8.55	12	1	1	749.852172	174.920358	805.24974	199.864652	777.550956	187.392505
172	8.6	-475	10	1	579.29	171.99	608.4	184.6	593.845	178.295
172	8.6	-476	10	1	636.54	171.99	656.92	191.4	646.73	181.695
172	8.6	-477	10	1	601.61	159.38	625.87	185.57	613.74	172.475
172	8.6	-478	10	1	496.81	165.2	523.98	189.46	510.395	177.33
172	8.6	11	4	1	660.004785	167.378706	687.998118	192.228592	674.0014515	179.803649
172	8.6	12	1	1	746.22537	174.820938	800.493939	199.561501	773.3596545	187.1912195
173	8.65	-479	10	1	496.81	165.2	523.98	189.46	510.395	177.33
173	8.65	-480	10	1	628.78	173.93	653.04	186.54	640.91	180.235
173	8.65	-481	10	1	599.67	163.26	621.01	189.46	610.34	176.36
173	8.65	-482	10	1	576.38	171.02	595.79	181.69	586.085	176.355
173	8.65	11	4	1	658.439814	167.462596	685.709276	191.793915	672.074545	179.6282555
173	8.65	12	1	1	742.664186	174.72314	795.80422	199.263136	769.234203	186.993138
174	8.7	-483	10	1	496.81	165.2	523.98	189.46	510.395	177.33
174	8.7	-484	10	1	628.78	173.93	653.04	186.54	640.91	180.235
174	8.7	-485	10	1	599.67	163.26	621.01	189.46	610.34	176.36
174	8.7	-486	10	1	576.38	171.02	595.79	181.69	586.085	176.355
174	8.7	11	4	1	656.93464	167.543063	683.513868	191.377022	670.224254	179.4600425
174	8.7	12	1	1	738.883538	174.624385	790.832924	198.944835	764.858231	186.78461
175	8.75	-487	10	1	496.81	165.2	523.98	189.46	510.395	177.33
175	8.75	-488	10	1	628.78	173.93	653.04	186.54	640.91	180.235
175	8.75	-489	10	1	599.67	163.26	621.01	189.46	610.34	176.36
175	8.75	-490	10	1	576.38	171.02	595.79	181.69	586.085	176.355
175	8.75	11	4	1	655.485902	167.620312	681.406288	190.976843	668.446095	179.2985775
175	8.75	12	1	1	735.175883	174.527394	785.938967	198.632067	760.557425	186.5797305
176	8.8	-491	10	1	496.81	165.2	523.98	189.46	510.395	177.33
176	8.8	-492	10	1	628.78	173.93	653.04	186.54	640.91	180.235
176	8.8	-493	10	1	599.67	163.26	621.01	189.46	610.34	176.36
176	8.8	-494	10	1	576.38	171.02	595.79	181.69	586.085	176.355
176	8.8	11	4	1	654.090484	167.694533	679.381366	190.592392	666.735925	179.1434625
176	8.8	12	1	1	731.463428	174.703961	781.082298	198.570631	756.272863	186.637296
177	8.85	-495	10	1	628.78	173.93	653.04	186.54	640.91	180.235
177	8.85	-496	10	1	599.67	163.26	621.01	189.46	610.34	176.36
177	8.85	-497	10	1	576.38	171.02	595.79	181.69	586.085	176.355
177	8.85	-498	10	1	490.02	166.17	520.1	190.43	505.06	178.3
177	8.85	11	4	1	652.745496	167.765899	677.434336	190.222761	665.089916	178.99433
177	8.85	12	1	1	727.826729	174.87722	776.314202	198.510305	752.0704655	186.6937625
178	8.9	-499	10	1	628.78	173.93	653.04	186.54	640.91	180.235
178	8.9	-500	10	1	599.67	163.26	621.01	189.46	610.34	176.36
178	8.9	-501	10	1	576.38	171.02	595.79	181.69	586.085	176.355
178	8.9	-502	10	1	490.02	166.17	520.1	190.43	505.06	178.3
178	8.9	11	4	1	651.448252	167.834573	675.560785	189.867107	663.5045185	178.85084
178	8.9	12	1	1	724.263522	175.047263	771.632265	198.451058	747.9478935	186.7491605
179	8.95	-503	10	1	628.78	173.93	653.04	186.54	640.91	180.235
179	8.95	-504	10	1	599.67	163.26	621.01	189.46	610.34	176.36
179	8.95	-505	10	1	576.38	171.02	595.79	181.69	586.085	176.355
179	8.95	-506	10	1	490.02	166.17	520.1	190.43	505.06	178.3
179	8.95	-507	10	1	648.18	167.14	676.32	192.37	662.25	179.755
179	8.95	12	1	1	720.975554	175.211077	767.210139	198.369454	744.0928465	186.7902655
180	9	-508	10	1	576.38	171.02	595.79	181.69	586.085	176.355
180	9	-509	10	1	490.02	166.17	520.1	190.43	505.06	178.3
180	9	-510	10	1	648.18	167.14	676.32	192.37	662.25	179.755
180	9	-511	10	1	624.9	174.9	639.45	185.57	632.175	180.235
180	9	-512	10	1	597.73	165.2	613.25	186.54	605.49	175.87
180	9	12	1	1	717.758173	175.371629	762.873776	198.28946	740.3159745	186.8305445
181	9.05	-513	10	1	576.38	171.02	595.79	181.69	586.085	176.355
181	9.05	-514	10	1	490.02	166.17	520.1	190.43	505.06	178.3
181	9.05	-515	10	1	648.18	167.14	676.32	192.37	662.25	179.755
181	9.05	-516	10	1	624.9	174.9	639.45	185.57	632.175	180.235
181	9.05	-517	10	1	597.73	165.2	613.25	186.54	605.49	175.87
181	9.05	12	1	1	714.609163	175.529015	758.620691	198.211029	736.614927	186.870022
182	9.1	-518	10	1	576.38	171.02	595.79	181.69	586.085	176.355
182	9.1	-519	10	1	490.02	166.17	520.1	190.43	505.06	178.3
182	9.1	-520	10	1	648.18	167.14	676.32	192.37	662.25	179.755
182	9.1	-521	10	1	624.9	174.9	639.45	185.57	632.175	180.235
182	9.1	-522	10	1	597.73	165.2	613.25	186.54	605.49	175.87
182	9.1	12	1	1	711.61405	175.588053	754.564955	198.050362	733.0895025	186.8192075
183	9.15	-523	10	1	576.38	171.02	595.79	181.69	586.085	176.355
183	9.15	-524	10	1	490.02	166.17	520.1	190.43	505.06	178.3
183	9.15	-525	10	1	648.18	167.14	676.32	192.37	662.25	179.755
183	9.15	-526	10	1	624.9	174.9	639.45	185.57	632.175	180.235
183	9.15	-527	10	1	597.73	165.2	613.25	186.54	605.49	175.87
183	9.15	12	1	1	708.678388	175.646044	750.581182	197.892712	729.629785	186.769378
184	9.2	-528	10	1	576.38	171.02	595.79	181.69	586.085	176.355
184	9.2	-529	10	1	486.14	167.14	514.28	193.34	500.21	180.24
184	9.2	-530	10	1	641.39	171.02	669.53	190.43	655.46	180.725
184	9.2	-531	10	1	621.99	174.9	636.54	184.6	629.265	179.75
184	9.2	-532	10	1	596.76	163.26	616.16	186.54	606.46	174.9
184	9.2	12	1	1	705.800443	175.703017	746.667469	197.737993	726.233956	186.720505
185	9.25	-533	10	1	576.38	171.02	595.79	181.69	586.085	176.355
185	9.25	-534	10	1	641.39	171.02	669.53	190.43	655.46	180.725
185	9.25	-535	10	1	621.99	174.9	636.54	184.6	629.265	179.75
185	9.25	-536	10	1	596.76	163.26	616.16	186.54	606.46	174.9
185	9.25	12	1	1	702.978547	175.758999	742.821984	197.586123	722.9002655	186.672561
185	9.25	13	4	1	485.433357	168.117101	509.510139	192.038685	497.471748	180.077893
186	9.3	-537	10	1	576.38	171.02	595.79	181.69	586.085	176.355
186	9.3	-538	10	1	641.39	171.02	669.53	190.43	655.46	180.725
186	9.3	-539	10	1	621.99	174.9	636.54	184.6	629.265	179.75
186	9.3	-540	10	1	596.76	163.26	616.16	186.54	606.46	174.9
186	9.3	12	1	1	700.23076	177.187749	738.932873	198.723504	719.5818165	187.9556265
186	9.3	13	4	1	483.981271	168.862263	508.452934	193.125639	496.2171025	180.993951
187	9.35	-541	10	1	576.38	171.02	595.79	181.69	586.085	176.355
187	9.35	-542	10	1	641.39	171.02	669.53	190.43	655.46	180.725
187	9.35	-543	10	1	621.99	174.9	636.54	184.6	629.265	179.75
187	9.35	-544	10	1	596.76	163.26	616.16	186.54	606.46	174.9
187	9.35	12	1	1	697.557517	178.578278	735.145281	199.829434	716.351399	189.203856
187	9.35	13	4	1	482.487358	169.628811	507.367558	194.243917	494.927458	181.936364
188	9.4	-545	10	1	635.57	171.99	657.89	192.37	646.73	182.18
188	9.4	-546	10	1	601.61	178.78	634.6	190.43	618.105	184.605
188	9.4	-547	10	1	570.56	175.87	590.94	185.57	580.75	180.72
188	9.4	-548	10	1	589.96	169.08	605.49	185.57	597.725	177.325
188	9.4	12	1	1	694.955863	179.932084	731.455254	200.905181	713.2055585	190.4186325
188	9.4	13	4	1	480.949783	170.417677	506.252872	195.394892	493.6013275	182.9062845
189	9.45	-549	10	1	635.57	171.99	657.89	192.37	646.73	182.18
189	9.45	-550	10	1	601.61	178.78	634.6	190.43	618.105	184.605
189	9.45	-551	10	1	570.56	175.87	590.94	185.57	580.75	180.72
189	9.45	-552	10	1	589.96	169.08	605.49	185.57	597.725	177.325
189	9.45	12	1	1	692.422997	181.25059	727.859042	201.951943	710.1410195	191.6012665
189	9.45	13	4	1	479.366605	171.229851	505.107672	196.580019	492.2371385	183.904935
190	9.5	-553	10	1	580.26	172.96	658.86	194.31	619.56	183.635
190	9.5	12	1	1	689.273597	181.330666	723.692839	201.795688	706.483218	191.563177
190	9.5	13	4	1	477.735764	172.066382	503.930687	197.800843	490.8332255	184.9336125
191	9.55	-554	10	1	580.26	172.96	658.86	194.31	619.56	183.635
191	9.55	12	1	1	686.194433	181.409	719.615778	201.642871	702.9051055	191.5259355
191	9.55	13	4	1	474.560977	172.38165	501.554068	198.513308	488.0575225	185.447479
192	9.6	-555	10	1	573.47	171.99	651.09	194.31	612.28	183.15
192	9.6	-556	10	1	550.18	175.87	562.8	185.57	556.49	180.72
192	9.6	12	1	1	683.183192	181.485648	715.625027	201.493377	699.4041095	191.4895125
192	9.6	13	4	1	471.287339	172.706794	499.108743	199.247991	485.198041	185.9773925
193	9.65	-557	10	1	573.47	171.99	651.09	194.31	612.28	183.15
193	9.65	-558	10	1	547.27	176.84	563.77	188.49	555.52	182.665
193	9.65	12	1	1	679.43063	182.226758	711.081649	202.050856	695.2561395	192.138807
193	9.65	13	4	1	467.910157	173.042285	496.591693	200.005948	482.250925	186.5241165
194	9.7	-559	10	1	573.47	171.99	651.09	194.31	612.28	183.15
194	9.7	-560	10	1	545.33	174.9	559.89	186.54	552.61	180.72
194	9.7	12	1	1	675.748519	182.917077	706.624533	202.597387	691.186526	192.757232
194	9.7	13	4	1	464.42444	173.388624	493.999716	200.7883	479.212078	187.088462
195	9.75	-561	10	1	573.47	171.99	651.09	194.31	612.28	183.15
195	9.75	-562	10	1	545.33	178.78	555.03	188.49	550.18	183.635
195	9.75	12	1	1	672.134893	183.594953	702.251247	203.133284	687.19307	193.3641185
195	9.75	13	4	1	460.824866	173.746345	491.329418	201.596246	476.077142	187.6712955
196	9.8	-563	10	1	566.68	172.96	635.57	196.25	601.125	184.605
196	9.8	-564	10	1	543.39	179.75	556	190.43	549.695	185.09
196	9.8	12	1	1	668.587858	184.260723	697.959451	203.658851	683.2736545	193.959787
196	9.8	13	4	1	456.712786	174.839826	488.183096	203.149751	472.447941	188.9947885
197	9.85	-565	10	1	566.68	172.96	635.57	196.25	601.125	184.605
197	9.85	-566	10	1	540.48	181.69	551.15	190.43	545.815	186.06
197	9.85	12	1	1	665.10559	184.914711	693.74689	204.174382	679.42624	194.5445465
197	9.85	13	4	1	452.463945	175.969839	484.940397	204.754988	468.702171	190.3624135
198	9.9	-567	10	1	569.59	178.78	632.66	197.22	601.125	188
198	9.9	-568	10	1	538.54	181.69	549.21	192.37	543.875	187.03
198	9.9	12	1	1	662.203425	185.850575	690.207263	205.026776	676.205344	195.4386755
198	9.9	13	4	1	448.071404	177.138243	481.596827	206.41458	464.8341155	191.7764115
199	9.95	-569	10	1	560.86	177.81	628.78	197.22	594.82	187.515
199	9.95	-570	10	1	535.63	182.66	550.18	192.37	542.905	187.515
199	9.95	12	1	1	659.343865	186.773232	686.71944	205.866175	673.0316525	196.3197035
199	9.95	13	4	1	442.999076	176.877161	477.674215	206.665773	460.3366455	191.771467
200	10	-571	10	1	561.83	178.78	623.93	202.07	592.88	190.425
200	10	-572	10	1	528.84	182.66	541.45	191.4	535.145	187.03
200	10	12	1	1	655.300211	186.666578	682.022517	205.636017	668.661364	196.1512975
200	10	13	4	1	437.746189	176.606747	473.62359	206.925909	455.6848895	191.766328
201	10.05	-573	10	1	555.03	177.81	621.99	199.16	588.51	188.485
201	10.05	-574	10	1	524.95	183.63	540.48	191.4	532.715	187.515
201	10.05	12	1	1	651.305085	186.561164	677.381675	205.408681	664.34338	195.9849225
201	10.05	13	4	1	432.302924	176.326493	469.438582	207.195472	450.870753	191.7609825
202	10.1	-575	10	1	546.3	173.93	615.19	200.13	580.745	187.03
202	10.1	-576	10	1	525.92	182.66	536.6	193.34	531.26	188
202	10.1	12	1	1	647.350033	185.777285	672.787665	204.461305	660.068849	195.119295
202	10.1	13	4	1	426.65874	176.03585	465.112391	207.474987	445.8855655	191.7554185
203	10.15	-577	10	1	548.24	173.93	612.28	196.25	580.26	185.09
203	10.15	-578	10	1	522.04	180.72	536.6	190.43	529.32	185.575
203	10.15	12	1	1	643.731551	184.737006	669.714316	203.224658	656.7229335	193.980832
203	10.15	13	4	1	422.512146	175.00383	462.228661	207.069396	442.3704035	191.036613
204	10.2	-579	10	1	523.98	182.66	529.81	188.49	526.895	185.575
204	10.2	-580	10	1	544.36	173.93	609.37	200.13	576.865	187.03
204	10.2	12	1	1	640.162394	183.709992	666.67587	202.003499	653.419132	192.8567455
204	10.2	13	4	1	418.196639	173.929585	459.237909	206.647245	438.717274	190.288415
205	10.25	-581	10	1	520.1	180.72	528.84	188.49	524.47	184.605
205	10.25	-582	10	1	538.54	173.93	605.49	194.31	572.015	184.12
205	10.25	12	1	1	638.169265	182.422231	664.180014	200.538776	651.1746395	191.4805035
205	10.25	13	4	1	413.701678	172.810469	456.134067	206.207503	434.9178725	189.508986
206	10.3	-583	10	1	517.19	177.81	529.81	185.57	523.5	181.69
206	10.3	-584	10	1	541.45	172.96	608.4	198.19	574.925	185.575
206	10.3	12	1	1	636.197402	181.106634	661.709645	199.08987	648.9535235	190.098252
206	10.3	13	4	1	410.361515	172.076792	454.306756	206.136322	432.3341355	189.106557
207	10.35	-585	10	1	516.22	176.84	526.89	186.54	521.555	181.69
207	10.35	-586	10	1	541.45	175.87	603.55	191.4	572.5	183.635
207	10.35	12	1	1	635.724608	180.568105	661.303604	198.459012	648.514106	189.5135585
207	10.35	13	4	1	406.887348	171.31313	452.411364	206.062197	429.649356	188.6876635
208	10.4	-587	10	1	517.19	176.84	528.84	185.57	523.015	181.205
208	10.4	-588	10	1	539.51	171.99	605.49	194.31	572.5	183.15
208	10.4	12	1	1	635.256624	180.035044	660.901209	197.834398	648.0789165	188.934721
208	10.4	13	4	1	403.27092	170.517612	450.444044	205.984947	426.857482	188.2512795
209	10.45	-589	10	1	519.13	175.87	530.78	185.57	524.955	180.72
209	10.45	-590	10	1	537.57	171.02	605.49	192.37	571.53	181.695
209	10.45	12	1	1	636.283394	179.525916	661.355316	197.3741	648.819355	188.450008
209	10.45	13	4	1	402.610104	170.311482	450.407512	206.513645	426.508808	188.4125635
210	10.5	-591	10	1	549.21	168.11	612.28	193.34	580.745	180.725
210	10.5	-592	10	1	522.04	175.87	533.69	187.51	527.865	181.69
210	10.5	12	1	1	637.319589	179.013546	661.807555	196.910992	649.563572	187.962269
210	10.5	13	4	1	401.921832	170.096722	450.36914	207.064752	426.145486	188.580737
211	10.55	-593	10	1	550.18	171.02	612.28	191.4	581.23	181.21
211	10.55	-594	10	1	525.92	175.87	542.42	186.54	534.17	181.205
211	10.55	12	1	1	642.280585	179.068834	665.911249	196.84554	654.095917	187.957187
211	10.55	13	4	1	401.204316	169.872779	450.328824	207.639725	425.76657	188.756252
212	10.6	-595	10	1	530.78	177.81	546.3	186.54	538.54	182.175
212	10.6	-596	10	1	559.89	167.14	614.22	193.34	587.055	180.24
212	10.6	12	1	1	647.993683	179.114023	670.810798	196.771084	659.4022405	187.9425535
212	10.6	13	4	1	403.020165	170.270412	452.885247	208.782086	427.952706	189.526249
213	10.65	-597	10	1	565.71	163.26	622.96	188.49	594.335	175.875
213	10.65	-598	10	1	538.54	178.78	551.15	187.51	544.845	183.145
213	10.65	12	1	1	653.638815	179.158746	675.64179	196.697278	664.6403025	187.928012
213	10.65	13	4	1	409.349979	170.616764	459.491344	209.915842	434.4206615	190.266303
214	10.7	-599	10	1	572.5	171.99	633.63	191.4	603.065	181.695
214	10.7	-600	10	1	546.3	176.84	559.89	189.46	553.095	183.15
214	10.7	12	1	1	663.29583	179.133055	684.668917	196.520098	673.9823735	187.8265765
214	10.7	13	4	1	412.666256	170.981253	467.017555	211.196986	439.8419055	191.0891195
215	10.75	-601	10	1	580.26	171.99	641.39	190.43	610.825	181.21
215	10.75	-602	10	1	556.97	176.84	569.59	189.46	563.28	183.15
215	10.75	12	1	1	672.800073	179.107864	693.543129	196.345624	683.171601	187.726744
215	10.75	13	4	1	420.956387	171.352085	476.007871	212.332365	448.482129	191.842225
216	10.8	-603	10	1	571.53	178.78	582.2	186.54	576.865	182.66
216	10.8	-604	10	1	592.88	170.05	652.06	188.49	622.47	179.27
216	10.8	12	1	1	686.530835	177.824168	707.097994	195.026619	696.8144145	186.4253935
216	10.8	13	4	1	432.058383	170.128348	487.722833	211.94809	459.890608	191.038219
217	10.85	-605	10	1	583.17	175.87	593.85	184.6	588.51	180.235
217	10.85	-606	10	1	596.76	169.08	670.5	190.43	633.63	179.755
217	10.85	12	1	1	701.081938	176.34072	721.522478	193.50866	711.302208	184.92469
217	10.85	13	4	1	443.625146	168.852395	499.876709	211.547551	471.7509275	190.199973
218	10.9	-607	10	1	599.67	175.87	615.19	184.6	607.43	180.235
218	10.9	-608	10	1	619.07	169.08	688.94	191.4	654.005	180.24
218	10.9	12	1	1	719.718991	175.613465	740.270136	192.7492	729.9945635	184.1813325
218	10.9	13	4	1	459.035977	167.428868	516.314092	211.070888	487.6750345	189.249878
219	10.95	-609	10	1	621.01	173.93	632.66	181.69	626.835	177.81
219	10.95	-610	10	1	644.3	169.08	700.58	188.49	672.44	178.785
219	10.95	12	1	1	739.072018	174.318353	759.780624	191.423547	749.426321	182.87095
219	10.95	13	4	1	475.14823	165.938883	533.422643	210.571868	504.2854365	188.2553755
220	11	-611	10	1	638.48	171.02	650.12	182.66	644.3	176.84
220	11	-612	10	1	657.89	167.14	725.81	187.51	691.85	177.325
220	11	12	1	1	758.360177	173.027238	779.22688	190.102963	768.7935285	181.5651005
220	11	13	4	1	492.008571	164.377801	551.246235	210.049023	521.627403	187.213412
221	11.05	-613	10	1	661.77	168.11	672.44	182.66	667.105	175.385
221	11.05	-614	10	1	777.24	172.96	809.26	194.31	793.25	183.635
221	11.05	-615	10	1	688.94	163.26	754.92	183.63	721.93	173.445
221	11.05	13	4	1	512.27858	162.953988	573.243057	209.731399	542.7608185	186.3426935
222	11.1	-616	10	1	687	170.05	696.7	179.75	691.85	174.9
222	11.1	-617	10	1	713.19	163.26	772.38	184.6	742.785	173.93
222	11.1	-618	10	1	804.4	169.08	832.54	193.34	818.47	181.21
222	11.1	13	4	1	533.558297	161.457699	596.234172	209.395704	564.8962345	185.4267015
223	11.15	-619	10	1	713.19	169.08	720.96	180.72	717.075	174.9
223	11.15	-620	10	1	742.3	163.26	799.55	179.75	770.925	171.505
223	11.15	-621	10	1	832.54	168.11	861.65	188.49	847.095	178.3
223	11.15	13	4	1	555.885164	159.842284	620.429893	209.142937	588.1575285	184.4926105
224	11.2	-622	10	1	860.68	165.2	893.67	189.46	877.175	177.33
224	11.2	-623	10	1	768.5	161.32	831.57	182.66	800.035	171.99
224	11.2	-624	10	1	739.39	170.05	748.13	178.78	743.76	174.415
224	11.2	13	4	1	579.507554	158.130523	645.917056	208.873047	612.712305	183.501785
225	11.25	-625	10	1	903.4	165.27	929.35	194.38	916.375	179.825
225	11.25	-626	10	1	801.49	162.29	859.71	179.75	830.6	171.02
225	11.25	-627	10	1	766.56	168.11	776.26	176.84	771.41	172.475
225	11.25	13	4	1	604.533004	156.313872	672.809013	208.616937	638.6710085	182.4654045
226	11.3	-628	10	1	928.6	166.17	954.8	191.4	941.7	178.785
226	11.3	-629	10	1	830.6	163.26	889.79	182.66	860.195	172.96
226	11.3	-630	10	1	795.67	167.14	805.37	178.78	800.52	172.96
226	11.3	13	4	1	630.883573	156.701346	701.178454	210.895345	666.0310135	183.7983455
227	11.35	-631	10	1	965.11	167.21	1010	198.53	987.555	182.87
227	11.35	-632	10	1	826.72	163.26	839.34	180.72	833.03	171.99
227	11.35	-633	10	1	850.98	158.41	924.72	185.57	887.85	171.99
227	11.35	13	4	1	659.093871	157.120467	731.420079	213.341056	695.256975	185.2307615
228	11.4	-634	10	1	859.71	170.05	871.36	179.75	865.535	174.9
228	11.4	-635	10	1	895.61	162.29	956.74	180.72	926.175	171.505
228	11.4	-636	10	1	1006.2	168.11	1039.2	193.34	1022.7	180.725
228	11.4	13	4	1	689.357285	157.574747	763.734333	215.972685	726.545809	186.773716
229	11.45	-637	10	1	893.67	168.11	907.26	178.78	900.465	173.445
229	11.45	-638	10	1	928.6	158.41	996.53	180.72	962.565	169.565
229	11.45	-639	10	1	1049.9	166.17	1087.7	191.4	1068.8	178.785
229	11.45	13	4	1	718.437213	154.270447	797.227344	215.287057	757.8322785	184.778752
230	11.5	-640	10	1	930.54	165.2	941.22	175.87	935.88	170.535
230	11.5	-641	10	1	966.45	158.41	1033.4	177.81	999.925	168.11
230	11.5	-642	10	1	1097.4	163.26	1129.5	184.6	1113.45	173.93
230	11.5	13	4	1	750.061489	150.663324	833.528	214.528067	791.7947445	182.5956955
231	11.55	-643	10	1	965.48	161.32	984.88	174.9	975.18	168.11
231	11.55	-644	10	1	999.44	150.64	1082.9	178.78	1041.17	164.71
231	11.55	-645	10	1	1143	153.55	1182.8	187.51	1162.9	170.53
231	11.55	13	4	1	784.553473	146.711675	873.026835	213.685483	828.790154	180.198579
232	11.6	-646	10	1	1011.1	158.41	1022.7	171.99	1016.9	165.2
232	11.6	-647	10	1	1044.1	146.76	1135.3	174.9	1089.7	160.83
232	11.6	-648	10	1	1196.4	151.61	1237.2	180.72	1216.8	166.165
232	11.6	13	4	1	818.648482	143.88504	912.49892	214.668908	865.573701	179.276974
233	11.65	-649	10	1	1047	160.35	1069.3	169.08	1058.15	164.715
233	11.65	-650	10	1	1087.7	149.67	1176	168.11	1131.85	158.89
233	11.65	13	4	1	856.530478	140.725715	956.224077	215.763083	906.3772775	178.244399
234	11.7	-651	10	1	1101.3	156.46	1115.9	168.11	1108.6	162.285
234	11.7	-652	10	1	1133.3	148.7	1234.3	170.05	1183.8	159.375
234	11.7	13	4	1	898.839838	137.171934	1004.952288	216.988515	951.896063	177.0802245
235	11.75	-653	10	1	1144	144.82	1236.2	169.08	1190.1	156.95
235	11.75	13	4	1	946.369639	133.145628	1059.620944	218.371144	1002.9952915	175.758386
236	11.8	-654	10	1	1202.2	151.61	1242	164.23	1222.1	157.92
236	11.8	-655	10	1	1	174.9	21.377	191.4	11.1885	183.15
236	11.8	13	4	1	991.558731	128.84705	1115.877943	220.704823	1053.718337	174.7759365
237	11.85	13	4	1	1043.557801	123.84397	1180.711893	223.414967	1112.134847	173.6294685
238	11.9	13	4	1	1103.968182	117.948443	1241	226.601991	1172.484091	172.275217
239	11.95	13	4	1	1174.935168	114.710966	1241	228.116359	1207.967584	171.4136625
241	12	-656	10	1	206.69	166.17	227.07	184.6	216.88	175.385
241	12	14	5	1	0	156.423243	22.271811	208.550788	11.1359055	182.4870155
242	12.05	-657	10	1	243.56	171.99	264.91	187.51	254.235	179.75
242	12.05	14	5	1	0	154.569715	61.321368	213.048111	30.660684	183.808913
243	12.1	-658	10	1	274.61	171.99	295.96	190.43	285.285	181.21
243	12.1	14	5	1	0	154.416922	96.614358	215.914633	48.307179	185.1657775
244	12.15	-659	10	1	310.51	176.84	325.07	189.46	317.79	183.15
244	12.15	14	5	1	0	155.9203	131.007469	217.444198	65.5037345	186.682249
245	12.2	-660	10	1	332.83	173.93	353.21	189.46	343.02	181.695
245	12.2	14	5	1	25.740033	156.32033	160.429783	217.64766	93.084908	186.983995
246	12.25	-661	10	1	360	173.93	381.35	192.37	370.675	183.15
246	12.25	14	5	1	56.597746	156.709644	189.491891	217.730273	123.0448185	187.2199585
247	12.3	-662	10	1	390.08	173.93	405.61	192.37	397.845	183.15
247	12.3	14	5	1	81.573906	158.451454	214.640389	219.574523	148.1071475	189.0129885
248	12.35	-663	10	1	413.37	176.84	429.86	190.43	421.615	183.635
248	12.35	14	5	1	106.666697	160.206731	239.736309	221.411281	173.201503	190.809006
249	12.4	-664	10	1	435.69	177.81	449.27	194.31	442.48	186.06
249	12.4	14	5	1	129.233275	162.033719	262.86219	223.332696	196.0477325	192.6832075
250	12.45	-665	10	1	456.06	182.66	469.65	194.31	462.855	188.485
250	12.45	14	5	1	149.149585	160.398708	282.163203	222.114065	215.656394	191.2563865
251	12.5	-666	10	1	471.59	179.75	487.11	193.34	479.35	186.545
251	12.5	14	5	1	164.768273	158.824942	298.274472	221.008686	231.5213725	189.916814
252	12.55	-667	10	1	486.14	179.75	501.67	195.28	493.905	187.515
252	12.55	14	5	1	172.533335	157.433163	309.785684	220.489663	241.1595095	188.961413
253	12.6	-668	10	1	494.87	174.9	513.31	194.31	504.09	184.605
253	12.6	14	5	1	180.569625	156.001119	321.519889	219.951957	251.044757	187.976538
254	12.65	-669	10	1	505.55	178.78	522.04	193.34	513.795	186.06
254	12.65	14	5	1	184.294359	153.751086	328.440166	218.84549	256.3672625	186.298288
255	12.7	-670	10	1	511.37	177.81	530.78	193.34	521.075	185.575
255	12.7	14	5	1	182.122206	152.184814	330.703759	218.71647	256.4129825	185.450642
256	12.75	-671	10	1	517.19	179.75	534.66	195.28	525.925	187.515
256	12.75	14	5	1	179.861114	150.546955	333.039449	218.581124	256.4502815	184.5640395
257	12.8	-672	10	1	517.19	179.75	534.66	195.28	525.925	187.515
257	12.8	14	5	1	171.353134	150.709662	329.354674	220.584096	250.353904	185.646879
258	12.85	-673	10	1	517.19	179.75	534.66	195.28	525.925	187.515
258	12.85	14	5	1	162.371789	150.8814	325.521643	222.698766	243.946716	186.790083
259	12.9	-674	10	1	517.19	179.75	534.66	195.28	525.925	187.515
259	12.9	14	5	1	147.99242	148.096595	319.011249	222.1708	233.5018345	185.1336975
260	12.95	-675	10	1	512.34	178.78	528.84	195.28	520.59	187.03
260	12.95	14	5	1	132.679149	145.130774	312.198961	221.6085	222.439055	183.369637
261	13	-676	10	1	508.46	177.81	525.92	193.34	517.19	185.575
261	13	14	5	1	116.337942	141.965698	305.063286	221.008403	210.700614	181.4870505
262	13.05	-677	10	1	508.46	177.81	525.92	193.34	517.19	185.575
262	13.05	14	5	1	97.810221	141.480357	296.914662	223.313514	197.3624415	182.3969355
263	13.1	-678	10	1	499.73	175.87	522.04	194.31	510.885	185.09
263	13.1	14	5	1	77.928957	140.959533	288.353889	225.787234	183.141423	183.3733835
264	13.15	-679	10	1	499.73	175.87	522.04	194.31	510.885	185.09
264	13.15	14	5	1	56.540205	140.399187	279.34889	228.448766	167.9445475	184.4239765
265	13.2	-680	10	1	493.9	173.93	516.22	192.37	505.06	183.15
265	13.2	14	5	1	33.960425	136.563052	270.189217	228.076097	152.074821	182.3195745
266	13.25	-681	10	1	489.05	171.02	513.31	187.51	501.18	179.265
266	13.25	14	5	1	9.53083	132.412344	260.528953	227.672849	135.0298915	180.0425965
267	13.3	-682	10	1	484.2	164.23	512.34	183.63	498.27	173.93
267	13.3	14	5	1	0	127.906713	250.325907	227.049106	125.1629535	177.4779095
268	13.35	-683	10	1	479.35	158.41	506.52	176.84	492.935	167.625
268	13.35	14	5	1	0	122.998607	239.533016	226.255063	119.766508	174.626835
269	13.4	-684	10	1	479.35	160.35	502.64	180.72	490.995	170.535
269	13.4	14	5	1	0	117.631575	228.097607	225.389575	114.0488035	171.510575
