0.0	0.00	1.0	1.0	0.88	58.0	151.0	220.0	287.0	139.0	219.0
0.0	0.00	2.0	2.0	0.75	479.0	124.0	690.0	382.0	584.0	253.0
0.0	0.00	3.0	3.0	0.63	522.0	130.0	632.0	377.0	577.0	253.0
1.0	0.04	1.0	1.0	0.88	61.0	152.0	217.0	283.0	139.0	217.0
1.0	0.04	2.0	2.0	0.57	493.0	111.0	699.0	383.0	596.0	247.0
1.0	0.04	3.0	3.0	0.64	877.0	136.0	972.0	330.0	924.0	233.0
2.0	0.08	1.0	1.0	0.89	58.0	143.0	220.0	271.0	139.0	207.0
2.0	0.08	2.0	2.0	0.65	511.0	107.0	724.0	367.0	617.0	237.0
2.0	0.08	3.0	3.0	0.64	911.0	115.0	1001.0	340.0	956.0	227.0
3.0	0.12	1.0	1.0	0.92	56.0	139.0	216.0	266.0	136.0	202.0
3.0	0.12	2.0	2.0	0.59	493.0	111.0	705.0	380.0	599.0	245.0
3.0	0.12	3.0	3.0	0.72	541.0	125.0	649.0	351.0	595.0	238.0