0	0	-1	10	1	566.12	166.85	584.29	182.15	575.205	174.5
0	0	0	1	1	478.05978	163.121733	513.69689	192.268388	495.878335	177.6950605
0	0	1	3	1	936.98689	152.96982	957.320224	216.150818	947.153557	184.560319
0	0	2	3	1	947.603348	152.357697	972.936681	214.608364	960.2700145	183.4830305
0	0	3	4	1	1033.386338	153.441393	1191.003247	207.121271	1112.1947925	180.281332
0	0	15	1	1	495.366808	168.156498	524.104782	190.80354	509.735795	179.480019
1	0.05	-2	10	1	566.12	166.85	584.29	182.15	575.205	174.5
1	0.05	0	1	1	478.337056	163.380056	513.835938	192.604314	496.086497	177.992185
1	0.05	1	3	1	940.172468	153.181013	962.448762	216.288747	951.310615	184.73488
1	0.05	2	3	1	946.583493	152.752042	971.967762	214.940913	959.2756275	183.8464775
1	0.05	3	4	1	1033.514987	153.455083	1191.26333	207.143716	1112.3891585	180.2993995
1	0.05	15	1	1	495.342787	168.150258	524.291538	190.810768	509.8171625	179.480513
2	0.1	-3	10	1	566.12	166.85	584.29	182.15	575.205	174.5
2	0.1	0	1	1	478.615778	163.639748	513.975447	192.941902	496.2956125	178.290825
2	0.1	1	3	1	943.084093	153.391802	967.084095	216.426087	955.084094	184.9089445
2	0.1	2	3	1	945.533147	153.145552	970.866481	215.272778	958.199814	184.209165
2	0.1	3	4	1	1033.644033	153.468794	1191.523161	207.166149	1112.583597	180.3174715
2	0.1	15	1	1	495.318902	168.144015	524.478378	190.817996	509.89864	179.4810055
2	0.1	16	1	1	502.787872	166.760684	553.311386	183.168305	528.049629	174.9644945
3	0.15	-4	10	1	566.12	166.85	584.29	182.15	575.205	174.5
3	0.15	0	1	1	478.895955	163.90082	514.115421	193.281164	496.505688	178.590992
3	0.15	1	3	1	936.643693	153.602184	960.096971	216.562835	948.370332	185.0825095
3	0.15	2	3	1	945.081733	153.538226	972.797351	215.60396	958.939542	184.571093
3	0.15	3	4	1	1033.773474	153.482524	1191.782741	207.188572	1112.7781075	180.335548
3	0.15	15	1	1	495.295154	168.137769	524.665302	190.825223	509.980228	179.481496
3	0.15	16	1	1	503.605598	166.765746	553.861079	183.126392	528.7333385	174.946069
4	0.2	-5	10	1	566.12	166.85	584.29	182.15	575.205	174.5
4	0.2	0	1	1	479.177595	164.163281	514.255868	193.622112	496.7167315	178.8926965
4	0.2	1	3	1	929.843766	153.812155	952.510433	216.698988	941.1770995	185.2555715
4	0.2	2	3	1	944.797506	153.930066	974.797506	215.934459	959.797506	184.9322625
4	0.2	3	4	1	1033.903312	153.496275	1192.042067	207.210984	1112.9726895	180.3536295
4	0.2	15	1	1	495.271545	168.131522	524.852308	190.832449	510.0619265	179.4819855
4	0.2	16	1	1	504.479759	166.771299	554.353539	183.087966	529.416649	174.9296325
5	0.25	-6	10	1	566.12	166.85	584.29	182.15	575.205	174.5
5	0.25	0	1	1	479.460706	164.427143	514.39679	193.964757	496.928748	179.19595
5	0.25	1	3	1	931.863797	154.021714	955.635208	216.834545	943.7495025	185.4281295
5	0.25	2	3	1	944.920353	154.321072	974.642683	216.264275	959.781518	185.2926735
5	0.25	3	4	1	1034.033546	153.510045	1192.30114	207.233385	1113.167343	180.371715
5	0.25	16	1	1	508.486311	167.299288	557.20946	183.589748	532.8478855	175.444518
6	0.3	-7	10	1	566.12	166.85	584.29	182.15	575.205	174.5
6	0.3	0	1	1	479.745299	164.692417	514.538195	194.309112	497.141747	179.5007645
6	0.3	1	3	1	934.165179	154.216408	958.831844	217.027047	946.4985115	185.6217275
6	0.3	2	3	1	944.228579	154.398401	973.561914	216.276744	958.8952465	185.3375725
6	0.3	3	4	1	1034.164176	153.523836	1192.559958	207.255776	1113.362067	180.389806
6	0.3	16	1	1	512.777534	167.795162	559.798203	184.090484	536.2878685	175.942823
7	0.35	-8	10	1	566.12	166.85	584.29	182.15	575.205	174.5
7	0.35	0	1	1	480.03138	164.959112	514.680087	194.655189	497.3557335	179.8071505
7	0.35	1	3	1	932.58723	154.411169	956.214377	217.219271	944.4008035	185.81522
7	0.35	2	3	1	943.537727	154.476211	969.271851	216.287963	956.404789	185.382087
7	0.35	3	4	1	1036.119485	154.340677	1195.784729	208.329845	1115.952107	181.335261
7	0.35	16	1	1	514.562381	168.595125	561.567811	184.895729	538.065096	176.745427
8	0.4	-9	10	1	566.12	166.85	584.29	182.15	575.205	174.5
8	0.4	0	1	1	480.318959	165.22724	514.822471	195.003	497.570715	180.11512
8	0.4	1	3	1	930.716826	154.605993	953.05016	217.411211	941.883493	186.008602
8	0.4	2	3	1	942.826555	154.55449	964.493221	216.297931	953.659888	185.4262105
8	0.4	3	4	1	1038.09596	155.167186	1199.040519	209.412833	1118.5682395	182.2900095
8	0.4	15	1	1	497.139697	168.855796	525.949005	191.673359	511.544351	180.2645775
8	0.4	16	1	1	516.349484	169.366013	563.339703	185.701988	539.8445935	177.5340005
9	0.45	-10	10	1	566.12	166.85	584.29	182.15	575.205	174.5
9	0.45	0	1	1	481.30511	165.192884	515.831151	195.139828	498.5681305	180.166356
9	0.45	1	3	1	934.293559	154.800877	958.733616	217.602863	946.5135875	186.20187
9	0.45	2	3	1	944.458482	154.633225	964.606302	216.30665	954.532392	185.4699375
9	0.45	3	4	1	1040.093879	156.003525	1202.327829	210.504845	1121.210854	183.254185
9	0.45	16	1	1	518.783376	169.345402	563.527053	185.612477	541.1552145	177.4789395
10	0.5	-11	10	1	566.12	166.85	584.29	182.15	575.205	174.5
10	0.5	0	1	1	482.301604	165.15814	516.851326	195.278205	499.576465	180.2181725
10	0.5	1	3	1	937.600078	154.995814	963.933411	217.794222	950.7667445	186.395018
10	0.5	2	3	1	946.259418	154.712403	964.592752	216.31412	955.426085	185.5132615
10	0.5	3	4	1	1042.113521	156.849863	1205.647167	211.60599	1123.880344	184.2279265
10	0.5	16	1	1	521.430552	169.278464	563.50852	185.518987	542.469536	177.3987255
11	0.55	-12	10	1	566.12	166.85	584.29	182.15	575.205	174.5
11	0.55	0	1	1	483.308601	165.122999	517.8832	195.418158	500.5959005	180.2705785
11	0.55	1	3	1	934.320431	155.148182	961.808511	218.03681	948.064471	186.592496
11	0.55	3	4	1	1048.474684	156.922593	1213.744988	211.96206	1131.109836	184.4423265
11	0.55	16	1	1	525.756062	169.178188	565.467145	185.381297	545.6116035	177.2797425
12	0.6	-13	10	1	566.12	166.85	584.29	182.15	575.205	174.5
12	0.6	0	1	1	484.326263	165.087455	518.926978	195.559713	501.6266205	180.323584
12	0.6	1	3	1	930.780476	155.30108	959.113809	218.279833	944.9471425	186.7904565
12	0.6	3	4	1	1054.897328	156.996373	1221.938499	212.321292	1138.4179135	184.6588325
12	0.6	16	1	1	530.17113	169.079924	567.304685	185.241867	548.7379075	177.1608955
13	0.65	-14	10	1	570.9	167.81	590.03	185.02	580.465	176.415
13	0.65	0	1	1	485.354758	165.051501	519.982873	195.702899	502.6688155	180.3772
13	0.65	1	3	1	933.419094	155.454507	957.574144	218.523287	945.496619	186.988897
13	0.65	3	4	1	1061.38233	157.166967	1223	212.683729	1142.191165	184.925348
13	0.65	16	1	1	533.811318	169.006824	569.137804	185.149537	551.474561	177.0781805
14	0.7	-15	10	1	570.9	167.81	590.03	185.02	580.465	176.415
14	0.7	0	1	1	488.064155	164.96255	522.613759	195.91313	505.338957	180.43784
14	0.7	1	3	1	935.984146	155.60846	955.650813	218.767169	945.8174795	187.1878145
14	0.7	2	3	1	943.554245	154.40864	962.554245	216.134396	953.054245	185.271518
14	0.7	3	4	1	1067.357179	156.883642	1223	212.945613	1145.1785895	184.9146275
14	0.7	16	1	1	537.485938	168.934666	570.922438	185.056403	554.204188	176.9955345
15	0.75	-16	10	1	570.9	167.81	590.03	185.02	580.465	176.415
15	0.75	0	1	1	490.821628	164.871887	525.295833	196.127337	508.0587305	180.499612
15	0.75	1	3	1	938.291751	155.762939	961.891694	219.011475	950.0917225	187.387207
15	0.75	2	3	1	944.71414	154.332552	966.746265	216.089298	955.7302025	185.210925
15	0.75	3	4	1	1073.468099	156.59333	1223	213.213853	1148.2340495	184.9035915
15	0.75	16	1	1	541.227634	168.859772	573.289836	184.957145	557.258735	176.9084585
16	0.8	-17	10	1	582.38	163.03	601.5	185.02	591.94	174.025
16	0.8	0	1	1	493.649834	164.769386	528.112098	196.389106	510.880966	180.579246
16	0.8	1	3	1	942.20573	155.876043	969.539063	219.363639	955.8723965	187.619841
16	0.8	2	3	1	947.423788	154.383909	972.423787	216.355796	959.9237875	185.3698525
16	0.8	3	4	1	1079.719768	156.295733	1223	213.488683	1151.359884	184.892208
16	0.8	16	1	1	544.975811	168.785491	575.630802	184.857734	560.3033065	176.8216125
17	0.85	-18	10	1	582.38	163.03	601.5	185.02	591.94	174.025
17	0.85	0	1	1	496.538003	164.664506	530.994183	196.656857	513.766093	180.6606815
17	0.85	1	3	1	946.728468	155.990108	973.07708	219.718226	959.902774	187.854167
17	0.85	2	3	1	950.753621	154.436577	976.173698	216.622529	963.4636595	185.529553
17	0.85	3	4	1	1088.730742	156.111721	1223	213.866226	1155.865371	184.9889735
18	0.9	-19	10	1	582.38	163.03	601.5	185.02	591.94	174.025
18	0.9	0	1	1	499.449375	164.55716	533.944473	196.930796	516.696924	180.743978
18	0.9	1	3	1	951.013426	156.105141	976.013425	220.075259	963.5134255	188.0902
18	0.9	3	4	1	1097.958485	155.922248	1223	214.253503	1160.4792425	185.0878755
19	0.95	-20	10	1	589.07	165.9	612.02	185.98	600.545	175.94
19	0.95	0	1	1	502.067239	164.447259	536.965468	197.21114	519.5163535	180.8291995
19	0.95	1	3	1	952.925282	156.221148	981.24809	220.434756	967.086686	188.327952
19	0.95	3	4	1	1107.410893	155.727055	1223	214.650895	1165.2054465	185.188975
20	1	-21	10	1	589.07	165.9	612.02	185.98	600.545	175.94
20	1	0	1	1	505.610045	163.324685	541.025386	196.588613	523.3177155	179.956649
20	1	1	3	1	955.584094	155.98615	986.917427	220.60477	971.2507605	188.29546
20	1	3	4	1	1117.096249	155.525869	1223	215.058804	1170.0481245	185.2923365
20	1	15	1	1	524.500684	166.213707	553.154408	189.890481	538.827546	178.052094
20	1	16	1	1	561.707076	168.453537	586.49563	184.420211	574.101353	176.436874
21	1.05	-22	10	1	599.59	162.07	617.76	184.07	608.675	173.07
21	1.05	0	1	1	509.264012	162.166682	545.212827	195.946626	527.2384195	179.056654
21	1.05	1	3	1	962.427806	155.748683	992.519398	220.776308	977.473602	188.2624955
21	1.05	3	4	1	1127.023251	155.3184	1223	215.477655	1175.0116255	185.3980275
21	1.05	16	1	1	566.949058	167.00625	587.636572	182.984265	577.292815	174.9952575
22	1.1	-23	10	1	605.33	164.94	627.32	183.11	616.325	174.025
22	1.1	0	1	1	513.034408	160.971551	549.533913	195.284259	531.2841605	178.127905
22	1.1	1	3	1	969.344704	155.50077	997.678036	220.949393	983.51137	188.2250815
22	1.1	2	3	1	976.29129	154.442178	1005.957957	218.423031	991.1246235	186.4326045
22	1.1	3	4	1	1137.60289	155.378271	1223	216.19688	1180.301445	185.7875755
22	1.1	16	1	1	571.77636	165.564627	590.333527	181.54107	581.0549435	173.5528485
23	1.15	-24	10	1	605.33	164.94	627.32	183.11	616.325	174.025
23	1.15	0	1	1	516.01763	160.915412	553.086424	195.780559	534.552027	178.3479855
23	1.15	1	3	1	973.241053	155.241152	999.120912	221.124052	986.1809825	188.182602
23	1.15	3	4	1	1148.458406	155.442152	1223	216.936102	1185.729203	186.189127
23	1.15	15	1	1	535.218964	164.614655	565.140156	189.342787	550.17956	176.978721
23	1.15	16	1	1	575.774765	165.465127	594.319996	181.449213	585.0473805	173.45717
24	1.2	-25	10	1	611.07	163.98	632.1	182.15	621.585	173.065
24	1.2	0	1	1	519.098285	160.857466	556.755007	196.292925	537.926646	178.5751955
24	1.2	1	3	1	977.020715	154.978424	1000.020715	221.300311	988.520715	188.1393675
24	1.2	3	4	1	1159.378378	154.547231	1223	216.727135	1191.189189	185.637183
24	1.2	15	1	1	538.831656	165.603457	569.195228	190.7048	554.013442	178.1541285
24	1.2	16	1	1	579.776137	165.365541	598.310301	181.357278	589.043219	173.3614095
25	1.25	-26	10	1	611.07	163.98	632.1	182.15	621.585	173.065
25	1.25	0	1	1	522.281188	160.797621	560.545465	196.82215	541.4133265	178.8098855
25	1.25	1	3	1	980.454266	154.712539	1010.944514	221.478196	995.69939	188.0953675
25	1.25	3	4	1	1170.593785	153.63397	1223	216.512013	1196.7968925	185.0729915
25	1.25	15	1	1	542.150284	167.001243	572.997748	192.487095	557.574016	179.744169
25	1.25	16	1	1	582.867415	165.287943	602.308309	181.260209	592.587862	173.274076
26	1.3	-27	10	1	618.72	163.03	643.58	183.11	631.15	173.07
26	1.3	0	1	1	525.571471	160.73578	564.463992	197.369078	545.0177315	179.052429
26	1.3	1	3	1	982.83885	154.43822	1020.505515	221.707139	1001.6721825	188.0726795
26	1.3	2	3	1	999.473474	154.382401	1028.473473	220.354525	1013.9734735	187.368463
26	1.3	3	4	1	1182.116527	152.78115	1223	216.039833	1202.5582635	184.4104915
26	1.3	16	1	1	585.955976	165.210674	606.29327	181.163257	596.124623	173.1869655
27	1.35	-28	10	1	618.72	163.03	643.58	183.11	631.15	173.07
27	1.35	0	1	1	527.292771	161.19213	566.859884	198.469125	547.0763275	179.8306275
27	1.35	1	3	1	996.337779	154.160845	1027.249291	221.937444	1011.793535	188.0491445
27	1.35	2	3	1	1004.963008	154.360442	1034.320826	220.938324	1019.641917	187.649383
27	1.35	3	4	1	1193.999049	154.798113	1223	217.637403	1208.4995245	186.217758
27	1.35	16	1	1	585.343596	165.358923	609.231587	181.301042	597.2875915	173.3299825
28	1.4	-29	10	1	618.72	163.03	643.58	183.11	631.15	173.07
28	1.4	0	1	1	529.078144	161.665291	569.338851	199.607296	549.2084975	180.6362935
28	1.4	1	3	1	1009.963762	153.880397	1033.630429	222.169134	1021.7970955	188.0247655
28	1.4	2	3	1	1004.170333	155.001454	1033.503665	221.757697	1018.836999	188.3795755
28	1.4	3	4	1	1206.294672	156.785402	1223	219.227591	1214.647336	188.0064965
28	1.4	16	1	1	584.801906	165.51011	612.081309	181.437596	598.4416075	173.473853
29	1.45	-30	10	1	618.72	163.03	643.58	183.11	631.15	173.07
29	1.45	0	1	1	526.64708	162.156402	567.824986	200.958021	547.236033	181.5572115
29	1.45	1	3	1	1004.144243	153.596858	1034.090706	222.402237	1019.1174745	187.9995475
29	1.45	2	3	1	1002.589083	155.646185	1035.74517	222.580921	1019.1671265	189.113553
29	1.45	3	4	1	1212.388275	158.534643	1223	221.011708	1217.6941375	189.7731755
29	1.45	16	1	1	581.35437	167.139508	609.553975	183.067761	595.4541725	175.1036345
30	1.5	-31	10	1	618.72	163.03	643.58	183.11	631.15	173.07
30	1.5	0	1	1	524.103387	162.67009	566.241497	202.371335	545.172442	182.5207125
30	1.5	1	3	1	987.94604	156.37724	1023.946039	225.22492	1005.9460395	190.80108
30	1.5	2	3	1	1000.828062	156.294641	1037.828061	223.407993	1019.3280615	189.851317
30	1.5	3	4	1	1218.632508	160.28489	1223	222.804744	1220.816254	191.544817
30	1.5	16	1	1	577.914079	168.766907	607.01917	184.697548	592.4666245	176.7322275
31	1.55	-32	10	1	618.72	164.94	637.84	190.76	628.28	177.85
31	1.55	0	1	1	518.028453	162.663349	561.183386	203.298057	539.6059195	182.980703
31	1.55	1	3	1	990.740462	156.205395	1022.091031	225.222056	1006.4157465	190.7137255
31	1.55	2	3	1	992.663301	157.114169	1027.083198	224.403298	1009.8732495	190.7587335
31	1.55	3	4	1	1216.391318	159.809091	1223	223.006947	1219.695659	191.408019
31	1.55	16	1	1	571.531098	169.624224	601.360159	185.555393	586.4456285	177.5898085
32	1.6	-33	10	1	618.72	164.94	637.84	190.76	628.28	177.85
32	1.6	0	1	1	511.660483	162.656423	555.884639	204.269622	533.772561	183.4630225
32	1.6	1	3	1	993.608819	156.033593	1020.275486	225.217205	1006.9421525	190.625399
32	1.6	3	4	1	1214.133092	159.324092	1223	223.206551	1218.566546	191.2653215
32	1.6	16	1	1	565.151139	170.480805	595.696436	186.413077	580.4237875	178.446941
33	1.65	-34	10	1	606.28	167.81	626.37	186.93	616.325	177.37
33	1.65	0	1	1	502.317747	162.644269	547.70168	205.299095	525.0097135	183.971682
33	1.65	1	3	1	980.682614	155.861863	1005.676204	225.210375	993.179409	190.536119
33	1.65	3	4	1	1211.857379	158.829719	1223	223.403716	1217.4286895	191.1167175
33	1.65	16	1	1	554.27453	169.225286	586.898346	185.140262	570.586438	177.182774
34	1.7	-35	10	1	602.46	168.77	620.63	185.98	611.545	177.375
34	1.7	0	1	1	492.493242	162.631644	539.105868	206.381676	515.799555	184.50666
34	1.7	1	3	1	967.790036	155.690239	991.12337	225.201573	979.456703	190.445906
34	1.7	2	3	1	968.62713	158.048431	992.960463	225.701623	980.7937965	191.875027
34	1.7	3	4	1	1209.563712	158.325795	1223	223.598596	1216.281856	190.9621955
34	1.7	16	1	1	543.420758	167.974123	578.035873	183.864499	560.7283155	175.919311
35	1.75	-36	10	1	590.98	166.85	608.2	185.02	599.59	175.935
35	1.75	0	1	1	479.274027	163.009922	527.416706	208.106161	503.3453665	185.5580415
35	1.75	1	3	1	950.60482	155.091296	979.677004	224.604001	965.140912	189.8476485
35	1.75	2	3	1	958.98914	157.324546	982.246092	225.007166	970.617616	191.165856
35	1.75	3	4	1	1207.251611	157.81213	1223	223.791334	1215.1258055	190.801732
35	1.75	16	1	1	529.266622	168.71271	566.607108	184.624051	547.936865	176.6683805
36	1.8	-37	10	1	580.29	164.23	605.64	187.25	592.965	175.74
36	1.8	0	1	1	465.213434	163.411752	515.002176	209.940466	490.107805	186.676109
36	1.8	1	3	1	933.532818	154.492881	968.532818	224.005387	951.032818	189.249134
36	1.8	2	3	1	949.300606	156.600167	971.633938	224.311847	960.467272	190.456007
36	1.8	3	4	1	1193.613598	156.954321	1223	224.480395	1208.306799	190.717358
36	1.8	16	1	1	515.119096	169.455714	554.992272	185.385351	535.055684	177.4205325
37	1.85	-38	10	1	568.99	168.77	587.16	186.93	578.075	177.85
37	1.85	0	1	1	450.228529	163.839377	501.793178	211.895404	476.0108535	187.8673905
37	1.85	1	3	1	921.688696	153.895038	952.217413	223.405786	936.9530545	188.650412
37	1.85	2	3	1	936.552456	155.569659	961.691569	223.562069	949.1220125	189.565864
37	1.85	3	4	1	1179.986924	156.066602	1223	225.152719	1201.493462	190.6096605
38	1.9	-39	10	1	552.73	164.94	573.77	186.93	563.25	175.935
38	1.9	0	1	1	433.130511	162.388743	486.917934	212.30624	460.0242225	187.3474915
38	1.9	1	3	1	909.921209	153.297809	936.254541	222.805248	923.087875	188.0515285
38	1.9	2	3	1	923.497553	154.530852	951.497553	222.805576	937.497553	188.668214
38	1.9	3	4	1	1166.371009	155.168131	1223	225.784311	1194.6855045	190.476221
39	1.95	-40	10	1	540.3	165.9	561.34	182.15	550.82	174.025
39	1.95	0	1	1	414.646512	160.828038	470.872379	212.747771	442.7594455	186.7879045
39	1.95	1	3	1	892.196296	152.701234	922.263086	222.203828	907.229691	187.452531
39	1.95	2	3	1	905.783021	154.381947	935.100387	222.501569	920.441704	188.441758
39	1.95	3	4	1	1152.765291	154.544422	1223	225.369315	1187.8826455	189.9568685
40	2	-41	10	1	524.05	163.03	546.04	184.07	535.045	173.55
40	2	0	1	1	394.600346	159.144419	453.518084	213.22385	424.059215	186.1841345
40	2	1	3	1	867.621232	153.568746	901.621232	223.236638	884.621232	188.402692
40	2	2	3	1	888.156969	154.234771	919.156969	222.197165	903.656969	188.215968
40	2	3	4	1	1139.169224	153.931338	1223	224.952882	1181.084612	189.44211
40	2	16	1	1	447.756376	164.989185	488.566125	181.378234	468.1612505	173.1837095
41	2.05	-42	10	1	503.97	164.94	525.96	185.02	514.965	174.98
41	2.05	0	1	1	371.297861	160.33235	433.558519	217.122507	402.42819	188.7274285
41	2.05	1	3	1	851.620724	154.440581	885.661212	224.274086	868.640968	189.3573335
41	2.05	2	3	1	867.947268	154.089332	895.591824	221.892438	881.769546	187.990885
41	2.05	3	4	1	1118.524132	155.228888	1223	226.356328	1170.762066	190.792608
42	2.1	-43	10	1	485.8	167.81	508.75	186.93	497.275	177.37
42	2.1	0	1	1	345.570662	161.639239	411.597532	221.429635	378.584097	191.534437
42	2.1	1	3	1	835.659983	155.316749	869.993315	225.316187	852.826649	190.316468
42	2.1	2	3	1	847.110605	156.046598	871.777273	224.008437	859.443939	190.0275175
42	2.1	3	4	1	1098.016263	156.539679	1223	227.751893	1160.5081315	192.145786
43	2.15	-44	10	1	458.81	165.73	491.88	185.67	475.345	175.7
43	2.15	0	1	1	317.018722	163.082427	387.335702	226.211376	352.177212	194.6469015
43	2.15	1	3	1	811.014422	156.197267	839.235618	226.362956	825.12502	191.2801115
43	2.15	2	3	1	824.421632	158.013396	850.175089	226.133849	837.2983605	192.0736225
43	2.15	3	4	1	1077.642405	157.857102	1223	229.139247	1150.3212025	193.4981745
44	2.2	-45	10	1	433.39	166.5	467.94	188.12	450.665	177.31
44	2.2	0	1	1	282.173245	164.62374	360.033026	231.896652	321.1031355	198.260196
44	2.2	1	3	1	786.597373	157.082146	808.930708	227.414408	797.7640405	192.248277
44	2.2	2	3	1	793.052364	158.948233	820.052365	227.25028	806.5523645	193.0992565
44	2.2	3	4	1	1051.47185	159.907824	1223	231.039372	1137.235925	195.473598
44	2.2	15	1	1	317.708057	170.052117	370.637884	208.568897	344.1729705	189.310507
45	2.25	-46	10	1	406.43	169.72	437.98	193.63	422.205	181.675
45	2.25	0	1	1	241.672361	166.361662	329.193684	238.355991	285.4330225	202.3588265
45	2.25	1	3	1	754.832783	157.820769	783.109866	228.522227	768.9713245	193.171498
45	2.25	2	3	1	759.514879	159.888587	786.080847	228.371559	772.797863	194.130073
45	2.25	3	4	1	1025.629005	161.97966	1216.617358	232.913416	1121.1231815	197.446538
46	2.3	-47	10	1	376.78	170.68	407.38	197.45	392.08	184.065
46	2.3	0	1	1	195.801243	168.332769	294.135975	245.754512	244.968609	207.0436405
46	2.3	1	3	1	722.701484	158.568435	757.034816	229.639062	739.86815	194.1037485
46	2.3	2	3	1	725.768256	160.834436	752.101589	229.497667	738.9349225	195.1660515
46	2.3	3	4	1	991.077967	164.170625	1176.29625	234.528235	1083.6871085	199.34943
47	2.35	-48	10	1	337.4	170.44	378.4	203.82	357.9	187.13
47	2.35	0	1	1	140.795442	168.61884	255.063884	252.362738	197.929663	210.490789
47	2.35	1	3	1	686.876437	159.260111	718.902124	230.888775	702.8892805	195.074443
47	2.35	2	3	1	691.080688	161.399264	720.090853	230.674619	705.5857705	196.0369415
47	2.35	3	4	1	957.07313	166.3038	1136.991049	236.113248	1047.0320895	201.208524
48	2.4	-49	10	1	293	171.52	338.13	206.23	315.565	188.875
48	2.4	0	1	1	76.756301	168.959599	209.729852	260.078624	143.2430765	214.5191115
48	2.4	1	3	1	650.473412	159.965893	680.140078	232.151224	665.306745	196.0585585
48	2.4	2	3	1	655.692251	161.975542	687.358918	231.869594	671.5255845	196.922568
48	2.4	3	4	1	920.465874	164.684555	1094.41448	234.216327	1007.440177	199.450441
48	2.4	16	1	1	172.724612	177.37638	233.347489	196.134896	203.0360505	186.755638
49	2.45	-50	10	1	247.66	170.2	297.57	207.85	272.615	189.025
49	2.45	0	1	1	2.92243	169.355614	164.385689	269.460298	83.6540595	219.407956
49	2.45	1	3	1	608.017474	160.6858	640.605421	233.426607	624.3114475	197.0562035
49	2.45	2	3	1	618.438029	162.563469	649.525584	233.082975	633.9818065	197.823222
49	2.45	3	4	1	884.014594	163.103769	1052.545193	232.307278	968.2798935	197.7055235
50	2.5	-51	10	1	209.44	170.68	244.82	197.45	227.13	184.065
50	2.5	0	1	1	0	169.847227	110.485367	278.797076	55.2426835	224.3221515
50	2.5	1	3	1	562.651222	159.581812	597.984556	233.86891	580.317889	196.725361
50	2.5	2	3	1	576.251239	161.061955	606.584572	232.832078	591.4179055	196.9470165
50	2.5	3	4	1	847.713805	161.560101	1011.368953	230.386681	929.541379	195.973391
50	2.5	15	1	1	0	174.722298	88.316711	225.200537	44.1583555	199.9614175
51	2.55	-52	10	1	159.72	172.59	204.66	201.28	182.19	186.935
51	2.55	0	1	1	0	170.449007	44.736161	284.431925	22.3680805	227.440466
51	2.55	1	3	1	521.633804	158.4309	556.245401	234.328449	538.9396025	196.3796745
51	2.55	2	3	1	538.511867	159.508645	566.666468	232.567363	552.5891675	196.038004
51	2.55	3	4	1	811.559653	160.052164	970.870169	228.455261	891.214911	194.2537125
51	2.55	16	1	1	0	176.726275	54.83817	197.793099	27.419085	187.259687
52	2.6	-53	10	1	105.21	170.68	141.55	197.45	123.38	184.065
52	2.6	1	3	1	478.660113	157.230072	511.660114	234.806405	495.1601135	196.0182385
52	2.6	2	3	1	499.081966	157.901127	524.4153	232.288471	511.748633	195.094799
52	2.6	3	4	1	776.253918	159.415204	932.674823	228.302919	854.4643705	193.8590615
53	2.65	-54	10	1	45.922	168.77	88.953	202.23	67.4375	185.5
53	2.65	1	3	1	431.167745	155.885993	466.330834	235.745105	448.7492895	195.815549
53	2.65	2	3	1	451.367152	156.983769	482.538595	233.543009	466.9528735	195.263389
53	2.65	3	4	1	740.34764	158.50509	894.321659	228.126962	817.3346495	193.316026
54	2.7	1	3	1	380.230363	154.461632	416.230363	236.738777	398.230363	195.6002045
54	2.7	2	3	1	399.973915	156.013306	435.973916	234.869754	417.9739155	195.44153
54	2.7	3	4	1	703.818444	157.579923	855.814119	227.926161	779.8162815	192.753042
55	2.75	1	3	1	326.7043	154.180366	367.871188	240.025628	347.287744	197.102997
55	2.75	2	3	1	347.616602	154.984953	380.871723	236.275395	364.2441625	195.630174
55	2.75	3	4	1	666.645673	156.640759	817.15292	227.699375	741.8992965	192.170067
55	2.75	6	1	1	1165.451304	167.88128	1221.093352	196.562371	1193.272328	182.2218255
56	2.8	1	3	1	267.847376	153.861454	311.847373	243.666792	289.8473745	198.764123
56	2.8	2	3	1	290.972689	155.543224	319.639354	240.733494	305.3060215	198.138359
56	2.8	3	4	1	629.006796	158.248549	780.764636	230.896041	704.885716	194.572295
56	2.8	6	1	1	1107.805394	170.752529	1160.436526	199.128955	1134.12096	184.940742
57	2.85	-55	10	1	1199.2	168.77	1224	199.37	1211.6	184.07
57	2.85	1	3	1	210.356543	153.461862	255.474838	247.818712	232.9156905	200.640287
57	2.85	2	3	1	228.660221	156.15803	269.718279	245.640556	249.18925	200.899293
57	2.85	3	4	1	589.750674	159.933934	743.392513	234.218978	666.5715935	197.076456
57	2.85	6	1	1	1051.630247	173.53071	1101.696161	201.623052	1076.663204	187.576881
58	2.9	-56	10	1	1138.9	173.55	1172.4	199.37	1155.65	186.46
58	2.9	1	3	1	131.176137	152.850894	173.842806	253.477539	152.5094715	203.1642165
58	2.9	2	3	1	158.146205	156.838362	209.479537	251.06796	183.812871	203.953161
58	2.9	3	4	1	548.766398	161.700892	704.997368	237.673293	626.881883	199.6870925
58	2.9	6	1	1	998.490967	176.100483	1046.430009	203.968951	1022.460488	190.034717
59	2.95	-57	10	1	1079.6	177.37	1110.2	204.15	1094.9	190.76
59	2.95	-58	10	1	1162.8	179.28	1217.3	198.41	1190.05	188.845
59	2.95	-59	10	1	1200.1	183.11	1224	239.53	1212.05	211.32
59	2.95	1	3	1	33.138204	152.207235	122.256738	259.684707	77.697471	205.945971
59	2.95	2	3	1	86.054221	156.074722	133.61056	257.189509	109.8323905	206.6321155
59	2.95	3	4	1	505.935241	163.553541	665.535735	241.264252	585.735488	202.4088965
59	2.95	4	1	1	1211.094482	193.435946	1223	279.06344	1217.047241	236.249693
59	2.95	6	1	1	946.507497	178.598285	992.670597	206.256461	969.589047	192.427373
60	3	-60	10	1	1025.1	179.28	1052.9	200.32	1039	189.8
60	3	-61	10	1	1103.5	177.37	1158	195.54	1130.75	186.455
60	3	-62	10	1	1148.5	185.02	1203.9	233.79	1176.2	209.405
60	3	1	3	1	0	150.372384	40.518643	266.231372	20.2593215	208.301878
60	3	2	3	1	11.244322	155.196076	48.910989	264.338265	30.0776555	209.7671705
60	3	3	4	1	460.241456	162.919924	626.964187	243.871084	543.6028215	203.395504
60	3	4	1	1	1163.857747	192.670934	1223	290.047156	1193.4288735	241.359045
60	3	6	1	1	896.762954	178.479227	941.475768	205.814348	919.119361	192.1467875
61	3.05	-63	10	1	1098.6	177.76	1166.9	231.7	1132.75	204.73
61	3.05	-64	10	1	973.48	179.28	1004.1	194.58	988.79	186.93
61	3.05	-65	10	1	1049	177.37	1094.9	189.8	1071.95	183.585
61	3.05	3	4	1	410.673972	162.235203	586.042027	246.680395	498.3579995	204.457799
61	3.05	4	1	1	1117.756715	191.928549	1223	291.016055	1170.3783575	241.472302
61	3.05	6	1	1	850.859231	174.879847	895.035943	202.239844	872.947587	188.5598455
62	3.1	-66	10	1	919.93	177.37	951.49	193.63	935.71	185.5
62	3.1	-67	10	1	997.39	175.46	1041.4	188.85	1019.395	182.155
62	3.1	-68	10	1	1037.6	175.46	1094	229.01	1065.8	202.235
62	3.1	3	4	1	356.71252	161.4934	542.549125	249.716463	449.6308225	205.6049315
62	3.1	4	1	1	1072.721175	191.080584	1221.906573	291.42026	1147.313874	241.250422
62	3.1	6	1	1	804.413537	175.298842	848.143118	202.810006	826.2783275	189.054424
63	3.15	-69	10	1	873.08	178.33	904.63	193.63	888.855	185.98
63	3.15	-70	10	1	938.1	177.37	989.74	189.8	963.92	183.585
63	3.15	-71	10	1	990.7	179.28	1028.9	215.62	1009.8	197.45
63	3.15	3	4	1	297.74256	160.687536	496.234602	253.007638	396.988581	206.847587
63	3.15	4	1	1	1033.647582	191.580958	1183.928856	292.520639	1108.788219	242.0507985
63	3.15	6	1	1	757.362636	175.721133	800.920778	203.383072	779.141707	189.5521025
63	3.15	8	1	1	998.746333	181.333996	1047.092685	223.414908	1022.919509	202.374452
64	3.2	-72	10	1	827.18	179.28	858.73	202.23	842.955	190.755
64	3.2	-73	10	1	892.2	177.37	936.19	186.93	914.195	182.15
64	3.2	-74	10	1	941.93	181.2	984	210.84	962.965	196.02
64	3.2	3	4	1	235.666096	158.7998	450.576882	257.381741	343.121489	208.0907705
64	3.2	4	1	1	994.546614	192.085524	1145.314055	293.566103	1069.9303345	242.8258135
64	3.2	6	1	1	714.623574	175.121035	758.6659	203.297339	736.644737	189.209187
64	3.2	8	1	1	956.208396	180.827141	1002.915122	222.404617	979.561759	201.615879
65	3.25	-75	10	1	787.02	179.28	813.79	200.32	800.405	189.8
65	3.25	-76	10	1	853	178.33	892.2	188.85	872.6	183.59
65	3.25	-77	10	1	896.98	178.33	940.02	213.71	918.5	196.02
65	3.25	3	4	1	164.65343	156.653083	400.284325	262.322475	282.4688775	209.487779
65	3.25	4	1	1	955.386367	192.59479	1106.097183	294.554379	1030.741775	243.5745845
65	3.25	6	1	1	669.956365	174.500001	714.816294	203.203872	692.3863295	188.8519365
65	3.25	8	1	1	915.542994	180.340714	960.816559	221.449506	938.1797765	200.89511
66	3.3	-78	10	1	748.77	177.37	775.54	197.45	762.155	187.41
66	3.3	-79	10	1	819.53	176.42	851.08	188.85	835.305	182.635
66	3.3	-80	10	1	862.56	173.55	899.85	201.28	881.205	187.415
66	3.3	3	4	1	89.33982	154.26579	352.057772	268.295017	220.698796	211.2804035
66	3.3	4	1	1	930.628926	191.036476	1087.375629	295.188163	1009.0022775	243.1123195
66	3.3	6	1	1	628.082068	173.585586	674.270297	202.844579	651.1761825	188.2150825
66	3.3	8	1	1	876.922433	179.880588	920.962521	220.558444	898.942477	200.219516
67	3.35	-81	10	1	717.21	175.46	738.25	193.63	727.73	184.545
67	3.35	-82	10	1	786.06	173.55	814.75	183.11	800.405	178.33
67	3.35	-83	10	1	827.18	176.42	855.87	205.1	841.525	190.76
67	3.35	3	4	1	1.049747	151.479272	298.172295	275.250764	149.611021	213.365018
67	3.35	4	1	1	904.929798	189.429499	1067.394233	295.812887	986.1620155	242.621193
67	3.35	6	1	1	589.44642	171.615127	637.146861	201.604996	613.2966405	186.6100615
67	3.35	8	1	1	842.809151	177.719292	886.262962	218.185961	864.5360565	197.9526265
68	3.4	-84	10	1	684.7	172.59	709.56	189.8	697.13	181.195
68	3.4	-85	10	1	756.42	171.63	787.97	183.11	772.195	177.37
68	3.4	-86	10	1	794.67	170.68	835.78	204.15	815.225	187.415
68	3.4	3	4	1	0	148.040898	251.728352	283.987274	125.864176	216.014086
68	3.4	4	1	1	878.214217	187.77022	1046.057011	296.427426	962.135614	242.098823
68	3.4	6	1	1	554.793644	169.566744	604.087339	200.543286	579.4404915	185.055015
68	3.4	8	1	1	814.284537	175.570983	857.461057	215.939547	835.872797	195.755265
69	3.45	-87	10	1	654.1	171.63	680.87	188.85	667.485	180.24
69	3.45	-88	10	1	728.68	169.72	754.5	180.24	741.59	174.98
69	3.45	-89	10	1	768.85	170.68	811.88	202.23	790.365	186.455
69	3.45	3	4	1	0	147.077397	198.685427	282.45246	99.3427135	214.7649285
69	3.45	4	1	1	850.398971	186.054608	1023.2602	297.030639	936.8295855	241.5426235
69	3.45	6	1	1	521.709262	167.780441	573.332486	199.853539	547.520874	183.81699
69	3.45	8	1	1	789.537397	173.338709	832.635837	213.734389	811.086617	193.536549
70	3.5	-90	10	1	631.15	171.63	656.97	189.8	644.06	180.715
70	3.5	-91	10	1	707.65	167.81	739.2	183.11	723.425	175.46
70	3.5	-92	10	1	753.55	169.72	787.97	200.32	770.76	185.02
70	3.5	3	4	1	0	146.674594	137.536096	278.897218	68.768048	212.785906
70	3.5	4	1	1	841.212306	186.41108	1026.705532	303.60513	933.958919	245.008105
70	3.5	6	1	1	491.911062	165.417579	545.965111	198.75589	518.9380865	182.0867345
70	3.5	8	1	1	771.34964	172.976946	814.792985	213.9415	793.0713125	193.459223
71	3.55	-93	10	1	612.02	170.68	638.8	186.93	625.41	178.805
71	3.55	-94	10	1	692.35	168.77	721.03	178.33	706.69	173.55
71	3.55	-95	10	1	733.47	171.63	769.8	198.41	751.635	185.02
71	3.55	3	4	1	0	151.942316	86.78225	283.130717	43.391125	217.5365165
71	3.55	4	1	1	831.294728	186.797038	1030.468261	310.931964	930.8814945	248.864501
71	3.55	5	1	1	797.554005	175.208323	916.916299	252.801955	857.235152	214.005139
71	3.55	6	1	1	464.625309	165.158671	521.756556	199.82714	493.1909325	182.4929055
71	3.55	8	1	1	756.077761	172.603182	800.004353	214.208558	778.041057	193.40587
72	3.6	-96	10	1	592.9	173.55	618.72	192.67	605.81	183.11
72	3.6	-97	10	1	678	172.59	703.82	183.11	690.91	177.85
72	3.6	-98	10	1	720.08	175.46	750.68	199.37	735.38	187.415
72	3.6	4	1	1	820.548581	187.216225	1034.603605	319.148196	927.576093	253.1822105
72	3.6	5	1	1	787.556726	176.088073	915.064015	256.887719	851.3103705	216.487896
72	3.6	6	1	1	439.86145	169.365432	500.220185	205.491191	470.0408175	187.4283115
72	3.6	8	1	1	742.40531	172.198866	786.911944	214.50707	764.658627	193.352968
73	3.65	-99	10	1	576.64	176.42	607.24	194.58	591.94	185.5
73	3.65	-100	10	1	665.57	173.55	690.43	188.85	678	181.2
73	3.65	4	1	1	818.177411	187.766383	1051.578321	329.359994	934.877866	258.5631885
73	3.65	5	1	1	776.976271	176.913312	912.97974	261.372809	844.9780055	219.1430605
73	3.65	6	1	1	414.172996	172.295098	478.172887	210.048066	446.1729415	191.171582
73	3.65	8	1	1	732.543815	174.171303	777.904735	217.393469	755.224275	195.782386
74	3.7	-101	10	1	561.34	177.37	588.12	195.54	574.73	186.455
74	3.7	-102	10	1	654.1	174.5	679.92	187.89	667.01	181.195
74	3.7	4	1	1	815.582793	188.371579	1071.123573	341.198705	943.353183	264.785142
74	3.7	5	1	1	772.018158	177.683167	916.857122	266.44079	844.43764	222.0619785
74	3.7	6	1	1	392.445591	171.914405	460.131423	211.421792	426.288507	191.6680985
74	3.7	8	1	1	722.238179	176.082605	768.493609	220.410618	745.365894	198.2466115
75	3.75	-103	10	1	549.87	175.46	581.42	195.54	565.645	185.5
75	3.75	-104	10	1	647.4	173.55	671.31	185.98	659.355	179.765
75	3.75	4	1	1	818.88205	189.136498	1108.235076	358.176377	963.558563	273.6564375
75	3.75	5	1	1	766.713608	178.507156	921.076023	272.018063	843.8948155	225.2626095
75	3.75	6	1	1	369.918857	171.477877	441.743018	212.925	405.8309375	192.2014385
75	3.75	8	1	1	717.037746	175.194135	764.365086	220.487641	740.701416	197.840888
76	3.8	-105	10	1	535.52	171.63	567.08	196.5	551.3	184.065
76	3.8	-106	10	1	635.93	172.59	663.66	188.85	649.795	180.72
76	3.8	4	1	1	822.659325	190.004106	1153.495602	369	988.0774635	279.502053
76	3.8	5	1	1	767.431647	178.685858	932.429293	277.695058	849.93047	228.190458
76	3.8	6	1	1	345.081696	170.996998	421.704067	214.582406	383.3928815	192.789702
76	3.8	8	1	1	711.606744	175.858751	760.156876	222.460011	735.88181	199.159381
77	3.85	-107	10	1	626.37	175.46	656.01	188.85	641.19	182.155
77	3.85	4	1	1	832.497451	191.011537	1218.939117	369	1025.718284	280.0057685
77	3.85	5	1	1	768.214092	178.879947	945.16652	284.073548	856.690306	231.4767475
77	3.85	6	1	1	317.558491	170.464658	399.782582	216.419049	358.6705365	193.4418535
77	3.85	7	1	1	527.139206	178.428606	556.521942	196.240743	541.830574	187.3346745
77	3.85	8	1	1	705.87439	176.5553	755.714203	224.541902	730.7942965	200.548601
78	3.9	-108	10	1	626.37	175.46	656.01	188.85	641.19	182.155
78	3.9	4	1	1	843.990456	192.184869	1223	369	1033.495228	280.5924345
78	3.9	5	1	1	769.069764	179.091498	959.557662	291.292122	864.313713	235.19181
78	3.9	6	1	1	292.397136	170.212938	381.488855	218.814785	336.9429955	194.5138615
78	3.9	7	1	1	516.581964	178.021211	547.038308	196.286325	531.810136	187.153768
78	3.9	8	1	1	699.814862	177.28614	751.016981	226.742693	725.4159215	202.0144165
79	3.95	-109	10	1	619.67	175.46	643.58	187.89	631.625	181.675
79	3.95	4	1	1	857.592517	193.568739	1223	369	1040.2962585	281.2843695
79	3.95	5	1	1	770.009168	179.322978	975.947778	299.528441	872.978473	239.4257095
79	3.95	6	1	1	264.160407	169.930394	361.265536	221.50328	312.7129715	195.716837
79	3.95	7	1	1	505.440308	177.592753	537.063454	196.334395	521.251881	186.963574
79	3.95	8	1	1	698.761593	176.215339	751.591163	227.084891	725.176378	201.650115
80	4	-110	10	1	612.02	173.55	641.67	185.98	626.845	179.765
80	4	4	1	1	877.578171	195.286639	1223	369	1050.2890855	282.1433195
80	4	5	1	1	771.044919	179.57734	994.785102	309.01407	882.9150105	244.295705
80	4	6	1	1	237.85652	169.548143	343.266248	224.266403	290.561384	196.907273
80	4	7	1	1	497.514852	176.986226	530.210233	196.239077	513.8625425	186.6126515
80	4	8	1	1	697.639929	175.030806	752.201853	227.4495	724.920891	201.240153
81	4.05	-111	10	1	612.02	173.55	641.67	185.98	626.845	179.765
81	4.05	4	1	1	902.39041	197.40617	1223	369	1062.695205	283.203085
81	4.05	5	1	1	777.853845	179.349892	1028.563842	321.234719	903.2088435	250.2923055
81	4.05	6	1	1	208.137581	169.116169	323.286301	227.388182	265.711941	198.2521755
81	4.05	7	1	1	489.108117	176.345396	522.968594	196.13792	506.0383555	186.241658
81	4.05	8	1	1	696.442856	173.614988	752.852754	227.838812	724.647805	200.7269
82	4.1	-112	10	1	603.42	171.63	635.93	185.98	619.675	178.805
82	4.1	4	1	1	934.011541	200.086755	1223	369	1078.5057705	284.5433775
82	4.1	5	1	1	785.567069	179.092641	1069.535983	336.089509	927.551526	257.591075
82	4.1	6	1	1	174.292171	168.624094	300.97986	230.943296	237.6360155	199.783695
82	4.1	7	1	1	480.821914	177.473278	515.914874	197.960991	498.368394	187.7171345
82	4.1	8	1	1	697.042703	173.77384	755.605268	230.053801	726.3239855	201.9138205
83	4.15	-113	10	1	603.42	171.63	635.93	185.98	619.675	178.805
83	4.15	4	1	1	998.463847	204.971604	1223	369	1110.7319235	286.985802
83	4.15	5	1	1	794.377292	178.799308	1120.273879	354.533014	957.3255855	266.666161
83	4.15	6	1	1	136.729658	168.897843	277.163957	235.950429	206.9468075	202.424136
83	4.15	7	1	1	470.314413	176.230271	507.051089	197.29595	488.682751	186.7631105
83	4.15	8	1	1	697.690629	173.945259	758.574376	232.443491	728.1325025	203.194375
84	4.2	-114	10	1	603.42	171.63	635.93	185.98	619.675	178.805
84	4.2	4	1	1	1092.284833	214.035515	1223	369	1157.6424165	291.5177575
84	4.2	5	1	1	807.312876	178.405912	1189.626547	369	998.4697115	273.702956
84	4.2	6	1	1	92.98352	169.216821	250.146174	241.781583	171.564847	205.499202
84	4.2	7	1	1	462.397514	176.0339	500.732917	197.807432	481.5652155	186.920666
84	4.2	8	1	1	697.819606	174.130795	761.786769	235.029398	729.8031875	204.5800965
85	4.25	-115	10	1	598.63	170.68	629.23	185.02	613.93	177.85
85	4.25	5	1	1	822.389789	177.948365	1223	369	1022.6948945	273.4741825
85	4.25	6	1	1	46.166613	169.529604	222.763838	248.410302	134.4652255	208.969953
85	4.25	7	1	1	453.917245	175.824573	493.997794	198.355308	473.9575195	187.0899405
85	4.25	8	1	1	700.617791	173.493331	768.403747	237.231015	734.510769	205.362173
86	4.3	-116	10	1	598.63	170.68	629.23	185.02	613.93	177.85
86	4.3	5	1	1	843.67308	177.967596	1223	369	1033.33654	273.483798
86	4.3	6	1	1	0	169.902322	191.257491	256.272996	95.6287455	213.087659
86	4.3	7	1	1	446.185373	176.493412	488.088473	199.912241	467.136923	188.2028265
86	4.3	8	1	1	703.641144	172.793096	775.671882	239.647344	739.656513	206.22022
87	4.35	-117	10	1	598.63	170.68	629.23	185.02	613.93	177.85
87	4.35	5	1	1	869.707438	177.991101	1223	369	1046.353719	273.4955505
87	4.35	6	1	1	0	170.962415	154.938188	266.33948	77.469094	218.6509475
87	4.35	7	1	1	437.856235	177.209894	481.758167	201.589445	459.807201	189.3996695
87	4.35	8	1	1	706.917976	172.020341	783.692274	242.311405	745.305125	207.165873
88	4.4	-118	10	1	598.63	170.68	629.23	185.02	613.93	177.85
88	4.4	5	1	1	902.283604	178.020484	1223	369	1062.641802	273.510242
88	4.4	6	1	1	0	172.654885	112.084874	269.278416	56.042437	220.9666505
88	4.4	7	1	1	429.10364	178.183143	475.277761	203.619862	452.1907005	190.9015025
88	4.4	8	1	1	711.409268	172.295271	793.725392	246.460787	752.56733	209.378029
89	4.45	-119	10	1	596.72	171.63	634.02	189.8	615.37	180.715
89	4.45	5	1	1	944.22156	178.058265	1223	369	1083.61078	273.5291325
89	4.45	6	1	1	0	174.408172	60.760625	271.448644	30.3803125	222.928408
89	4.45	7	1	1	419.621245	179.230914	468.301226	205.819546	443.9612355	192.52523
89	4.45	8	1	1	716.320655	172.602727	804.944754	251.097009	760.6327045	211.849868
90	4.5	-120	10	1	586.2	172.59	635.93	189.8	611.065	181.195
90	4.5	5	1	1	1000.234105	178.177823	1223	369	1111.6170525	273.5889115
90	4.5	7	1	1	409.810695	179.853187	461.200257	207.650207	435.505476	193.751697
90	4.5	8	1	1	721.713965	172.948844	817.573961	256.374896	769.643963	214.66187
91	4.55	-121	10	1	586.2	172.59	635.93	189.8	611.065	181.195
91	4.55	5	1	1	1083.820646	179.941098	1223	369	1153.410323	274.470549
91	4.55	7	1	1	399.1114	180.526828	453.513213	209.646677	426.3123065	195.0867525
91	4.55	8	1	1	728.561059	173.200522	832.670778	262.664564	780.6159185	217.932543
92	4.6	-122	10	1	586.2	172.59	635.93	189.8	611.065	181.195
92	4.6	5	1	1	1211.201936	182.649773	1223	369	1217.100968	275.8248865
92	4.6	7	1	1	386.939956	180.982398	444.744746	211.525987	415.842351	196.2541925
92	4.6	8	1	1	736.210155	173.491515	850.122384	269.935522	793.1662695	221.7135185
93	4.65	-123	10	1	587.16	174.5	610.11	190.76	598.635	182.63
93	4.65	-124	10	1	615.85	172.59	639.75	184.07	627.8	178.33
93	4.65	7	1	1	373.974398	180.874107	435.470441	212.872909	404.7224195	196.873508
93	4.65	8	1	1	744.810851	173.831812	870.526471	278.436839	807.668661	226.1343255
93	4.65	9	1	1	706.221548	174.423098	804.576896	244.450693	755.399222	209.4368955
94	4.7	-125	10	1	587.16	174.5	610.11	190.76	598.635	182.63
94	4.7	-126	10	1	615.85	172.59	639.75	184.07	627.8	178.33
94	4.7	7	1	1	359.699907	180.755991	425.35475	214.355777	392.5273285	197.555884
94	4.7	8	1	1	754.108853	174.224332	895.792475	288.926451	824.950664	231.5753915
94	4.7	9	1	1	710.902155	174.112061	817.037266	248.672928	763.9697105	211.3924945
95	4.75	-127	10	1	587.16	174.5	610.11	190.76	598.635	182.63
95	4.75	-128	10	1	615.85	172.59	639.75	184.07	627.8	178.33
95	4.75	7	1	1	344.387556	178.136428	414.715019	213.219544	379.5512875	195.677986
95	4.75	8	1	1	764.797148	174.700809	926.457367	301.657518	845.6272575	238.1791635
95	4.75	9	1	1	716.095431	173.758034	831.218708	253.479628	773.6570695	213.618831
96	4.8	-129	10	1	615.85	172.59	639.75	184.07	627.8	178.33
96	4.8	-130	10	1	581.42	177.37	601.5	193.63	591.46	185.5
96	4.8	7	1	1	327.68732	180.466175	403.1587	217.816514	365.42301	199.1413445
96	4.8	8	1	1	777.212753	175.291403	964.458623	317.434421	870.835688	246.362912
96	4.8	9	1	1	722.256355	174.118068	847.796411	259.740589	785.026383	216.9293285
96	4.8	10	1	1	693.979026	175.658252	766.808541	232.383425	730.3937835	204.0208385
97	4.85	-131	10	1	612.98	172.59	644.53	187.89	628.755	180.24
97	4.85	-132	10	1	569.95	175.46	601.5	193.63	585.725	184.545
97	4.85	7	1	1	308.882082	180.73328	390.292508	220.353049	349.587295	200.5431645
97	4.85	8	1	1	792.000892	175.899584	1013.759986	338.013843	902.880439	256.9567135
97	4.85	9	1	1	729.171401	174.535663	867.022582	267.002632	798.0969915	220.7691475
97	4.85	10	1	1	697.53065	175.692301	775.272675	235.31719	736.4016625	205.5047455
98	4.9	-133	10	1	612.98	172.59	644.53	187.89	628.755	180.24
98	4.9	-134	10	1	569.95	175.46	601.5	193.63	585.725	184.545
98	4.9	7	1	1	287.679929	181.03012	375.994224	223.212834	331.8370765	202.121477
98	4.9	8	1	1	809.716514	176.521401	1079.028746	365.258413	944.37263	270.889907
98	4.9	9	1	1	736.98805	175.025822	889.587016	275.526719	813.287533	225.2762705
98	4.9	10	1	1	701.438664	175.563926	784.053764	238.61571	742.746214	207.089818
99	4.95	-135	10	1	612.98	172.59	644.53	187.89	628.755	180.24
99	4.95	-136	10	1	569.95	175.46	601.5	193.63	585.725	184.545
99	4.95	7	1	1	263.591329	181.361953	360.010714	226.461864	311.8010215	203.9119085
99	4.95	8	1	1	831.324392	177.282915	1169.227425	369	1000.2759085	273.1414575
99	4.95	9	1	1	745.894924	175.609256	916.441812	285.673145	831.168368	230.6412005
99	4.95	10	1	1	705.734735	175.419732	793.916164	242.316316	749.8254495	208.868024
100	5	-137	10	1	569.95	175.46	601.5	193.63	585.725	184.545
100	5	-138	10	1	607.24	173.55	623.5	187.89	615.37	180.72
100	5	-139	10	1	630.19	169.72	649.32	185.02	639.755	177.37
100	5	7	1	1	236.024506	180.827276	342.263992	229.073872	289.144249	204.950574
100	5	8	1	1	861.61623	178.266256	1223	369	1042.308115	273.633128
100	5	9	1	1	756.137204	176.31539	948.939183	297.953775	852.5381935	237.1345825
100	5	10	1	1	710.479629	175.256603	805.072797	246.497303	757.776213	210.876953
101	5.05	-140	10	1	607.24	173.55	623.5	187.89	615.37	180.72
101	5.05	-141	10	1	630.19	169.72	649.32	185.02	639.755	177.37
101	5.05	7	1	1	204.200034	180.222175	322.180523	232.089148	263.1902785	206.1556615
101	5.05	8	1	1	901.168942	179.559173	1223	369	1062.084471	274.2795865
101	5.05	9	1	1	768.880096	176.441494	992.042223	313.474933	880.4611595	244.9582135
101	5.05	10	1	1	715.7475	175.070546	817.796412	251.258703	766.771956	213.1646245
101	5.05	14	1	1	567.967323	171.943558	588.776138	187.405058	578.3717305	179.674308
102	5.1	-142	10	1	604.37	170.68	620.63	185.02	612.5	177.85
102	5.1	-143	10	1	630.19	168.77	649.32	180.24	639.755	174.505
102	5.1	7	1	1	167.048986	179.531756	299.266256	235.608897	233.157621	207.5703265
102	5.1	8	1	1	954.995697	181.33517	1223	369	1088.9978485	275.167585
102	5.1	9	1	1	784.053041	176.604152	1047.624854	333.494291	915.8389475	255.0492215
102	5.1	10	1	1	722.208024	176.403941	834.576844	258.667523	778.392434	217.535732
102	5.1	11	1	1	690.649091	176.948281	773.558008	236.491402	732.1035495	206.7198415
102	5.1	14	1	1	564.589079	170.511488	586.581838	186.605182	575.5854585	178.558335
103	5.15	-144	10	1	604.37	170.68	620.63	185.02	612.5	177.85
103	5.15	-145	10	1	630.19	168.77	649.32	180.24	639.755	174.505
103	5.15	7	1	1	124.400405	180.654829	273.812851	242.015458	199.106628	211.3351435
103	5.15	8	1	1	1032.524684	184.781437	1223	369	1127.762342	276.8907185
103	5.15	9	1	1	802.424408	176.801543	1122.024321	360.298667	962.2243645	268.550105
103	5.15	10	1	1	729.521049	177.632257	854.264839	267.354182	791.892944	222.4932195
103	5.15	11	1	1	694.506309	177.524708	783.161268	240.714446	738.8337885	209.119577
103	5.15	14	1	1	560.244684	171.850791	583.075149	188.692544	571.6599165	180.2716675
104	5.2	-146	10	1	604.37	170.68	620.63	185.02	612.5	177.85
104	5.2	-147	10	1	630.19	168.77	649.32	180.24	639.755	174.505
104	5.2	7	1	1	73.299718	181.959725	244.240238	249.691054	158.769978	215.8253895
104	5.2	8	1	1	1155.871301	187.775545	1223	369	1189.4356505	278.3877725
104	5.2	9	1	1	825.124663	176.978479	1223	369	1024.0623315	272.9892395
104	5.2	10	1	1	737.867217	179.034638	877.687805	277.68047	807.777511	228.357554
104	5.2	11	1	1	698.748766	178.158977	793.97429	245.466493	746.361528	211.812735
104	5.2	14	1	1	555.475674	173.320851	579.250663	190.984313	567.3631685	182.152582
105	5.25	-148	10	1	604.37	170.68	620.63	185.02	612.5	177.85
105	5.25	-149	10	1	634.97	168.77	658.88	185.02	646.925	176.895
105	5.25	7	1	1	10.958014	183.494487	209.46045	259.153746	110.209232	221.3241165
105	5.25	9	1	1	853.888172	177.202608	1223	369	1038.444086	273.101304
105	5.25	10	1	1	747.482081	180.650907	906.019988	290.158992	826.7510345	235.4049495
105	5.25	11	1	1	703.437209	178.860254	806.241047	250.853584	754.839128	214.856919
105	5.25	14	1	1	550.21647	174.941784	575.063237	193.512045	562.6398535	184.2269145
