0.0	0.00	1.0	1.0	0.88	58.0	151.0	220.0	287.0	139.0	219.0
0.0	0.00	2.0	2.0	0.75	479.0	124.0	690.0	382.0	584.0	253.0
1.0	0.04	1.0	1.0	0.88	47.0	151.0	220.0	287.0	139.0	219.0
1.0	0.04	2.0	2.0	0.57	479.0	124.0	690.0	382.0	584.0	253.0
2.0	0.08	1.0	1.0	0.89	80.0	151.0	220.0	287.0	139.0	219.0
2.0	0.08	2.0	2.0	0.65	479.0	124.0	690.0	382.0	584.0	253.0
3.0	10.12	1.0	1.0	0.92	100.0	151.0	220.0	287.0	139.0	219.0
3.0	10.12	2.0	2.0	0.59	479.0	124.0	690.0	382.0	584.0	253.0