<<< STPL Monitoring Tool >>>
DEBUG_MODE is activated.
VERBOSE_MODE is activated.
SHOW_EXE_STAT is activated.
SANITY_CHECK is activated.
BOOLEAN_ROB is activated.
OPTIMIZE_TRJ_BASED_ON_FORMULA is activated.
STPL_SIGNAL_DIM_SIZE = 11
MAX_STPL_FORMULA_SIZE = 1000
MAX_MAP_DATA_SIZE = 100
UX_START = 0
UY_START = 0
U_WIDTH = 1600
U_HEIGHT = 1200
Input Signal File Name: kitti-occlusion-0003.txt
Printing input signal:
0.000	0.000	-1.000	10.000	1.000	320.980	172.900	357.440	195.810	339.210	184.355	
0.000	0.000	-2.000	10.000	1.000	445.980	171.850	457.440	183.310	451.710	177.580	
0.000	0.000	-3.000	10.000	1.000	479.310	166.650	489.730	173.940	484.520	170.295	
0.000	0.000	-4.000	10.000	1.000	527.230	168.730	545.980	180.190	536.605	174.460	
0.000	0.000	0.000	1.000	1.000	894.768	190.650	1241.000	374.000	1067.884	282.325	
0.000	0.000	2.000	1.000	1.000	292.437	176.914	331.777	197.467	312.107	187.190	
1.000	0.050	-5.000	10.000	1.000	320.980	172.900	357.440	195.810	339.210	184.355	
1.000	0.050	-6.000	10.000	1.000	440.770	166.650	454.310	183.310	447.540	174.980	
1.000	0.050	-7.000	10.000	1.000	480.350	164.560	490.770	176.020	485.560	170.290	
1.000	0.050	-8.000	10.000	1.000	525.150	165.600	545.980	178.100	535.565	171.850	
1.000	0.050	0.000	1.000	1.000	880.107	190.173	1241.000	374.000	1060.553	282.087	
1.000	0.050	2.000	1.000	1.000	285.843	175.734	326.596	196.784	306.219	186.259	
2.000	0.100	-9.000	10.000	1.000	320.980	172.900	357.440	195.810	339.210	184.355	
2.000	0.100	-10.000	10.000	1.000	479.310	167.690	491.810	178.100	485.560	172.895	
2.000	0.100	-11.000	10.000	1.000	441.810	172.900	455.350	183.310	448.580	178.105	
2.000	0.100	-12.000	10.000	1.000	529.310	168.730	545.980	179.150	537.645	173.940	
2.000	0.100	0.000	1.000	1.000	866.582	189.734	1241.000	374.000	1053.791	281.867	
2.000	0.100	2.000	1.000	1.000	278.933	176.462	321.186	198.036	300.060	187.249	
3.000	0.150	-13.000	10.000	1.000	309.520	172.900	344.940	199.980	327.230	186.440	
3.000	0.150	-14.000	10.000	1.000	443.900	176.020	455.350	183.310	449.625	179.665	
3.000	0.150	-15.000	10.000	1.000	480.350	170.810	492.850	181.230	486.600	176.020	
3.000	0.150	-16.000	10.000	1.000	529.310	171.850	543.900	180.190	536.605	176.020	
3.000	0.150	0.000	1.000	1.000	854.066	189.329	1241.000	374.000	1047.533	281.664	
3.000	0.150	2.000	1.000	1.000	271.671	177.226	315.520	199.353	293.595	188.290	
4.000	0.200	-17.000	10.000	1.000	309.520	172.900	344.940	199.980	327.230	186.440	
4.000	0.200	-18.000	10.000	1.000	528.270	171.850	545.980	180.190	537.125	176.020	
4.000	0.200	-19.000	10.000	1.000	440.770	173.940	456.400	185.400	448.585	179.670	
4.000	0.200	-20.000	10.000	1.000	479.310	170.810	489.730	182.270	484.520	176.540	
4.000	0.200	0.000	1.000	1.000	842.451	188.953	1241.000	374.000	1041.726	281.477	
4.000	0.200	2.000	1.000	1.000	264.028	178.031	309.580	200.739	286.804	189.385	
5.000	0.250	-21.000	10.000	1.000	304.310	176.020	327.230	201.020	315.770	188.520	
5.000	0.250	-22.000	10.000	1.000	526.190	171.850	549.100	183.310	537.645	177.580	
5.000	0.250	-23.000	10.000	1.000	476.190	168.730	491.810	180.190	484.000	174.460	
5.000	0.250	-24.000	10.000	1.000	443.900	174.980	455.350	185.400	449.625	180.190	
5.000	0.250	0.000	1.000	1.000	831.644	188.605	1241.000	374.000	1036.322	281.302	
5.000	0.250	2.000	1.000	1.000	255.975	178.879	303.344	202.199	279.659	190.539	
6.000	0.300	-25.000	10.000	1.000	457.440	173.940	478.270	183.310	467.855	178.625	
6.000	0.300	-26.000	10.000	1.000	528.270	171.850	545.980	183.310	537.125	177.580	
6.000	0.300	-27.000	10.000	1.000	477.230	168.730	495.980	182.270	486.605	175.500	
6.000	0.300	0.000	1.000	1.000	821.334	187.338	1241.000	374.000	1031.167	280.669	
6.000	0.300	2.000	1.000	1.000	246.347	179.705	295.689	203.661	271.018	191.683	
6.000	0.300	3.000	1.000	1.000	276.433	179.031	319.963	199.373	298.198	189.202	
7.000	0.350	-28.000	10.000	1.000	457.440	173.940	478.270	183.310	467.855	178.625	
7.000	0.350	-29.000	10.000	1.000	528.270	171.850	545.980	183.310	537.125	177.580	
7.000	0.350	-30.000	10.000	1.000	480.350	168.730	490.770	182.270	485.560	175.500	
7.000	0.350	0.000	1.000	1.000	811.756	186.753	1230.610	374.000	1021.183	280.377	
7.000	0.350	2.000	1.000	1.000	236.180	180.577	287.640	205.205	261.910	192.891	
8.000	0.400	-31.000	10.000	1.000	457.440	173.940	478.270	183.310	467.855	178.625	
8.000	0.400	-32.000	10.000	1.000	528.270	171.850	545.980	183.310	537.125	177.580	
8.000	0.400	-33.000	10.000	1.000	477.230	171.850	492.850	182.270	485.040	177.060	
8.000	0.400	0.000	1.000	1.000	802.878	189.892	1190.148	374.000	996.513	281.946	
8.000	0.400	2.000	1.000	1.000	225.902	179.255	279.597	204.588	252.749	191.922	
9.000	0.450	-34.000	10.000	1.000	457.440	173.940	478.270	183.310	467.855	178.625	
9.000	0.450	-35.000	10.000	1.000	528.270	171.850	545.980	183.310	537.125	177.580	
9.000	0.450	-36.000	10.000	1.000	430.350	171.850	447.020	185.400	438.685	178.625	
9.000	0.450	-37.000	10.000	1.000	476.190	168.730	492.850	181.230	484.520	174.980	
9.000	0.450	0.000	1.000	1.000	794.484	185.445	1154.319	374.000	974.401	279.723	
9.000	0.450	2.000	1.000	1.000	215.015	177.855	271.118	203.935	243.066	190.895	
10.000	0.500	-38.000	10.000	1.000	528.270	171.850	545.980	183.310	537.125	177.580	
10.000	0.500	-39.000	10.000	1.000	429.310	170.810	451.190	184.350	440.250	177.580	
10.000	0.500	-40.000	10.000	1.000	459.520	171.850	477.230	179.150	468.375	175.500	
10.000	0.500	-41.000	10.000	1.000	476.190	168.730	490.770	180.190	483.480	174.460	
10.000	0.500	0.000	1.000	1.000	788.210	185.668	1131.214	369.712	959.712	277.690	
11.000	0.550	-42.000	10.000	1.000	459.520	171.850	477.230	179.150	468.375	175.500	
11.000	0.550	-43.000	10.000	1.000	428.270	167.690	447.020	185.400	437.645	176.545	
11.000	0.550	-44.000	10.000	1.000	525.150	168.730	545.980	179.150	535.565	173.940	
11.000	0.550	-45.000	10.000	1.000	477.230	167.690	488.690	179.150	482.960	173.420	
11.000	0.550	0.000	1.000	1.000	782.252	183.442	1098.272	353.478	940.262	268.460	
12.000	0.600	-46.000	10.000	1.000	459.520	171.850	477.230	179.150	468.375	175.500	
12.000	0.600	-47.000	10.000	1.000	428.270	167.690	447.020	185.400	437.645	176.545	
12.000	0.600	-48.000	10.000	1.000	525.150	168.730	545.980	179.150	535.565	173.940	
12.000	0.600	-49.000	10.000	1.000	480.350	167.690	489.730	180.190	485.040	173.940	
12.000	0.600	0.000	1.000	1.000	778.103	183.280	1076.607	345.134	927.355	264.207	
12.000	0.600	2.000	1.000	1.000	181.643	178.966	246.067	207.557	213.855	193.262	
12.000	0.600	3.000	1.000	1.000	222.159	177.229	277.447	201.135	249.803	189.182	
13.000	0.650	-50.000	10.000	1.000	459.520	171.850	477.230	179.150	468.375	175.500	
13.000	0.650	-51.000	10.000	1.000	403.170	167.810	448.330	197.680	425.750	182.745	
13.000	0.650	-52.000	10.000	1.000	525.150	168.730	545.980	179.150	535.565	173.940	
13.000	0.650	-53.000	10.000	1.000	481.400	167.690	493.900	182.270	487.650	174.980	
13.000	0.650	0.000	1.000	1.000	774.176	182.388	1056.869	336.337	915.522	259.363	
13.000	0.650	2.000	1.000	1.000	169.655	180.393	237.294	209.928	203.475	195.161	
13.000	0.650	3.000	1.000	1.000	213.098	178.804	270.745	203.398	241.921	191.101	
14.000	0.700	-54.000	10.000	1.000	459.520	171.850	477.230	179.150	468.375	175.500	
14.000	0.700	-55.000	10.000	1.000	525.150	172.900	548.060	182.270	536.605	177.585	
14.000	0.700	-56.000	10.000	1.000	430.350	173.940	448.060	187.480	439.205	180.710	
14.000	0.700	-57.000	10.000	1.000	483.480	168.730	495.980	182.270	489.730	175.500	
14.000	0.700	0.000	1.000	1.000	770.452	180.770	1038.808	327.060	904.630	253.915	
14.000	0.700	2.000	1.000	1.000	156.851	181.790	227.981	212.461	192.416	197.125	
14.000	0.700	3.000	1.000	1.000	203.502	180.473	263.679	205.795	233.591	193.134	
15.000	0.750	-58.000	10.000	1.000	525.150	172.900	548.060	182.270	536.605	177.585	
15.000	0.750	-59.000	10.000	1.000	430.350	176.020	448.060	189.560	439.205	182.790	
15.000	0.750	-60.000	10.000	1.000	463.690	174.980	474.100	184.350	468.895	179.665	
15.000	0.750	-61.000	10.000	1.000	483.480	170.810	494.940	181.230	489.210	176.020	
15.000	0.750	0.000	1.000	1.000	766.997	184.755	1022.381	327.287	894.689	256.021	
15.000	0.750	2.000	1.000	1.000	143.145	183.252	218.076	215.172	180.610	199.212	
15.000	0.750	3.000	1.000	1.000	193.324	182.092	256.221	208.337	224.772	195.215	
16.000	0.800	-62.000	10.000	1.000	525.150	172.900	548.060	182.270	536.605	177.585	
16.000	0.800	-63.000	10.000	1.000	430.350	176.020	448.060	189.560	439.205	182.790	
16.000	0.800	-64.000	10.000	1.000	463.690	174.980	474.100	184.350	468.895	179.665	
16.000	0.800	-65.000	10.000	1.000	483.480	170.810	494.940	181.230	489.210	176.020	
16.000	0.800	0.000	1.000	1.000	762.167	184.019	1004.049	320.002	883.108	252.010	
16.000	0.800	2.000	1.000	1.000	127.900	183.340	207.129	216.411	167.514	199.876	
16.000	0.800	3.000	1.000	1.000	182.508	183.798	248.335	211.039	215.421	197.418	
17.000	0.850	-66.000	10.000	1.000	525.150	172.900	548.060	182.270	536.605	177.585	
17.000	0.850	-67.000	10.000	1.000	430.350	176.020	448.060	189.560	439.205	182.790	
17.000	0.850	-68.000	10.000	1.000	463.690	174.980	474.100	184.350	468.895	179.665	
17.000	0.850	-69.000	10.000	1.000	483.480	170.810	494.940	181.230	489.210	176.020	
17.000	0.850	0.000	1.000	1.000	757.598	183.322	987.220	313.318	872.409	248.320	
17.000	0.850	2.000	1.000	1.000	111.531	183.434	195.454	217.742	153.492	200.588	
17.000	0.850	3.000	1.000	1.000	174.138	183.745	242.724	211.844	208.431	197.795	
18.000	0.900	-70.000	10.000	1.000	525.150	172.900	548.060	182.270	536.605	177.585	
18.000	0.900	-71.000	10.000	1.000	430.350	176.020	448.060	189.560	439.205	182.790	
18.000	0.900	-72.000	10.000	1.000	463.690	174.980	474.100	184.350	468.895	179.665	
18.000	0.900	-73.000	10.000	1.000	483.480	170.810	494.940	181.230	489.210	176.020	
18.000	0.900	0.000	1.000	1.000	753.271	182.662	971.717	307.165	862.494	244.913	
18.000	0.900	2.000	1.000	1.000	93.908	183.534	182.977	219.174	138.443	201.354	
18.000	0.900	3.000	1.000	1.000	160.145	183.880	232.224	212.935	196.184	198.408	
19.000	0.950	-74.000	10.000	1.000	525.150	172.900	548.060	182.270	536.605	177.585	
19.000	0.950	-75.000	10.000	1.000	430.350	176.020	448.060	189.560	439.205	182.790	
19.000	0.950	-76.000	10.000	1.000	463.690	174.980	474.100	184.350	468.895	179.665	
19.000	0.950	-77.000	10.000	1.000	483.480	170.810	494.940	181.230	489.210	176.020	
19.000	0.950	0.000	1.000	1.000	749.166	182.036	957.388	301.481	853.277	241.758	
19.000	0.950	2.000	1.000	1.000	74.883	183.642	169.612	220.721	122.247	202.181	
19.000	0.950	3.000	1.000	1.000	145.181	184.023	221.066	214.103	183.124	199.063	
20.000	1.000	-78.000	10.000	1.000	430.350	176.020	448.060	189.560	439.205	182.790	
20.000	1.000	-79.000	10.000	1.000	463.690	174.980	474.100	184.350	468.895	179.665	
20.000	1.000	-80.000	10.000	1.000	483.480	170.810	494.940	181.230	489.210	176.020	
20.000	1.000	-81.000	10.000	1.000	527.230	168.730	554.310	182.270	540.770	175.500	
20.000	1.000	0.000	1.000	1.000	745.267	181.441	944.106	296.215	844.686	238.828	
20.000	1.000	2.000	1.000	1.000	54.280	183.757	155.259	222.396	104.769	203.076	
20.000	1.000	3.000	1.000	1.000	129.143	184.176	209.188	215.354	169.165	199.765	
21.000	1.050	-82.000	10.000	1.000	430.350	176.020	448.060	189.560	439.205	182.790	
21.000	1.050	-83.000	10.000	1.000	463.690	174.980	474.100	184.350	468.895	179.665	
21.000	1.050	-84.000	10.000	1.000	483.480	170.810	494.940	181.230	489.210	176.020	
21.000	1.050	-85.000	10.000	1.000	527.230	168.730	554.310	182.270	540.770	175.500	
21.000	1.050	0.000	1.000	1.000	740.420	181.936	930.040	292.499	835.230	237.217	
21.000	1.050	2.000	1.000	1.000	31.615	183.874	139.182	224.153	85.398	204.013	
21.000	1.050	3.000	1.000	1.000	111.911	184.338	196.516	216.698	154.213	200.518	
22.000	1.100	-86.000	10.000	1.000	463.690	174.980	474.100	184.350	468.895	179.665	
22.000	1.100	-87.000	10.000	1.000	483.480	170.810	494.940	181.230	489.210	176.020	
22.000	1.100	-88.000	10.000	1.000	527.230	168.730	554.310	182.270	540.770	175.500	
22.000	1.100	-89.000	10.000	1.000	423.060	177.060	443.900	190.600	433.480	183.830	
22.000	1.100	0.000	1.000	1.000	735.825	182.406	917.022	289.059	826.423	235.732	
22.000	1.100	1.000	1.000	1.000	1192.180	167.565	1241.000	374.000	1216.590	270.783	
22.000	1.100	2.000	1.000	1.000	3.688	184.019	119.443	226.275	61.565	205.147	
22.000	1.100	3.000	1.000	1.000	92.303	186.720	182.036	220.645	137.170	203.682	
23.000	1.150	-90.000	10.000	1.000	463.690	174.980	474.100	184.350	468.895	179.665	
23.000	1.150	-91.000	10.000	1.000	483.480	170.810	494.940	181.230	489.210	176.020	
23.000	1.150	-92.000	10.000	1.000	423.060	177.060	443.900	190.600	433.480	183.830	
23.000	1.150	-93.000	10.000	1.000	537.650	171.850	558.480	182.270	548.065	177.060	
23.000	1.150	0.000	1.000	1.000	731.462	182.852	904.938	285.865	818.200	234.359	
23.000	1.150	1.000	1.000	1.000	1147.132	165.750	1241.000	374.000	1194.066	269.875	
23.000	1.150	2.000	1.000	1.000	0.000	184.162	100.028	228.132	50.014	206.147	
24.000	1.200	-94.000	10.000	1.000	463.690	174.980	474.100	184.350	468.895	179.665	
24.000	1.200	-95.000	10.000	1.000	483.480	170.810	494.940	181.230	489.210	176.020	
24.000	1.200	-96.000	10.000	1.000	423.060	177.060	443.900	190.600	433.480	183.830	
24.000	1.200	-97.000	10.000	1.000	537.650	171.850	558.480	182.270	548.065	177.060	
24.000	1.200	0.000	1.000	1.000	727.315	183.276	893.691	282.893	810.503	233.084	
24.000	1.200	1.000	1.000	1.000	1108.346	163.931	1241.000	374.000	1174.673	268.966	
24.000	1.200	2.000	1.000	1.000	0.000	184.343	75.798	229.562	37.899	206.953	
25.000	1.250	-98.000	10.000	1.000	483.480	170.810	494.940	181.230	489.210	176.020	
25.000	1.250	-99.000	10.000	1.000	423.060	177.060	443.900	190.600	433.480	183.830	
25.000	1.250	-100.000	10.000	1.000	537.650	171.850	558.480	182.270	548.065	177.060	
25.000	1.250	0.000	1.000	1.000	723.368	183.680	883.197	280.119	803.282	231.899	
25.000	1.250	1.000	1.000	1.000	1074.600	162.108	1241.000	374.000	1157.800	268.054	
25.000	1.250	2.000	1.000	1.000	0.000	184.527	51.311	229.507	25.656	207.017	
26.000	1.300	-101.000	10.000	1.000	483.480	170.810	494.940	181.230	489.210	176.020	
26.000	1.300	-102.000	10.000	1.000	537.650	171.850	558.480	182.270	548.065	177.060	
26.000	1.300	-103.000	10.000	1.000	403.270	171.850	434.520	190.600	418.895	181.225	
26.000	1.300	0.000	1.000	1.000	719.523	184.224	872.602	277.535	796.063	230.879	
26.000	1.300	1.000	1.000	1.000	1044.971	160.281	1241.000	374.000	1142.986	267.140	
26.000	1.300	3.000	1.000	1.000	0.000	182.696	115.383	222.340	57.692	202.518	
27.000	1.350	-104.000	10.000	1.000	537.650	171.850	558.480	182.270	548.065	177.060	
27.000	1.350	-105.000	10.000	1.000	403.270	171.850	434.520	190.600	418.895	181.225	
27.000	1.350	-106.000	10.000	1.000	455.350	173.940	491.810	187.480	473.580	180.710	
27.000	1.350	0.000	1.000	1.000	714.012	184.734	860.225	275.128	787.118	229.931	
27.000	1.350	1.000	1.000	1.000	1018.751	158.449	1241.000	374.000	1129.875	266.224	
27.000	1.350	3.000	1.000	1.000	0.000	184.321	93.002	225.858	46.501	205.090	
28.000	1.400	-107.000	10.000	1.000	537.650	171.850	558.480	182.270	548.065	177.060	
28.000	1.400	-108.000	10.000	1.000	403.270	171.850	434.520	190.600	418.895	181.225	
28.000	1.400	-109.000	10.000	1.000	455.350	173.940	491.810	187.480	473.580	180.710	
28.000	1.400	0.000	1.000	1.000	709.669	185.223	849.846	272.874	779.757	229.049	
28.000	1.400	1.000	1.000	1.000	995.857	156.209	1241.000	374.000	1118.429	265.105	
28.000	1.400	3.000	1.000	1.000	0.000	186.093	68.591	228.538	34.295	207.316	
29.000	1.450	-110.000	10.000	1.000	537.650	171.850	558.480	182.270	548.065	177.060	
29.000	1.450	-111.000	10.000	1.000	455.350	173.940	491.810	187.480	473.580	180.710	
29.000	1.450	-112.000	10.000	1.000	392.850	174.980	425.150	194.770	409.000	184.875	
29.000	1.450	0.000	1.000	1.000	705.528	185.690	840.114	270.761	772.821	228.225	
29.000	1.450	1.000	1.000	1.000	975.456	161.120	1241.000	374.000	1108.228	267.560	
29.000	1.450	3.000	1.000	1.000	0.000	188.034	41.859	230.236	20.929	209.135	
30.000	1.500	-113.000	10.000	1.000	537.650	171.850	558.480	182.270	548.065	177.060	
30.000	1.500	-114.000	10.000	1.000	394.940	173.940	419.940	191.650	407.440	182.795	
30.000	1.500	-115.000	10.000	1.000	443.900	172.900	483.480	187.480	463.690	180.190	
30.000	1.500	0.000	1.000	1.000	701.577	186.135	830.969	268.776	766.273	227.456	
30.000	1.500	1.000	1.000	1.000	957.062	161.052	1241.000	374.000	1099.031	267.526	
31.000	1.550	-116.000	10.000	1.000	537.650	171.850	558.480	182.270	548.065	177.060	
31.000	1.550	-117.000	10.000	1.000	387.650	178.100	417.850	195.810	402.750	186.955	
31.000	1.550	-118.000	10.000	1.000	444.940	171.850	484.520	189.560	464.730	180.705	
31.000	1.550	0.000	1.000	1.000	694.463	185.386	819.136	265.344	756.799	225.365	
31.000	1.550	1.000	1.000	1.000	933.234	160.673	1241.000	374.000	1087.117	267.337	
32.000	1.600	-119.000	10.000	1.000	537.650	171.850	558.480	182.270	548.065	177.060	
32.000	1.600	-120.000	10.000	1.000	387.650	178.100	417.850	195.810	402.750	186.955	
32.000	1.600	-121.000	10.000	1.000	444.940	171.850	484.520	189.560	464.730	180.705	
32.000	1.600	0.000	1.000	1.000	687.660	184.670	807.986	262.106	747.823	223.388	
32.000	1.600	1.000	1.000	1.000	911.389	157.060	1241.000	374.000	1076.194	265.530	
33.000	1.650	-122.000	10.000	1.000	377.230	177.060	406.400	191.650	391.815	184.355	
33.000	1.650	-123.000	10.000	1.000	429.310	168.730	480.350	188.520	454.830	178.625	
33.000	1.650	-124.000	10.000	1.000	525.150	168.730	554.310	182.270	539.730	175.500	
33.000	1.650	0.000	1.000	1.000	681.147	183.985	797.463	259.048	739.305	221.517	
33.000	1.650	1.000	1.000	1.000	891.343	158.331	1241.000	374.000	1066.172	266.165	
34.000	1.700	-125.000	10.000	1.000	377.230	177.060	406.400	191.650	391.815	184.355	
34.000	1.700	-126.000	10.000	1.000	429.310	168.730	480.350	188.520	454.830	178.625	
34.000	1.700	-127.000	10.000	1.000	525.150	168.730	554.310	182.270	539.730	175.500	
34.000	1.700	0.000	1.000	1.000	674.907	183.329	787.515	256.155	731.211	219.742	
34.000	1.700	1.000	1.000	1.000	872.802	153.094	1241.000	374.000	1056.901	263.547	
35.000	1.750	-128.000	10.000	1.000	377.230	177.060	406.400	191.650	391.815	184.355	
35.000	1.750	-129.000	10.000	1.000	429.310	168.730	480.350	188.520	454.830	178.625	
35.000	1.750	-130.000	10.000	1.000	525.150	168.730	554.310	182.270	539.730	175.500	
35.000	1.750	0.000	1.000	1.000	668.922	182.701	778.096	253.413	723.509	218.057	
35.000	1.750	1.000	1.000	1.000	855.703	155.547	1241.000	374.000	1048.351	264.774	
36.000	1.800	-131.000	10.000	1.000	429.310	168.730	480.350	188.520	454.830	178.625	
36.000	1.800	-132.000	10.000	1.000	525.150	168.730	554.310	182.270	539.730	175.500	
36.000	1.800	-133.000	10.000	1.000	351.190	173.940	392.850	197.900	372.020	185.920	
36.000	1.800	0.000	1.000	1.000	661.652	182.576	765.709	251.174	713.680	216.875	
36.000	1.800	1.000	1.000	1.000	834.788	156.408	1241.000	374.000	1037.894	265.204	
37.000	1.850	-134.000	10.000	1.000	429.310	168.730	480.350	188.520	454.830	178.625	
37.000	1.850	-135.000	10.000	1.000	351.190	173.940	392.850	197.900	372.020	185.920	
37.000	1.850	-136.000	10.000	1.000	512.650	169.770	542.850	182.270	527.750	176.020	
37.000	1.850	0.000	1.000	1.000	654.708	182.456	754.024	249.064	704.366	215.760	
37.000	1.850	1.000	1.000	1.000	815.352	157.159	1241.000	374.000	1028.176	265.579	
38.000	1.900	-137.000	10.000	1.000	512.650	169.770	542.850	182.270	527.750	176.020	
38.000	1.900	-138.000	10.000	1.000	337.650	174.980	381.400	193.730	359.525	184.355	
38.000	1.900	-139.000	10.000	1.000	414.730	168.730	462.650	188.520	438.690	178.625	
38.000	1.900	0.000	1.000	1.000	648.070	182.342	742.981	247.071	695.526	214.706	
38.000	1.900	1.000	1.000	1.000	797.243	158.030	1219.693	374.000	1008.468	266.015	
39.000	1.950	-140.000	10.000	1.000	512.650	169.770	542.850	182.270	527.750	176.020	
39.000	1.950	-141.000	10.000	1.000	319.920	177.140	371.990	199.120	345.955	188.130	
39.000	1.950	-142.000	10.000	1.000	402.230	166.650	461.600	189.560	431.915	178.105	
39.000	1.950	0.000	1.000	1.000	641.718	182.233	732.531	245.185	687.124	213.709	
39.000	1.950	1.000	1.000	1.000	780.329	159.029	1169.741	374.000	975.035	266.514	
40.000	2.000	-143.000	10.000	1.000	302.120	177.320	362.120	199.810	332.120	188.565	
40.000	2.000	-144.000	10.000	1.000	402.230	166.650	461.600	189.560	431.915	178.105	
40.000	2.000	-145.000	10.000	1.000	499.100	168.730	528.270	183.310	513.685	176.020	
40.000	2.000	0.000	1.000	1.000	635.633	182.128	722.626	243.398	679.129	212.763	
40.000	2.000	1.000	1.000	1.000	764.496	159.923	1124.938	374.000	944.717	266.961	
41.000	2.050	-146.000	10.000	1.000	402.230	166.650	461.600	189.560	431.915	178.105	
41.000	2.050	-147.000	10.000	1.000	310.560	172.900	365.770	196.850	338.165	184.875	
41.000	2.050	-148.000	10.000	1.000	495.980	164.560	527.230	185.400	511.605	174.980	
41.000	2.050	0.000	1.000	1.000	628.509	182.544	712.500	242.395	670.505	212.469	
41.000	2.050	1.000	1.000	1.000	748.348	161.415	1078.232	365.686	913.290	263.550	
42.000	2.100	-149.000	10.000	1.000	402.230	166.650	461.600	189.560	431.915	178.105	
42.000	2.100	-150.000	10.000	1.000	310.560	172.900	365.770	196.850	338.165	184.875	
42.000	2.100	-151.000	10.000	1.000	491.810	171.850	527.230	185.400	509.520	178.625	
42.000	2.100	0.000	1.000	1.000	621.663	182.943	702.867	241.439	662.265	212.191	
42.000	2.100	1.000	1.000	1.000	733.362	162.741	1036.721	355.375	885.041	259.058	
43.000	2.150	-152.000	10.000	1.000	491.810	171.850	527.230	185.400	509.520	178.625	
43.000	2.150	-153.000	10.000	1.000	293.900	174.980	347.020	202.060	320.460	188.520	
43.000	2.150	-154.000	10.000	1.000	386.600	166.650	441.810	189.560	414.205	178.105	
43.000	2.150	0.000	1.000	1.000	615.079	183.327	693.691	240.529	654.385	211.928	
43.000	2.150	1.000	1.000	1.000	719.417	163.928	999.585	346.180	859.501	255.054	
44.000	2.200	-155.000	10.000	1.000	491.810	171.850	527.230	185.400	509.520	178.625	
44.000	2.200	-156.000	10.000	1.000	293.900	174.980	347.020	202.060	320.460	188.520	
44.000	2.200	-157.000	10.000	1.000	387.650	169.770	437.650	193.730	412.650	181.750	
44.000	2.200	0.000	1.000	1.000	608.741	183.696	684.939	239.660	646.840	211.678	
44.000	2.200	1.000	1.000	1.000	706.408	164.996	966.166	337.928	836.287	251.462	
45.000	2.250	-158.000	10.000	1.000	491.810	171.850	527.230	185.400	509.520	178.625	
45.000	2.250	-159.000	10.000	1.000	387.650	169.770	437.650	193.730	412.650	181.750	
45.000	2.250	-160.000	10.000	1.000	278.270	178.100	336.600	202.060	307.435	190.080	
45.000	2.250	0.000	1.000	1.000	602.637	184.052	676.584	238.831	639.610	211.441	
45.000	2.250	1.000	1.000	1.000	694.244	165.963	935.933	330.481	815.088	248.222	
46.000	2.300	-161.000	10.000	1.000	491.810	171.850	527.230	185.400	509.520	178.625	
46.000	2.300	-162.000	10.000	1.000	266.580	178.440	336.760	207.730	301.670	193.085	
46.000	2.300	-163.000	10.000	1.000	380.350	170.810	432.440	191.650	406.395	181.230	
46.000	2.300	-164.000	10.000	1.000	168.900	173.940	190.770	210.400	179.835	192.170	
46.000	2.300	0.000	1.000	1.000	596.896	184.432	668.917	238.204	632.906	211.318	
46.000	2.300	1.000	1.000	1.000	682.189	166.826	908.412	323.979	795.300	245.403	
47.000	2.350	-165.000	10.000	1.000	479.310	173.940	514.730	188.520	497.020	181.230	
47.000	2.350	-166.000	10.000	1.000	379.310	172.900	425.150	192.690	402.230	182.795	
47.000	2.350	-167.000	10.000	1.000	263.690	178.100	328.270	204.150	295.980	191.125	
47.000	2.350	-168.000	10.000	1.000	160.560	171.850	185.560	206.230	173.060	189.040	
47.000	2.350	0.000	1.000	1.000	591.338	184.800	661.550	237.602	626.444	211.201	
47.000	2.350	1.000	1.000	1.000	670.841	167.617	883.225	318.035	777.033	242.826	
48.000	2.400	-169.000	10.000	1.000	479.310	173.940	514.730	188.520	497.020	181.230	
48.000	2.400	-170.000	10.000	1.000	379.310	172.900	425.150	192.690	402.230	182.795	
48.000	2.400	-171.000	10.000	1.000	263.690	178.100	328.270	204.150	295.980	191.125	
48.000	2.400	-172.000	10.000	1.000	149.100	173.940	178.270	209.350	163.685	191.645	
48.000	2.400	0.000	1.000	1.000	585.956	185.156	654.465	237.023	620.211	211.089	
48.000	2.400	1.000	1.000	1.000	660.142	168.343	860.087	312.580	760.114	240.461	
49.000	2.450	-173.000	10.000	1.000	479.310	173.940	514.730	188.520	497.020	181.230	
49.000	2.450	-174.000	10.000	1.000	379.310	172.900	425.150	192.690	402.230	182.795	
49.000	2.450	-175.000	10.000	1.000	245.870	175.660	317.360	207.970	281.615	191.815	
49.000	2.450	-176.000	10.000	1.000	149.100	173.940	178.270	209.350	163.685	191.645	
49.000	2.450	0.000	1.000	1.000	581.710	183.333	648.787	233.824	615.248	208.579	
49.000	2.450	1.000	1.000	1.000	650.036	169.012	838.758	307.557	744.397	238.284	
50.000	2.500	-177.000	10.000	1.000	479.310	173.940	514.730	188.520	497.020	181.230	
50.000	2.500	-178.000	10.000	1.000	237.800	173.950	303.670	207.680	270.735	190.815	
50.000	2.500	-179.000	10.000	1.000	359.520	164.560	412.650	188.520	386.085	176.540	
50.000	2.500	-180.000	10.000	1.000	130.350	166.650	165.770	209.350	148.060	188.000	
50.000	2.500	0.000	1.000	1.000	577.596	181.567	643.320	230.744	610.458	206.155	
50.000	2.500	1.000	1.000	1.000	640.475	169.631	819.034	302.916	729.755	236.273	
51.000	2.550	-181.000	10.000	1.000	229.590	172.620	289.460	207.530	259.525	190.075	
51.000	2.550	-182.000	10.000	1.000	353.220	163.930	407.330	190.160	380.275	177.045	
51.000	2.550	-183.000	10.000	1.000	124.100	167.690	155.350	203.100	139.725	185.395	
51.000	2.550	-184.000	10.000	1.000	487.650	169.770	518.900	183.310	503.275	176.540	
51.000	2.550	0.000	1.000	1.000	573.829	180.380	637.682	228.627	605.755	204.503	
51.000	2.550	1.000	1.000	1.000	632.767	169.952	801.576	297.946	717.172	233.949	
52.000	2.600	-185.000	10.000	1.000	222.030	173.460	274.790	209.560	248.410	191.510	
52.000	2.600	-186.000	10.000	1.000	365.770	165.600	410.560	190.600	388.165	178.100	
52.000	2.600	-187.000	10.000	1.000	119.940	167.690	150.150	206.230	135.045	186.960	
52.000	2.600	-188.000	10.000	1.000	488.690	170.810	516.810	184.350	502.750	177.580	
52.000	2.600	-189.000	10.000	1.000	265.770	176.020	300.150	195.810	282.960	185.915	
52.000	2.600	0.000	1.000	1.000	570.174	179.208	632.243	226.585	601.208	202.896	
52.000	2.600	1.000	1.000	1.000	625.487	170.249	785.427	293.357	705.457	231.803	
53.000	2.650	-190.000	10.000	1.000	213.110	174.200	260.260	211.910	236.685	193.055	
53.000	2.650	-191.000	10.000	1.000	365.770	165.600	410.560	190.600	388.165	178.100	
53.000	2.650	-192.000	10.000	1.000	119.940	167.690	150.150	206.230	135.045	186.960	
53.000	2.650	-193.000	10.000	1.000	482.440	170.810	499.100	182.270	490.770	176.540	
53.000	2.650	-194.000	10.000	1.000	507.440	169.770	518.900	183.310	513.170	176.540	
53.000	2.650	-195.000	10.000	1.000	262.650	178.100	299.100	196.850	280.875	187.475	
53.000	2.650	0.000	1.000	1.000	566.626	178.076	626.992	224.615	596.809	201.345	
53.000	2.650	1.000	1.000	1.000	618.601	170.525	770.445	289.106	694.523	229.815	
54.000	2.700	-196.000	10.000	1.000	204.120	176.430	246.080	215.760	225.100	196.095	
54.000	2.700	-197.000	10.000	1.000	365.770	165.600	410.560	190.600	388.165	178.100	
54.000	2.700	-198.000	10.000	1.000	109.520	170.810	133.480	207.270	121.500	189.040	
54.000	2.700	-199.000	10.000	1.000	485.560	173.940	502.230	187.480	493.895	180.710	
54.000	2.700	-200.000	10.000	1.000	252.230	178.100	293.900	201.020	273.065	189.560	
54.000	2.700	0.000	1.000	1.000	563.396	180.447	622.172	226.211	592.784	203.329	
54.000	2.700	1.000	1.000	1.000	612.078	170.781	756.508	285.156	684.293	227.969	
55.000	2.750	-201.000	10.000	1.000	109.520	170.810	133.480	207.270	121.500	189.040	
55.000	2.750	-202.000	10.000	1.000	199.100	181.230	237.650	202.060	218.375	191.645	
55.000	2.750	-203.000	10.000	1.000	362.650	173.940	411.600	190.600	387.125	182.270	
55.000	2.750	-204.000	10.000	1.000	487.650	174.980	505.350	187.480	496.500	181.230	
55.000	2.750	0.000	1.000	1.000	560.257	182.539	617.512	227.753	588.885	205.146	
55.000	2.750	1.000	1.000	1.000	605.889	171.021	743.511	281.478	674.700	226.249	
55.000	2.750	4.000	1.000	1.000	244.309	181.670	285.508	201.034	264.909	191.352	
56.000	2.800	-205.000	10.000	1.000	82.111	169.180	110.400	211.890	96.255	190.535	
56.000	2.800	-206.000	10.000	1.000	363.760	174.540	418.290	199.630	391.025	187.085	
56.000	2.800	-207.000	10.000	1.000	203.270	176.020	233.480	209.350	218.375	192.685	
56.000	2.800	-208.000	10.000	1.000	487.650	173.940	502.230	187.480	494.940	180.710	
56.000	2.800	0.000	1.000	1.000	557.881	182.807	613.312	227.350	585.597	205.078	
56.000	2.800	1.000	1.000	1.000	601.733	171.500	733.286	278.039	667.509	224.769	
56.000	2.800	4.000	1.000	1.000	239.590	182.121	282.010	201.890	260.800	192.005	
57.000	2.850	-209.000	10.000	1.000	360.170	174.740	416.230	200.290	388.200	187.515	
57.000	2.850	-210.000	10.000	1.000	83.479	177.060	117.850	209.350	100.665	193.205	
57.000	2.850	-211.000	10.000	1.000	185.560	180.190	227.230	209.350	206.395	194.770	
57.000	2.850	-212.000	10.000	1.000	488.690	173.940	501.190	190.600	494.940	182.270	
57.000	2.850	0.000	1.000	1.000	555.570	183.068	609.241	226.959	582.406	205.014	
57.000	2.850	1.000	1.000	1.000	597.794	171.947	723.751	274.837	660.773	223.392	
57.000	2.850	4.000	1.000	1.000	234.688	182.587	278.386	202.778	256.537	192.683	
58.000	2.900	-213.000	10.000	1.000	356.770	174.050	414.600	199.790	385.685	186.920	
58.000	2.900	-214.000	10.000	1.000	177.230	181.230	222.020	210.400	199.625	195.815	
58.000	2.900	-215.000	10.000	1.000	81.396	176.020	117.850	208.310	99.623	192.165	
58.000	2.900	-216.000	10.000	1.000	487.650	173.940	505.350	186.440	496.500	180.190	
58.000	2.900	0.000	1.000	1.000	554.118	182.552	606.211	225.663	580.165	204.107	
58.000	2.900	1.000	1.000	1.000	594.056	172.365	714.840	271.847	654.448	222.106	
58.000	2.900	4.000	1.000	1.000	229.494	182.224	274.537	202.781	252.015	192.502	
59.000	2.950	-217.000	10.000	1.000	163.920	180.870	223.140	215.220	193.530	198.045	
59.000	2.950	-218.000	10.000	1.000	357.440	171.850	416.810	191.650	387.125	181.750	
59.000	2.950	-219.000	10.000	1.000	488.690	173.940	507.440	190.600	498.065	182.270	
59.000	2.950	0.000	1.000	1.000	552.706	182.050	603.272	224.406	577.989	203.228	
59.000	2.950	1.000	1.000	1.000	590.504	172.756	706.493	269.049	648.498	220.903	
59.000	2.950	4.000	1.000	1.000	224.091	181.846	270.546	202.785	247.318	192.316	
60.000	3.000	-220.000	10.000	1.000	155.750	180.630	219.450	216.580	187.600	198.605	
60.000	3.000	-221.000	10.000	1.000	352.770	171.120	416.740	194.900	384.755	183.010	
60.000	3.000	-222.000	10.000	1.000	490.770	170.810	509.520	188.520	500.145	179.665	
60.000	3.000	0.000	1.000	1.000	551.330	181.561	600.421	223.188	575.875	202.375	
60.000	3.000	1.000	1.000	1.000	587.123	173.124	698.657	266.425	642.890	219.774	
60.000	3.000	4.000	1.000	1.000	218.468	181.455	266.404	202.788	242.436	192.122	
61.000	3.050	-223.000	10.000	1.000	145.650	180.480	214.680	218.360	180.165	199.420	
61.000	3.050	-224.000	10.000	1.000	357.440	167.690	394.940	196.850	376.190	182.270	
61.000	3.050	-225.000	10.000	1.000	495.980	177.060	512.650	189.560	504.315	183.310	
61.000	3.050	0.000	1.000	1.000	551.971	179.909	603.272	223.511	577.621	201.710	
61.000	3.050	1.000	1.000	1.000	583.113	173.707	690.651	264.507	636.882	219.107	
61.000	3.050	4.000	1.000	1.000	212.724	180.709	262.213	202.474	237.468	191.591	
62.000	3.100	-226.000	10.000	1.000	134.530	178.790	208.940	218.680	171.735	198.735	
62.000	3.100	-227.000	10.000	1.000	357.440	169.770	393.900	193.730	375.670	181.750	
62.000	3.100	-228.000	10.000	1.000	497.020	173.940	516.810	187.480	506.915	180.710	
62.000	3.100	0.000	1.000	1.000	550.193	180.956	600.003	223.782	575.098	202.369	
62.000	3.100	1.000	1.000	1.000	579.268	174.260	683.059	262.689	631.163	218.475	
62.000	3.100	4.000	1.000	1.000	206.724	179.898	257.850	202.146	232.287	191.022	
63.000	3.150	-229.000	10.000	1.000	121.890	178.760	202.200	220.710	162.045	199.735	
63.000	3.150	-230.000	10.000	1.000	355.350	167.690	387.650	190.600	371.500	179.145	
63.000	3.150	-231.000	10.000	1.000	402.230	167.690	423.060	193.730	412.645	180.710	
63.000	3.150	-232.000	10.000	1.000	492.850	173.940	518.900	189.560	505.875	181.750	
63.000	3.150	0.000	1.000	1.000	548.468	181.857	596.847	224.043	572.658	202.950	
63.000	3.150	1.000	1.000	1.000	575.578	174.786	675.849	260.964	625.713	217.875	
63.000	3.150	4.000	1.000	1.000	198.634	179.674	251.655	202.432	225.145	191.053	
64.000	3.200	-233.000	10.000	1.000	106.980	178.630	194.390	223.070	150.685	200.850	
64.000	3.200	-234.000	10.000	1.000	317.450	166.550	400.960	199.000	359.205	182.775	
64.000	3.200	-235.000	10.000	1.000	498.060	173.940	515.770	187.480	506.915	180.710	
64.000	3.200	-236.000	10.000	1.000	405.350	176.020	430.350	186.440	417.850	181.230	
64.000	3.200	0.000	1.000	1.000	546.796	182.693	593.799	224.296	570.297	203.494	
64.000	3.200	1.000	1.000	1.000	572.035	175.285	668.993	259.325	620.514	217.305	
64.000	3.200	4.000	1.000	1.000	190.297	179.941	245.315	203.237	217.806	191.589	
64.000	3.200	5.000	4.000	1.000	360.562	169.403	387.449	193.792	374.006	181.597	
65.000	3.250	-237.000	10.000	1.000	97.021	173.940	165.770	216.650	131.395	195.295	
65.000	3.250	-238.000	10.000	1.000	407.440	176.020	426.190	190.600	416.815	183.310	
65.000	3.250	-239.000	10.000	1.000	500.150	177.060	511.600	186.440	505.875	181.750	
65.000	3.250	1.000	1.000	1.000	568.629	175.761	662.466	257.766	615.548	216.763	
65.000	3.250	4.000	1.000	1.000	181.300	182.514	238.463	206.526	209.881	194.520	
65.000	3.250	5.000	4.000	1.000	355.450	170.024	383.609	195.241	369.530	182.632	
66.000	3.300	-240.000	10.000	1.000	74.755	176.030	162.650	221.200	118.703	198.615	
66.000	3.300	-241.000	10.000	1.000	401.190	182.270	426.190	194.770	413.690	188.520	
66.000	3.300	-242.000	10.000	1.000	501.190	181.230	516.810	190.600	509.000	185.915	
66.000	3.300	1.000	1.000	1.000	566.120	179.031	657.321	259.256	611.720	219.143	
66.000	3.300	4.000	1.000	1.000	172.325	185.543	231.732	210.468	202.029	198.005	
66.000	3.300	5.000	4.000	1.000	349.822	174.032	379.372	200.146	364.597	187.089	
67.000	3.350	-243.000	10.000	1.000	55.252	178.890	154.420	226.420	104.836	202.655	
67.000	3.350	-244.000	10.000	1.000	401.190	182.270	426.190	194.770	413.690	188.520	
67.000	3.350	-245.000	10.000	1.000	501.190	181.230	516.810	190.600	509.000	185.915	
67.000	3.350	1.000	1.000	1.000	563.699	181.988	652.396	260.681	608.047	221.334	
67.000	3.350	4.000	1.000	1.000	162.460	187.917	224.299	213.734	193.380	200.826	
67.000	3.350	5.000	4.000	1.000	344.380	176.047	375.399	203.114	359.890	189.580	
68.000	3.400	-246.000	10.000	1.000	36.766	175.660	147.010	228.610	91.888	202.135	
68.000	3.400	-247.000	10.000	1.000	401.190	182.270	426.190	194.770	413.690	188.520	
68.000	3.400	-248.000	10.000	1.000	501.190	181.230	516.810	190.600	509.000	185.915	
68.000	3.400	1.000	1.000	1.000	561.047	178.262	647.292	255.053	604.170	216.658	
68.000	3.400	4.000	1.000	1.000	152.701	184.708	217.069	210.865	184.885	197.786	
68.000	3.400	5.000	4.000	1.000	337.709	172.068	370.389	200.143	354.049	186.106	
69.000	3.450	-249.000	10.000	1.000	16.120	170.800	138.710	227.070	77.415	198.935	
69.000	3.450	-250.000	10.000	1.000	406.400	173.940	439.730	190.600	423.065	182.270	
69.000	3.450	-251.000	10.000	1.000	504.310	173.940	516.810	185.400	510.560	179.670	
69.000	3.450	1.000	1.000	1.000	558.486	174.525	642.399	249.661	600.443	212.093	
69.000	3.450	4.000	1.000	1.000	142.413	181.342	209.484	207.840	175.949	194.591	
69.000	3.450	5.000	4.000	1.000	330.516	167.778	365.016	196.940	347.766	182.359	
70.000	3.500	-252.000	10.000	1.000	1.000	167.660	129.570	225.790	65.285	196.725	
70.000	3.500	-253.000	10.000	1.000	406.400	173.940	439.730	190.600	423.065	182.270	
70.000	3.500	-254.000	10.000	1.000	504.310	173.940	516.810	185.400	510.560	179.670	
70.000	3.500	1.000	1.000	1.000	556.011	170.939	637.704	244.489	596.858	207.714	
70.000	3.500	4.000	1.000	1.000	131.330	179.222	201.321	206.408	166.325	192.815	
70.000	3.500	5.000	4.000	1.000	323.198	163.389	359.646	193.676	341.422	178.532	
71.000	3.550	-255.000	10.000	1.000	1.000	167.590	121.090	226.830	61.045	197.210	
71.000	3.550	-256.000	10.000	1.000	406.400	173.940	439.730	190.600	423.065	182.270	
71.000	3.550	-257.000	10.000	1.000	507.440	172.900	519.940	181.230	513.690	177.065	
71.000	3.550	-258.000	10.000	1.000	357.440	173.940	387.650	192.690	372.545	183.315	
71.000	3.550	1.000	1.000	1.000	554.698	172.180	634.638	244.397	594.668	208.289	
71.000	3.550	4.000	1.000	1.000	120.077	179.414	193.208	207.378	156.642	193.396	
71.000	3.550	5.000	4.000	1.000	315.197	163.926	353.798	195.449	334.497	179.687	
72.000	3.600	-259.000	10.000	1.000	1.000	168.810	112.350	230.340	56.675	199.575	
72.000	3.600	-260.000	10.000	1.000	406.400	173.940	439.730	190.600	423.065	182.270	
72.000	3.600	-261.000	10.000	1.000	507.440	172.900	522.020	184.350	514.730	178.625	
72.000	3.600	-262.000	10.000	1.000	344.940	177.060	385.560	193.730	365.250	185.395	
72.000	3.600	1.000	1.000	1.000	553.424	173.378	631.682	244.308	592.553	208.843	
72.000	3.600	4.000	1.000	1.000	108.161	179.617	184.666	208.405	146.414	194.011	
72.000	3.600	5.000	4.000	1.000	306.518	164.508	347.494	197.373	327.006	180.941	
73.000	3.650	-263.000	10.000	1.000	1.000	168.990	102.910	234.660	51.955	201.825	
73.000	3.650	-264.000	10.000	1.000	406.400	173.940	439.730	190.600	423.065	182.270	
73.000	3.650	-265.000	10.000	1.000	500.150	172.900	522.020	187.480	511.085	180.190	
73.000	3.650	-266.000	10.000	1.000	347.020	177.060	386.600	193.730	366.810	185.395	
73.000	3.650	1.000	1.000	1.000	552.187	174.533	628.829	244.221	590.508	209.377	
73.000	3.650	4.000	1.000	1.000	95.524	179.832	175.660	209.495	135.592	194.663	
73.000	3.650	5.000	4.000	1.000	297.069	165.142	340.679	199.468	318.874	182.305	
74.000	3.700	-267.000	10.000	1.000	500.150	172.900	522.020	187.480	511.085	180.190	
74.000	3.700	-268.000	10.000	1.000	338.070	179.260	383.790	202.850	360.930	191.055	
74.000	3.700	-269.000	10.000	1.000	409.520	173.940	437.650	192.690	423.585	183.315	
74.000	3.700	-270.000	10.000	1.000	1.000	168.730	62.458	226.020	31.729	197.375	
74.000	3.700	1.000	1.000	1.000	550.986	175.649	626.074	244.138	588.530	209.894	
74.000	3.700	4.000	1.000	1.000	81.757	181.294	165.853	211.946	123.805	196.620	
74.000	3.700	5.000	4.000	1.000	286.744	165.835	333.288	201.757	310.016	183.796	
75.000	3.750	-271.000	10.000	1.000	334.480	177.750	380.830	202.910	357.655	190.330	
75.000	3.750	-272.000	10.000	1.000	409.520	173.940	437.650	192.690	423.585	183.315	
75.000	3.750	-273.000	10.000	1.000	507.440	173.940	527.230	183.310	517.335	178.625	
75.000	3.750	1.000	1.000	1.000	549.819	176.728	623.412	244.058	586.615	210.393	
75.000	3.750	4.000	1.000	1.000	67.799	178.888	156.092	210.463	111.946	194.676	
75.000	3.750	5.000	4.000	1.000	275.937	164.827	325.773	202.462	300.855	183.644	
76.000	3.800	-274.000	10.000	1.000	330.500	177.160	377.820	202.810	354.160	189.985	
76.000	3.800	-275.000	10.000	1.000	409.520	173.940	437.650	192.690	423.585	183.315	
76.000	3.800	-276.000	10.000	1.000	514.730	173.940	531.400	183.310	523.065	178.625	
76.000	3.800	1.000	1.000	1.000	550.201	176.588	622.018	242.944	586.109	209.766	
76.000	3.800	4.000	1.000	1.000	53.403	178.700	146.181	211.290	99.792	194.995	
76.000	3.800	5.000	4.000	1.000	264.047	163.717	317.577	203.237	290.812	183.477	
77.000	3.850	-277.000	10.000	1.000	406.010	174.610	435.320	195.580	420.665	185.095	
77.000	3.850	-278.000	10.000	1.000	517.850	171.850	532.440	186.440	525.145	179.145	
77.000	3.850	-279.000	10.000	1.000	339.730	174.980	389.730	194.770	364.730	184.875	
77.000	3.850	1.000	1.000	1.000	550.574	176.452	620.661	241.861	585.618	209.156	
77.000	3.850	4.000	1.000	1.000	38.052	178.498	135.688	212.172	86.870	195.335	
77.000	3.850	5.000	4.000	1.000	250.904	162.490	308.604	204.095	279.754	183.293	
78.000	3.900	-280.000	10.000	1.000	403.680	175.020	434.670	195.410	419.175	185.215	
78.000	3.900	-281.000	10.000	1.000	519.940	171.850	536.600	186.440	528.270	179.145	
78.000	3.900	-282.000	10.000	1.000	333.480	177.060	387.650	192.690	360.565	184.875	
78.000	3.900	1.000	1.000	1.000	550.940	176.320	619.339	240.808	585.140	208.564	
78.000	3.900	4.000	1.000	1.000	21.646	178.283	124.558	213.115	73.102	195.699	
78.000	3.900	5.000	4.000	1.000	236.297	161.127	298.737	205.048	267.517	183.088	
79.000	3.950	-283.000	10.000	1.000	518.900	168.730	540.770	189.560	529.835	179.145	
79.000	3.950	-284.000	10.000	1.000	332.440	177.060	387.650	197.900	360.045	187.480	
79.000	3.950	-285.000	10.000	1.000	414.730	174.980	449.100	191.650	431.915	183.315	
79.000	3.950	1.000	1.000	1.000	551.298	176.191	618.051	239.785	584.675	207.988	
79.000	3.950	4.000	1.000	1.000	4.073	178.053	112.732	214.124	58.403	196.089	
79.000	3.950	5.000	4.000	1.000	219.824	159.082	287.707	205.591	253.765	182.336	
80.000	4.000	-286.000	10.000	1.000	523.060	172.900	539.730	185.400	531.395	179.150	
80.000	4.000	-287.000	10.000	1.000	412.650	171.850	439.730	190.600	426.190	181.225	
80.000	4.000	-288.000	10.000	1.000	335.560	173.940	390.770	192.690	363.165	183.315	
80.000	4.000	1.000	1.000	1.000	551.649	176.066	616.795	238.789	584.222	207.427	
80.000	4.000	4.000	1.000	1.000	0.000	177.805	100.143	215.034	50.072	196.420	
80.000	4.000	5.000	4.000	1.000	200.478	157.047	274.770	206.467	237.624	181.757	
81.000	4.050	-289.000	10.000	1.000	522.020	169.770	544.940	191.650	533.480	180.710	
81.000	4.050	-290.000	10.000	1.000	334.520	172.900	391.810	191.650	363.165	182.275	
81.000	4.050	1.000	1.000	1.000	553.311	175.921	617.247	237.792	585.279	206.857	
81.000	4.050	4.000	1.000	1.000	0.000	177.042	86.138	215.491	43.069	196.266	
81.000	4.050	5.000	4.000	1.000	178.551	154.740	260.321	207.460	219.436	181.100	
82.000	4.100	-291.000	10.000	1.000	334.520	171.850	392.850	192.690	363.685	182.270	
82.000	4.100	-292.000	10.000	1.000	423.060	171.850	440.770	185.400	431.915	178.625	
82.000	4.100	-293.000	10.000	1.000	528.270	173.940	542.850	183.310	535.560	178.625	
82.000	4.100	1.000	1.000	1.000	554.586	175.780	617.685	236.822	586.136	206.301	
82.000	4.100	4.000	1.000	1.000	0.000	176.314	71.143	215.353	35.571	195.833	
82.000	4.100	5.000	4.000	1.000	152.983	152.942	243.643	209.440	198.313	181.191	
83.000	4.150	-294.000	10.000	1.000	328.270	168.730	392.850	192.690	360.560	180.710	
83.000	4.150	-295.000	10.000	1.000	528.270	174.980	551.190	187.480	539.730	181.230	
83.000	4.150	1.000	1.000	1.000	555.825	175.643	618.111	235.878	586.968	205.761	
83.000	4.150	4.000	1.000	1.000	0.000	175.622	55.051	214.852	27.525	195.237	
83.000	4.150	5.000	4.000	1.000	123.473	150.867	224.754	211.725	174.114	181.296	
84.000	4.200	-296.000	10.000	1.000	328.270	168.730	392.850	192.690	360.560	180.710	
84.000	4.200	-297.000	10.000	1.000	531.400	172.900	549.100	188.520	540.250	180.710	
84.000	4.200	1.000	1.000	1.000	557.032	175.509	618.526	234.958	587.779	205.234	
84.000	4.200	4.000	1.000	1.000	0.000	174.919	37.736	214.358	18.868	194.638	
84.000	4.200	5.000	4.000	1.000	89.033	148.444	203.184	214.392	146.109	181.418	
85.000	4.250	-298.000	10.000	1.000	328.270	168.730	392.850	192.690	360.560	180.710	
85.000	4.250	-299.000	10.000	1.000	531.400	171.850	553.270	186.440	542.335	179.145	
85.000	4.250	-300.000	10.000	1.000	426.190	170.810	440.770	186.440	433.480	178.625	
85.000	4.250	1.000	1.000	1.000	558.209	175.379	618.930	234.062	588.570	204.720	
85.000	4.250	4.000	1.000	1.000	0.000	174.204	19.055	213.868	9.527	194.036	
85.000	4.250	5.000	4.000	1.000	43.959	144.992	174.763	217.123	109.361	181.058	
86.000	4.300	-301.000	10.000	1.000	328.270	168.730	392.850	192.690	360.560	180.710	
86.000	4.300	-302.000	10.000	1.000	426.190	170.810	440.770	186.440	433.480	178.625	
86.000	4.300	-303.000	10.000	1.000	525.150	167.690	556.400	183.310	540.775	175.500	
86.000	4.300	1.000	1.000	1.000	559.120	175.083	619.101	233.049	589.110	204.066	
86.000	4.300	5.000	4.000	1.000	0.000	142.012	141.510	221.485	70.755	181.749	
87.000	4.350	-304.000	10.000	1.000	328.270	168.730	392.850	192.690	360.560	180.710	
87.000	4.350	-305.000	10.000	1.000	426.190	170.810	440.770	186.440	433.480	178.625	
87.000	4.350	-306.000	10.000	1.000	526.190	164.560	556.400	184.350	541.295	174.455	
87.000	4.350	1.000	1.000	1.000	560.010	174.795	619.267	232.060	589.638	203.427	
87.000	4.350	5.000	4.000	1.000	0.000	139.428	102.070	225.218	51.035	182.323	
88.000	4.400	-307.000	10.000	1.000	328.270	168.730	392.850	192.690	360.560	180.710	
88.000	4.400	-308.000	10.000	1.000	426.190	170.810	440.770	186.440	433.480	178.625	
88.000	4.400	-309.000	10.000	1.000	526.190	164.560	556.400	184.350	541.295	174.455	
88.000	4.400	1.000	1.000	1.000	560.878	174.513	619.429	231.095	590.154	202.804	
88.000	4.400	5.000	4.000	1.000	0.000	140.026	54.541	226.165	27.271	183.095	
89.000	4.450	-310.000	10.000	1.000	426.190	170.810	440.770	186.440	433.480	178.625	
89.000	4.450	-311.000	10.000	1.000	526.190	164.560	556.400	184.350	541.295	174.455	
89.000	4.450	-312.000	10.000	1.000	308.480	169.770	389.730	190.600	349.105	180.185	
89.000	4.450	1.000	1.000	1.000	561.726	174.238	619.588	230.152	590.657	202.195	
90.000	4.500	-313.000	10.000	1.000	308.480	169.770	389.730	190.600	349.105	180.185	
90.000	4.500	-314.000	10.000	1.000	535.560	165.600	560.560	183.310	548.060	174.455	
90.000	4.500	-315.000	10.000	1.000	427.230	170.810	444.940	183.310	436.085	177.060	
90.000	4.500	1.000	1.000	1.000	562.554	173.969	619.743	229.231	591.148	201.600	
91.000	4.550	-316.000	10.000	1.000	308.480	169.770	389.730	190.600	349.105	180.185	
91.000	4.550	-317.000	10.000	1.000	427.230	170.810	444.940	183.310	436.085	177.060	
91.000	4.550	-318.000	10.000	1.000	527.230	170.810	559.520	184.350	543.375	177.580	
91.000	4.550	1.000	1.000	1.000	562.923	174.079	619.376	228.629	591.150	201.354	
92.000	4.600	-319.000	10.000	1.000	308.480	169.770	389.730	190.600	349.105	180.185	
92.000	4.600	-320.000	10.000	1.000	427.230	170.810	444.940	183.310	436.085	177.060	
92.000	4.600	-321.000	10.000	1.000	527.230	170.810	559.520	184.350	543.375	177.580	
92.000	4.600	1.000	1.000	1.000	563.283	174.187	619.019	228.042	591.151	201.114	
93.000	4.650	-322.000	10.000	1.000	427.230	170.810	444.940	183.310	436.085	177.060	
93.000	4.650	-323.000	10.000	1.000	551.190	169.770	565.770	183.310	558.480	176.540	
93.000	4.650	-324.000	10.000	1.000	502.230	172.900	528.270	182.270	515.250	177.585	
93.000	4.650	-325.000	10.000	1.000	302.230	162.480	383.480	194.770	342.855	178.625	
93.000	4.650	1.000	1.000	1.000	563.634	174.291	618.670	227.470	591.152	200.880	
94.000	4.700	-326.000	10.000	1.000	427.230	170.810	444.940	183.310	436.085	177.060	
94.000	4.700	-327.000	10.000	1.000	551.190	170.810	566.810	184.350	559.000	177.580	
94.000	4.700	-328.000	10.000	1.000	301.190	165.600	373.060	192.690	337.125	179.145	
94.000	4.700	-329.000	10.000	1.000	504.310	170.810	522.020	181.230	513.165	176.020	
94.000	4.700	1.000	1.000	1.000	563.976	174.393	618.331	226.912	591.153	200.652	
95.000	4.750	-330.000	10.000	1.000	427.230	170.810	444.940	183.310	436.085	177.060	
95.000	4.750	-331.000	10.000	1.000	301.190	165.600	373.060	192.690	337.125	179.145	
95.000	4.750	-332.000	10.000	1.000	501.190	170.810	519.940	182.270	510.565	176.540	
95.000	4.750	1.000	1.000	1.000	564.310	174.493	617.999	226.367	591.154	200.430	
96.000	4.800	-333.000	10.000	1.000	427.230	170.810	444.940	183.310	436.085	177.060	
96.000	4.800	-334.000	10.000	1.000	290.770	162.480	375.150	192.690	332.960	177.585	
96.000	4.800	-335.000	10.000	1.000	500.150	165.600	520.980	180.190	510.565	172.895	
96.000	4.800	1.000	1.000	1.000	564.663	172.768	617.629	223.918	591.146	198.343	
97.000	4.850	-336.000	10.000	1.000	427.230	170.810	444.940	183.310	436.085	177.060	
97.000	4.850	-337.000	10.000	1.000	276.600	158.290	367.950	198.820	322.275	178.555	
97.000	4.850	-338.000	10.000	1.000	501.190	165.600	518.900	180.190	510.045	172.895	
97.000	4.850	1.000	1.000	1.000	565.008	171.090	617.267	221.535	591.138	196.312	
98.000	4.900	-339.000	10.000	1.000	427.230	170.810	444.940	183.310	436.085	177.060	
98.000	4.900	-340.000	10.000	1.000	501.190	165.600	518.900	180.190	510.045	172.895	
98.000	4.900	-341.000	10.000	1.000	315.770	161.440	360.560	184.350	338.165	172.895	
98.000	4.900	1.000	1.000	1.000	566.177	173.304	617.745	223.081	591.961	198.193	
98.000	4.900	6.000	1.000	1.000	277.202	168.671	320.926	188.123	299.064	178.397	
99.000	4.950	-342.000	10.000	1.000	427.230	170.810	444.940	183.310	436.085	177.060	
99.000	4.950	-343.000	10.000	1.000	501.190	171.850	519.940	182.270	510.565	177.060	
99.000	4.950	-344.000	10.000	1.000	553.270	171.850	567.850	183.310	560.560	177.580	
99.000	4.950	-345.000	10.000	1.000	343.900	168.730	364.730	188.520	354.315	178.625	
99.000	4.950	1.000	1.000	1.000	567.315	175.462	618.210	224.585	592.762	200.024	
99.000	4.950	6.000	1.000	1.000	270.250	171.907	315.402	191.798	292.826	181.852	
100.000	5.000	-346.000	10.000	1.000	427.230	170.810	444.940	183.310	436.085	177.060	
100.000	5.000	-347.000	10.000	1.000	501.190	171.850	519.940	182.270	510.565	177.060	
100.000	5.000	-348.000	10.000	1.000	335.560	173.940	365.770	189.560	350.665	181.750	
100.000	5.000	-349.000	10.000	1.000	554.310	174.980	568.900	189.560	561.605	182.270	
100.000	5.000	1.000	1.000	1.000	568.423	177.565	618.662	226.050	593.543	201.808	
100.000	5.000	6.000	1.000	1.000	263.189	172.135	309.833	192.483	286.511	182.309	
100.000	5.000	8.000	1.000	1.000	299.431	172.121	337.305	191.123	318.368	181.622	
101.000	5.050	-350.000	10.000	1.000	501.190	171.850	519.940	182.270	510.565	177.060	
101.000	5.050	-351.000	10.000	1.000	332.440	171.850	359.520	192.690	345.980	182.270	
101.000	5.050	-352.000	10.000	1.000	414.730	176.020	437.650	188.520	426.190	182.270	
101.000	5.050	-353.000	10.000	1.000	554.310	178.100	566.810	190.600	560.560	184.350	
101.000	5.050	1.000	1.000	1.000	568.978	177.715	618.576	225.572	593.777	201.644	
101.000	5.050	6.000	1.000	1.000	255.689	173.989	303.923	194.817	279.806	184.403	
102.000	5.100	-354.000	10.000	1.000	329.310	170.810	356.400	192.690	342.855	181.750	
102.000	5.100	-355.000	10.000	1.000	498.060	174.980	512.650	188.520	505.355	181.750	
102.000	5.100	-356.000	10.000	1.000	550.150	179.150	563.690	187.480	556.920	183.315	
102.000	5.100	1.000	1.000	1.000	569.520	177.861	618.491	225.106	594.005	201.484	
102.000	5.100	6.000	1.000	1.000	247.828	175.933	297.750	197.263	272.789	186.598	
103.000	5.150	-357.000	10.000	1.000	494.940	178.100	510.560	188.520	502.750	183.310	
103.000	5.150	-358.000	10.000	1.000	550.150	174.980	564.730	189.560	557.440	182.270	
103.000	5.150	1.000	1.000	1.000	570.048	178.004	618.408	224.652	594.228	201.328	
103.000	5.150	6.000	1.000	1.000	239.579	177.972	291.294	199.829	265.437	188.901	
104.000	5.200	-359.000	10.000	1.000	494.940	178.100	510.560	188.520	502.750	183.310	
104.000	5.200	-360.000	10.000	1.000	416.810	176.020	435.560	192.690	426.185	184.355	
104.000	5.200	-361.000	10.000	1.000	552.230	178.100	562.650	189.560	557.440	183.830	
104.000	5.200	1.000	1.000	1.000	570.564	178.144	618.326	224.209	594.445	201.176	
104.000	5.200	7.000	1.000	1.000	305.814	177.140	343.967	195.446	324.890	186.293	
105.000	5.250	-362.000	10.000	1.000	494.940	178.100	510.560	188.520	502.750	183.310	
105.000	5.250	-363.000	10.000	1.000	410.040	175.370	428.370	196.960	419.205	186.165	
105.000	5.250	-364.000	10.000	1.000	549.100	174.980	564.730	187.480	556.915	181.230	
105.000	5.250	1.000	1.000	1.000	571.069	178.280	618.245	223.777	594.657	201.028	
105.000	5.250	7.000	1.000	1.000	300.078	177.070	339.395	195.746	319.736	186.408	
106.000	5.300	-365.000	10.000	1.000	494.940	178.100	510.560	188.520	502.750	183.310	
106.000	5.300	-366.000	10.000	1.000	549.100	173.940	561.600	185.400	555.350	179.670	
106.000	5.300	-367.000	10.000	1.000	412.650	176.020	428.270	188.520	420.460	182.270	
106.000	5.300	1.000	1.000	1.000	571.770	177.958	618.321	222.851	595.045	200.404	
106.000	5.300	6.000	1.000	1.000	210.868	177.293	268.815	200.911	239.841	189.102	
106.000	5.300	7.000	1.000	1.000	294.106	176.997	334.648	196.058	314.377	186.528	
106.000	5.300	8.000	1.000	1.000	259.560	177.881	305.614	199.595	282.587	188.738	
107.000	5.350	-368.000	10.000	1.000	494.940	178.100	510.560	188.520	502.750	183.310	
107.000	5.350	-369.000	10.000	1.000	412.650	176.020	428.270	188.520	420.460	182.270	
107.000	5.350	-370.000	10.000	1.000	548.060	174.980	566.810	186.440	557.435	180.710	
107.000	5.350	1.000	1.000	1.000	572.454	177.644	618.394	221.948	595.424	199.796	
107.000	5.350	6.000	1.000	1.000	200.241	177.042	260.562	201.312	230.401	189.177	
107.000	5.350	8.000	1.000	1.000	251.420	177.673	299.179	199.925	275.300	188.799	
108.000	5.400	-371.000	10.000	1.000	494.940	178.100	510.560	188.520	502.750	183.310	
108.000	5.400	-372.000	10.000	1.000	392.220	174.380	424.730	195.430	408.475	184.905	
108.000	5.400	-373.000	10.000	1.000	545.980	174.980	560.560	188.520	553.270	181.750	
108.000	5.400	1.000	1.000	1.000	573.119	177.339	618.465	221.069	595.792	199.204	
108.000	5.400	6.000	1.000	1.000	189.011	176.776	251.880	201.735	220.445	189.256	
108.000	5.400	8.000	1.000	1.000	242.867	177.455	292.443	200.271	267.655	188.863	
109.000	5.450	-374.000	10.000	1.000	494.940	178.100	510.560	188.520	502.750	183.310	
109.000	5.450	-375.000	10.000	1.000	545.980	174.980	560.560	188.520	553.270	181.750	
109.000	5.450	-376.000	10.000	1.000	403.270	172.900	418.900	189.560	411.085	181.230	
109.000	5.450	1.000	1.000	1.000	573.768	177.042	618.535	220.213	596.151	198.627	
109.000	5.450	6.000	1.000	1.000	176.563	177.401	242.319	203.129	209.441	190.265	
109.000	5.450	8.000	1.000	1.000	233.869	177.224	285.384	200.636	259.626	188.930	
110.000	5.500	-377.000	10.000	1.000	403.270	172.900	418.900	189.560	411.085	181.230	
110.000	5.500	-378.000	10.000	1.000	542.850	174.980	558.480	187.480	550.665	181.230	
110.000	5.500	-379.000	10.000	1.000	485.560	173.940	505.350	187.480	495.455	180.710	
110.000	5.500	1.000	1.000	1.000	574.400	176.752	618.603	219.378	596.502	198.065	
110.000	5.500	6.000	1.000	1.000	163.324	178.066	232.204	204.612	197.764	191.339	
110.000	5.500	7.000	1.000	1.000	267.424	178.023	313.710	198.851	290.567	188.437	
110.000	5.500	8.000	1.000	1.000	224.245	177.920	277.876	201.966	251.060	189.943	
111.000	5.550	-380.000	10.000	1.000	403.270	172.900	418.900	189.560	411.085	181.230	
111.000	5.550	-381.000	10.000	1.000	485.560	176.020	503.270	185.400	494.415	180.710	
111.000	5.550	-382.000	10.000	1.000	538.690	177.060	560.560	187.480	549.625	182.270	
111.000	5.550	1.000	1.000	1.000	575.495	177.667	619.200	219.813	597.347	198.740	
111.000	5.550	6.000	1.000	1.000	149.217	178.775	221.486	206.192	185.351	192.483	
111.000	5.550	7.000	1.000	1.000	259.933	178.657	307.907	199.992	283.920	189.324	
111.000	5.550	8.000	1.000	1.000	214.086	178.654	269.984	203.370	242.035	191.012	
112.000	5.600	-383.000	10.000	1.000	485.560	176.020	503.270	185.400	494.415	180.710	
112.000	5.600	-384.000	10.000	1.000	538.690	177.060	560.560	187.480	549.625	182.270	
112.000	5.600	-385.000	10.000	1.000	397.020	173.940	417.850	191.650	407.435	182.795	
112.000	5.600	1.000	1.000	1.000	576.565	178.562	619.783	220.239	598.174	199.400	
112.000	5.600	6.000	1.000	1.000	134.152	179.532	210.109	207.879	172.131	193.705	
112.000	5.600	7.000	1.000	1.000	252.070	179.322	301.839	201.190	276.954	190.256	
112.000	5.600	8.000	1.000	1.000	203.345	179.430	261.680	204.854	232.513	192.142	
113.000	5.650	-386.000	10.000	1.000	392.850	174.980	416.810	194.770	404.830	184.875	
113.000	5.650	-387.000	10.000	1.000	484.520	179.150	504.310	189.560	494.415	184.355	
113.000	5.650	-388.000	10.000	1.000	534.520	178.100	557.440	190.600	545.980	184.350	
113.000	5.650	1.000	1.000	1.000	577.612	179.437	620.354	220.655	598.983	200.046	
113.000	5.650	6.000	1.000	1.000	118.031	180.341	198.011	209.685	158.021	195.013	
113.000	5.650	7.000	1.000	1.000	243.805	180.021	295.488	202.449	269.646	191.235	
113.000	5.650	8.000	1.000	1.000	191.973	180.252	252.930	206.425	222.452	193.338	
114.000	5.700	-389.000	10.000	1.000	392.850	174.980	416.810	194.770	404.830	184.875	
114.000	5.700	-390.000	10.000	1.000	484.520	179.150	504.310	189.560	494.415	184.355	
114.000	5.700	-391.000	10.000	1.000	534.520	178.100	557.440	190.600	545.980	184.350	
114.000	5.700	1.000	1.000	1.000	578.636	180.293	620.912	221.062	599.774	200.678	
114.000	5.700	6.000	1.000	1.000	100.109	179.894	184.665	210.344	142.387	195.119	
114.000	5.700	7.000	1.000	1.000	234.812	178.951	288.608	201.978	261.710	190.464	
114.000	5.700	8.000	1.000	1.000	179.911	181.076	243.698	208.092	211.804	194.584	
115.000	5.750	-392.000	10.000	1.000	392.850	174.980	416.810	194.770	404.830	184.875	
115.000	5.750	-393.000	10.000	1.000	484.520	179.150	504.310	189.560	494.415	184.355	
115.000	5.750	1.000	1.000	1.000	579.638	181.053	621.458	221.461	600.548	201.257	
115.000	5.750	6.000	1.000	1.000	80.785	179.412	170.381	211.054	125.583	195.233	
115.000	5.750	7.000	1.000	1.000	225.323	177.822	281.383	201.481	253.353	189.652	
115.000	5.750	8.000	1.000	1.000	166.422	179.675	233.446	207.534	199.934	193.604	
116.000	5.800	-394.000	10.000	1.000	380.350	178.100	409.520	191.650	394.935	184.875	
116.000	5.800	-395.000	10.000	1.000	481.400	177.060	500.150	189.560	490.775	183.310	
116.000	5.800	-396.000	10.000	1.000	454.310	177.060	472.020	187.480	463.165	182.270	
116.000	5.800	1.000	1.000	1.000	580.159	180.884	621.572	220.877	600.866	200.880	
116.000	5.800	6.000	1.000	1.000	59.886	178.891	155.059	211.822	107.473	195.357	
116.000	5.800	7.000	1.000	1.000	215.297	176.630	273.786	200.956	244.541	188.793	
116.000	5.800	8.000	1.000	1.000	152.011	178.128	222.560	206.938	187.285	192.533	
117.000	5.850	-397.000	10.000	1.000	380.350	178.100	409.520	191.650	394.935	184.875	
117.000	5.850	-398.000	10.000	1.000	481.400	177.060	500.150	189.560	490.775	183.310	
117.000	5.850	-399.000	10.000	1.000	454.310	177.060	472.020	187.480	463.165	182.270	
117.000	5.850	1.000	1.000	1.000	580.670	180.717	621.684	220.304	601.177	200.511	
117.000	5.850	6.000	1.000	1.000	37.212	178.325	138.579	212.656	87.896	195.490	
117.000	5.850	8.000	1.000	1.000	136.579	176.471	210.979	206.299	173.779	191.385	
118.000	5.900	-400.000	10.000	1.000	380.350	178.100	409.520	191.650	394.935	184.875	
118.000	5.900	-401.000	10.000	1.000	481.400	177.060	500.150	189.560	490.775	183.310	
118.000	5.900	-402.000	10.000	1.000	454.310	177.060	472.020	187.480	463.165	182.270	
118.000	5.900	1.000	1.000	1.000	581.172	180.553	621.794	219.742	601.483	200.148	
118.000	5.900	6.000	1.000	1.000	12.527	177.709	120.806	213.563	66.666	195.636	
118.000	5.900	8.000	1.000	1.000	119.752	178.760	198.404	209.689	159.078	194.224	
119.000	5.950	-403.000	10.000	1.000	380.350	178.100	409.520	191.650	394.935	184.875	
119.000	5.950	-404.000	10.000	1.000	481.400	177.060	500.150	189.560	490.775	183.310	
119.000	5.950	-405.000	10.000	1.000	454.310	177.060	472.020	187.480	463.165	182.270	
119.000	5.950	1.000	1.000	1.000	581.664	180.388	621.902	219.191	601.783	199.790	
119.000	5.950	6.000	1.000	1.000	0.000	177.573	100.568	215.000	50.284	196.286	
119.000	5.950	8.000	1.000	1.000	101.639	181.152	184.970	213.338	143.305	197.245	
120.000	6.000	-406.000	10.000	1.000	481.400	177.060	500.150	189.560	490.775	183.310	
120.000	6.000	-407.000	10.000	1.000	454.310	177.060	472.020	187.480	463.165	182.270	
120.000	6.000	-408.000	10.000	1.000	376.190	181.230	399.100	195.810	387.645	188.520	
120.000	6.000	1.000	1.000	1.000	582.147	180.211	622.008	218.650	602.077	199.431	
120.000	6.000	6.000	1.000	1.000	0.000	177.424	78.532	216.440	39.266	196.932	
120.000	6.000	7.000	1.000	1.000	165.743	179.725	236.827	207.400	201.285	193.562	
120.000	6.000	8.000	1.000	1.000	81.130	181.175	169.848	214.696	125.489	197.935	
121.000	6.050	-409.000	10.000	1.000	481.400	177.060	500.150	189.560	490.775	183.310	
121.000	6.050	-410.000	10.000	1.000	454.310	177.060	472.020	187.480	463.165	182.270	
121.000	6.050	-411.000	10.000	1.000	376.190	181.230	399.100	195.810	387.645	188.520	
121.000	6.050	1.000	1.000	1.000	581.889	180.230	621.471	218.399	601.680	199.315	
121.000	6.050	6.000	1.000	1.000	0.000	177.411	54.447	216.482	27.224	196.946	
121.000	6.050	7.000	1.000	1.000	150.219	180.415	225.426	209.138	187.822	194.776	
122.000	6.100	-412.000	10.000	1.000	481.400	177.060	500.150	189.560	490.775	183.310	
122.000	6.100	-413.000	10.000	1.000	454.310	177.060	472.020	187.480	463.165	182.270	
122.000	6.100	-414.000	10.000	1.000	376.190	181.230	399.100	195.810	387.645	188.520	
122.000	6.100	1.000	1.000	1.000	581.636	180.249	620.941	218.152	601.289	199.201	
122.000	6.100	6.000	1.000	1.000	0.000	177.396	28.014	216.528	14.007	196.962	
122.000	6.100	7.000	1.000	1.000	133.478	181.125	213.229	211.011	173.353	196.068	
123.000	6.150	-415.000	10.000	1.000	481.400	177.060	500.150	189.560	490.775	183.310	
123.000	6.150	-416.000	10.000	1.000	454.310	177.060	472.020	187.480	463.165	182.270	
123.000	6.150	-417.000	10.000	1.000	359.520	179.150	390.770	194.770	375.145	186.960	
123.000	6.150	1.000	1.000	1.000	581.386	180.267	620.419	217.908	600.903	199.088	
123.000	6.150	7.000	1.000	1.000	115.366	180.740	200.145	211.808	157.756	196.274	
124.000	6.200	-418.000	10.000	1.000	481.400	177.060	500.150	189.560	490.775	183.310	
124.000	6.200	-419.000	10.000	1.000	454.310	177.060	472.020	187.480	463.165	182.270	
124.000	6.200	-420.000	10.000	1.000	363.690	174.980	383.480	196.850	373.585	185.915	
124.000	6.200	-421.000	10.000	1.000	509.520	177.060	529.310	188.520	519.415	182.790	
124.000	6.200	1.000	1.000	1.000	581.139	180.286	619.904	217.668	600.522	198.977	
124.000	6.200	7.000	1.000	1.000	96.149	180.749	186.266	213.061	141.207	196.905	
124.000	6.200	8.000	1.000	1.000	0.000	181.284	96.295	221.233	48.147	201.259	
125.000	6.250	-422.000	10.000	1.000	481.400	177.060	500.150	189.560	490.775	183.310	
125.000	6.250	-423.000	10.000	1.000	454.310	177.060	472.020	187.480	463.165	182.270	
125.000	6.250	-424.000	10.000	1.000	363.690	174.980	383.480	196.850	373.585	185.915	
125.000	6.250	-425.000	10.000	1.000	507.440	180.190	524.100	189.560	515.770	184.875	
125.000	6.250	1.000	1.000	1.000	580.896	180.304	619.396	217.430	600.146	198.867	
125.000	6.250	7.000	1.000	1.000	75.331	180.759	171.371	214.418	123.351	197.589	
125.000	6.250	8.000	1.000	1.000	0.000	181.240	73.513	222.468	36.757	201.854	
126.000	6.300	-426.000	10.000	1.000	352.230	181.230	380.350	198.940	366.290	190.085	
126.000	6.300	-427.000	10.000	1.000	465.770	180.190	488.690	195.810	477.230	188.000	
126.000	6.300	-428.000	10.000	1.000	492.850	180.190	516.810	191.650	504.830	185.920	
126.000	6.300	1.000	1.000	1.000	581.398	179.520	619.711	216.465	600.555	197.992	
126.000	6.300	7.000	1.000	1.000	52.704	180.771	155.345	215.893	104.024	198.332	
126.000	6.300	8.000	1.000	1.000	0.000	181.191	48.527	222.405	24.263	201.798	
127.000	6.350	-429.000	10.000	1.000	335.590	181.080	373.820	194.870	354.705	187.975	
127.000	6.350	-430.000	10.000	1.000	461.600	178.100	489.730	193.730	475.665	185.915	
127.000	6.350	-431.000	10.000	1.000	490.770	172.900	512.650	190.600	501.710	181.750	
127.000	6.350	1.000	1.000	1.000	581.896	178.744	620.022	215.509	600.959	197.126	
127.000	6.350	7.000	1.000	1.000	28.020	180.783	138.055	217.502	83.037	199.142	
127.000	6.350	8.000	1.000	1.000	0.000	181.138	20.999	222.347	10.499	201.742	
128.000	6.400	-432.000	10.000	1.000	340.770	173.940	369.940	195.810	355.355	184.875	
128.000	6.400	-433.000	10.000	1.000	465.770	179.150	484.520	192.690	475.145	185.920	
128.000	6.400	-434.000	10.000	1.000	491.810	174.980	511.600	189.560	501.705	182.270	
128.000	6.400	1.000	1.000	1.000	582.389	177.975	620.331	214.562	601.360	196.269	
128.000	6.400	7.000	1.000	1.000	0.985	180.796	119.344	219.264	60.165	200.030	
129.000	6.450	-435.000	10.000	1.000	343.900	178.100	375.150	198.940	359.525	188.520	
129.000	6.450	-436.000	10.000	1.000	464.730	174.980	479.310	188.520	472.020	181.750	
129.000	6.450	-437.000	10.000	1.000	483.480	176.020	506.400	189.560	494.940	182.790	
129.000	6.450	1.000	1.000	1.000	582.877	177.214	620.636	213.624	601.756	195.419	
129.000	6.450	7.000	1.000	1.000	0.000	180.805	98.790	220.857	49.395	200.831	
130.000	6.500	-438.000	10.000	1.000	464.730	178.100	481.400	191.650	473.065	184.875	
130.000	6.500	-439.000	10.000	1.000	335.560	173.940	364.730	195.810	350.145	184.875	
130.000	6.500	-440.000	10.000	1.000	482.440	176.020	506.400	187.480	494.420	181.750	
130.000	6.500	1.000	1.000	1.000	583.360	176.461	620.938	212.695	602.149	194.578	
130.000	6.500	7.000	1.000	1.000	0.000	180.815	76.364	222.001	38.182	201.408	
131.000	6.550	-441.000	10.000	1.000	464.730	178.100	481.400	191.650	473.065	184.875	
131.000	6.550	-442.000	10.000	1.000	318.170	176.420	359.430	201.150	338.800	188.785	
131.000	6.550	-443.000	10.000	1.000	482.440	172.900	499.100	188.520	490.770	180.710	
131.000	6.550	1.000	1.000	1.000	583.885	176.766	621.301	212.843	602.593	194.804	
131.000	6.550	7.000	1.000	1.000	0.000	180.825	51.797	221.939	25.898	201.382	
132.000	6.600	-444.000	10.000	1.000	464.730	178.100	481.400	191.650	473.065	184.875	
132.000	6.600	-445.000	10.000	1.000	478.270	176.020	499.100	186.440	488.685	181.230	
132.000	6.600	-446.000	10.000	1.000	329.310	173.940	361.600	194.770	345.455	184.355	
132.000	6.600	-447.000	10.000	1.000	1.000	171.850	96.833	224.980	48.916	198.415	
132.000	6.600	1.000	1.000	1.000	584.405	177.068	621.661	212.991	603.033	195.029	
132.000	6.600	7.000	1.000	1.000	0.000	180.837	24.768	221.884	12.384	201.360	
133.000	6.650	-448.000	10.000	1.000	464.730	178.100	481.400	191.650	473.065	184.875	
133.000	6.650	-449.000	10.000	1.000	481.400	173.940	497.020	186.440	489.210	180.190	
133.000	6.650	-450.000	10.000	1.000	319.940	176.020	359.520	196.850	339.730	186.435	
133.000	6.650	-451.000	10.000	1.000	10.562	170.810	64.729	209.350	37.645	190.080	
133.000	6.650	1.000	1.000	1.000	584.922	177.367	622.018	213.137	603.470	195.252	
134.000	6.700	-452.000	10.000	1.000	319.940	176.020	359.520	196.850	339.730	186.435	
134.000	6.700	-453.000	10.000	1.000	1.188	168.730	54.312	211.440	27.750	190.085	
134.000	6.700	-454.000	10.000	1.000	458.480	174.980	470.980	190.600	464.730	182.790	
134.000	6.700	1.000	1.000	1.000	586.446	175.940	623.384	211.555	604.915	193.748	
135.000	6.750	-455.000	10.000	1.000	1.000	167.290	36.966	213.870	18.983	190.580	
135.000	6.750	-456.000	10.000	1.000	309.520	171.850	342.850	198.940	326.185	185.395	
135.000	6.750	-457.000	10.000	1.000	453.270	172.900	477.230	195.810	465.250	184.355	
135.000	6.750	1.000	1.000	1.000	587.958	174.526	624.738	209.987	606.348	192.256	
136.000	6.800	-458.000	10.000	1.000	1.000	165.560	22.200	214.340	11.600	189.950	
136.000	6.800	-459.000	10.000	1.000	447.020	171.850	464.730	186.440	455.875	179.145	
136.000	6.800	-460.000	10.000	1.000	301.190	174.980	339.730	205.190	320.460	190.085	
136.000	6.800	1.000	1.000	1.000	588.430	173.189	625.053	208.498	606.741	190.844	
137.000	6.850	-461.000	10.000	1.000	1.000	161.310	4.589	212.900	2.794	187.105	
137.000	6.850	-462.000	10.000	1.000	298.060	170.810	341.810	194.770	319.935	182.790	
137.000	6.850	1.000	1.000	1.000	588.897	171.863	625.366	207.022	607.132	189.443	
138.000	6.900	-463.000	10.000	1.000	286.600	167.690	327.230	194.770	306.915	181.230	
138.000	6.900	1.000	1.000	1.000	589.362	170.549	625.676	205.559	607.519	188.054	
139.000	6.950	-464.000	10.000	1.000	281.400	171.850	320.980	201.020	301.190	186.435	
139.000	6.950	-465.000	10.000	1.000	454.310	173.940	479.310	187.480	466.810	180.710	
139.000	6.950	1.000	1.000	1.000	589.597	175.434	625.763	210.303	607.680	192.869	
140.000	7.000	-466.000	10.000	1.000	454.310	173.940	479.310	187.480	466.810	180.710	
140.000	7.000	-467.000	10.000	1.000	269.940	174.980	308.480	209.350	289.210	192.165	
140.000	7.000	1.000	1.000	1.000	589.831	180.279	625.848	215.009	607.839	197.644	
141.000	7.050	-468.000	10.000	1.000	249.910	178.320	303.070	213.360	276.490	195.840	
141.000	7.050	-469.000	10.000	1.000	458.480	179.150	475.150	191.650	466.815	185.400	
141.000	7.050	1.000	1.000	1.000	589.299	179.459	625.217	214.091	607.258	196.775	
142.000	7.100	-470.000	10.000	1.000	458.480	179.150	475.150	191.650	466.815	185.400	
142.000	7.100	-471.000	10.000	1.000	254.310	176.020	285.560	204.150	269.935	190.085	
142.000	7.100	1.000	1.000	1.000	588.771	178.643	624.589	213.179	606.680	195.911	
143.000	7.150	-472.000	10.000	1.000	417.850	177.060	469.940	195.810	443.895	186.435	
143.000	7.150	-473.000	10.000	1.000	241.810	181.230	277.230	205.190	259.520	193.210	
143.000	7.150	1.000	1.000	1.000	588.245	177.831	623.964	212.271	606.105	195.051	
str: spatio_occ_1, expr: SEXISTS({(BB(Var_id_4) /\ X BB(Var_id_3))}) > 0 
str: spatio_occ_2, expr: SEXISTS({(BB(Var_id_3) /\ BB(Var_id_4))}) > 0 
str: spatio_far_left, expr: LAT(Var_id_1,LM) > 100 
str: spatio_far_right, expr: LAT(Var_id_1,RM) < 1200 
str: spatio_far_up, expr: LON(Var_id_1,TM) > 100 
str: spatio_far_down, expr: LON(Var_id_1,BM) < 700 
str: is_car, expr: C(Var_id_1) <= 5 

Predicate expression:
spatio_occ_1 ::= SEXISTS(SPATIO-FORMULA-0)>0
number of unique variables: 2

Predicate expression:
spatio_occ_2 ::= SEXISTS(SPATIO-FORMULA-1)>0
number of unique variables: 2

Predicate expression:
spatio_far_left ::= LAT(Var_id_1,LM)>100
number of unique variables: 1

Predicate expression:
spatio_far_right ::= LAT(Var_id_1,RM)<1200
number of unique variables: 1

Predicate expression:
spatio_far_up ::= LON(Var_id_1,TM)>100
number of unique variables: 1

Predicate expression:
spatio_far_down ::= LON(Var_id_1,BM)<700
number of unique variables: 1

Predicate expression:
is_car ::= C(Var_id_1)<=5
number of unique variables: 1

Added predicate expression:
1-ID-SYM ::= SUB(Var_id_1,Var_id_2)!=0
number of unique variables: 2

Added predicate expression:
2-ID-SYM ::= SUB(Var_id_1,Var_id_3)!=0
number of unique variables: 2

Added predicate expression:
3-ID-SYM ::= SUB(Var_id_1,Var_id_4)==0
number of unique variables: 2

[](0,1) @(1,2) OR(1,3) OR(1,4) OR(1,5) OR(1,6) OR(1,7) OR(1,8) NOT(1,9) is_car(1,10) NOT(1,11) spatio_far_left(1,12) NOT(1,13) spatio_far_right(1,14) NOT(1,15) spatio_far_up(1,16) NOT(1,17) spatio_far_down(1,18) W(1,19) OR(1,20) NOT(1,21) <=(1,22) NOT(1,23) @(1,24) 1-ID-SYM(1,25) @(1,26) @(1,27) AND(1,28) AND(1,29) OR(1,30) spatio_occ_1(1,31) spatio_occ_2(1,32) 2-ID-SYM(1,33) 3-ID-SYM(1,34) 
SPATIO-FORMULA-0:={AND(1,1) BB(1,2) X(1,3) BB(1,4) } 
SPATIO-FORMULA-1:={AND(1,1) BB(1,2) BB(1,3) } 

[Note] OPTIMIZE_TRJ_BASED_ON_FORMULA is active.
[Note] Number of frames reduced from 144 to 2 for spatial formula:
{AND(1,1) BB(1,2) X(1,3) BB(1,4) }

[Note] Number of frames reduced from 144 to 1 for spatial formula:
{AND(1,1) BB(1,2) BB(1,3) }

Augmented STPL formua:
t:[0.000,7.150]_f:[0,143]_[](0,1) @(1,2) OR(1,3) OR(1,4) OR(1,5) OR(1,6) OR(1,7) OR(1,8) NOT(1,9) is_car(1,10) NOT(1,11) spatio_far_left(1,12) NOT(1,13) spatio_far_right(1,14) NOT(1,15) spatio_far_up(1,16) NOT(1,17) spatio_far_down(1,18) t:[0.000,7.150]_f:[0,1]_W(1,19) OR(1,20) NOT(1,21) <=(1,22) NOT(1,23) @(1,24) 1-ID-SYM(1,25) @(1,26) @(1,27) AND(1,28) AND(1,29) OR(1,30) spatio_occ_1(1,31) spatio_occ_2(1,32) 2-ID-SYM(1,33) 3-ID-SYM(1,34) 
Monitoring process started...
>> Running Time: 1.281000 seconds

*** Robustness: False
*** Most Related Iteration: 103
*** Most Related Freeze Iteration: 103
*** Most Related Freeze Operator Index: 2

Freeze-time variable table with negative robust values:
1:	 time-variable[Var_f]	 at ts[9]	 with Robustness -77.855164
2:	 time-variable[Var_f]	 at ts[103]	 with Robustness -77.972443
3:	 time-variable[Var_f]	 at ts[106]	 with Robustness -76.996941
4:	 time-variable[Var_f]	 at ts[116]	 with Robustness -76.629921
Exiting monitoring algorithm.
