<<< STPL Monitoring Tool >>>
DEBUG_MODE is activated.
VERBOSE_MODE is activated.
SHOW_EXE_STAT is activated.
SANITY_CHECK is activated.
BOOLEAN_ROB is activated.
OPTIMIZE_TRJ_BASED_ON_FORMULA is activated.
STPL_SIGNAL_DIM_SIZE = 11
MAX_STPL_FORMULA_SIZE = 1000
MAX_MAP_DATA_SIZE = 100
UX_START = 0
UY_START = 0
U_WIDTH = 1600
U_HEIGHT = 1200
Input Signal File Name: kitti-occlusion-0012.txt
Printing input signal:
0.000	0.000	-1.000	10.000	1.000	714.160	182.660	762.680	198.190	738.420	190.425	
0.000	0.000	0.000	2.000	1.000	554.486	166.427	665.957	271.804	610.221	219.115	
0.000	0.000	1.000	1.000	1.000	459.621	180.293	566.835	217.035	513.228	198.664	
0.000	0.000	3.000	1.000	1.000	654.990	180.245	688.725	206.880	671.858	193.562	
1.000	0.050	-2.000	10.000	1.000	714.160	182.660	762.680	198.190	738.420	190.425	
1.000	0.050	0.000	2.000	1.000	572.458	166.217	684.011	271.067	628.234	218.642	
1.000	0.050	1.000	1.000	1.000	473.381	180.027	578.368	216.809	525.874	198.418	
1.000	0.050	3.000	1.000	1.000	654.990	180.243	688.725	206.878	671.858	193.561	
2.000	0.100	-3.000	10.000	1.000	714.160	182.660	762.680	198.190	738.420	190.425	
2.000	0.100	0.000	2.000	1.000	590.262	166.009	701.889	270.337	646.075	218.173	
2.000	0.100	1.000	1.000	1.000	487.284	179.760	591.294	216.580	539.289	198.170	
2.000	0.100	3.000	1.000	1.000	654.991	180.241	688.724	206.876	671.858	193.559	
3.000	0.150	-4.000	10.000	1.000	714.160	182.660	762.680	198.190	738.420	190.425	
3.000	0.150	0.000	2.000	1.000	607.899	165.803	719.595	269.614	663.747	217.708	
3.000	0.150	1.000	1.000	1.000	499.885	179.737	603.452	216.541	551.668	198.139	
3.000	0.150	3.000	1.000	1.000	654.992	180.239	688.724	206.874	671.858	193.557	
4.000	0.200	-5.000	10.000	1.000	714.160	182.660	762.680	198.190	738.420	190.425	
4.000	0.200	0.000	2.000	1.000	626.591	165.091	738.046	268.232	682.319	216.661	
4.000	0.200	1.000	1.000	1.000	512.092	179.714	615.382	216.500	563.737	198.107	
5.000	0.250	-6.000	10.000	1.000	714.160	182.660	762.680	198.190	738.420	190.425	
5.000	0.250	0.000	2.000	1.000	645.075	165.414	756.354	267.910	700.714	216.662	
5.000	0.250	1.000	1.000	1.000	522.484	179.692	627.088	216.456	574.786	198.074	
5.000	0.250	3.000	1.000	1.000	654.993	180.235	688.723	206.870	671.858	193.553	
6.000	0.300	-7.000	10.000	1.000	714.160	182.660	762.680	198.190	738.420	190.425	
6.000	0.300	0.000	2.000	1.000	662.631	165.108	774.158	267.166	718.394	216.137	
6.000	0.300	1.000	1.000	1.000	533.488	179.601	638.848	216.223	586.168	197.912	
6.000	0.300	3.000	1.000	1.000	654.994	180.233	688.723	206.868	671.858	193.551	
7.000	0.350	-8.000	10.000	1.000	714.160	182.660	762.680	198.190	738.420	190.425	
7.000	0.350	0.000	2.000	1.000	680.051	165.293	791.820	266.924	735.936	216.109	
7.000	0.350	1.000	1.000	1.000	544.528	179.513	650.295	215.987	597.412	197.750	
7.000	0.350	3.000	1.000	1.000	654.994	180.231	688.722	206.866	671.858	193.549	
8.000	0.400	-9.000	10.000	1.000	714.160	182.660	762.680	198.190	738.420	190.425	
8.000	0.400	0.000	2.000	1.000	697.330	165.264	809.333	266.468	753.332	215.866	
8.000	0.400	1.000	1.000	1.000	555.605	179.428	661.437	215.749	608.521	197.588	
8.000	0.400	3.000	1.000	1.000	654.995	180.229	688.722	206.864	671.859	193.547	
9.000	0.450	-10.000	10.000	1.000	714.160	182.660	762.680	198.190	738.420	190.425	
9.000	0.450	0.000	2.000	1.000	715.155	165.037	827.375	265.788	771.265	215.413	
9.000	0.450	1.000	1.000	1.000	566.840	179.401	672.142	215.476	619.491	197.439	
9.000	0.450	3.000	1.000	1.000	654.996	180.228	688.722	206.862	671.859	193.545	
10.000	0.500	-11.000	10.000	1.000	714.160	182.660	762.680	198.190	738.420	190.425	
10.000	0.500	0.000	2.000	1.000	732.834	164.811	845.240	265.114	789.037	214.963	
10.000	0.500	1.000	1.000	1.000	578.072	179.376	682.494	215.202	630.283	197.289	
10.000	0.500	3.000	1.000	1.000	654.997	180.226	688.721	206.860	671.859	193.543	
11.000	0.550	-12.000	10.000	1.000	714.160	182.660	762.680	198.190	738.420	190.425	
11.000	0.550	0.000	2.000	1.000	750.369	164.588	862.930	264.446	806.650	214.517	
11.000	0.550	1.000	1.000	1.000	589.300	179.353	692.504	214.927	640.902	197.140	
12.000	0.600	-13.000	10.000	1.000	714.160	182.660	762.680	198.190	738.420	190.425	
12.000	0.600	0.000	2.000	1.000	767.763	164.367	880.449	263.783	824.106	214.075	
12.000	0.600	1.000	1.000	1.000	600.524	179.332	702.185	214.650	651.355	196.991	
13.000	0.650	-14.000	10.000	1.000	714.160	182.660	762.680	198.190	738.420	190.425	
13.000	0.650	0.000	2.000	1.000	785.016	164.148	897.798	263.126	841.407	213.637	
13.000	0.650	1.000	1.000	1.000	611.448	179.459	710.774	214.394	661.111	196.926	
13.000	0.650	2.000	3.000	1.000	596.536	180.212	612.949	211.317	604.743	195.764	
14.000	0.700	-15.000	10.000	1.000	714.160	182.660	762.680	198.190	738.420	190.425	
14.000	0.700	0.000	2.000	1.000	802.131	163.931	914.981	262.475	858.556	213.203	
14.000	0.700	1.000	1.000	1.000	622.318	179.583	718.984	214.137	670.651	196.860	
14.000	0.700	2.000	3.000	1.000	595.741	180.238	609.407	211.340	602.574	195.789	
15.000	0.750	-16.000	10.000	1.000	714.160	182.660	762.680	198.190	738.420	190.425	
15.000	0.750	0.000	2.000	1.000	819.109	163.717	931.998	261.829	875.554	212.773	
15.000	0.750	1.000	1.000	1.000	633.136	179.706	726.837	213.879	679.986	196.792	
15.000	0.750	2.000	3.000	1.000	594.131	180.265	606.640	211.364	600.385	195.814	
16.000	0.800	-17.000	10.000	1.000	714.160	182.660	762.680	198.190	738.420	190.425	
16.000	0.800	0.000	2.000	1.000	836.361	163.419	949.283	261.037	892.822	212.228	
16.000	0.800	1.000	1.000	1.000	643.899	179.826	734.349	213.621	689.124	196.723	
16.000	0.800	2.000	3.000	1.000	592.405	180.292	603.739	211.387	598.072	195.839	
17.000	0.850	-18.000	10.000	1.000	714.160	182.660	762.680	198.190	738.420	190.425	
17.000	0.850	0.000	2.000	1.000	853.450	163.125	966.396	260.252	909.923	211.689	
17.000	0.850	1.000	1.000	1.000	653.748	179.601	740.514	212.849	697.131	196.225	
17.000	0.850	2.000	3.000	1.000	589.451	180.318	600.459	211.411	594.955	195.864	
18.000	0.900	-19.000	10.000	1.000	714.160	182.660	762.680	198.190	738.420	190.425	
18.000	0.900	0.000	2.000	1.000	870.379	162.833	983.340	259.476	926.860	211.154	
18.000	0.900	1.000	1.000	1.000	663.457	179.386	746.373	212.094	704.915	195.740	
18.000	0.900	2.000	3.000	1.000	586.405	180.345	597.072	211.434	591.739	195.889	
18.000	0.900	3.000	1.000	1.000	655.002	180.210	688.718	206.845	671.860	193.527	
19.000	0.950	-20.000	10.000	1.000	714.160	182.660	762.680	198.190	738.420	190.425	
19.000	0.950	0.000	2.000	1.000	887.148	162.545	1000.119	258.707	943.634	210.626	
19.000	0.950	1.000	1.000	1.000	673.029	179.179	751.944	211.356	712.486	195.268	
19.000	0.950	2.000	3.000	1.000	583.438	180.371	594.445	211.458	588.941	195.914	
19.000	0.950	3.000	1.000	1.000	655.003	180.208	688.718	206.843	671.860	193.525	
20.000	1.000	-21.000	10.000	1.000	714.160	182.660	762.680	198.190	738.420	190.425	
20.000	1.000	0.000	2.000	1.000	903.762	162.259	1016.733	257.945	960.247	210.102	
20.000	1.000	1.000	1.000	1.000	682.462	178.980	757.247	210.634	719.854	194.807	
20.000	1.000	2.000	3.000	1.000	580.408	180.398	591.741	211.481	586.075	195.939	
20.000	1.000	3.000	1.000	1.000	655.003	180.206	688.717	206.841	671.860	193.523	
21.000	1.050	-22.000	10.000	1.000	714.160	182.660	762.680	198.190	738.420	190.425	
21.000	1.050	0.000	2.000	1.000	920.476	161.985	1033.396	257.236	976.936	209.610	
21.000	1.050	1.000	1.000	1.000	689.542	179.370	760.345	210.466	724.943	194.918	
21.000	1.050	2.000	3.000	1.000	578.094	180.424	588.768	211.504	583.431	195.964	
21.000	1.050	3.000	1.000	1.000	655.004	180.204	688.717	206.839	671.860	193.521	
22.000	1.100	-23.000	10.000	1.000	714.160	182.660	762.680	198.190	738.420	190.425	
22.000	1.100	0.000	2.000	1.000	937.052	161.713	1049.898	256.533	993.475	209.123	
22.000	1.100	1.000	1.000	1.000	696.470	179.746	763.271	210.301	729.870	195.023	
22.000	1.100	2.000	3.000	1.000	575.746	180.451	585.746	211.528	580.746	195.989	
22.000	1.100	3.000	1.000	1.000	655.005	180.202	688.716	206.837	671.861	193.520	
23.000	1.150	-24.000	10.000	1.000	714.160	182.660	762.680	198.190	738.420	190.425	
23.000	1.150	0.000	2.000	1.000	953.490	161.444	1066.243	255.837	1009.867	208.640	
23.000	1.150	1.000	1.000	1.000	703.248	180.109	766.037	210.137	734.643	195.123	
23.000	1.150	2.000	3.000	1.000	572.420	180.477	583.760	211.551	578.090	196.014	
23.000	1.150	3.000	1.000	1.000	655.005	180.200	688.716	206.835	671.861	193.518	
24.000	1.200	-25.000	10.000	1.000	714.160	182.660	762.680	198.190	738.420	190.425	
24.000	1.200	0.000	2.000	1.000	969.793	161.178	1082.433	255.146	1026.113	208.162	
24.000	1.200	1.000	1.000	1.000	709.881	180.459	768.655	209.976	739.268	195.218	
24.000	1.200	2.000	3.000	1.000	569.086	180.504	581.753	211.575	575.420	196.039	
24.000	1.200	3.000	1.000	1.000	655.006	180.199	688.716	206.833	671.861	193.516	
25.000	1.250	-26.000	10.000	1.000	714.160	182.660	762.680	198.190	738.420	190.425	
25.000	1.250	0.000	2.000	1.000	985.962	160.914	1098.470	254.461	1042.216	207.687	
25.000	1.250	1.000	1.000	1.000	716.651	180.155	770.184	209.060	743.418	194.608	
25.000	1.250	2.000	3.000	1.000	566.747	180.530	578.922	211.598	572.835	196.064	
25.000	1.250	3.000	1.000	1.000	655.007	180.197	688.715	206.831	671.861	193.514	
26.000	1.300	-27.000	10.000	1.000	714.160	182.660	762.680	198.190	738.420	190.425	
26.000	1.300	0.000	2.000	1.000	1002.000	160.652	1114.356	253.782	1058.178	207.217	
26.000	1.300	1.000	1.000	1.000	723.317	179.864	771.570	208.171	747.444	194.017	
26.000	1.300	2.000	3.000	1.000	564.780	180.531	576.447	211.596	570.614	196.064	
26.000	1.300	3.000	1.000	1.000	655.007	180.195	688.715	206.829	671.861	193.512	
27.000	1.350	-28.000	10.000	1.000	714.160	182.660	762.680	198.190	738.420	190.425	
27.000	1.350	0.000	2.000	1.000	1018.762	160.872	1131.593	253.583	1075.178	207.227	
27.000	1.350	1.000	1.000	1.000	726.447	180.245	773.611	208.039	750.029	194.142	
27.000	1.350	2.000	3.000	1.000	562.782	180.532	573.622	211.594	568.202	196.063	
27.000	1.350	3.000	1.000	1.000	655.008	180.193	688.714	206.827	671.861	193.510	
28.000	1.400	-29.000	10.000	1.000	714.160	182.660	762.680	198.190	738.420	190.425	
28.000	1.400	0.000	2.000	1.000	1035.374	161.091	1148.708	253.384	1092.041	207.237	
28.000	1.400	1.000	1.000	1.000	729.460	180.613	775.580	207.912	752.520	194.263	
28.000	1.400	2.000	3.000	1.000	560.827	180.533	570.827	211.592	565.827	196.063	
28.000	1.400	3.000	1.000	1.000	655.009	180.191	688.714	206.825	671.861	193.508	
29.000	1.450	-30.000	10.000	1.000	703.490	185.570	754.920	201.100	729.205	193.335	
29.000	1.450	0.000	2.000	1.000	1051.837	161.308	1165.699	253.188	1108.768	207.248	
29.000	1.450	1.000	1.000	1.000	732.991	180.482	774.797	207.193	753.894	193.838	
29.000	1.450	2.000	3.000	1.000	557.485	180.534	568.157	211.590	562.821	196.062	
29.000	1.450	3.000	1.000	1.000	655.009	180.189	688.714	206.823	671.862	193.506	
30.000	1.500	-31.000	10.000	1.000	703.490	185.570	754.920	201.100	729.205	193.335	
30.000	1.500	0.000	2.000	1.000	1068.154	161.524	1182.569	252.993	1125.362	207.258	
30.000	1.500	1.000	1.000	1.000	736.456	180.356	773.998	206.499	755.227	193.427	
30.000	1.500	2.000	3.000	1.000	553.869	180.539	565.202	211.591	559.536	196.065	
30.000	1.500	3.000	1.000	1.000	655.010	180.187	688.713	206.821	671.862	193.504	
31.000	1.550	-32.000	10.000	1.000	703.490	185.570	754.920	201.100	729.205	193.335	
31.000	1.550	0.000	2.000	1.000	1084.327	161.738	1199.319	252.799	1141.823	207.269	
31.000	1.550	1.000	1.000	1.000	738.549	181.009	774.721	206.709	756.635	193.859	
31.000	1.550	2.000	3.000	1.000	551.506	180.544	562.847	211.592	557.177	196.068	
31.000	1.550	3.000	1.000	1.000	655.011	180.185	688.713	206.819	671.862	193.502	
32.000	1.600	-33.000	10.000	1.000	703.490	185.570	754.920	201.100	729.205	193.335	
32.000	1.600	0.000	2.000	1.000	1098.460	161.416	1213.807	252.238	1156.134	206.827	
32.000	1.600	1.000	1.000	1.000	740.567	181.639	775.418	206.911	757.992	194.275	
32.000	1.600	2.000	3.000	1.000	549.240	180.549	560.574	211.593	554.907	196.071	
32.000	1.600	3.000	1.000	1.000	655.011	180.183	688.712	206.817	671.862	193.500	
33.000	1.650	-34.000	10.000	1.000	703.490	185.570	754.920	201.100	729.205	193.335	
33.000	1.650	0.000	2.000	1.000	1112.522	161.096	1228.229	251.679	1170.376	206.388	
33.000	1.650	1.000	1.000	1.000	742.250	181.650	775.993	206.429	759.121	194.039	
33.000	1.650	2.000	3.000	1.000	545.940	180.559	557.949	211.599	551.944	196.079	
33.000	1.650	3.000	1.000	1.000	655.012	180.181	688.712	206.815	671.862	193.498	
34.000	1.700	-35.000	10.000	1.000	703.490	185.570	754.920	201.100	729.205	193.335	
34.000	1.700	0.000	2.000	1.000	1132.402	160.760	1241.000	250.998	1186.701	205.879	
34.000	1.700	1.000	1.000	1.000	743.869	181.660	776.547	205.965	760.208	193.812	
34.000	1.700	2.000	3.000	1.000	543.614	180.559	556.281	211.596	549.948	196.077	
34.000	1.700	3.000	1.000	1.000	655.013	180.179	688.712	206.813	671.862	193.496	
35.000	1.750	-36.000	10.000	1.000	703.490	185.570	754.920	201.100	729.205	193.335	
35.000	1.750	0.000	2.000	1.000	1152.160	160.561	1241.000	250.320	1196.580	205.441	
35.000	1.750	1.000	1.000	1.000	745.428	181.669	777.082	205.519	761.255	193.594	
35.000	1.750	2.000	3.000	1.000	540.396	180.572	552.407	211.604	546.401	196.088	
35.000	1.750	3.000	1.000	1.000	655.013	180.177	688.711	206.811	671.862	193.494	
36.000	1.800	-37.000	10.000	1.000	703.490	185.570	754.920	201.100	729.205	193.335	
36.000	1.800	0.000	2.000	1.000	1165.131	160.373	1241.000	249.778	1203.065	205.076	
36.000	1.800	1.000	1.000	1.000	746.931	181.679	777.597	205.088	762.264	193.384	
36.000	1.800	2.000	3.000	1.000	537.335	180.584	548.668	211.611	543.001	196.098	
36.000	1.800	3.000	1.000	1.000	655.014	180.175	688.711	206.809	671.862	193.492	
37.000	1.850	-38.000	10.000	1.000	696.700	184.600	733.570	199.160	715.135	191.880	
37.000	1.850	0.000	2.000	1.000	1178.038	160.188	1241.000	249.238	1209.519	204.713	
37.000	1.850	1.000	1.000	1.000	748.379	181.688	778.094	204.674	763.237	193.181	
37.000	1.850	2.000	3.000	1.000	534.225	180.548	547.066	211.587	540.646	196.067	
37.000	1.850	3.000	1.000	1.000	655.015	180.173	688.710	206.807	671.863	193.490	
38.000	1.900	-39.000	10.000	1.000	696.700	184.600	733.570	199.160	715.135	191.880	
38.000	1.900	0.000	2.000	1.000	1197.038	160.737	1241.000	249.450	1219.019	205.093	
38.000	1.900	1.000	1.000	1.000	748.950	182.162	777.761	204.726	763.356	193.444	
38.000	1.900	2.000	3.000	1.000	531.298	180.511	545.631	211.563	538.464	196.037	
38.000	1.900	3.000	1.000	1.000	655.015	180.171	688.710	206.805	671.863	193.488	
39.000	1.950	-40.000	10.000	1.000	696.700	184.600	733.570	199.160	715.135	191.880	
39.000	1.950	0.000	2.000	1.000	1215.975	161.348	1241.000	249.153	1228.488	205.251	
39.000	1.950	1.000	1.000	1.000	749.500	182.619	777.440	204.777	763.470	193.698	
39.000	1.950	2.000	3.000	1.000	529.003	180.474	541.679	211.538	535.341	196.006	
39.000	1.950	3.000	1.000	1.000	655.016	180.170	688.710	206.803	671.863	193.486	
40.000	2.000	-41.000	10.000	1.000	698.640	185.570	734.540	206.920	716.590	196.245	
40.000	2.000	0.000	2.000	1.000	1234.852	162.247	1241.000	247.422	1237.926	204.835	
40.000	2.000	1.000	1.000	1.000	750.028	183.059	777.130	204.826	763.579	193.942	
40.000	2.000	2.000	3.000	1.000	526.918	180.438	537.918	211.514	532.418	195.976	
40.000	2.000	3.000	1.000	1.000	655.017	180.168	688.709	206.801	671.863	193.484	
41.000	2.050	-42.000	10.000	1.000	698.640	185.570	734.540	206.920	716.590	196.245	
41.000	2.050	1.000	1.000	1.000	750.538	183.484	776.831	204.872	763.684	194.178	
41.000	2.050	2.000	3.000	1.000	523.772	180.401	535.613	211.489	529.693	195.945	
41.000	2.050	3.000	1.000	1.000	655.017	180.166	688.709	206.799	671.863	193.482	
42.000	2.100	-43.000	10.000	1.000	698.640	185.570	734.540	206.920	716.590	196.245	
42.000	2.100	1.000	1.000	1.000	751.029	183.894	776.655	204.917	763.842	194.406	
42.000	2.100	2.000	3.000	1.000	520.863	180.364	533.530	211.465	527.197	195.915	
42.000	2.100	3.000	1.000	1.000	655.018	180.164	688.708	206.797	671.863	193.480	
43.000	2.150	-44.000	10.000	1.000	687.970	185.570	732.600	202.070	710.285	193.820	
43.000	2.150	1.000	1.000	1.000	751.048	183.667	776.193	204.282	763.621	193.975	
43.000	2.150	2.000	3.000	1.000	520.077	180.286	533.410	211.403	526.744	195.844	
43.000	2.150	3.000	1.000	1.000	655.019	180.162	688.708	206.795	671.863	193.478	
44.000	2.200	-45.000	10.000	1.000	687.970	185.570	732.600	202.070	710.285	193.820	
44.000	2.200	1.000	1.000	1.000	751.068	183.448	775.749	203.670	763.408	193.559	
44.000	2.200	2.000	3.000	1.000	516.037	180.250	530.037	211.379	523.037	195.815	
44.000	2.200	3.000	1.000	1.000	655.020	180.160	688.708	206.793	671.864	193.477	
45.000	2.250	-46.000	10.000	1.000	687.970	185.570	732.600	202.070	710.285	193.820	
45.000	2.250	1.000	1.000	1.000	751.086	183.237	775.321	203.079	763.203	193.158	
45.000	2.250	2.000	3.000	1.000	513.978	180.214	526.988	211.355	520.483	195.785	
45.000	2.250	3.000	1.000	1.000	655.020	180.158	688.707	206.791	671.864	193.475	
46.000	2.300	-47.000	10.000	1.000	687.970	185.570	732.600	202.070	710.285	193.820	
46.000	2.300	1.000	1.000	1.000	751.104	183.033	774.907	202.510	763.006	192.771	
46.000	2.300	2.000	3.000	1.000	511.704	180.178	523.704	211.331	517.704	195.755	
46.000	2.300	3.000	1.000	1.000	655.021	180.156	688.707	206.789	671.864	193.473	
47.000	2.350	-48.000	10.000	1.000	693.790	184.600	728.720	205.950	711.255	195.275	
47.000	2.350	1.000	1.000	1.000	751.122	182.835	774.509	201.960	762.815	192.398	
47.000	2.350	2.000	3.000	1.000	508.625	180.178	522.138	211.339	515.381	195.759	
47.000	2.350	3.000	1.000	1.000	655.022	180.154	688.706	206.787	671.864	193.471	
48.000	2.400	-49.000	10.000	1.000	693.790	184.600	728.720	205.950	711.255	195.275	
48.000	2.400	1.000	1.000	1.000	750.632	183.076	773.589	201.870	762.111	192.473	
48.000	2.400	2.000	3.000	1.000	505.370	180.178	520.370	211.347	512.870	195.763	
48.000	2.400	3.000	1.000	1.000	655.022	180.152	688.706	206.785	671.864	193.469	
49.000	2.450	-50.000	10.000	1.000	693.790	184.600	728.720	205.950	711.255	195.275	
49.000	2.450	1.000	1.000	1.000	750.160	183.309	772.703	201.783	761.432	192.546	
49.000	2.450	2.000	3.000	1.000	503.598	180.178	516.615	211.355	510.106	195.767	
49.000	2.450	3.000	1.000	1.000	655.023	180.150	688.706	206.783	671.864	193.467	
50.000	2.500	-51.000	10.000	1.000	693.790	184.600	728.720	205.950	711.255	195.275	
50.000	2.500	1.000	1.000	1.000	749.705	183.534	771.848	201.700	760.776	192.617	
50.000	2.500	2.000	3.000	1.000	501.699	180.179	512.699	211.363	507.199	195.771	
50.000	2.500	3.000	1.000	1.000	655.024	180.148	688.705	206.781	671.864	193.465	
51.000	2.550	-52.000	10.000	1.000	693.790	184.600	728.720	205.950	711.255	195.275	
51.000	2.550	1.000	1.000	1.000	749.265	183.752	771.023	201.619	760.144	192.685	
51.000	2.550	2.000	3.000	1.000	498.737	180.179	511.248	211.370	504.993	195.775	
51.000	2.550	3.000	1.000	1.000	655.024	180.146	688.705	206.779	671.865	193.463	
52.000	2.600	-53.000	10.000	1.000	693.790	184.600	728.720	205.950	711.255	195.275	
52.000	2.600	-54.000	10.000	1.000	753.950	183.630	780.150	201.100	767.050	192.365	
52.000	2.600	1.000	1.000	1.000	748.839	183.962	770.225	201.541	759.532	192.752	
52.000	2.600	2.000	3.000	1.000	495.688	180.179	509.688	211.378	502.688	195.779	
52.000	2.600	3.000	1.000	1.000	655.025	180.144	688.704	206.777	671.865	193.461	
53.000	2.650	-55.000	10.000	1.000	685.060	185.570	730.660	205.950	707.860	195.760	
53.000	2.650	-56.000	10.000	1.000	753.950	182.660	781.120	202.070	767.535	192.365	
53.000	2.650	1.000	1.000	1.000	748.673	184.116	769.686	201.400	759.180	192.758	
53.000	2.650	2.000	3.000	1.000	492.731	180.110	505.607	211.311	499.169	195.710	
53.000	2.650	3.000	1.000	1.000	655.026	180.142	688.704	206.775	671.865	193.459	
54.000	2.700	-57.000	10.000	1.000	685.060	185.570	730.660	205.950	707.860	195.760	
54.000	2.700	-58.000	10.000	1.000	756.860	181.690	781.120	201.100	768.990	191.395	
54.000	2.700	1.000	1.000	1.000	748.512	184.265	769.166	201.264	758.839	192.764	
54.000	2.700	2.000	3.000	1.000	489.802	180.042	501.468	211.243	495.635	195.642	
54.000	2.700	3.000	1.000	1.000	655.026	180.140	688.704	206.773	671.865	193.457	
55.000	2.750	-59.000	10.000	1.000	685.060	185.570	730.660	205.950	707.860	195.760	
55.000	2.750	-60.000	10.000	1.000	756.860	181.690	783.060	199.160	769.960	190.425	
55.000	2.750	1.000	1.000	1.000	748.233	184.408	768.662	201.133	758.448	192.771	
55.000	2.750	2.000	3.000	1.000	486.953	179.973	499.651	211.176	493.302	195.574	
55.000	2.750	3.000	1.000	1.000	655.027	180.139	688.703	206.772	671.865	193.455	
56.000	2.800	-61.000	10.000	1.000	685.060	185.570	730.660	205.950	707.860	195.760	
56.000	2.800	-62.000	10.000	1.000	759.770	180.720	784.030	201.100	771.900	190.910	
56.000	2.800	1.000	1.000	1.000	747.790	184.548	768.175	201.005	757.982	192.777	
56.000	2.800	2.000	3.000	1.000	484.244	179.904	497.911	211.108	491.077	195.506	
56.000	2.800	3.000	1.000	1.000	655.028	180.137	688.703	206.770	671.865	193.453	
57.000	2.850	-63.000	10.000	1.000	685.060	185.570	730.660	205.950	707.860	195.760	
57.000	2.850	-64.000	10.000	1.000	757.830	181.690	785.970	198.190	771.900	189.940	
57.000	2.850	1.000	1.000	1.000	747.361	184.683	767.703	200.882	757.532	192.782	
57.000	2.850	2.000	3.000	1.000	482.843	179.782	496.149	211.011	489.496	195.396	
57.000	2.850	3.000	1.000	1.000	655.028	180.135	688.702	206.768	671.865	193.451	
58.000	2.900	-65.000	10.000	1.000	760.740	184.600	787.910	199.160	774.325	191.880	
58.000	2.900	-66.000	10.000	1.000	685.060	181.690	729.690	204.010	707.375	192.850	
58.000	2.900	1.000	1.000	1.000	746.859	184.721	766.825	200.650	756.842	192.685	
58.000	2.900	2.000	3.000	1.000	479.741	179.672	492.741	210.907	486.241	195.290	
58.000	2.900	3.000	1.000	1.000	655.029	180.133	688.702	206.766	671.866	193.449	
59.000	2.950	-67.000	10.000	1.000	760.740	184.600	787.910	199.160	774.325	191.880	
59.000	2.950	-68.000	10.000	1.000	685.060	181.690	729.690	204.010	707.375	192.850	
59.000	2.950	1.000	1.000	1.000	746.372	184.757	765.977	200.426	756.175	192.591	
59.000	2.950	2.000	3.000	1.000	476.815	179.563	489.505	210.804	483.160	195.183	
59.000	2.950	3.000	1.000	1.000	655.030	180.131	688.702	206.764	671.866	193.447	
60.000	3.000	-69.000	10.000	1.000	760.740	184.600	787.910	199.160	774.325	191.880	
60.000	3.000	-70.000	10.000	1.000	685.060	181.690	729.690	204.010	707.375	192.850	
60.000	3.000	1.000	1.000	1.000	745.900	184.793	765.157	200.209	755.528	192.501	
60.000	3.000	2.000	3.000	1.000	474.107	179.453	486.440	210.701	480.274	195.077	
60.000	3.000	3.000	1.000	1.000	655.030	180.129	688.701	206.762	671.866	193.445	
61.000	3.050	-71.000	10.000	1.000	760.740	184.600	787.910	199.160	774.325	191.880	
61.000	3.050	-72.000	10.000	1.000	685.060	181.690	729.690	204.010	707.375	192.850	
61.000	3.050	1.000	1.000	1.000	745.443	184.827	764.362	199.998	754.903	192.413	
61.000	3.050	2.000	3.000	1.000	470.643	179.343	484.830	210.597	477.736	194.970	
61.000	3.050	3.000	1.000	1.000	655.031	180.127	688.701	206.760	671.866	193.443	
62.000	3.100	-73.000	10.000	1.000	685.060	181.690	729.690	204.010	707.375	192.850	
62.000	3.100	-74.000	10.000	1.000	762.680	182.660	795.670	198.190	779.175	190.425	
62.000	3.100	1.000	1.000	1.000	744.999	184.860	763.593	199.795	754.296	192.328	
62.000	3.100	2.000	3.000	1.000	467.583	179.249	483.583	210.498	475.583	194.874	
62.000	3.100	3.000	1.000	1.000	655.032	180.125	688.700	206.758	671.866	193.441	
63.000	3.150	-75.000	10.000	1.000	685.060	181.690	729.690	204.010	707.375	192.850	
63.000	3.150	-76.000	10.000	1.000	767.530	181.690	795.670	200.130	781.600	190.910	
63.000	3.150	1.000	1.000	1.000	744.690	184.885	762.977	199.589	753.834	192.237	
63.000	3.150	2.000	3.000	1.000	465.475	179.154	479.986	210.399	472.730	194.777	
63.000	3.150	3.000	1.000	1.000	655.032	180.123	688.700	206.756	671.866	193.439	
64.000	3.200	-77.000	10.000	1.000	685.060	181.690	729.690	204.010	707.375	192.850	
64.000	3.200	-78.000	10.000	1.000	767.530	181.690	795.670	200.130	781.600	190.910	
64.000	3.200	1.000	1.000	1.000	744.390	184.909	762.380	199.389	753.385	192.149	
64.000	3.200	2.000	3.000	1.000	463.176	179.060	476.176	210.300	469.676	194.680	
64.000	3.200	3.000	1.000	1.000	655.033	180.121	688.700	206.754	671.866	193.437	
65.000	3.250	-79.000	10.000	1.000	685.060	181.690	729.690	204.010	707.375	192.850	
65.000	3.250	-80.000	10.000	1.000	770.440	182.660	800.520	199.160	785.480	190.910	
65.000	3.250	1.000	1.000	1.000	744.098	184.932	761.801	199.196	752.949	192.064	
65.000	3.250	2.000	3.000	1.000	461.722	178.965	474.231	210.201	467.976	194.583	
65.000	3.250	3.000	1.000	1.000	655.034	180.119	688.699	206.752	671.866	193.435	
66.000	3.300	-81.000	10.000	1.000	770.440	182.660	800.520	199.160	785.480	190.910	
66.000	3.300	-82.000	10.000	1.000	689.910	183.630	766.560	206.920	728.235	195.275	
66.000	3.300	2.000	3.000	1.000	460.104	178.871	472.104	210.102	466.104	194.487	
66.000	3.300	3.000	1.000	1.000	655.034	180.117	688.699	206.750	671.867	193.434	
67.000	3.350	-83.000	10.000	1.000	689.910	183.630	766.560	206.920	728.235	195.275	
67.000	3.350	-84.000	10.000	1.000	775.290	179.750	799.550	197.220	787.420	188.485	
67.000	3.350	2.000	3.000	1.000	457.302	178.997	468.971	210.218	463.136	194.607	
67.000	3.350	3.000	1.000	1.000	655.035	180.115	688.698	206.748	671.867	193.432	
68.000	3.400	-85.000	10.000	1.000	689.910	183.630	766.560	206.920	728.235	195.275	
68.000	3.400	-86.000	10.000	1.000	775.290	179.750	799.550	197.220	787.420	188.485	
68.000	3.400	2.000	3.000	1.000	454.347	179.123	465.680	210.334	460.013	194.728	
68.000	3.400	3.000	1.000	1.000	655.036	180.113	688.698	206.746	671.867	193.430	
69.000	3.450	-87.000	10.000	1.000	689.910	183.630	766.560	206.920	728.235	195.275	
69.000	3.450	-88.000	10.000	1.000	778.210	182.660	803.430	198.190	790.820	190.425	
69.000	3.450	2.000	3.000	1.000	451.043	179.248	463.045	210.450	457.044	194.849	
69.000	3.450	3.000	1.000	1.000	655.036	180.111	688.698	206.744	671.867	193.428	
70.000	3.500	-89.000	10.000	1.000	689.910	183.630	766.560	206.920	728.235	195.275	
70.000	3.500	-90.000	10.000	1.000	778.210	182.660	803.430	198.190	790.820	190.425	
70.000	3.500	2.000	3.000	1.000	448.089	179.365	460.756	210.539	454.422	194.952	
70.000	3.500	3.000	1.000	1.000	655.037	180.109	688.697	206.742	671.867	193.426	
71.000	3.550	-91.000	10.000	1.000	689.910	183.630	766.560	206.920	728.235	195.275	
71.000	3.550	-92.000	10.000	1.000	781.120	181.690	808.290	198.190	794.705	189.940	
71.000	3.550	2.000	3.000	1.000	446.736	179.117	459.068	210.269	452.902	194.693	
71.000	3.550	3.000	1.000	1.000	655.038	180.108	688.697	206.740	671.867	193.424	
72.000	3.600	-93.000	10.000	1.000	689.910	183.630	766.560	206.920	728.235	195.275	
72.000	3.600	-94.000	10.000	1.000	781.120	181.690	808.290	198.190	794.705	189.940	
72.000	3.600	2.000	3.000	1.000	445.233	178.869	457.233	210.000	451.233	194.434	
72.000	3.600	3.000	1.000	1.000	655.038	180.106	688.696	206.738	671.867	193.422	
73.000	3.650	-95.000	10.000	1.000	689.910	183.630	766.560	206.920	728.235	195.275	
73.000	3.650	-96.000	10.000	1.000	781.120	181.690	808.290	198.190	794.705	189.940	
73.000	3.650	2.000	3.000	1.000	442.721	178.621	454.720	209.731	448.720	194.176	
73.000	3.650	3.000	1.000	1.000	655.039	180.104	688.696	206.736	671.868	193.420	
74.000	3.700	-97.000	10.000	1.000	689.910	183.630	766.560	206.920	728.235	195.275	
74.000	3.700	-98.000	10.000	1.000	785.970	181.690	814.110	199.160	800.040	190.425	
74.000	3.700	2.000	3.000	1.000	440.057	178.374	452.057	209.463	446.057	193.918	
74.000	3.700	3.000	1.000	1.000	655.040	180.102	688.696	206.734	671.868	193.418	
75.000	3.750	-99.000	10.000	1.000	689.910	183.630	766.560	206.920	728.235	195.275	
75.000	3.750	-100.000	10.000	1.000	785.970	181.690	814.110	199.160	800.040	190.425	
75.000	3.750	2.000	3.000	1.000	437.885	178.127	449.885	209.195	443.885	193.661	
75.000	3.750	3.000	1.000	1.000	655.040	180.100	688.695	206.732	671.868	193.416	
76.000	3.800	-101.000	10.000	1.000	689.910	183.630	766.560	206.920	728.235	195.275	
76.000	3.800	-102.000	10.000	1.000	785.970	181.690	814.110	199.160	800.040	190.425	
76.000	3.800	2.000	3.000	1.000	435.560	177.880	447.560	208.927	441.560	193.404	
76.000	3.800	3.000	1.000	1.000	655.041	180.098	688.695	206.730	671.868	193.414	
77.000	3.850	-103.000	10.000	1.000	689.910	183.630	766.560	206.920	728.235	195.275	
77.000	3.850	-104.000	10.000	1.000	785.970	181.690	814.110	199.160	800.040	190.425	
77.000	3.850	-105.000	10.000	1.000	431.800	177.810	451.210	207.890	441.505	192.850	
77.000	3.850	3.000	1.000	1.000	655.042	180.096	688.694	206.728	671.868	193.412	
str: spatio_occ, expr: SEXISTS({ BB(Var_id_4) /\ ((X (BB(Var_id_3))) \/ BB(Var_id_3))}) > 0 
str: spatio_far_left, expr: LAT(Var_id_1,LM) > 100 
str: spatio_far_right, expr: LAT(Var_id_1,RM) < 1200 
str: spatio_far_up, expr: LON(Var_id_1,TM) > 100 
str: spatio_far_down, expr: LON(Var_id_1,BM) < 700 
str: is_car, expr: C(Var_id_1) <= 5 

Predicate expression:
spatio_occ ::= SEXISTS(SPATIO-FORMULA-0)>0
number of unique variables: 2

Predicate expression:
spatio_far_left ::= LAT(Var_id_1,LM)>100
number of unique variables: 1

Predicate expression:
spatio_far_right ::= LAT(Var_id_1,RM)<1200
number of unique variables: 1

Predicate expression:
spatio_far_up ::= LON(Var_id_1,TM)>100
number of unique variables: 1

Predicate expression:
spatio_far_down ::= LON(Var_id_1,BM)<700
number of unique variables: 1

Predicate expression:
is_car ::= C(Var_id_1)<=5
number of unique variables: 1

Added predicate expression:
1-ID-SYM ::= SUB(Var_id_1,Var_id_2)!=0
number of unique variables: 2

Added predicate expression:
2-ID-SYM ::= SUB(Var_id_1,Var_id_3)!=0
number of unique variables: 2

Added predicate expression:
3-ID-SYM ::= SUB(Var_id_1,Var_id_4)==0
number of unique variables: 2

[](0,1) @(1,2) OR(1,3) OR(1,4) OR(1,5) OR(1,6) OR(1,7) OR(1,8) NOT(1,9) is_car(1,10) NOT(1,11) spatio_far_left(1,12) NOT(1,13) spatio_far_right(1,14) NOT(1,15) spatio_far_up(1,16) NOT(1,17) spatio_far_down(1,18) W(1,19) OR(1,20) NOT(1,21) <=(1,22) NOT(1,23) @(1,24) 1-ID-SYM(1,25) @(1,26) @(1,27) AND(1,28) AND(1,29) spatio_occ(1,30) 2-ID-SYM(1,31) 3-ID-SYM(1,32) 
SPATIO-FORMULA-0:={AND(1,1) BB(1,2) OR(1,3) X(1,4) BB(1,5) BB(1,6) } 

[Note] OPTIMIZE_TRJ_BASED_ON_FORMULA is active.
[Note] Number of frames reduced from 78 to 2 for spatial formula:
{AND(1,1) BB(1,2) OR(1,3) X(1,4) BB(1,5) BB(1,6) }

Augmented STPL formua:
t:[0.000,3.850]_f:[0,77]_[](0,1) @(1,2) OR(1,3) OR(1,4) OR(1,5) OR(1,6) OR(1,7) OR(1,8) NOT(1,9) is_car(1,10) NOT(1,11) spatio_far_left(1,12) NOT(1,13) spatio_far_right(1,14) NOT(1,15) spatio_far_up(1,16) NOT(1,17) spatio_far_down(1,18) t:[0.000,3.850]_f:[0,1]_W(1,19) OR(1,20) NOT(1,21) <=(1,22) NOT(1,23) @(1,24) 1-ID-SYM(1,25) @(1,26) @(1,27) AND(1,28) AND(1,29) spatio_occ(1,30) 2-ID-SYM(1,31) 3-ID-SYM(1,32) 
Monitoring process started...
>> Running Time: 0.222000 seconds

*** Robustness: False
*** Most Related Iteration: 76
*** Most Related Freeze Iteration: 76
*** Most Related Freeze Operator Index: 2

Freeze-time variable table with negative robust values:
1:	 time-variable[Var_f]	 at ts[76]	 with Robustness -77.880180
Exiting monitoring algorithm.
