key: DEBUG_MODE
value: false
key: VERBOSE_MODE
value: true
key: SHOW_EXE_STAT
value: true
key: SANITY_CHECK
value: false
key: BOOLEAN_ROB
value: true
key: RELEASE_DP_TABLE_MEMORY
value: false
key: RELEASE_SPATIAL_MEMORY
value: false
key: STQL_SIGNAL_DIM_SIZE
value: 11
key: MAX_STQL_FORMULA_SIZE
value: 1000
key: MAX_VAR_NUM
value: 100
key: MAX_NUM_PARAMS
value: 20
key: SHOW_WARNINGS
value: true
key: MAX_UNIQUE_VAR_ID_IN_PRED
value: 6
key: MAX_OBJ_IN_FRAME
value: 100
key: MAX_NUM_FREEZ_VAR
value: 100
key: MAX_NUM_PRED
value: 1000
key: MAX_MAP_DATA_SIZE
value: 100
key: MAX_LINKED_LIST_SIZE
value: 1000000
key: MAX_ID_TABLE_SIZE
value: 10000000
key: NUM_FRAME_TO_LOAD
value: 50
key: UX_START
value: 0
key: UY_START
value: 0
key: U_WIDTH
value: 1600
key: U_HEIGHT
value: 1200
key: input_signal_file
value: 'bdd-input-data.txt'
key: formula
value: '[]( @ (Var_x,_,FORALL, Var_id_1) [] ( @ (EXISTS,Var_id_2) ( spatio_a_1 /\ spatio_a_2 /\ {Var_id_1 - Var_id_2 == 0} )))'
key: formula.spatio_a_1
value: 'SFORALL({ (! BB(Var_id_1)) \/ BB(Var_id_2)  }) > 0 '
key: formula.spatio_a_2
value: 'SFORALL({ (! BB(Var_id_2)) \/ BB(Var_id_1)  }) > 0 '
#row: 766 #col: 11
This is the main function.
Input Signal File Name: bdd-input-data.txt
Printing input signal:
0.000	0.000	1.000	1.000	1.000	341.568	276.761	750.940	585.721	546.254	431.241	
0.000	0.000	2.000	1.000	1.000	218.260	329.701	372.982	406.215	295.621	367.958	
0.000	0.000	3.000	1.000	1.000	366.740	328.262	415.889	366.350	391.315	347.306	
0.000	0.000	4.000	3.000	1.000	807.065	306.133	829.322	371.563	818.194	338.848	
0.000	0.000	5.000	1.000	1.000	707.686	316.063	749.273	356.541	728.480	336.302	
0.000	0.000	6.000	1.000	1.000	840.203	313.845	929.484	345.989	884.843	329.917	
0.000	0.000	7.000	1.000	1.000	1090.791	341.016	1142.914	368.186	1116.853	354.601	
0.000	0.000	8.000	1.000	1.000	1179.510	313.291	1280.000	408.664	1229.755	360.977	
0.000	0.000	9.000	1.000	1.000	1126.833	280.576	1278.765	374.840	1202.799	327.708	
0.000	0.000	10.000	3.000	1.000	942.256	307.302	956.515	319.448	949.386	313.375	
0.000	0.000	11.000	2.000	1.000	832.387	367.802	894.827	478.559	863.607	423.181	
0.000	0.000	12.000	1.000	1.000	351.996	334.443	382.031	374.308	367.013	354.375	
1.000	0.033	1.000	1.000	1.000	353.271	275.200	770.441	587.620	561.856	431.410	
1.000	0.033	2.000	1.000	1.000	205.776	330.481	364.722	408.346	285.249	369.413	
1.000	0.033	3.000	1.000	1.000	367.240	327.098	414.275	367.021	390.758	347.060	
1.000	0.033	4.000	3.000	1.000	817.579	306.715	837.473	372.145	827.526	339.430	
1.000	0.033	5.000	1.000	1.000	712.367	316.063	750.745	356.541	731.556	336.302	
1.000	0.033	6.000	1.000	1.000	842.387	313.845	930.648	345.209	886.518	329.527	
1.000	0.033	7.000	1.000	1.000	1097.589	340.433	1146.407	367.700	1121.998	354.066	
1.000	0.033	8.000	1.000	1.000	1184.340	313.291	1280.000	408.664	1232.170	360.977	
1.000	0.033	9.000	1.000	1.000	1127.864	280.367	1278.765	371.193	1203.315	325.780	
1.000	0.033	12.000	1.000	1.000	346.776	336.565	385.008	373.236	365.892	354.900	
1.000	0.033	10.000	3.000	1.000	942.256	307.302	960.163	320.504	951.210	313.903	
1.000	0.033	11.000	2.000	1.000	837.067	367.279	896.534	479.133	866.800	423.206	
2.000	0.067	1.000	1.000	1.000	368.035	275.842	779.613	588.261	573.824	432.052	
2.000	0.067	2.000	1.000	1.000	179.458	330.932	354.035	416.691	266.747	373.811	
2.000	0.067	3.000	1.000	1.000	368.524	329.918	415.559	368.947	392.041	349.433	
2.000	0.067	4.000	3.000	1.000	827.105	306.715	850.953	372.145	839.029	339.430	
2.000	0.067	5.000	1.000	1.000	718.145	316.705	756.329	357.422	737.237	337.063	
2.000	0.067	6.000	1.000	1.000	850.543	313.204	937.564	343.187	894.053	328.195	
2.000	0.067	7.000	1.000	1.000	1109.606	340.433	1155.822	368.917	1132.714	354.675	
2.000	0.067	8.000	1.000	1.000	1196.262	313.291	1280.000	408.664	1238.131	360.977	
2.000	0.067	9.000	1.000	1.000	1137.207	279.083	1280.000	368.275	1208.604	323.679	
2.000	0.067	12.000	1.000	1.000	338.432	337.849	386.772	375.395	362.602	356.622	
2.000	0.067	10.000	3.000	1.000	940.144	307.830	958.051	321.032	949.098	314.431	
2.000	0.067	11.000	2.000	1.000	845.803	366.114	899.610	477.237	872.707	421.676	
3.000	0.100	1.000	1.000	1.000	386.191	274.632	792.807	587.051	589.499	430.841	
3.000	0.100	2.000	1.000	1.000	126.700	333.508	325.670	429.323	226.185	381.415	
3.000	0.100	3.000	1.000	1.000	368.025	329.024	409.615	367.689	388.820	348.356	
3.000	0.100	4.000	3.000	1.000	841.223	301.514	869.939	364.717	855.581	333.115	
3.000	0.100	5.000	1.000	1.000	734.024	314.476	763.760	354.990	748.892	334.733	
3.000	0.100	6.000	1.000	1.000	863.139	308.745	944.362	330.620	903.751	319.683	
3.000	0.100	7.000	1.000	1.000	1099.946	334.489	1174.600	368.432	1137.273	351.461	
3.000	0.100	8.000	1.000	1.000	1213.983	315.674	1280.000	408.664	1246.991	362.169	
3.000	0.100	9.000	1.000	1.000	1163.454	281.312	1280.000	370.505	1221.727	325.908	
3.000	0.100	12.000	1.000	1.000	332.357	335.619	384.543	375.863	358.450	355.741	
3.000	0.100	13.000	1.000	1.000	298.176	338.709	340.531	381.065	319.354	359.887	
3.000	0.100	10.000	3.000	1.000	942.064	304.421	962.132	355.646	952.098	330.034	
3.000	0.100	11.000	2.000	1.000	858.616	360.872	911.026	472.578	884.821	416.725	
4.000	0.133	1.000	1.000	1.000	408.129	273.924	806.060	590.088	607.095	432.006	
4.000	0.133	2.000	1.000	1.000	58.761	336.799	290.861	441.354	174.811	389.076	
4.000	0.133	3.000	1.000	1.000	372.953	329.024	409.615	367.937	391.284	348.480	
4.000	0.133	4.000	3.000	1.000	864.147	300.806	889.182	370.060	876.664	335.433	
4.000	0.133	5.000	1.000	1.000	750.394	315.532	767.507	355.982	758.951	335.757	
4.000	0.133	6.000	1.000	1.000	871.798	308.777	952.166	351.918	911.982	330.347	
4.000	0.133	7.000	1.000	1.000	1107.601	303.537	1222.954	365.814	1165.278	334.676	
4.000	0.133	8.000	1.000	1.000	1233.570	320.522	1280.000	401.198	1256.785	360.860	
4.000	0.133	9.000	1.000	1.000	1176.954	278.481	1280.000	370.060	1228.477	324.271	
4.000	0.133	12.000	1.000	1.000	328.819	334.912	389.938	376.429	359.378	355.670	
4.000	0.133	13.000	1.000	1.000	269.161	339.417	340.399	383.506	304.780	361.462	
4.000	0.133	10.000	3.000	1.000	942.833	304.949	962.660	356.174	952.746	330.562	
4.000	0.133	11.000	2.000	1.000	887.642	359.456	954.443	472.620	921.042	416.038	
5.000	0.167	1.000	1.000	1.000	427.340	273.924	819.019	590.088	623.180	432.006	
5.000	0.167	2.000	1.000	1.000	0.000	338.214	247.770	461.481	123.885	399.847	
5.000	0.167	3.000	1.000	1.000	374.009	330.608	401.444	367.408	387.727	349.008	
5.000	0.167	4.000	3.000	1.000	873.125	301.334	914.604	369.040	893.864	335.187	
5.000	0.167	6.000	1.000	1.000	861.423	310.160	937.380	344.663	899.401	327.412	
5.000	0.167	7.000	1.000	1.000	1118.831	302.481	1243.022	370.049	1180.926	336.265	
5.000	0.167	8.000	1.000	1.000	1261.943	331.498	1280.000	394.341	1270.971	362.919	
5.000	0.167	9.000	1.000	1.000	1192.235	283.442	1280.000	371.633	1236.118	327.537	
5.000	0.167	12.000	1.000	1.000	328.819	337.024	391.411	374.801	360.115	355.913	
5.000	0.167	13.000	1.000	1.000	245.397	341.001	342.298	388.532	293.847	364.767	
5.000	0.167	10.000	3.000	1.000	943.649	305.478	957.379	323.625	950.514	314.551	
5.000	0.167	11.000	2.000	1.000	909.191	371.105	980.917	470.132	945.054	420.618	
6.000	0.200	1.000	1.000	1.000	445.852	275.568	832.558	589.590	639.205	432.579	
6.000	0.200	2.000	1.000	1.000	0.000	338.214	189.250	470.135	94.625	404.174	
6.000	0.200	3.000	1.000	1.000	372.953	330.608	391.987	351.085	382.470	340.847	
6.000	0.200	4.000	3.000	1.000	897.417	301.334	921.997	369.040	909.707	335.187	
6.000	0.200	6.000	1.000	1.000	866.728	309.089	946.457	346.223	906.592	327.656	
6.000	0.200	7.000	1.000	1.000	1129.920	303.009	1259.393	369.520	1194.657	336.265	
6.000	0.200	8.000	1.000	1.000	1270.392	351.037	1280.000	392.756	1275.196	371.897	
6.000	0.200	9.000	1.000	1.000	1192.235	292.947	1280.000	373.745	1236.118	333.346	
6.000	0.200	12.000	1.000	1.000	327.763	336.496	390.354	374.273	359.059	355.385	
6.000	0.200	13.000	1.000	1.000	243.812	340.473	340.714	388.004	292.263	364.238	
6.000	0.200	10.000	3.000	1.000	952.338	303.029	970.821	341.052	961.580	322.040	
6.000	0.200	14.000	1.000	1.000	498.133	324.153	527.178	355.838	512.655	339.995	
6.000	0.200	11.000	2.000	1.000	936.598	372.389	1024.581	472.344	980.589	422.367	
7.000	0.233	1.000	1.000	1.000	464.251	276.472	850.827	580.851	657.539	428.661	
7.000	0.233	2.000	1.000	1.000	0.000	336.420	109.246	465.450	54.623	400.935	
7.000	0.233	4.000	3.000	1.000	914.844	298.694	948.305	369.088	931.575	333.891	
7.000	0.233	6.000	1.000	1.000	870.550	306.748	957.379	343.336	913.965	325.042	
7.000	0.233	7.000	1.000	1.000	1141.010	302.481	1276.820	371.201	1208.915	336.841	
7.000	0.233	9.000	1.000	1.000	1211.246	302.021	1280.000	375.425	1245.623	338.723	
7.000	0.233	12.000	1.000	1.000	327.235	337.552	377.392	375.329	352.313	356.441	
7.000	0.233	13.000	1.000	1.000	241.700	340.473	338.602	388.004	290.151	364.238	
7.000	0.233	10.000	3.000	1.000	941.440	310.422	975.766	365.392	958.603	337.907	
7.000	0.233	14.000	1.000	1.000	495.492	323.097	529.482	361.743	512.487	342.420	
7.000	0.233	11.000	2.000	1.000	970.379	360.054	1082.025	472.461	1026.202	416.258	
8.000	0.267	1.000	1.000	1.000	482.789	275.472	865.255	582.631	674.022	429.052	
8.000	0.267	4.000	3.000	1.000	930.494	296.053	957.811	366.448	944.153	331.251	
8.000	0.267	6.000	1.000	1.000	874.295	307.840	962.216	343.883	918.255	325.861	
8.000	0.267	7.000	1.000	1.000	1150.516	326.245	1211.336	372.641	1180.926	349.443	
8.000	0.267	9.000	1.000	1.000	1232.370	335.675	1280.000	375.425	1256.185	355.550	
8.000	0.267	12.000	1.000	1.000	327.235	334.384	368.655	373.697	347.945	354.040	
8.000	0.267	13.000	1.000	1.000	239.588	337.305	336.489	387.956	288.038	362.630	
8.000	0.267	10.000	3.000	1.000	948.978	308.838	962.036	364.720	955.507	336.779	
8.000	0.267	14.000	1.000	1.000	488.099	320.984	533.947	362.079	511.023	341.532	
8.000	0.267	15.000	1.000	1.000	540.236	319.832	566.640	347.293	553.438	333.562	
8.000	0.267	16.000	1.000	1.000	524.921	325.113	541.820	347.821	533.371	336.467	
8.000	0.267	11.000	2.000	1.000	1014.979	379.101	1159.603	478.408	1087.291	428.755	
9.000	0.300	1.000	1.000	1.000	505.961	275.280	884.311	581.086	695.136	428.183	
9.000	0.300	4.000	3.000	1.000	953.490	293.941	970.389	365.536	961.940	329.738	
9.000	0.300	6.000	1.000	1.000	878.742	307.520	947.249	344.273	912.995	325.896	
9.000	0.300	7.000	1.000	1.000	1166.359	324.133	1238.269	370.529	1202.314	347.331	
9.000	0.300	9.000	1.000	1.000	1257.718	316.663	1279.472	376.098	1268.595	346.380	
9.000	0.300	12.000	1.000	1.000	324.575	335.440	351.180	373.505	337.877	354.472	
9.000	0.300	13.000	1.000	1.000	238.003	334.664	339.562	385.315	288.783	359.990	
9.000	0.300	10.000	3.000	1.000	945.809	302.501	960.884	363.951	953.346	333.226	
9.000	0.300	14.000	1.000	1.000	481.234	320.456	531.018	360.831	506.126	340.644	
9.000	0.300	15.000	1.000	1.000	536.539	315.943	579.075	349.213	557.807	332.578	
9.000	0.300	16.000	1.000	1.000	520.985	320.360	539.996	347.101	530.490	333.730	
9.000	0.300	11.000	2.000	1.000	1075.522	379.035	1250.118	482.689	1162.820	430.862	
10.000	0.333	1.000	1.000	1.000	525.623	276.100	899.601	579.131	712.612	427.615	
10.000	0.333	4.000	3.000	1.000	965.204	294.997	1007.452	369.136	986.328	332.067	
10.000	0.333	6.000	1.000	1.000	887.719	309.632	975.766	337.787	931.743	323.710	
10.000	0.333	7.000	1.000	1.000	1227.089	323.076	1264.145	370.673	1245.617	346.875	
10.000	0.333	13.000	1.000	1.000	235.092	337.575	335.041	388.501	285.066	363.038	
10.000	0.333	10.000	3.000	1.000	942.496	302.501	969.957	368.080	956.227	335.291	
10.000	0.333	14.000	1.000	1.000	477.537	321.512	527.322	361.887	502.430	341.700	
10.000	0.333	15.000	1.000	1.000	535.483	318.056	581.859	351.325	558.671	334.690	
10.000	0.333	16.000	1.000	1.000	519.929	323.000	538.940	349.741	529.434	336.371	
10.000	0.333	11.000	2.000	1.000	1144.880	359.366	1280.000	492.208	1212.440	425.787	
11.000	0.367	1.000	1.000	1.000	548.795	276.100	919.323	577.997	734.059	427.048	
11.000	0.367	4.000	3.000	1.000	994.441	294.340	1018.013	369.856	1006.227	332.098	
11.000	0.367	6.000	1.000	1.000	889.303	309.104	982.823	337.259	936.063	323.182	
11.000	0.367	7.000	1.000	1.000	1190.651	326.773	1262.561	375.137	1226.606	350.955	
11.000	0.367	13.000	1.000	1.000	232.452	338.104	315.702	389.029	274.077	363.566	
11.000	0.367	10.000	3.000	1.000	947.249	305.141	974.710	369.328	960.980	337.235	
11.000	0.367	14.000	1.000	1.000	469.616	322.568	525.353	364.576	497.485	343.572	
11.000	0.367	15.000	1.000	1.000	533.371	319.640	581.523	352.910	557.447	336.275	
11.000	0.367	16.000	1.000	1.000	512.007	325.641	536.635	350.845	524.321	338.243	
11.000	0.367	17.000	1.000	1.000	577.826	324.969	587.860	346.621	582.843	335.795	
11.000	0.367	18.000	1.000	1.000	584.692	325.497	598.950	343.980	591.821	334.738	
11.000	0.367	19.000	1.000	1.000	596.310	323.385	618.489	342.396	607.399	332.890	
11.000	0.367	11.000	2.000	1.000	1216.335	427.715	1280.000	492.208	1248.167	459.962	
12.000	0.400	1.000	1.000	1.000	567.109	276.100	940.144	578.351	753.626	427.225	
12.000	0.400	4.000	3.000	1.000	1013.453	294.868	1037.025	370.385	1025.239	332.626	
12.000	0.400	6.000	1.000	1.000	896.697	311.745	990.217	334.330	943.457	323.038	
12.000	0.400	7.000	1.000	1.000	1202.797	326.245	1280.000	379.218	1241.398	352.732	
12.000	0.400	13.000	1.000	1.000	232.452	339.659	300.675	389.029	266.563	364.344	
12.000	0.400	10.000	3.000	1.000	945.137	305.670	972.598	371.825	958.867	338.747	
12.000	0.400	14.000	1.000	1.000	460.110	322.568	520.889	367.120	490.500	344.844	
12.000	0.400	15.000	1.000	1.000	530.730	320.168	582.147	353.390	556.439	336.779	
12.000	0.400	16.000	1.000	1.000	508.311	323.529	529.866	353.390	519.088	338.459	
12.000	0.400	17.000	1.000	1.000	575.714	322.856	585.748	344.508	580.731	333.682	
12.000	0.400	18.000	1.000	1.000	583.107	324.969	597.366	343.452	590.237	334.210	
12.000	0.400	19.000	1.000	1.000	596.838	324.969	621.226	343.980	609.032	334.474	
12.000	0.400	20.000	1.000	1.000	622.282	325.929	642.877	342.828	632.580	334.378	
13.000	0.433	1.000	1.000	1.000	596.682	277.777	959.971	574.467	778.327	426.122	
13.000	0.433	4.000	3.000	1.000	1025.359	294.340	1052.339	369.712	1038.849	332.026	
13.000	0.433	6.000	1.000	1.000	907.787	311.217	994.729	332.746	951.258	321.981	
13.000	0.433	7.000	1.000	1.000	1213.359	326.245	1280.000	379.218	1246.679	352.732	
13.000	0.433	13.000	1.000	1.000	223.959	342.490	267.765	390.133	245.862	366.311	
13.000	0.433	10.000	3.000	1.000	940.912	305.670	976.246	371.297	958.579	338.483	
13.000	0.433	14.000	1.000	1.000	449.549	322.040	513.687	368.656	481.618	345.348	
13.000	0.433	15.000	1.000	1.000	526.506	320.072	578.643	354.398	552.574	337.235	
13.000	0.433	16.000	1.000	1.000	501.973	323.000	530.586	352.814	516.280	337.907	
13.000	0.433	17.000	1.000	1.000	572.017	321.800	582.051	343.452	577.034	332.626	
13.000	0.433	18.000	1.000	1.000	581.523	324.969	595.781	344.892	588.652	334.931	
13.000	0.433	19.000	1.000	1.000	596.598	323.913	623.050	343.308	609.824	333.610	
13.000	0.433	20.000	1.000	1.000	622.282	324.535	646.286	339.280	634.284	331.908	
13.000	0.433	21.000	1.000	1.000	645.230	312.151	682.196	350.701	663.713	331.426	
14.000	0.467	1.000	1.000	1.000	624.770	278.557	983.585	566.307	804.178	422.432	
14.000	0.467	4.000	3.000	1.000	1049.209	289.449	1069.383	313.225	1059.296	301.337	
14.000	0.467	6.000	1.000	1.000	928.777	308.160	998.397	331.565	963.587	319.862	
14.000	0.467	7.000	1.000	1.000	1220.604	326.245	1280.000	377.415	1250.302	351.830	
14.000	0.467	10.000	3.000	1.000	939.406	303.224	963.012	367.022	951.209	335.123	
14.000	0.467	14.000	1.000	1.000	435.818	318.872	505.238	369.376	470.528	344.124	
14.000	0.467	15.000	1.000	1.000	519.112	317.960	572.305	353.534	545.709	335.747	
14.000	0.467	16.000	1.000	1.000	500.389	318.248	529.002	350.893	514.696	334.570	
14.000	0.467	17.000	1.000	1.000	566.737	320.744	584.452	346.140	575.594	333.442	
14.000	0.467	18.000	1.000	1.000	579.939	323.913	595.541	343.500	587.740	333.706	
14.000	0.467	19.000	1.000	1.000	593.429	322.328	619.882	341.724	606.655	332.026	
14.000	0.467	20.000	1.000	1.000	620.698	322.760	644.702	338.555	632.700	330.658	
14.000	0.467	21.000	1.000	1.000	649.935	313.207	692.758	356.702	671.346	334.955	
14.000	0.467	22.000	1.000	1.000	639.373	322.376	655.744	333.994	647.558	328.185	
14.000	0.467	13.000	1.000	1.000	218.634	361.520	238.066	391.475	228.350	376.498	
15.000	0.500	1.000	1.000	1.000	648.479	279.505	1011.742	565.664	830.111	422.585	
15.000	0.500	4.000	3.000	1.000	1064.929	290.613	1100.818	370.399	1082.873	330.506	
15.000	0.500	6.000	1.000	1.000	942.750	308.160	1001.999	323.821	972.375	315.991	
15.000	0.500	7.000	1.000	1.000	1230.335	327.897	1280.000	377.415	1255.167	352.656	
15.000	0.500	14.000	1.000	1.000	415.644	320.706	492.010	371.210	453.827	345.958	
15.000	0.500	15.000	1.000	1.000	510.663	317.432	564.576	354.734	537.620	336.083	
15.000	0.500	16.000	1.000	1.000	495.108	319.304	523.721	338.891	509.415	329.098	
15.000	0.500	17.000	1.000	1.000	560.399	321.272	582.531	343.644	571.465	332.458	
15.000	0.500	18.000	1.000	1.000	577.826	322.856	593.429	342.444	585.628	332.650	
15.000	0.500	19.000	1.000	1.000	591.317	321.800	617.769	341.196	604.543	331.498	
15.000	0.500	20.000	1.000	1.000	617.529	323.289	641.533	339.083	629.531	331.186	
15.000	0.500	21.000	1.000	1.000	649.407	312.679	696.263	355.262	672.835	333.970	
15.000	0.500	22.000	1.000	1.000	637.789	320.792	654.159	332.410	645.974	326.601	
15.000	0.500	23.000	1.000	1.000	481.666	327.801	509.127	353.678	495.396	340.740	
15.000	0.500	24.000	1.000	1.000	699.959	319.880	717.386	330.970	708.673	325.425	
16.000	0.533	1.000	1.000	1.000	671.651	281.050	1041.362	562.549	856.507	421.800	
16.000	0.533	4.000	3.000	1.000	1079.188	291.142	1105.244	373.409	1092.216	332.275	
16.000	0.533	6.000	1.000	1.000	975.718	308.688	997.774	324.260	986.746	316.474	
16.000	0.533	7.000	1.000	1.000	1232.370	331.978	1280.000	382.147	1256.185	357.062	
16.000	0.533	14.000	1.000	1.000	392.408	319.122	474.369	375.569	433.389	347.345	
16.000	0.533	15.000	1.000	1.000	496.405	317.432	556.751	356.030	526.578	336.731	
16.000	0.533	16.000	1.000	1.000	486.131	320.360	507.830	334.090	496.981	327.225	
16.000	0.533	17.000	1.000	1.000	550.894	321.800	577.010	345.180	563.952	333.490	
16.000	0.533	18.000	1.000	1.000	570.433	322.856	587.572	343.596	579.003	333.226	
16.000	0.533	19.000	1.000	1.000	580.755	323.385	610.088	342.300	595.421	332.842	
16.000	0.533	20.000	1.000	1.000	609.262	323.817	633.516	340.716	621.389	332.266	
16.000	0.533	21.000	1.000	1.000	646.238	312.679	694.438	353.918	670.338	333.298	
16.000	0.533	22.000	1.000	1.000	631.452	321.320	647.246	335.675	639.349	328.497	
16.000	0.533	23.000	1.000	1.000	467.408	328.329	504.134	356.270	485.771	342.300	
16.000	0.533	24.000	1.000	1.000	693.094	321.176	711.865	333.034	702.480	327.105	
16.000	0.533	5.000	1.000	1.000	726.988	310.326	763.954	343.356	745.471	326.841	
16.000	0.533	25.000	1.000	1.000	722.247	315.642	739.176	350.592	730.711	333.117	
17.000	0.567	1.000	1.000	1.000	704.104	278.370	1080.653	554.107	892.378	416.238	
17.000	0.567	4.000	3.000	1.000	1089.018	289.503	1121.615	371.565	1105.317	330.534	
17.000	0.567	7.000	1.000	1.000	1239.288	331.978	1280.000	382.147	1259.644	357.062	
17.000	0.567	14.000	1.000	1.000	361.779	317.009	459.774	383.971	410.777	350.490	
17.000	0.567	15.000	1.000	1.000	480.562	316.903	543.741	356.510	512.151	336.707	
17.000	0.567	16.000	1.000	1.000	479.794	319.304	498.325	333.274	489.059	326.289	
17.000	0.567	17.000	1.000	1.000	546.141	320.744	572.257	344.124	559.199	332.434	
17.000	0.567	18.000	1.000	1.000	566.208	322.328	583.347	343.068	574.778	332.698	
17.000	0.567	19.000	1.000	1.000	577.058	321.272	606.391	340.187	591.725	330.730	
17.000	0.567	20.000	1.000	1.000	605.383	321.704	627.179	338.603	616.281	330.154	
17.000	0.567	21.000	1.000	1.000	643.598	312.679	688.965	351.229	666.281	331.954	
17.000	0.567	22.000	1.000	1.000	628.811	321.320	644.606	335.675	636.708	328.497	
17.000	0.567	23.000	1.000	1.000	458.430	327.273	487.235	354.398	472.833	340.836	
17.000	0.567	24.000	1.000	1.000	688.341	319.592	706.392	331.450	697.367	325.521	
17.000	0.567	5.000	1.000	1.000	719.162	309.270	786.134	368.080	752.648	338.675	
17.000	0.567	26.000	1.000	1.000	0.000	147.363	154.647	612.348	77.323	379.855	
17.000	0.567	27.000	1.000	1.000	365.054	325.449	381.953	345.516	373.504	335.483	
17.000	0.567	28.000	1.000	1.000	451.661	328.089	471.728	357.662	461.695	342.876	
17.000	0.567	25.000	1.000	1.000	716.396	313.457	732.077	349.187	724.236	331.322	
18.000	0.600	1.000	1.000	1.000	738.686	277.217	1125.507	552.068	932.097	414.642	
18.000	0.600	4.000	3.000	1.000	1100.476	288.155	1131.019	368.430	1115.748	328.293	
18.000	0.600	7.000	1.000	1.000	1243.575	331.978	1280.000	381.236	1261.788	356.607	
18.000	0.600	14.000	1.000	1.000	336.959	317.537	442.731	383.203	389.845	350.370	
18.000	0.600	15.000	1.000	1.000	469.008	313.694	532.541	357.188	500.774	335.441	
18.000	0.600	17.000	1.000	1.000	539.804	319.688	565.920	343.068	552.862	331.378	
18.000	0.600	18.000	1.000	1.000	558.815	324.441	575.762	342.108	567.289	333.274	
18.000	0.600	19.000	1.000	1.000	570.721	320.744	600.054	339.659	585.388	330.202	
18.000	0.600	20.000	1.000	1.000	597.414	320.648	622.234	337.883	609.824	329.266	
18.000	0.600	21.000	1.000	1.000	640.165	312.415	684.717	350.701	662.441	331.558	
18.000	0.600	22.000	1.000	1.000	617.961	321.320	644.606	333.994	631.283	327.657	
18.000	0.600	23.000	1.000	1.000	449.981	326.745	474.225	353.870	462.103	340.307	
18.000	0.600	24.000	1.000	1.000	684.645	318.008	700.247	329.866	692.446	323.937	
18.000	0.600	5.000	1.000	1.000	714.506	309.270	790.359	365.872	752.432	337.571	
18.000	0.600	26.000	1.000	1.000	0.000	69.757	251.969	561.004	125.985	315.381	
18.000	0.600	27.000	1.000	1.000	337.593	325.977	359.821	346.765	348.707	336.371	
18.000	0.600	28.000	1.000	1.000	430.009	327.033	459.630	356.798	444.820	341.916	
18.000	0.600	29.000	1.000	1.000	527.562	323.625	547.629	344.748	537.596	334.186	
18.000	0.600	25.000	1.000	1.000	712.027	312.911	727.708	346.769	719.868	329.840	
19.000	0.633	1.000	1.000	1.000	780.298	275.731	1177.572	538.935	978.935	407.333	
19.000	0.633	4.000	3.000	1.000	1115.263	281.818	1143.123	356.606	1129.193	319.212	
19.000	0.633	7.000	1.000	1.000	1246.964	331.210	1280.000	369.760	1263.482	350.485	
19.000	0.633	14.000	1.000	1.000	308.970	318.593	421.176	389.780	365.073	354.187	
19.000	0.633	15.000	1.000	1.000	452.109	315.278	519.929	359.679	486.019	337.479	
19.000	0.633	17.000	1.000	1.000	532.411	319.160	558.527	342.540	545.469	330.850	
19.000	0.633	18.000	1.000	1.000	554.062	323.385	571.009	341.196	562.536	332.290	
19.000	0.633	19.000	1.000	1.000	563.856	321.272	593.189	340.187	578.523	330.730	
19.000	0.633	20.000	1.000	1.000	592.661	322.232	617.481	338.555	605.071	330.394	
19.000	0.633	21.000	1.000	1.000	636.732	312.151	680.468	350.173	658.600	331.162	
19.000	0.633	22.000	1.000	1.000	613.208	321.320	639.853	333.994	626.531	327.657	
19.000	0.633	23.000	1.000	1.000	446.284	327.801	462.146	350.701	454.215	339.251	
19.000	0.633	24.000	1.000	1.000	680.420	318.536	695.302	330.394	687.861	324.465	
19.000	0.633	5.000	1.000	1.000	709.753	307.686	788.342	361.311	749.048	334.498	
19.000	0.633	26.000	1.000	1.000	0.000	69.757	321.485	561.004	160.743	315.381	
19.000	0.633	27.000	1.000	1.000	319.110	328.089	332.457	348.061	325.783	338.075	
19.000	0.633	28.000	1.000	1.000	416.807	329.146	448.108	358.623	432.458	343.884	
19.000	0.633	29.000	1.000	1.000	523.337	324.153	543.405	345.276	533.371	334.714	
19.000	0.633	30.000	1.000	1.000	514.168	324.297	528.954	346.477	521.561	335.387	
19.000	0.633	25.000	1.000	1.000	707.352	313.255	722.667	349.693	715.010	331.474	
20.000	0.667	1.000	1.000	1.000	828.187	274.186	1243.402	538.738	1035.795	406.462	
20.000	0.667	7.000	1.000	1.000	1252.606	334.774	1280.000	370.821	1266.303	352.797	
20.000	0.667	14.000	1.000	1.000	347.771	322.818	402.693	386.947	375.232	354.883	
20.000	0.667	15.000	1.000	1.000	435.210	320.031	506.726	367.408	470.968	343.720	
20.000	0.667	17.000	1.000	1.000	526.602	324.441	551.614	347.869	539.108	336.155	
20.000	0.667	18.000	1.000	1.000	550.030	329.194	562.176	346.284	556.103	337.739	
20.000	0.667	19.000	1.000	1.000	559.103	327.609	588.436	346.524	573.770	337.067	
20.000	0.667	20.000	1.000	1.000	586.324	326.457	611.144	342.780	598.734	334.618	
20.000	0.667	21.000	1.000	1.000	635.148	316.375	677.827	352.622	656.488	334.498	
20.000	0.667	22.000	1.000	1.000	605.815	325.017	635.580	339.947	620.698	332.482	
20.000	0.667	24.000	1.000	1.000	677.827	322.520	689.973	335.195	683.900	328.857	
20.000	0.667	5.000	1.000	1.000	705.000	311.911	780.277	365.536	742.638	338.723	
20.000	0.667	26.000	1.000	1.000	0.000	69.757	370.919	602.714	185.459	336.236	
20.000	0.667	28.000	1.000	1.000	409.942	334.426	441.243	363.903	425.592	349.165	
20.000	0.667	29.000	1.000	1.000	517.000	328.906	537.067	350.029	527.034	339.467	
20.000	0.667	30.000	1.000	1.000	501.493	330.634	521.513	351.037	511.503	340.836	
20.000	0.667	31.000	1.000	1.000	388.434	334.666	415.895	367.936	402.164	351.301	
20.000	0.667	10.000	3.000	1.000	886.663	306.630	908.843	336.731	897.753	321.680	
20.000	0.667	25.000	1.000	1.000	701.543	317.480	716.858	353.918	709.201	335.699	
21.000	0.700	1.000	1.000	1.000	886.882	271.096	1277.388	540.922	1082.135	406.009	
21.000	0.700	15.000	1.000	1.000	414.614	321.320	490.644	372.161	452.629	346.741	
21.000	0.700	17.000	1.000	1.000	518.152	327.609	544.509	349.837	531.330	338.723	
21.000	0.700	18.000	1.000	1.000	540.524	328.665	552.670	345.756	546.597	337.211	
21.000	0.700	19.000	1.000	1.000	552.238	327.609	581.571	346.524	566.905	337.067	
21.000	0.700	20.000	1.000	1.000	579.987	329.098	604.807	345.420	592.397	337.259	
21.000	0.700	21.000	1.000	1.000	632.244	318.224	672.403	353.102	652.323	335.663	
21.000	0.700	22.000	1.000	1.000	597.894	327.657	629.003	340.860	613.448	334.258	
21.000	0.700	24.000	1.000	1.000	670.692	324.069	680.276	335.379	675.484	329.724	
21.000	0.700	5.000	1.000	1.000	700.055	312.439	777.108	374.129	738.582	343.284	
21.000	0.700	26.000	1.000	1.000	0.000	96.019	406.449	564.094	203.225	330.056	
21.000	0.700	28.000	1.000	1.000	399.380	336.539	421.464	366.736	410.422	351.637	
21.000	0.700	29.000	1.000	1.000	509.079	332.074	529.194	352.478	519.136	342.276	
21.000	0.700	30.000	1.000	1.000	497.797	334.330	517.816	354.734	507.806	344.532	
21.000	0.700	31.000	1.000	1.000	384.209	336.779	405.621	368.848	394.915	352.814	
21.000	0.700	10.000	3.000	1.000	882.726	306.630	909.131	385.219	895.929	345.924	
21.000	0.700	16.000	1.000	1.000	480.172	326.486	499.621	354.590	489.896	340.538	
21.000	0.700	6.000	1.000	1.000	902.410	311.287	975.286	335.579	938.848	323.433	
21.000	0.700	25.000	1.000	1.000	696.119	320.648	712.105	355.598	704.112	338.123	
22.000	0.733	1.000	1.000	1.000	955.651	274.368	1277.388	540.922	1116.519	407.645	
22.000	0.733	15.000	1.000	1.000	406.165	320.792	474.177	373.121	440.171	346.957	
22.000	0.733	17.000	1.000	1.000	510.759	327.609	537.115	349.837	523.937	338.723	
22.000	0.733	18.000	1.000	1.000	534.715	329.722	546.861	346.813	540.788	338.267	
22.000	0.733	19.000	1.000	1.000	542.732	328.665	572.065	347.581	557.399	338.123	
22.000	0.733	20.000	1.000	1.000	572.594	329.098	597.414	345.420	585.004	337.259	
22.000	0.733	21.000	1.000	1.000	629.339	320.072	666.978	353.582	648.158	336.827	
22.000	0.733	22.000	1.000	1.000	590.501	327.657	623.626	341.964	607.063	334.811	
22.000	0.733	24.000	1.000	1.000	623.146	327.801	633.996	341.964	628.571	334.883	
22.000	0.733	5.000	1.000	1.000	693.718	313.495	775.764	374.705	734.741	344.100	
22.000	0.733	26.000	1.000	1.000	0.000	136.184	428.185	544.030	214.092	340.107	
22.000	0.733	29.000	1.000	1.000	501.685	332.602	521.801	353.006	511.743	342.804	
22.000	0.733	30.000	1.000	1.000	488.291	333.274	508.311	353.678	498.301	343.476	
22.000	0.733	10.000	3.000	1.000	872.693	309.270	909.707	390.020	891.200	349.645	
22.000	0.733	16.000	1.000	1.000	461.683	321.571	491.604	356.222	476.643	338.896	
22.000	0.733	6.000	1.000	1.000	900.297	312.871	974.134	337.163	937.216	325.017	
22.000	0.733	32.000	1.000	1.000	661.697	324.009	675.427	346.717	668.562	335.363	
22.000	0.733	25.000	1.000	1.000	689.301	321.176	707.352	356.750	698.327	338.963	
23.000	0.767	1.000	1.000	1.000	1038.312	270.624	1278.972	533.996	1158.642	402.310	
23.000	0.767	15.000	1.000	1.000	424.120	319.736	457.518	369.376	440.819	344.556	
23.000	0.767	17.000	1.000	1.000	501.781	324.969	529.338	348.781	515.560	336.875	
23.000	0.767	18.000	1.000	1.000	526.266	328.665	538.412	345.756	532.339	337.211	
23.000	0.767	19.000	1.000	1.000	535.339	326.025	563.664	344.556	549.502	335.291	
23.000	0.767	20.000	1.000	1.000	565.728	326.985	589.540	341.916	577.634	334.450	
23.000	0.767	21.000	1.000	1.000	625.643	314.791	663.281	348.301	644.462	331.546	
23.000	0.767	22.000	1.000	1.000	587.332	324.489	617.001	338.795	602.167	331.642	
23.000	0.767	24.000	1.000	1.000	617.961	323.049	629.579	336.635	623.770	329.842	
23.000	0.767	5.000	1.000	1.000	688.437	308.214	772.164	369.424	730.300	338.819	
23.000	0.767	26.000	1.000	1.000	0.000	170.169	444.731	523.111	222.365	346.640	
23.000	0.767	29.000	1.000	1.000	492.180	329.434	512.295	349.837	502.238	339.635	
23.000	0.767	30.000	1.000	1.000	479.842	331.162	499.861	351.565	489.851	341.364	
23.000	0.767	10.000	3.000	1.000	867.652	300.293	904.090	382.051	885.871	341.172	
23.000	0.767	16.000	1.000	1.000	441.789	321.181	481.810	356.174	461.800	338.677	
23.000	0.767	6.000	1.000	1.000	900.297	305.478	974.134	329.770	937.216	317.624	
23.000	0.767	32.000	1.000	1.000	656.944	320.312	671.298	341.388	664.121	330.850	
23.000	0.767	25.000	1.000	1.000	683.576	315.608	702.403	351.935	692.989	333.771	
24.000	0.800	1.000	1.000	1.000	1143.319	270.624	1280.000	533.996	1211.660	402.310	
24.000	0.800	17.000	1.000	1.000	493.332	325.497	523.385	351.565	508.359	338.531	
24.000	0.800	18.000	1.000	1.000	518.872	329.194	533.947	348.925	526.410	339.059	
24.000	0.800	19.000	1.000	1.000	527.418	328.329	558.239	348.781	542.828	338.555	
24.000	0.800	20.000	1.000	1.000	559.295	327.801	583.059	343.500	571.177	335.651	
24.000	0.800	21.000	1.000	1.000	623.002	317.432	661.505	348.397	642.253	332.914	
24.000	0.800	22.000	1.000	1.000	579.939	325.017	612.104	340.475	596.021	332.746	
24.000	0.800	24.000	1.000	1.000	614.217	323.049	629.579	337.835	621.898	330.442	
24.000	0.800	5.000	1.000	1.000	681.572	307.158	772.404	374.273	726.988	340.716	
24.000	0.800	26.000	1.000	1.000	59.309	183.777	458.910	496.374	259.110	340.075	
24.000	0.800	29.000	1.000	1.000	482.674	330.490	502.790	352.622	492.732	341.556	
24.000	0.800	30.000	1.000	1.000	468.224	331.162	488.243	355.790	478.233	343.476	
24.000	0.800	10.000	3.000	1.000	865.434	304.451	905.294	389.409	885.364	346.930	
24.000	0.800	16.000	1.000	1.000	438.357	325.017	470.576	358.783	454.466	341.900	
24.000	0.800	6.000	1.000	1.000	900.852	308.527	976.635	332.819	938.743	320.673	
24.000	0.800	32.000	1.000	1.000	653.247	319.784	667.602	340.860	660.424	330.322	
24.000	0.800	14.000	1.000	1.000	10.562	355.790	71.292	446.622	40.927	401.206	
24.000	0.800	4.000	3.000	1.000	1217.988	267.373	1250.757	312.431	1234.372	289.902	
24.000	0.800	25.000	1.000	1.000	680.191	317.174	698.487	352.624	689.339	334.899	
25.000	0.833	17.000	1.000	1.000	489.635	327.081	516.280	350.653	502.958	338.867	
25.000	0.833	18.000	1.000	1.000	514.648	330.778	529.722	350.509	522.185	340.644	
25.000	0.833	19.000	1.000	1.000	523.721	327.801	554.542	348.253	539.132	338.027	
25.000	0.833	20.000	1.000	1.000	555.071	328.857	578.835	344.556	566.953	336.707	
25.000	0.833	21.000	1.000	1.000	621.418	319.544	659.920	350.509	640.669	335.027	
25.000	0.833	22.000	1.000	1.000	574.130	326.073	606.295	341.532	590.212	333.802	
25.000	0.833	24.000	1.000	1.000	608.936	326.217	624.298	341.004	616.617	333.610	
25.000	0.833	5.000	1.000	1.000	681.572	311.911	772.404	379.026	726.988	345.468	
25.000	0.833	26.000	1.000	1.000	120.224	185.985	471.392	467.815	295.808	326.900	
25.000	0.833	29.000	1.000	1.000	478.978	329.962	499.093	352.093	489.035	341.028	
25.000	0.833	30.000	1.000	1.000	455.676	328.748	480.796	354.206	468.236	341.477	
25.000	0.833	10.000	3.000	1.000	863.216	308.610	906.498	396.768	884.857	352.689	
25.000	0.833	6.000	1.000	1.000	901.406	311.577	979.136	335.869	940.271	323.723	
25.000	0.833	32.000	1.000	1.000	652.191	322.952	666.546	344.028	659.368	333.490	
25.000	0.833	14.000	1.000	1.000	0.000	313.836	133.020	446.689	66.510	380.262	
25.000	0.833	4.000	3.000	1.000	1248.213	284.272	1280.000	382.915	1264.106	333.593	
25.000	0.833	25.000	1.000	1.000	673.630	320.842	695.431	357.185	684.531	339.013	
26.000	0.867	17.000	1.000	1.000	486.995	335.531	515.176	359.919	501.085	347.725	
26.000	0.867	18.000	1.000	1.000	512.007	339.227	527.082	358.959	519.544	349.093	
26.000	0.867	19.000	1.000	1.000	521.081	335.723	551.902	356.174	536.491	345.948	
26.000	0.867	20.000	1.000	1.000	552.430	337.835	576.194	353.534	564.312	345.684	
26.000	0.867	21.000	1.000	1.000	623.530	326.937	659.872	357.806	641.701	342.372	
26.000	0.867	22.000	1.000	1.000	572.545	333.994	604.711	349.453	588.628	341.724	
26.000	0.867	24.000	1.000	1.000	607.063	329.818	624.298	349.357	615.681	339.587	
26.000	0.867	5.000	1.000	1.000	683.636	317.192	776.628	385.267	730.132	351.229	
26.000	0.867	26.000	1.000	1.000	172.384	216.806	483.346	469.879	327.865	343.343	
26.000	0.867	29.000	1.000	1.000	476.337	337.883	496.453	360.015	486.395	348.949	
26.000	0.867	30.000	1.000	1.000	464.335	334.911	480.718	363.615	472.526	349.263	
26.000	0.867	10.000	3.000	1.000	867.440	311.779	910.722	405.863	889.081	358.821	
26.000	0.867	6.000	1.000	1.000	906.159	318.442	983.889	342.734	945.024	330.588	
26.000	0.867	32.000	1.000	1.000	654.303	330.346	668.658	351.421	661.481	340.884	
26.000	0.867	14.000	1.000	1.000	0.000	322.795	119.495	457.464	59.748	390.129	
26.000	0.867	13.000	1.000	1.000	82.334	356.702	145.705	415.848	114.019	386.275	
26.000	0.867	12.000	1.000	1.000	136.727	356.702	174.222	409.511	155.474	383.107	
26.000	0.867	25.000	1.000	1.000	674.158	329.819	695.959	363.087	685.059	346.453	
27.000	0.900	17.000	1.000	1.000	482.045	339.862	510.226	364.250	496.135	352.056	
27.000	0.900	18.000	1.000	1.000	506.439	344.796	521.513	364.527	513.976	354.662	
27.000	0.900	19.000	1.000	1.000	515.776	341.910	548.190	362.454	531.983	352.182	
27.000	0.900	20.000	1.000	1.000	548.718	343.404	574.184	358.741	561.451	351.072	
27.000	0.900	21.000	1.000	1.000	624.149	333.125	658.332	360.597	641.240	346.861	
27.000	0.900	22.000	1.000	1.000	570.071	340.182	602.236	355.640	586.153	347.911	
27.000	0.900	24.000	1.000	1.000	603.970	339.717	623.435	353.173	613.702	346.445	
27.000	0.900	5.000	1.000	1.000	680.606	320.285	779.722	395.247	730.164	357.766	
27.000	0.900	26.000	1.000	1.000	208.036	231.639	491.355	469.507	349.696	350.573	
27.000	0.900	29.000	1.000	1.000	476.337	344.070	492.883	366.202	484.610	355.136	
27.000	0.900	10.000	3.000	1.000	870.534	316.728	920.303	415.046	895.419	365.887	
27.000	0.900	6.000	1.000	1.000	903.316	320.917	991.933	360.109	947.624	340.513	
27.000	0.900	32.000	1.000	1.000	653.685	335.296	671.325	355.029	662.505	345.162	
27.000	0.900	13.000	1.000	1.000	0.000	363.471	126.348	434.999	63.174	399.235	
27.000	0.900	12.000	1.000	1.000	119.430	358.288	210.581	414.776	165.005	386.532	
27.000	0.900	25.000	1.000	1.000	673.630	336.156	695.431	369.424	684.531	352.790	
28.000	0.933	17.000	1.000	1.000	485.086	336.149	507.132	362.454	496.109	349.302	
28.000	0.933	18.000	1.000	1.000	501.489	338.609	516.563	358.340	509.026	348.474	
28.000	0.933	19.000	1.000	1.000	513.301	338.198	545.715	358.741	529.508	348.469	
28.000	0.933	20.000	1.000	1.000	547.480	340.310	572.947	356.266	560.213	348.288	
28.000	0.933	21.000	1.000	1.000	627.243	332.506	661.425	359.360	644.334	345.933	
28.000	0.933	22.000	1.000	1.000	573.164	337.088	602.027	353.791	587.596	345.440	
28.000	0.933	24.000	1.000	1.000	604.588	336.624	624.054	350.079	614.321	343.351	
28.000	0.933	5.000	1.000	1.000	682.586	318.429	790.240	397.103	736.413	357.766	
28.000	0.933	26.000	1.000	1.000	245.419	236.814	500.197	457.715	372.808	347.265	
28.000	0.933	10.000	3.000	1.000	882.909	321.060	929.708	427.421	906.308	374.240	
28.000	0.933	6.000	1.000	1.000	912.209	326.486	1004.307	360.109	958.258	343.297	
28.000	0.933	32.000	1.000	1.000	653.685	334.058	671.325	353.791	662.505	343.925	
28.000	0.933	13.000	1.000	1.000	0.000	349.322	99.045	426.537	49.523	387.929	
28.000	0.933	12.000	1.000	1.000	92.581	347.616	192.681	404.510	142.631	376.063	
28.000	0.933	15.000	1.000	1.000	180.836	326.295	247.169	413.949	214.003	370.122	
28.000	0.933	25.000	1.000	1.000	673.411	335.628	700.184	370.433	686.797	353.030	
29.000	0.967	18.000	1.000	1.000	502.726	337.371	517.801	357.102	510.263	347.237	
29.000	0.967	19.000	1.000	1.000	518.869	334.485	551.283	358.618	535.076	346.551	
29.000	0.967	20.000	1.000	1.000	551.193	336.598	576.659	353.668	563.926	345.133	
29.000	0.967	21.000	1.000	1.000	635.562	330.031	668.231	356.885	651.897	343.458	
29.000	0.967	22.000	1.000	1.000	573.164	336.469	602.027	352.430	587.596	344.450	
29.000	0.967	24.000	1.000	1.000	608.920	335.386	628.385	348.842	618.652	342.114	
29.000	0.967	5.000	1.000	1.000	693.104	313.479	804.471	396.360	748.788	354.920	
29.000	0.967	26.000	1.000	1.000	277.651	239.679	514.275	446.517	395.963	343.098	
29.000	0.967	10.000	3.000	1.000	902.708	317.347	956.437	431.009	929.573	374.178	
29.000	0.967	6.000	1.000	1.000	934.039	323.392	1030.321	357.145	982.180	340.268	
29.000	0.967	32.000	1.000	1.000	662.787	333.439	679.369	353.173	671.078	343.306	
29.000	0.967	13.000	1.000	1.000	0.000	349.322	80.937	420.731	40.469	385.027	
29.000	0.967	12.000	1.000	1.000	71.093	347.616	140.387	406.879	105.740	377.247	
29.000	0.967	15.000	1.000	1.000	117.089	318.306	280.774	424.313	198.932	371.309	
29.000	0.967	25.000	1.000	1.000	678.067	332.988	707.577	367.168	692.822	350.078	
30.000	1.000	18.000	1.000	1.000	510.207	341.702	521.513	361.959	515.860	351.830	
30.000	1.000	19.000	1.000	1.000	517.013	338.198	550.425	361.340	533.719	349.769	
30.000	1.000	20.000	1.000	1.000	549.955	341.547	578.268	358.618	564.111	350.082	
30.000	1.000	21.000	1.000	1.000	640.512	334.981	673.181	361.835	656.847	348.408	
30.000	1.000	22.000	1.000	1.000	573.164	338.944	606.111	356.390	589.637	347.667	
30.000	1.000	24.000	1.000	1.000	608.920	340.955	628.385	354.410	618.652	347.682	
30.000	1.000	5.000	1.000	1.000	698.426	320.904	819.321	417.026	758.873	368.965	
30.000	1.000	26.000	1.000	1.000	300.831	249.757	526.122	443.253	413.476	346.505	
30.000	1.000	10.000	3.000	1.000	923.745	328.484	980.320	450.437	952.033	389.461	
30.000	1.000	6.000	1.000	1.000	949.656	331.641	1039.966	372.747	994.811	352.194	
30.000	1.000	32.000	1.000	1.000	667.736	339.008	684.318	355.153	676.027	347.080	
30.000	1.000	13.000	1.000	1.000	0.000	349.523	40.314	420.731	20.157	385.127	
30.000	1.000	15.000	1.000	1.000	18.320	310.216	266.073	436.407	142.196	373.312	
30.000	1.000	31.000	1.000	1.000	258.010	341.460	303.363	387.821	280.686	364.640	
30.000	1.000	25.000	1.000	1.000	681.428	340.381	715.498	375.041	698.463	357.711	
31.000	1.033	19.000	1.000	1.000	521.963	349.954	551.786	371.487	536.874	360.720	
31.000	1.033	20.000	1.000	1.000	551.193	351.447	579.505	368.517	565.349	359.982	
31.000	1.033	21.000	1.000	1.000	646.081	344.880	678.750	371.735	662.415	358.308	
31.000	1.033	22.000	1.000	1.000	573.164	349.463	607.472	367.156	590.318	358.309	
31.000	1.033	24.000	1.000	1.000	610.776	350.855	631.602	364.310	621.189	357.582	
31.000	1.033	5.000	1.000	1.000	705.850	331.422	834.170	432.123	770.010	381.773	
31.000	1.033	26.000	1.000	1.000	329.007	260.783	538.041	446.653	433.524	353.718	
31.000	1.033	10.000	3.000	1.000	957.157	337.147	1022.147	473.578	989.652	405.362	
31.000	1.033	6.000	1.000	1.000	933.668	344.634	1094.103	387.607	1013.885	366.120	
31.000	1.033	32.000	1.000	1.000	674.542	348.908	691.125	365.052	682.833	356.980	
31.000	1.033	15.000	1.000	1.000	0.000	317.456	213.778	472.398	106.889	394.927	
31.000	1.033	31.000	1.000	1.000	252.553	352.374	315.973	397.149	284.263	374.762	
31.000	1.033	3.000	1.000	1.000	188.411	341.895	260.719	404.653	224.565	373.274	
31.000	1.033	28.000	1.000	1.000	307.787	352.809	331.663	392.374	319.725	372.592	
31.000	1.033	25.000	1.000	1.000	685.653	350.943	725.532	386.227	705.592	368.585	
32.000	1.067	19.000	1.000	1.000	531.615	357.997	552.405	377.303	542.010	367.650	
32.000	1.067	20.000	1.000	1.000	553.049	359.491	581.361	376.561	567.205	368.026	
32.000	1.067	21.000	1.000	1.000	652.392	353.543	683.081	380.397	667.736	366.970	
32.000	1.067	22.000	1.000	1.000	575.639	357.506	609.947	375.200	592.793	366.353	
32.000	1.067	24.000	1.000	1.000	613.251	358.279	634.077	372.972	623.664	365.626	
32.000	1.067	5.000	1.000	1.000	715.008	336.991	857.682	447.220	786.345	392.106	
32.000	1.067	26.000	1.000	1.000	347.809	271.312	547.510	448.988	447.659	360.150	
32.000	1.067	10.000	3.000	1.000	996.756	345.809	1069.913	497.337	1033.334	421.573	
32.000	1.067	6.000	1.000	1.000	957.180	352.059	1115.746	400.130	1036.463	376.095	
32.000	1.067	32.000	1.000	1.000	678.997	358.189	693.599	372.972	686.298	365.580	
32.000	1.067	15.000	1.000	1.000	0.000	318.743	120.005	479.596	60.002	399.169	
32.000	1.067	31.000	1.000	1.000	238.263	359.895	309.854	406.872	274.059	383.383	
32.000	1.067	3.000	1.000	1.000	119.220	351.672	245.176	419.657	182.198	385.665	
32.000	1.067	28.000	1.000	1.000	297.258	359.491	348.210	400.103	322.734	379.797	
32.000	1.067	12.000	1.000	1.000	104.538	364.756	139.134	426.426	121.836	395.591	
32.000	1.067	25.000	1.000	1.000	689.983	358.512	734.265	394.799	712.124	376.655	
33.000	1.100	19.000	1.000	1.000	540.525	338.816	554.880	360.226	547.702	349.521	
33.000	1.100	20.000	1.000	1.000	553.049	340.310	580.124	357.133	566.586	348.721	
33.000	1.100	21.000	1.000	1.000	655.857	334.981	684.318	361.464	670.088	348.222	
33.000	1.100	22.000	1.000	1.000	575.639	337.707	610.442	355.276	593.040	346.492	
33.000	1.100	24.000	1.000	1.000	614.488	338.480	635.315	353.173	624.901	345.826	
33.000	1.100	5.000	1.000	1.000	723.917	317.810	881.813	438.805	802.865	378.308	
33.000	1.100	26.000	1.000	1.000	367.609	255.225	555.375	428.287	461.492	341.756	
33.000	1.100	10.000	3.000	1.000	1041.451	328.484	1126.836	501.916	1084.144	415.200	
33.000	1.100	6.000	1.000	1.000	964.728	337.828	1173.090	384.340	1068.909	361.084	
33.000	1.100	32.000	1.000	1.000	683.081	339.189	698.549	354.658	690.815	346.923	
33.000	1.100	31.000	1.000	1.000	222.176	337.621	296.497	386.832	259.336	362.226	
33.000	1.100	3.000	1.000	1.000	98.183	328.160	227.199	399.206	162.691	363.683	
33.000	1.100	28.000	1.000	1.000	286.740	339.073	350.945	380.644	318.843	359.859	
33.000	1.100	12.000	1.000	1.000	0.000	337.921	108.970	415.350	54.485	376.636	
33.000	1.100	23.000	1.000	1.000	341.664	340.427	368.888	374.457	355.276	357.442	
33.000	1.100	25.000	1.000	1.000	692.114	340.568	743.546	378.293	717.830	359.431	
34.000	1.133	20.000	1.000	1.000	555.524	324.223	582.599	341.046	569.061	332.634	
34.000	1.133	21.000	1.000	1.000	665.138	319.512	693.599	342.283	679.369	330.898	
34.000	1.133	22.000	1.000	1.000	576.258	321.620	614.525	339.808	595.392	330.714	
34.000	1.133	24.000	1.000	1.000	616.963	323.012	637.790	337.704	627.376	330.358	
34.000	1.133	5.000	1.000	1.000	738.272	294.917	914.606	428.906	826.439	361.911	
34.000	1.133	26.000	1.000	1.000	383.243	242.231	564.656	407.250	473.949	324.741	
34.000	1.133	10.000	3.000	1.000	1118.793	301.260	1209.499	509.960	1164.146	405.610	
34.000	1.133	6.000	1.000	1.000	990.467	316.791	1206.243	366.117	1098.355	341.454	
34.000	1.133	32.000	1.000	1.000	691.248	323.721	707.212	337.333	699.230	330.527	
34.000	1.133	31.000	1.000	1.000	204.852	323.390	286.473	375.076	245.662	349.233	
34.000	1.133	3.000	1.000	1.000	66.349	311.918	211.792	387.983	139.071	349.950	
34.000	1.133	28.000	1.000	1.000	276.840	322.484	344.015	367.032	310.428	344.758	
34.000	1.133	12.000	1.000	1.000	0.000	325.578	81.858	397.078	40.929	361.328	
34.000	1.133	23.000	1.000	1.000	334.858	322.484	384.852	362.082	359.855	342.283	
34.000	1.133	33.000	1.000	1.000	650.412	322.484	667.736	337.333	659.074	329.908	
34.000	1.133	25.000	1.000	1.000	697.064	323.244	748.496	362.949	722.780	343.096	
35.000	1.167	20.000	1.000	1.000	559.236	321.748	583.218	338.571	571.227	330.159	
35.000	1.167	21.000	1.000	1.000	670.088	318.275	698.549	341.046	684.318	329.660	
35.000	1.167	22.000	1.000	1.000	577.495	319.764	615.763	337.952	596.629	328.858	
35.000	1.167	24.000	1.000	1.000	618.201	320.537	639.027	335.229	628.614	327.883	
35.000	1.167	5.000	1.000	1.000	750.275	292.442	954.823	438.805	852.549	365.624	
35.000	1.167	26.000	1.000	1.000	400.287	242.231	574.888	400.697	487.588	321.464	
35.000	1.167	10.000	3.000	1.000	1221.923	294.020	1280.000	548.416	1250.961	421.218	
35.000	1.167	6.000	1.000	1.000	1018.310	314.935	1237.915	368.398	1128.113	341.666	
35.000	1.167	32.000	1.000	1.000	695.827	320.627	708.820	334.858	702.324	327.743	
35.000	1.167	31.000	1.000	1.000	183.705	319.297	272.179	374.093	227.942	346.695	
35.000	1.167	3.000	1.000	1.000	28.831	307.825	188.956	388.418	108.894	348.122	
35.000	1.167	28.000	1.000	1.000	261.573	323.133	335.075	369.452	298.324	346.292	
35.000	1.167	12.000	1.000	1.000	0.000	324.978	41.833	401.810	20.916	363.394	
35.000	1.167	23.000	1.000	1.000	328.037	319.755	390.191	359.354	359.114	339.554	
35.000	1.167	33.000	1.000	1.000	653.127	320.947	669.593	334.053	661.360	327.500	
35.000	1.167	16.000	1.000	1.000	375.184	314.745	405.881	354.310	390.533	334.528	
35.000	1.167	25.000	1.000	1.000	703.870	320.769	755.302	360.474	729.586	340.621	
36.000	1.200	20.000	1.000	1.000	571.214	325.460	585.692	342.778	578.453	334.119	
36.000	1.200	21.000	1.000	1.000	676.275	321.369	704.737	344.139	690.506	332.754	
36.000	1.200	22.000	1.000	1.000	579.352	323.476	620.713	341.540	600.032	332.508	
36.000	1.200	24.000	1.000	1.000	621.294	324.216	644.225	341.417	632.759	332.816	
36.000	1.200	5.000	1.000	1.000	769.085	286.255	1011.128	457.244	890.106	371.749	
36.000	1.200	26.000	1.000	1.000	417.828	244.830	585.352	403.055	501.590	323.942	
36.000	1.200	6.000	1.000	1.000	1046.153	316.791	1279.569	375.290	1162.861	346.041	
36.000	1.200	32.000	1.000	1.000	701.767	323.597	717.235	339.066	709.501	331.331	
36.000	1.200	31.000	1.000	1.000	158.368	323.195	257.269	382.265	207.818	352.730	
36.000	1.200	3.000	1.000	1.000	0.000	311.723	163.717	397.208	81.858	354.466	
36.000	1.200	28.000	1.000	1.000	246.306	323.783	326.134	371.871	286.220	347.827	
36.000	1.200	23.000	1.000	1.000	315.693	324.952	384.604	364.724	350.149	344.838	
36.000	1.200	33.000	1.000	1.000	655.362	324.340	670.830	337.828	663.096	331.084	
36.000	1.200	16.000	1.000	1.000	368.038	310.152	419.686	357.578	393.862	333.865	
36.000	1.200	34.000	1.000	1.000	667.736	324.216	680.730	338.447	674.233	331.331	
36.000	1.200	25.000	1.000	1.000	711.512	325.467	767.831	368.284	739.671	346.876	
37.000	1.233	21.000	1.000	1.000	685.308	310.850	711.543	336.343	698.426	323.597	
37.000	1.233	22.000	1.000	1.000	585.074	317.289	619.475	333.621	602.274	325.455	
37.000	1.233	24.000	1.000	1.000	623.769	315.554	646.699	332.754	635.234	324.154	
37.000	1.233	5.000	1.000	1.000	794.082	265.218	1092.182	465.040	943.132	365.129	
37.000	1.233	26.000	1.000	1.000	432.118	238.813	596.545	393.184	514.331	315.999	
37.000	1.233	6.000	1.000	1.000	1105.331	300.209	1279.569	364.108	1192.450	332.158	
37.000	1.233	32.000	1.000	1.000	710.676	313.698	726.145	331.393	718.411	322.545	
37.000	1.233	31.000	1.000	1.000	131.143	317.007	239.450	378.417	185.297	347.712	
37.000	1.233	3.000	1.000	1.000	0.000	304.169	136.740	397.208	68.370	350.688	
37.000	1.233	28.000	1.000	1.000	232.075	316.977	311.903	367.280	271.989	342.128	
37.000	1.233	23.000	1.000	1.000	303.179	317.527	376.808	358.618	339.994	338.072	
37.000	1.233	33.000	1.000	1.000	659.322	314.687	675.161	330.775	667.241	322.731	
37.000	1.233	16.000	1.000	1.000	359.994	304.584	433.113	352.009	396.554	328.297	
37.000	1.233	34.000	1.000	1.000	671.696	314.935	685.680	329.537	678.688	322.236	
37.000	1.233	25.000	1.000	1.000	718.419	315.807	778.977	360.124	748.698	337.965	
38.000	1.267	21.000	1.000	1.000	690.258	312.088	716.493	335.724	703.375	323.906	
38.000	1.267	22.000	1.000	1.000	590.642	317.907	625.044	334.239	607.843	326.073	
38.000	1.267	24.000	1.000	1.000	626.244	316.172	649.174	332.631	637.709	324.402	
38.000	1.267	5.000	1.000	1.000	821.801	246.008	1207.890	489.789	1014.845	367.899	
38.000	1.267	26.000	1.000	1.000	445.111	240.670	603.388	390.173	524.250	315.421	
38.000	1.267	6.000	1.000	1.000	1179.428	293.032	1280.000	356.761	1229.714	324.897	
38.000	1.267	32.000	1.000	1.000	713.523	313.698	726.145	328.918	719.834	321.308	
38.000	1.267	31.000	1.000	1.000	94.019	321.957	217.299	386.460	155.659	354.209	
38.000	1.267	3.000	1.000	1.000	0.000	307.177	99.274	393.936	49.637	350.557	
38.000	1.267	28.000	1.000	1.000	208.563	320.689	299.590	372.848	254.077	346.769	
38.000	1.267	23.000	1.000	1.000	290.186	319.384	367.032	363.567	328.609	341.476	
38.000	1.267	33.000	1.000	1.000	659.322	314.687	678.874	331.393	669.098	323.040	
38.000	1.267	16.000	1.000	1.000	349.476	306.440	426.431	356.143	387.953	331.291	
38.000	1.267	34.000	1.000	1.000	677.017	314.935	691.867	329.537	684.442	322.236	
38.000	1.267	30.000	1.000	1.000	420.243	314.069	449.324	348.718	434.784	331.393	
38.000	1.267	35.000	1.000	1.000	719.834	306.644	773.663	348.718	746.749	327.681	
38.000	1.267	25.000	1.000	1.000	726.390	314.728	788.808	360.799	757.599	337.764	
39.000	1.300	21.000	1.000	1.000	693.553	323.853	719.787	347.490	706.670	335.671	
39.000	1.300	22.000	1.000	1.000	594.407	330.143	621.683	347.785	608.045	338.964	
39.000	1.300	24.000	1.000	1.000	623.891	328.879	646.821	345.337	635.356	337.108	
39.000	1.300	5.000	1.000	1.000	858.712	233.493	1280.000	558.337	1069.356	395.915	
39.000	1.300	26.000	1.000	1.000	453.582	252.435	606.623	400.964	530.103	326.700	
39.000	1.300	32.000	1.000	1.000	716.817	325.934	728.513	341.154	722.665	333.544	
39.000	1.300	31.000	1.000	1.000	42.722	336.546	184.952	406.612	113.837	371.579	
39.000	1.300	3.000	1.000	1.000	0.000	320.861	49.905	417.749	24.952	369.305	
39.000	1.300	28.000	1.000	1.000	176.561	335.749	277.193	391.081	226.877	363.415	
39.000	1.300	23.000	1.000	1.000	267.126	332.561	354.844	381.199	310.985	356.880	
39.000	1.300	33.000	1.000	1.000	660.733	325.041	683.804	342.608	672.269	333.825	
39.000	1.300	16.000	1.000	1.000	335.357	318.676	418.377	371.786	376.867	345.231	
39.000	1.300	30.000	1.000	1.000	411.772	327.246	450.850	366.609	431.311	346.928	
39.000	1.300	35.000	1.000	1.000	722.395	316.998	777.899	365.198	750.147	341.098	
39.000	1.300	25.000	1.000	1.000	728.503	323.706	794.487	375.041	761.495	349.374	
40.000	1.333	21.000	1.000	1.000	687.905	337.971	716.277	361.903	702.091	349.937	
40.000	1.333	22.000	1.000	1.000	592.054	344.262	615.094	361.903	603.574	353.083	
40.000	1.333	24.000	1.000	1.000	615.891	342.998	638.821	359.456	627.356	351.227	
40.000	1.333	5.000	1.000	1.000	905.163	200.452	1280.000	627.763	1092.581	414.108	
40.000	1.333	26.000	1.000	1.000	459.230	269.377	603.329	414.142	531.279	341.759	
40.000	1.333	32.000	1.000	1.000	715.876	341.464	727.572	356.685	721.724	349.074	
40.000	1.333	31.000	1.000	1.000	0.000	356.842	141.102	435.292	70.551	396.067	
40.000	1.333	28.000	1.000	1.000	130.911	354.103	249.897	415.083	190.404	384.593	
40.000	1.333	23.000	1.000	1.000	240.300	349.974	332.725	401.435	286.513	375.704	
40.000	1.333	33.000	1.000	1.000	654.615	338.689	677.686	356.256	666.151	347.472	
40.000	1.333	16.000	1.000	1.000	314.180	334.677	402.847	390.611	358.513	362.644	
40.000	1.333	30.000	1.000	1.000	394.830	343.718	432.966	383.552	413.898	363.635	
40.000	1.333	35.000	1.000	1.000	720.512	330.175	778.840	381.199	749.676	355.687	
40.000	1.333	29.000	1.000	1.000	428.260	347.314	461.203	381.199	444.732	364.256	
40.000	1.333	25.000	1.000	1.000	724.459	336.512	796.780	390.059	760.619	363.285	
41.000	1.367	21.000	1.000	1.000	681.298	344.578	709.670	368.510	695.484	356.544	
41.000	1.367	22.000	1.000	1.000	590.252	350.869	605.443	366.990	597.848	358.929	
41.000	1.367	24.000	1.000	1.000	604.478	350.205	628.267	366.990	616.373	358.597	
41.000	1.367	5.000	1.000	1.000	982.256	224.398	1280.000	663.556	1131.128	443.977	
41.000	1.367	26.000	1.000	1.000	454.425	277.786	598.836	421.047	526.630	349.417	
41.000	1.367	32.000	1.000	1.000	708.794	347.475	724.970	362.977	716.882	355.226	
41.000	1.367	31.000	1.000	1.000	0.000	364.049	81.086	441.834	40.543	402.942	
41.000	1.367	28.000	1.000	1.000	76.253	361.311	204.217	428.255	140.235	394.783	
41.000	1.367	23.000	1.000	1.000	197.054	358.383	302.121	413.239	249.588	385.811	
41.000	1.367	33.000	1.000	1.000	640.200	345.897	663.271	364.325	651.736	355.111	
41.000	1.367	16.000	1.000	1.000	281.144	340.082	379.003	401.827	330.073	370.955	
41.000	1.367	30.000	1.000	1.000	373.808	352.126	413.239	392.817	393.523	372.472	
41.000	1.367	35.000	1.000	1.000	713.512	338.937	778.166	390.611	745.839	364.774	
41.000	1.367	29.000	1.000	1.000	407.238	352.720	443.871	389.213	425.555	370.967	
41.000	1.367	17.000	1.000	1.000	434.261	349.571	456.485	385.009	445.373	367.290	
41.000	1.367	25.000	1.000	1.000	719.445	343.674	796.911	400.819	758.178	372.247	
42.000	1.400	21.000	1.000	1.000	676.640	337.592	705.012	361.524	690.826	349.558	
42.000	1.400	22.000	1.000	1.000	585.012	346.211	595.346	360.025	590.179	353.118	
42.000	1.400	24.000	1.000	1.000	595.163	342.636	618.952	359.421	607.057	351.029	
42.000	1.400	5.000	1.000	1.000	1133.104	404.750	1280.000	652.147	1206.552	528.449	
42.000	1.400	26.000	1.000	1.000	450.931	273.128	595.343	416.389	523.137	344.759	
42.000	1.400	32.000	1.000	1.000	703.850	342.817	721.476	356.531	712.663	349.674	
42.000	1.400	31.000	1.000	1.000	0.000	368.717	20.645	440.974	10.322	404.845	
42.000	1.400	28.000	1.000	1.000	16.039	354.093	164.299	432.556	90.169	393.325	
42.000	1.400	23.000	1.000	1.000	157.485	349.792	271.824	409.798	214.655	379.795	
42.000	1.400	33.000	1.000	1.000	630.302	340.074	653.373	358.503	641.838	349.289	
42.000	1.400	16.000	1.000	1.000	250.287	334.260	354.519	396.005	302.403	365.132	
42.000	1.400	30.000	1.000	1.000	350.519	343.975	393.527	386.807	372.023	365.391	
42.000	1.400	35.000	1.000	1.000	707.343	327.874	774.091	382.731	740.717	355.303	
42.000	1.400	29.000	1.000	1.000	387.442	346.316	426.714	382.809	407.078	364.562	
42.000	1.400	17.000	1.000	1.000	417.377	344.331	445.927	379.769	431.652	362.050	
42.000	1.400	25.000	1.000	1.000	718.693	338.410	800.808	398.298	759.750	368.354	
43.000	1.433	21.000	1.000	1.000	672.928	335.736	700.900	358.741	686.914	347.238	
43.000	1.433	24.000	1.000	1.000	585.263	341.399	611.184	358.123	598.224	349.761	
43.000	1.433	26.000	1.000	1.000	448.291	271.544	590.741	413.688	519.516	342.616	
43.000	1.433	32.000	1.000	1.000	700.138	341.580	717.764	355.294	708.951	348.437	
43.000	1.433	28.000	1.000	1.000	0.000	352.871	114.319	432.157	57.159	392.514	
43.000	1.433	23.000	1.000	1.000	105.204	348.208	240.137	411.047	172.671	379.628	
43.000	1.433	33.000	1.000	1.000	617.928	339.456	640.999	357.884	629.463	348.670	
43.000	1.433	16.000	1.000	1.000	217.017	330.564	328.856	396.789	272.937	363.676	
43.000	1.433	30.000	1.000	1.000	326.227	343.447	374.272	388.340	350.249	365.893	
43.000	1.433	35.000	1.000	1.000	704.250	328.493	770.997	386.584	737.623	357.539	
43.000	1.433	29.000	1.000	1.000	369.487	343.675	410.134	382.003	389.811	362.839	
43.000	1.433	17.000	1.000	1.000	398.366	340.107	430.201	378.306	414.283	359.206	
43.000	1.433	18.000	1.000	1.000	424.920	348.205	447.628	377.778	436.274	362.991	
43.000	1.433	25.000	1.000	1.000	714.395	336.977	803.931	402.682	759.163	369.829	
44.000	1.467	21.000	1.000	1.000	672.309	331.405	700.282	354.410	686.296	342.907	
44.000	1.467	24.000	1.000	1.000	579.695	336.449	605.616	353.173	592.655	344.811	
44.000	1.467	26.000	1.000	1.000	447.672	266.594	588.415	405.889	518.043	336.241	
44.000	1.467	32.000	1.000	1.000	700.138	334.155	717.764	347.869	708.951	341.012	
44.000	1.467	28.000	1.000	1.000	0.000	348.248	60.805	424.846	30.403	386.547	
44.000	1.467	23.000	1.000	1.000	52.612	344.496	206.780	414.551	129.696	379.523	
44.000	1.467	33.000	1.000	1.000	607.409	332.650	634.201	352.678	620.805	342.664	
44.000	1.467	16.000	1.000	1.000	185.462	324.376	307.015	395.370	246.239	359.873	
44.000	1.467	30.000	1.000	1.000	301.478	337.879	354.905	385.471	328.191	361.675	
44.000	1.467	35.000	1.000	1.000	704.365	319.831	779.041	387.327	741.703	353.579	
44.000	1.467	29.000	1.000	1.000	352.781	340.581	399.454	380.521	376.118	360.551	
44.000	1.467	17.000	1.000	1.000	383.516	335.157	429.153	374.333	406.335	354.745	
44.000	1.467	18.000	1.000	1.000	427.395	341.540	448.952	370.353	438.174	355.947	
44.000	1.467	25.000	1.000	1.000	715.111	331.964	816.394	401.965	765.753	366.964	
44.000	1.467	36.000	1.000	1.000	632.911	334.520	645.814	345.488	639.362	340.004	
45.000	1.500	21.000	1.000	1.000	672.928	332.642	700.900	355.648	686.914	344.145	
45.000	1.500	24.000	1.000	1.000	579.076	338.924	601.903	354.658	590.490	346.791	
45.000	1.500	26.000	1.000	1.000	448.910	269.688	589.652	408.982	519.281	339.335	
45.000	1.500	32.000	1.000	1.000	702.613	334.155	720.239	347.869	711.426	341.012	
45.000	1.500	23.000	1.000	1.000	0.000	347.094	170.213	424.364	85.107	385.729	
45.000	1.500	33.000	1.000	1.000	603.078	333.887	629.127	354.658	616.103	344.272	
45.000	1.500	16.000	1.000	1.000	143.388	326.851	283.132	402.919	213.260	364.885	
45.000	1.500	30.000	1.000	1.000	277.347	340.972	336.962	391.782	307.154	366.377	
45.000	1.500	35.000	1.000	1.000	711.171	320.009	785.847	389.307	748.509	354.658	
45.000	1.500	29.000	1.000	1.000	332.363	343.056	385.223	384.976	358.793	364.016	
45.000	1.500	17.000	1.000	1.000	369.285	336.394	422.347	378.169	395.816	357.282	
45.000	1.500	18.000	1.000	1.000	419.970	342.159	447.715	372.601	433.843	357.380	
45.000	1.500	25.000	1.000	1.000	722.258	330.014	833.006	409.292	777.632	369.653	
45.000	1.500	36.000	1.000	1.000	630.330	334.520	645.814	347.423	638.072	340.972	
46.000	1.533	21.000	1.000	1.000	675.403	328.311	703.375	351.316	689.389	339.814	
46.000	1.533	24.000	1.000	1.000	577.838	334.593	598.191	351.440	588.015	343.017	
46.000	1.533	26.000	1.000	1.000	451.384	265.976	592.127	405.270	521.756	335.623	
46.000	1.533	32.000	1.000	1.000	702.613	331.061	717.606	346.490	710.109	338.776	
46.000	1.533	23.000	1.000	1.000	0.000	344.781	127.661	431.168	63.831	387.974	
46.000	1.533	33.000	1.000	1.000	598.128	330.175	625.415	352.059	611.772	341.117	
46.000	1.533	16.000	1.000	1.000	104.994	321.092	257.242	407.172	181.118	364.132	
46.000	1.533	30.000	1.000	1.000	251.979	336.023	317.781	390.420	284.880	363.221	
46.000	1.533	35.000	1.000	1.000	714.884	313.821	800.696	392.277	757.790	353.049	
46.000	1.533	29.000	1.000	1.000	315.039	340.581	369.136	383.614	342.087	362.098	
46.000	1.533	17.000	1.000	1.000	351.342	333.919	409.972	377.427	380.657	355.673	
46.000	1.533	18.000	1.000	1.000	405.740	339.684	437.815	372.477	421.777	356.081	
46.000	1.533	19.000	1.000	1.000	432.865	338.447	456.377	366.290	444.621	352.368	
46.000	1.533	37.000	1.000	1.000	621.084	332.878	636.552	349.584	628.818	341.231	
46.000	1.533	38.000	1.000	1.000	706.840	330.403	726.021	371.858	716.431	351.131	
46.000	1.533	25.000	1.000	1.000	730.703	327.416	856.264	412.280	793.484	369.848	
46.000	1.533	36.000	1.000	1.000	632.265	331.939	646.459	344.198	639.362	338.068	
47.000	1.567	21.000	1.000	1.000	676.646	329.548	702.757	352.554	689.701	341.051	
47.000	1.567	24.000	1.000	1.000	577.838	334.593	593.117	351.440	585.478	343.017	
47.000	1.567	26.000	1.000	1.000	451.384	267.213	592.127	406.507	521.756	336.860	
47.000	1.567	32.000	1.000	1.000	702.994	331.061	717.916	346.614	710.455	338.838	
47.000	1.567	23.000	1.000	1.000	0.000	347.087	76.283	427.515	38.141	387.301	
47.000	1.567	33.000	1.000	1.000	586.991	332.650	614.278	354.534	600.635	343.592	
47.000	1.567	16.000	1.000	1.000	46.214	321.092	228.312	412.571	137.263	366.832	
47.000	1.567	30.000	1.000	1.000	222.280	337.260	295.754	395.865	259.017	366.563	
47.000	1.567	35.000	1.000	1.000	721.195	313.203	822.352	396.484	771.773	354.843	
47.000	1.567	29.000	1.000	1.000	290.908	341.819	354.534	387.822	322.721	364.820	
47.000	1.567	17.000	1.000	1.000	336.492	333.300	399.083	380.397	367.787	356.849	
47.000	1.567	18.000	1.000	1.000	393.365	341.540	428.163	373.591	410.764	357.566	
47.000	1.567	19.000	1.000	1.000	427.916	339.066	454.769	369.878	441.342	354.472	
47.000	1.567	37.000	1.000	1.000	615.515	332.754	636.429	348.842	625.972	340.798	
47.000	1.567	38.000	1.000	1.000	710.058	322.360	739.014	375.447	724.536	348.903	
47.000	1.567	25.000	1.000	1.000	739.571	324.687	884.616	422.116	812.094	373.402	
47.000	1.567	36.000	1.000	1.000	632.265	331.939	646.782	345.165	639.524	338.552	
48.000	1.600	21.000	1.000	1.000	679.740	329.548	705.850	352.554	692.795	341.051	
48.000	1.600	26.000	1.000	1.000	452.003	267.832	592.746	407.126	522.375	337.479	
48.000	1.600	32.000	1.000	1.000	703.375	331.061	718.225	346.738	710.800	338.900	
48.000	1.600	23.000	1.000	1.000	0.000	379.912	19.197	428.411	9.599	404.161	
48.000	1.600	33.000	1.000	1.000	581.423	332.031	611.679	355.400	596.551	343.715	
48.000	1.600	16.000	1.000	1.000	2.903	321.092	192.426	422.842	97.664	371.967	
48.000	1.600	30.000	1.000	1.000	189.487	339.735	272.861	401.186	231.174	370.461	
48.000	1.600	35.000	1.000	1.000	725.650	311.965	835.964	404.899	780.807	358.432	
48.000	1.600	29.000	1.000	1.000	266.159	343.675	337.209	391.287	301.684	367.481	
48.000	1.600	17.000	1.000	1.000	317.312	335.157	386.708	383.243	352.010	359.200	
48.000	1.600	18.000	1.000	1.000	379.753	342.778	417.026	377.674	398.389	360.226	
48.000	1.600	19.000	1.000	1.000	419.501	339.684	452.294	372.106	435.897	355.895	
48.000	1.600	37.000	1.000	1.000	612.422	335.848	633.335	351.935	622.878	343.892	
48.000	1.600	38.000	1.000	1.000	713.275	321.741	748.295	378.912	730.785	350.326	
48.000	1.600	25.000	1.000	1.000	754.051	324.687	923.280	434.389	838.666	379.538	
48.000	1.600	36.000	1.000	1.000	632.265	331.939	647.104	346.133	639.685	339.036	
49.000	1.633	21.000	1.000	1.000	682.215	329.548	708.325	352.554	695.270	341.051	
49.000	1.633	26.000	1.000	1.000	453.859	267.832	590.766	407.126	522.313	337.479	
49.000	1.633	32.000	1.000	1.000	703.375	330.680	715.008	348.376	709.192	339.528	
49.000	1.633	33.000	1.000	1.000	581.423	332.031	602.522	356.885	591.972	344.458	
49.000	1.633	16.000	1.000	1.000	0.000	317.602	150.617	431.653	75.309	374.627	
49.000	1.633	30.000	1.000	1.000	146.794	337.260	247.864	405.146	197.329	371.203	
49.000	1.633	35.000	1.000	1.000	734.188	308.253	855.145	412.571	794.667	360.412	
49.000	1.633	29.000	1.000	1.000	238.935	344.294	319.019	393.390	278.977	368.842	
49.000	1.633	17.000	1.000	1.000	299.368	334.538	370.992	385.347	335.180	359.942	
49.000	1.633	18.000	1.000	1.000	364.903	342.159	406.879	379.778	385.891	360.969	
49.000	1.633	19.000	1.000	1.000	410.220	338.942	455.140	372.725	432.680	355.833	
49.000	1.633	37.000	1.000	1.000	608.709	334.611	629.622	350.698	619.166	342.654	
49.000	1.633	38.000	1.000	1.000	716.864	321.741	758.814	381.634	737.839	351.688	
49.000	1.633	39.000	1.000	1.000	708.202	327.186	729.238	364.929	718.720	346.057	
49.000	1.633	25.000	1.000	1.000	770.341	324.687	973.959	448.869	872.150	386.778	
49.000	1.633	36.000	1.000	1.000	628.394	331.294	647.104	346.133	637.749	338.714	
str: spatio_a_1, expr: SFORALL({ (! BB(Var_id_1)) \/ BB(Var_id_2)  }) > 0 
str: spatio_a_2, expr: SFORALL({ (! BB(Var_id_2)) \/ BB(Var_id_1)  }) > 0 
VERBOSE_MODE is activated.
SHOW_EXE_STAT is activated.
BOOLEAN_ROB is activated.
STQL_SIGNAL_DIM_SIZE = 11
MAX_STQL_FORMULA_SIZE = 1000
MAX_MAP_DATA_SIZE = 100
UX_START = 0
UY_START = 0
U_WIDTH = 1600
U_HEIGHT = 1200

Predicate expression:
spatio_a_1 ::= SFORALL(SPATIO-FORMULA-0)>0
number of unique variables: 2

Predicate expression:
spatio_a_2 ::= SFORALL(SPATIO-FORMULA-1)>0
number of unique variables: 2

Added predicate expression:
1-ID-SYM ::= SUB(Var_id_1,Var_id_2)==0
number of unique variables: 2

[](0,1) @(1,2) [](1,3) @(1,4) AND(1,5) AND(1,6) spatio_a_1(1,7) spatio_a_2(1,8) 1-ID-SYM(1,9) 
SPATIO-FORMULA-0:={OR(1,1) NOT(1,2) BB(1,3) BB(1,4) } 
SPATIO-FORMULA-1:={OR(1,1) NOT(1,2) BB(1,3) BB(1,4) } 

[Note] OPTIMIZE_TRJ_BASED_ON_FORMULA is active.
[Note] Number of frames reduced from 50 to 1 for spatial formula:
{OR(1,1) NOT(1,2) BB(1,3) BB(1,4) }

[Note] Number of frames reduced from 50 to 1 for spatial formula:
{OR(1,1) NOT(1,2) BB(1,3) BB(1,4) }

Augmented STQL formua:
t:[0.000,1.633]_f:[0,49]_[](0,1) @(1,2) t:[0.000,1.633]_f:[0,49]_[](1,3) @(1,4) AND(1,5) AND(1,6) spatio_a_1(1,7) spatio_a_2(1,8) 1-ID-SYM(1,9) 

Monitoring process started...
Monitoring done!

>> Running Time: 4.127000 seconds
ID table size: 400
ID table num_obj: 20
ID table num_id: 2
Temporal formula size: 9
Spatial formula[0] size: 4
Spatial formula[1] size: 4

*** Robustness: False
*** Most Related Iteration: 48
*** Most Related Freeze Iteration: 48
*** Most Related Freeze Operator Index: 2

>>> Garbage Recycle: sr_size = 0 , sn_size = 0
Releasing spatial region memories and it may take a while!
Total released spatial region: 0
Releasing spatial node memories and it may take a while!
Total released spatial node: 0
Releasing DP table memories and it may take a while!
Spatial Region size from ID table: 8000

>> Memory Releasing Time: 0.003000 seconds
Exiting monitoring algorithm.
